%!PS-Adobe-2.0 EPSF-1.2
%%Creator: MATLAB, The Mathworks, Inc.
%%Title: aber1_curve.eps
%%CreationDate: 09/18/97  12:11:43
%%DocumentNeededFonts: Times-Roman
%%+ Helvetica
%%DocumentProcessColors: Cyan Magenta Yellow Black
%%Pages: 1
%%BoundingBox:    49   193   543   609
%%EndComments

%%BeginProlog

% MathWorks dictionary
/MathWorks 150 dict begin

% definition operators
/bdef {bind def} bind def
/ldef {load def} bind def
/xdef {exch def} bdef
/xstore {exch store} bdef

% operator abbreviations
/c  /clip ldef
/cc /concat ldef
/cp /closepath ldef
/gr /grestore ldef
/gs /gsave ldef
/mt /moveto ldef
/np /newpath ldef
/cm /currentmatrix ldef
/sm /setmatrix ldef
/rc {rectclip} bdef
/rf {rectfill} bdef
/rm /rmoveto ldef
/rl /rlineto ldef
/s /show ldef
/sc {setcmykcolor} bdef
/sr /setrgbcolor ldef
/sg /setgray ldef
/w /setlinewidth ldef
/j /setlinejoin ldef
/cap /setlinecap ldef

% page state control
/pgsv () def
/bpage {/pgsv save def} bdef
/epage {pgsv restore} bdef
/bplot /gsave ldef
/eplot {stroke grestore} bdef

% orientation switch
/portraitMode 	0 def
/landscapeMode 	1 def

% coordinate system mappings
/dpi2point 0 def

% font control
/FontSize 0 def
/FMS {
	/FontSize xstore		%save size off stack
	findfont
	[FontSize 0 0 FontSize neg 0 0]
	makefont
	setfont
	}bdef

/reencode {
exch dup where
{pop load} {pop StandardEncoding} ifelse
exch
dup 3 1 roll
findfont dup length dict begin
  { 1 index /FID ne {def}{pop pop} ifelse } forall
  /Encoding exch def
  currentdict
end
definefont pop
} bdef

/isroman {
findfont /CharStrings get
/Agrave known
} bdef

/FMSR {
3 1 roll 1 index
dup isroman
{reencode} {pop pop} ifelse
exch FMS
} bdef

/csm {
	1 dpi2point div -1 dpi2point div scale
	neg translate
	landscapeMode eq {90 rotate} if
	} bdef

% line types: solid, dotted, dashed, dotdash
/SO { [] 0 setdash } bdef
/DO { [.5 dpi2point mul 4 dpi2point mul] 0 setdash } bdef
/DA { [6 dpi2point mul] 0 setdash } bdef
/DD { [.5 dpi2point mul 4 dpi2point mul 6 dpi2point mul 4 dpi2point mul] 0 setdash } bdef

% macros for lines and objects
/L {
	lineto
	stroke
	} bdef
/MP {
	3 1 roll moveto
	1 sub {rlineto} repeat
	} bdef
/AP {
	{rlineto} repeat
	} bdef
/PP {
	closepath eofill
	} bdef
/DP {
	closepath stroke
	} bdef
/MR {
	4 -2 roll moveto
	dup  0 exch rlineto
	exch 0 rlineto
	neg  0 exch rlineto
	closepath
	} bdef
/FR {
	MR stroke
	} bdef
/PR {
	MR fill
	} bdef
/L1i {
	{ currentfile picstr readhexstring pop } image
	} bdef

/tMatrix matrix def
/MakeOval {
	newpath
	tMatrix currentmatrix pop
	translate scale
	0 0 1 0 360 arc
	tMatrix setmatrix
	} bdef
/FO {
	MakeOval
	stroke
	} bdef
/PO {
	MakeOval
	fill
	} bdef

/PD {
	currentlinecap 1 setlinecap 3 1 roll 2 copy moveto lineto stroke setlinecap
	} bdef

/FA {
	newpath
	tMatrix currentmatrix pop
	translate scale
	0 0 1 5 -2 roll arc
	tMatrix setmatrix
	stroke
	} bdef
/PA {
	newpath
	tMatrix currentmatrix pop
	translate 0 0 moveto scale
	0 0 1 5 -2 roll arc
	closepath
	tMatrix setmatrix
	fill
	} bdef


/FAn {
	newpath
	tMatrix currentmatrix pop
	translate scale
	0 0 1 5 -2 roll arcn
	tMatrix setmatrix
	stroke
	} bdef
/PAn {
	newpath
	tMatrix currentmatrix pop
	translate 0 0 moveto scale
	0 0 1 5 -2 roll arcn
	closepath
	tMatrix setmatrix
	fill
	} bdef



currentdict end def
%%EndProlog

%%BeginSetup
MathWorks begin

0 cap

end
%%EndSetup

%%Page: 1 1
%%BeginPageSetup
%%PageBoundingBox:    49   193   543   609
MathWorks begin
bpage
%%EndPageSetup

%%BeginObject: graph1 1
bplot

/dpi2point 12 def
portraitMode 0216 7344 csm

  375    34  5932  4989 MR c np
88 dict begin %Colortable dictionary
/c0 { 0 0 0 sr} bdef
/c1 { 1 1 1 sr} bdef
/c2 { 1 0 0 sr} bdef
/c3 { 0 1 0 sr} bdef
/c4 { 0 0 1 sr} bdef
/c5 { 1 1 0 sr} bdef
/c6 { 1 0 1 sr} bdef
/c7 { 0 1 1 sr} bdef
1 j
1 sg
   0    0 6916 5185 PR
6 w
0 4225 5358 0 0 -4225 899 4613 4 MP
PP
-5358 0 0 4225 5358 0 0 -4225 899 4613 5 MP stroke
DO
4 w
0 sg
1523 4613 mt 1523  388 L
1523  388 mt 1523  388 L
2551 4613 mt 2551  388 L
2551  388 mt 2551  388 L
3578 4613 mt 3578  388 L
3578  388 mt 3578  388 L
4605 4613 mt 4605  388 L
4605  388 mt 4605  388 L
5633 4613 mt 5633  388 L
5633  388 mt 5633  388 L
 899 4425 mt 6257 4425 L
6257 4425 mt 6257 4425 L
 899 3079 mt 6257 3079 L
6257 3079 mt 6257 3079 L
 899 1734 mt 6257 1734 L
6257 1734 mt 6257 1734 L
 899  388 mt 6257  388 L
6257  388 mt 6257  388 L
SO
6 w
 899 4613 mt 6257 4613 L
 899  388 mt 6257  388 L
 899 4613 mt  899  388 L
6257 4613 mt 6257  388 L
 899 4613 mt 6257 4613 L
 899 4613 mt  899  388 L
1523 4613 mt 1523 4559 L
1523  388 mt 1523  442 L
%%IncludeResource: font Times-Roman
/Times-Roman /ISOLatin1Encoding 168 FMSR

1345 4798 mt 
(-10) s
2551 4613 mt 2551 4559 L
2551  388 mt 2551  442 L
2415 4798 mt 
(-5) s
3578 4613 mt 3578 4559 L
3578  388 mt 3578  442 L
3536 4798 mt 
(0) s
4605 4613 mt 4605 4559 L
4605  388 mt 4605  442 L
4563 4798 mt 
(5) s
5633 4613 mt 5633 4559 L
5633  388 mt 5633  442 L
5549 4798 mt 
(10) s
 899 4425 mt  953 4425 L
6257 4425 mt 6203 4425 L
 602 4485 mt 
(-15) s
 899 3079 mt  953 3079 L
6257 3079 mt 6203 3079 L
 602 3139 mt 
(-10) s
 899 1734 mt  953 1734 L
6257 1734 mt 6203 1734 L
 686 1794 mt 
(-5) s
 899  388 mt  953  388 L
6257  388 mt 6203  388 L
 780  448 mt 
(0) s
 899 4613 mt 6257 4613 L
 899  388 mt 6257  388 L
 899 4613 mt  899  388 L
6257 4613 mt 6257  388 L
gs 899 388 5359 4226 MR c np
24 w
-42 102 -42 102 -43 101 -42 100 -42 99 -42 99 -42 98 -43 96 
-42 96 -42 95 -42 94 -42 93 -42 92 -43 91 -42 90 -42 89 
-42 87 -42 87 -43 85 -42 83 -42 83 -42 81 -42 79 -43 79 
-42 77 -42 75 -42 74 -42 72 -42 71 -43 69 -42 67 -42 66 
-42 64 -42 63 -43 60 -42 59 -42 57 -42 55 -42 53 -43 52 
-42 49 -42 47 -42 46 -42 43 -43 42 -42 39 -42 37 -42 36 
-42 33 -42 31 -43 29 -42 26 -42 25 -42 22 -42 20 -43 18 
-42 16 -42 13 -42 11 -42 9 -43 7 -42 5 -42 2 -42 0 
-42 -2 -42 -5 -43 -7 -42 -9 -42 -11 -42 -13 -42 -16 -43 -18 
-42 -20 -42 -22 -42 -25 -42 -26 -43 -29 -42 -31 -42 -33 -42 -36 
-42 -37 -42 -39 -43 -42 -42 -43 -42 -46 -42 -47 -42 -49 -43 -52 
-42 -53 -42 -55 -42 -57 -42 -59 -43 -60 -42 -63 -42 -64 -42 -66 
-42 -67 -43 -69 -42 -71 5076 1730 100 MP stroke
-42 -72 -42 -74 -42 -75 -42 -77 -43 -79 -42 -79 -42 -81 -42 -83 
-42 -83 -43 -85 -42 -87 -42 -87 -42 -89 -42 -90 -43 -91 -42 -92 
-42 -93 -42 -94 -42 -95 -42 -96 -43 -96 -42 -98 -42 -99 -42 -99 
-42 -100 -43 -101 -42 -102 -42 -102 6257 4229 29 MP stroke

gr 
24 w
%%IncludeResource: font Times-Roman
/Times-Roman /ISOLatin1Encoding 192 FMSR

2647 4980 mt 
(Lateral dimension [mm]) s
 547 3105 mt  -90 rotate
(Phase error [ns]) s
90 rotate
6 w

end

eplot
%%EndObject graph 1

epage
end

showpage

%%Trailer
%%EOF
