%!PS-Adobe-2.0 EPSF-1.2
%%Creator: MATLAB, The MathWorks, Inc. Version 7.14.0.739 (R2012a). Operating System: Linux 2.6.32-431.20.3.el6.centos.plus.x86_64 #1 SMP Thu Jun 19 23:04:15 UTC 2014 x86_64.
%%Title: ./Components.eps
%%CreationDate: 10/31/2014  11:45:36
%%DocumentNeededFonts: Helvetica
%%DocumentProcessColors: Cyan Magenta Yellow Black
%%Pages: 1
%%BoundingBox:   -18   167   594   617
%%EndComments

%%BeginProlog
% MathWorks dictionary
/MathWorks 160 dict begin
% definition operators
/bdef {bind def} bind def
/ldef {load def} bind def
/xdef {exch def} bdef
/xstore {exch store} bdef
% operator abbreviations
/c  /clip ldef
/cc /concat ldef
/cp /closepath ldef
/gr /grestore ldef
/gs /gsave ldef
/mt /moveto ldef
/np /newpath ldef
/cm /currentmatrix ldef
/sm /setmatrix ldef
/rm /rmoveto ldef
/rl /rlineto ldef
/s {show newpath} bdef
/sc {setcmykcolor} bdef
/sr /setrgbcolor ldef
/sg /setgray ldef
/w /setlinewidth ldef
/j /setlinejoin ldef
/cap /setlinecap ldef
/rc {rectclip} bdef
/rf {rectfill} bdef
% page state control
/pgsv () def
/bpage {/pgsv save def} bdef
/epage {pgsv restore} bdef
/bplot /gsave ldef
/eplot {stroke grestore} bdef
% orientation switch
/portraitMode 0 def /landscapeMode 1 def /rotateMode 2 def
% coordinate system mappings
/dpi2point 0 def
% font control
/FontSize 0 def
/FMS {/FontSize xstore findfont [FontSize 0 0 FontSize neg 0 0]
  makefont setfont} bdef
/reencode {exch dup where {pop load} {pop StandardEncoding} ifelse
  exch dup 3 1 roll findfont dup length dict begin
  { 1 index /FID ne {def}{pop pop} ifelse } forall
  /Encoding exch def currentdict end definefont pop} bdef
/isroman {findfont /CharStrings get /Agrave known} bdef
/FMSR {3 1 roll 1 index dup isroman {reencode} {pop pop} ifelse
  exch FMS} bdef
/csm {1 dpi2point div -1 dpi2point div scale neg translate
 dup landscapeMode eq {pop -90 rotate}
  {rotateMode eq {90 rotate} if} ifelse} bdef
% line types: solid, dotted, dashed, dotdash
/SO { [] 0 setdash } bdef
/DO { [.5 dpi2point mul 4 dpi2point mul] 0 setdash } bdef
/DA { [6 dpi2point mul] 0 setdash } bdef
/DD { [.5 dpi2point mul 4 dpi2point mul 6 dpi2point mul 4
  dpi2point mul] 0 setdash } bdef
% macros for lines and objects
/L {lineto stroke} bdef
/MP {3 1 roll moveto 1 sub {rlineto} repeat} bdef
/AP {{rlineto} repeat} bdef
/PDlw -1 def
/W {/PDlw currentlinewidth def setlinewidth} def
/PP {closepath eofill} bdef
/DP {closepath stroke} bdef
/MR {4 -2 roll moveto dup  0 exch rlineto exch 0 rlineto
  neg 0 exch rlineto closepath} bdef
/FR {MR stroke} bdef
/PR {MR fill} bdef
/L1i {{currentfile picstr readhexstring pop} image} bdef
/tMatrix matrix def
/MakeOval {newpath tMatrix currentmatrix pop translate scale
0 0 1 0 360 arc tMatrix setmatrix} bdef
/FO {MakeOval stroke} bdef
/PO {MakeOval fill} bdef
/PD {currentlinewidth 2 div 0 360 arc fill
   PDlw -1 eq not {PDlw w /PDlw -1 def} if} def
/FA {newpath tMatrix currentmatrix pop translate scale
  0 0 1 5 -2 roll arc tMatrix setmatrix stroke} bdef
/PA {newpath tMatrix currentmatrix pop	translate 0 0 moveto scale
  0 0 1 5 -2 roll arc closepath tMatrix setmatrix fill} bdef
/FAn {newpath tMatrix currentmatrix pop translate scale
  0 0 1 5 -2 roll arcn tMatrix setmatrix stroke} bdef
/PAn {newpath tMatrix currentmatrix pop translate 0 0 moveto scale
  0 0 1 5 -2 roll arcn closepath tMatrix setmatrix fill} bdef
/vradius 0 def /hradius 0 def /lry 0 def
/lrx 0 def /uly 0 def /ulx 0 def /rad 0 def
/MRR {/vradius xdef /hradius xdef /lry xdef /lrx xdef /uly xdef
  /ulx xdef newpath tMatrix currentmatrix pop ulx hradius add uly
  vradius add translate hradius vradius scale 0 0 1 180 270 arc 
  tMatrix setmatrix lrx hradius sub uly vradius add translate
  hradius vradius scale 0 0 1 270 360 arc tMatrix setmatrix
  lrx hradius sub lry vradius sub translate hradius vradius scale
  0 0 1 0 90 arc tMatrix setmatrix ulx hradius add lry vradius sub
  translate hradius vradius scale 0 0 1 90 180 arc tMatrix setmatrix
  closepath} bdef
/FRR {MRR stroke } bdef
/PRR {MRR fill } bdef
/MlrRR {/lry xdef /lrx xdef /uly xdef /ulx xdef /rad lry uly sub 2 div def
  newpath tMatrix currentmatrix pop ulx rad add uly rad add translate
  rad rad scale 0 0 1 90 270 arc tMatrix setmatrix lrx rad sub lry rad
  sub translate rad rad scale 0 0 1 270 90 arc tMatrix setmatrix
  closepath} bdef
/FlrRR {MlrRR stroke } bdef
/PlrRR {MlrRR fill } bdef
/MtbRR {/lry xdef /lrx xdef /uly xdef /ulx xdef /rad lrx ulx sub 2 div def
  newpath tMatrix currentmatrix pop ulx rad add uly rad add translate
  rad rad scale 0 0 1 180 360 arc tMatrix setmatrix lrx rad sub lry rad
  sub translate rad rad scale 0 0 1 0 180 arc tMatrix setmatrix
  closepath} bdef
/FtbRR {MtbRR stroke } bdef
/PtbRR {MtbRR fill } bdef
/stri 6 array def /dtri 6 array def
/smat 6 array def /dmat 6 array def
/tmat1 6 array def /tmat2 6 array def /dif 3 array def
/asub {/ind2 exch def /ind1 exch def dup dup
  ind1 get exch ind2 get sub exch } bdef
/tri_to_matrix {
  2 0 asub 3 1 asub 4 0 asub 5 1 asub
  dup 0 get exch 1 get 7 -1 roll astore } bdef
/compute_transform {
  dmat dtri tri_to_matrix tmat1 invertmatrix 
  smat stri tri_to_matrix tmat2 concatmatrix } bdef
/ds {stri astore pop} bdef
/dt {dtri astore pop} bdef
/db {2 copy /cols xdef /rows xdef mul dup string
  currentfile exch readhexstring pop
  /bmap xdef pop pop} bdef
/it {gs np dtri aload pop moveto lineto lineto cp c
  cols rows 8 compute_transform 
  {bmap} image gr}bdef
/il {newpath moveto lineto stroke}bdef
currentdict end def
%%EndProlog

%%BeginSetup
MathWorks begin

0 cap

end
%%EndSetup

%%Page: 1 1
%%BeginPageSetup
%%PageBoundingBox:   -18   167   594   617
MathWorks begin
bpage
%%EndPageSetup

%%BeginObject: obj1
bplot

/dpi2point 12 def
portraitMode -0516 7620 csm

  299   214  7350  5399 MR c np
1038 dict begin %Colortable dictionary
/c0 { 0.000000 0.000000 0.000000 sr} bdef
/c1 { 1.000000 1.000000 1.000000 sr} bdef
/c2 { 0.900000 0.000000 0.000000 sr} bdef
/c3 { 0.000000 0.820000 0.000000 sr} bdef
/c4 { 0.000000 0.000000 0.800000 sr} bdef
/c5 { 0.910000 0.820000 0.320000 sr} bdef
/c6 { 1.000000 0.260000 0.820000 sr} bdef
/c7 { 0.000000 0.820000 0.820000 sr} bdef
c0
1 j
1 sg
   0    0 8400 5760 PR
6 w
0 1872 1428 0 0 -1872 840 2448 4 MP
PP
-1428 0 0 1872 1428 0 0 -1872 840 2448 5 MP stroke
4 w
DO
SO
6 w
0 sg
 840 2448 mt 2268 2448 L
 840 2448 mt  840  576 L
 894 2448 mt  894 2429 L
%%IncludeResource: font Helvetica
/Helvetica /ISOLatin1Encoding 168 FMSR

 848 2638 mt 
(0) s
1435 2448 mt 1435 2429 L
1342 2638 mt 
(50) s
1975 2448 mt 1975 2429 L
1835 2638 mt 
(100) s
 840 2292 mt  858 2292 L
 712 2354 mt 
(0) s
 840 1980 mt  858 1980 L
 572 2042 mt 
(0.2) s
 840 1668 mt  858 1668 L
 572 1730 mt 
(0.4) s
 840 1356 mt  858 1356 L
 572 1418 mt 
(0.6) s
 840 1044 mt  858 1044 L
 572 1106 mt 
(0.8) s
 840  732 mt  858  732 L
 712  794 mt 
(1) s
gs 840 575 1429 1874 MR c np
12 w
11 12 11 12 11 12 11 12 11 13 10 12 11 12 11 12 
11 12 11 13 10 12 11 12 11 12 11 12 11 12 11 13 
10 12 11 12 11 12 11 12 11 13 10 12 11 12 11 12 
11 12 11 13 11 12 10 12 11 12 11 12 11 12 11 13 
10 12 11 12 11 12 11 12 11 13 11 12 10 12 11 12 
11 12 11 13 11 12 10 12 11 12 11 12 11 12 11 13 
11 12 10 12 11 12 11 12 11 13 11 12 10 12 11 12 
11 12 11 13 11 12 11 12 10 12 11 12 11 12 11 13 
11 12 10 12 11 12 11 12 11 13 11 12 11 12 10 12 
11 12 11 13 11 12 11 12 10 12 11 12 11 12 11 13 
11 12 11 12 10 12 11 12 11 13 11 12 11 12 10 12 
11 12 11 13 11 12 11 12 11 12 10 12 11 12 11 13 
11 12 11 12 10 12 1197 1073 100 MP stroke
11 12 11 13 11 12 11 12 11 12 10 12 11 13 11 12 
11 12 11 12 10 12 11 12 11 13 11 12 11 12 11 12 
10 12 11 13 11 12 11 12 11 12 10 12 11 13 11 12 
11 12 11 12 11 12 10 12 894 732 29 MP stroke
gr

12 w
1320  443 mt 
(Signal) s
 480 1924 mt  -90 rotate
(Coherence) s
90 rotate
1371 2816 mt 
(Lags) s
6 w
1 sg
0 1872 1428 0 0 -1872 2604 2448 4 MP
PP
-1428 0 0 1872 1428 0 0 -1872 2604 2448 5 MP stroke
4 w
DO
SO
6 w
0 sg
2604 2448 mt 4032 2448 L
2604 2448 mt 2604  576 L
2658 2448 mt 2658 2429 L
2612 2638 mt 
(0) s
3199 2448 mt 3199 2429 L
3106 2638 mt 
(50) s
3739 2448 mt 3739 2429 L
3599 2638 mt 
(100) s
2604 2292 mt 2622 2292 L
2476 2354 mt 
(0) s
2604 1980 mt 2622 1980 L
2336 2042 mt 
(0.2) s
2604 1668 mt 2622 1668 L
2336 1730 mt 
(0.4) s
2604 1356 mt 2622 1356 L
2336 1418 mt 
(0.6) s
2604 1044 mt 2622 1044 L
2336 1106 mt 
(0.8) s
2604  732 mt 2622  732 L
2476  794 mt 
(1) s
gs 2604 575 1429 1874 MR c np
12 w
11 7 11 -15 11 -6 11 -11 11 -12 10 -9 11 -5 11 -3 
11 1 11 -2 10 5 11 -9 11 12 11 -14 11 5 11 -3 
10 2 11 -11 11 -9 11 9 11 14 10 -5 11 5 11 12 
11 11 11 -12 11 -14 10 -10 11 12 11 -12 11 -3 11 14 
10 1 11 6 11 -6 11 6 11 10 11 -15 10 8 11 14 
11 8 11 -7 11 9 10 -12 11 -1 11 12 11 -6 11 -7 
11 -11 10 -14 11 5 11 -8 11 -7 11 -1 10 -13 11 2 
11 -10 11 2 11 6 11 -12 10 -2 11 6 11 -3 11 -13 
11 1 10 5 11 0 11 13 11 3 11 12 11 -11 10 -11 
11 10 11 -3 11 -10 11 12 10 -4 11 7 11 7 11 11 
11 4 11 8 10 -5 11 -7 11 12 11 -2 11 14 10 5 
11 3 11 -11 11 13 11 -1 11 2 10 -3 11 -8 11 12 
11 3 11 -15 10 3 2961 2334 100 MP stroke
11 -5 11 1 11 11 11 -4 11 12 10 4 11 -14 11 12 
11 6 11 15 10 -10 11 -11 11 13 11 6 11 -13 11 8 
10 7 11 13 11 6 11 -11 11 -14 10 -14 11 -14 11 -8 
11 11 11 1 11 2 10 10 2658 2314 29 MP stroke
gr

12 w
2834  443 mt 
(Cross term 1) s
3135 2816 mt 
(Lags) s
6 w
1 sg
0 1872 1428 0 0 -1872 4367 2448 4 MP
PP
-1428 0 0 1872 1428 0 0 -1872 4367 2448 5 MP stroke
4 w
DO
SO
6 w
0 sg
4367 2448 mt 5795 2448 L
4367 2448 mt 4367  576 L
4421 2448 mt 4421 2429 L
4375 2638 mt 
(0) s
4962 2448 mt 4962 2429 L
4869 2638 mt 
(50) s
5502 2448 mt 5502 2429 L
5362 2638 mt 
(100) s
4367 2292 mt 4385 2292 L
4239 2354 mt 
(0) s
4367 1980 mt 4385 1980 L
4099 2042 mt 
(0.2) s
4367 1668 mt 4385 1668 L
4099 1730 mt 
(0.4) s
4367 1356 mt 4385 1356 L
4099 1418 mt 
(0.6) s
4367 1044 mt 4385 1044 L
4099 1106 mt 
(0.8) s
4367  732 mt 4385  732 L
4239  794 mt 
(1) s
gs 4367 575 1429 1874 MR c np
12 w
11 1 11 1 11 11 11 -7 11 -14 10 -15 11 -14 11 -11 
11 6 11 13 10 7 11 8 11 -13 11 6 11 13 11 -11 
10 -10 11 15 11 6 11 13 11 -15 10 4 11 12 11 -4 
11 11 11 1 11 -5 10 3 11 -14 11 2 11 12 11 -8 
10 -3 11 3 11 -2 11 13 11 -11 11 4 10 4 11 14 
11 -2 11 12 11 -7 10 -4 11 7 11 4 11 11 11 7 
11 8 10 -5 11 13 11 -10 11 -3 11 9 10 -11 11 -11 
11 12 11 3 11 13 11 1 10 4 11 2 11 -14 11 -2 
11 5 10 -2 11 -12 11 6 11 3 11 -11 11 2 10 -13 
11 0 11 -7 11 -9 11 5 10 -14 11 -11 11 -6 11 -7 
11 13 11 -2 10 -12 11 9 11 -7 11 8 11 14 10 8 
11 -15 11 10 11 6 11 -5 11 5 10 1 11 14 11 -2 
11 -12 11 11 10 -10 4724 2255 100 MP stroke
11 -14 11 -12 11 12 11 11 11 6 10 -6 11 14 11 9 
11 -9 11 -11 10 2 11 -2 11 5 11 -15 11 12 11 -9 
10 5 11 -2 11 1 11 -3 11 -4 10 -10 11 -12 11 -11 
11 -5 11 -15 11 6 10 -2 4421 2314 29 MP stroke
gr

12 w
4597  443 mt 
(Cross term 2) s
4898 2816 mt 
(Lags) s
6 w
1 sg
0 1872 1428 0 0 -1872 6131 2448 4 MP
PP
-1428 0 0 1872 1428 0 0 -1872 6131 2448 5 MP stroke
4 w
DO
SO
6 w
0 sg
6131 2448 mt 7559 2448 L
6131 2448 mt 6131  576 L
6185 2448 mt 6185 2429 L
6139 2638 mt 
(0) s
6726 2448 mt 6726 2429 L
6633 2638 mt 
(50) s
7266 2448 mt 7266 2429 L
7126 2638 mt 
(100) s
6131 2292 mt 6149 2292 L
6003 2354 mt 
(0) s
6131 1980 mt 6149 1980 L
5863 2042 mt 
(0.2) s
6131 1668 mt 6149 1668 L
5863 1730 mt 
(0.4) s
6131 1356 mt 6149 1356 L
5863 1418 mt 
(0.6) s
6131 1044 mt 6149 1044 L
5863 1106 mt 
(0.8) s
6131  732 mt 6149  732 L
6003  794 mt 
(1) s
gs 6131 575 1429 1874 MR c np
12 w
10 151 11 49 11 -99 11 48 11 -113 11 208 10 20 11 -164 
11 41 11 214 11 -289 10 4 11 93 11 -27 11 103 11 -99 
11 -6 10 895 6185 1420 19 MP stroke
9 157 11 -9 11 -37 10 39 11 -23 11 62 11 -50 11 6 
11 23 10 136 11 -213 11 93 11 -32 10 -152 6380 2449 15 MP stroke
11 192 10 23 11 -72 11 144 11 -115 11 75 11 57 10 -182 
11 -4 11 72 11 -81 11 -10 10 130 11 -118 11 54 11 33 
11 -124 11 78 10 36 10 -188 6532 2449 21 MP stroke
11 8 11 -17 11 3 11 5 11 -23 10 15 11 12 11 10 
11 18 11 19 10 -3 11 -24 11 3 11 -50 11 17 11 2 
10 -36 11 36 11 14 11 -10 11 15 10 -38 11 59 11 -21 
11 -21 11 -11 11 -10 10 -37 11 12 11 -13 11 103 11 -3 
10 -12 11 14 11 77 11 -115 11 -66 11 8 10 102 11 -41 
11 -33 11 -41 11 184 10 -123 11 -92 11 95 11 7 11 -31 
11 39 10 -104 11 162 11 -75 11 -124 11 138 10 106 11 -118 
11 54 11 -66 11 58 11 28 10 -92 11 41 11 -24 11 -47 
11 91 10 -46 11 -50 11 103 11 -42 11 40 11 40 10 -93 
11 -48 11 87 11 -180 6747 2449 76 MP stroke
gr

12 w
6629  443 mt 
(Noise) s
6662 2816 mt 
(Lags) s
6 w
1 sg
0 1873 6719 0 0 -1873 840 5183 4 MP
PP
-6719 0 0 1873 6719 0 0 -1873 840 5183 5 MP stroke
4 w
DO
SO
6 w
0 sg
 840 5183 mt 7559 5183 L
 840 5183 mt  840 3310 L
 944 5183 mt  944 5115 L
 898 5373 mt 
(0) s
1985 5183 mt 1985 5115 L
1892 5373 mt 
(20) s
3027 5183 mt 3027 5115 L
2934 5373 mt 
(40) s
4069 5183 mt 4069 5115 L
3976 5373 mt 
(60) s
5110 5183 mt 5110 5115 L
5017 5373 mt 
(80) s
6152 5183 mt 6152 5115 L
6012 5373 mt 
(100) s
7194 5183 mt 7194 5115 L
7054 5373 mt 
(120) s
 840 5079 mt  907 5079 L
 712 5141 mt 
(0) s
 840 4559 mt  907 4559 L
 572 4621 mt 
(0.5) s
 840 4039 mt  907 4039 L
 712 4101 mt 
(1) s
 840 3519 mt  907 3519 L
 572 3581 mt 
(1.5) s
gs 840 3311 6720 1873 MR c np
12 w
53 19 52 -13 52 14 52 -1 52 -24 52 2 52 4 52 5 
52 25 52 28 52 15 53 -9 52 8 52 -30 52 31 52 1 
52 -21 52 35 52 15 52 16 52 18 52 -18 52 59 53 -2 
52 10 52 -7 52 -11 52 -21 52 14 52 -7 52 83 52 10 
52 -1 52 23 52 55 53 -56 52 -37 52 6 52 84 52 1 
52 -11 52 -15 52 131 52 -85 52 -49 52 83 53 15 52 -11 
52 31 52 -74 52 129 52 -55 52 -81 52 106 52 63 52 -76 
52 45 52 -33 53 60 52 19 52 -51 52 40 52 -19 52 -34 
52 74 52 -22 52 -32 52 89 52 -16 52 36 53 29 52 -70 
52 -18 52 59 52 -124 52 148 52 11 52 -42 52 104 52 -65 
52 69 52 50 53 -124 52 6 52 60 52 -42 52 20 52 104 
52 -78 52 43 52 43 52 -79 52 65 53 31 52 -128 52 134 
52 -5 52 -18 52 29 2402 4275 100 MP stroke
52 -20 52 42 52 -10 52 17 52 35 52 98 53 -134 52 85 
52 -16 52 -94 52 107 52 32 52 -45 52 34 52 -68 52 146 
52 30 52 -95 53 41 52 141 52 -197 52 -5 52 52 52 -22 
52 81 52 -67 52 9 52 610 944 3488 29 MP stroke
DA
53 8 52 8 52 8 52 8 52 8 52 8 52 8 52 9 
52 8 52 8 52 8 53 8 52 8 52 8 52 8 52 9 
52 8 52 8 52 8 52 8 52 8 52 8 52 8 53 9 
52 8 52 8 52 8 52 8 52 8 52 8 52 8 52 9 
52 8 52 8 52 8 53 8 52 8 52 8 52 8 52 9 
52 8 52 8 52 8 52 8 52 8 52 8 53 8 52 9 
52 8 52 8 52 8 52 8 52 8 52 8 52 8 52 9 
52 8 52 8 53 8 52 8 52 8 52 8 52 8 52 9 
52 8 52 8 52 8 52 8 52 8 52 8 53 8 52 9 
52 8 52 8 52 8 52 8 52 8 52 8 52 8 52 9 
52 8 52 8 53 8 52 8 52 8 52 8 52 8 52 9 
52 8 52 8 52 8 52 8 52 8 53 8 52 8 52 9 
52 8 52 8 52 8 2402 4266 100 MP stroke
52 8 52 8 52 8 52 8 52 9 52 8 53 8 52 8 
52 8 52 8 52 8 52 8 52 9 52 8 52 8 52 8 
52 8 52 8 53 8 52 8 52 9 52 8 52 8 52 8 
52 8 52 8 52 8 52 9 944 4038 29 MP stroke
gr

12 w
DA
4016 5551 mt 
(Lags) s
 480 4659 mt  -90 rotate
(Coherence) s
90 rotate
%%IncludeResource: font Helvetica
/Helvetica /ISOLatin1Encoding 120 FMSR

 823 5226 mt 
( ) s
7543 3353 mt 
( ) s
SO
6 w
%%IncludeResource: font Helvetica
/Helvetica /ISOLatin1Encoding 168 FMSR

5362 3552 mt 
(Signal only) s
gs 4870 3371 2630 445 MR c np
DA
12 w
379 0 4945 3491 2 MP stroke
SO
gr

12 w
5362 3755 mt 
(Signal + cross terms + noise) s
gs 4870 3371 2630 445 MR c np
379 0 4945 3694 2 MP stroke
6 w
gr

6 w

end %%Color Dict

eplot
%%EndObject

epage
end

showpage

%%Trailer
%%EOF
