%!PS-Adobe-3.0 EPSF-3.0
%%Creator: (MATLAB, The Mathworks, Inc. Version 8.4.0.150421 \(R2014b\). Operating System: Linux)
%%Title: /scratch/nbb5/Dropbox/Work/Kspace/aperture_domain/figures/clutter.eps
%%CreationDate: 2015-05-21T16:39:28
%%Pages: (atend)
%%BoundingBox: (atend)
%%LanguageLevel: 3
%%EndComments
%%BeginProlog
%%BeginResource: procset (Apache XML Graphics Std ProcSet) 1.2 0
%%Version: 1.2 0
%%Copyright: (Copyright 2001-2003,2010 The Apache Software Foundation. License terms: http://www.apache.org/licenses/LICENSE-2.0)
/bd{bind def}bind def
/ld{load def}bd
/GR/grestore ld
/M/moveto ld
/LJ/setlinejoin ld
/C/curveto ld
/f/fill ld
/LW/setlinewidth ld
/GC/setgray ld
/t/show ld
/N/newpath ld
/CT/concat ld
/cp/closepath ld
/S/stroke ld
/L/lineto ld
/CC/setcmykcolor ld
/A/ashow ld
/GS/gsave ld
/RC/setrgbcolor ld
/RM/rmoveto ld
/ML/setmiterlimit ld
/re {4 2 roll M
1 index 0 rlineto
0 exch rlineto
neg 0 rlineto
cp } bd
/_ctm matrix def
/_tm matrix def
/BT { _ctm currentmatrix pop matrix _tm copy pop 0 0 moveto } bd
/ET { _ctm setmatrix } bd
/iTm { _ctm setmatrix _tm concat } bd
/Tm { _tm astore pop iTm 0 0 moveto } bd
/ux 0.0 def
/uy 0.0 def
/F {
  /Tp exch def
  /Tf exch def
  Tf findfont Tp scalefont setfont
  /cf Tf def  /cs Tp def
} bd
/ULS {currentpoint /uy exch def /ux exch def} bd
/ULE {
  /Tcx currentpoint pop def
  gsave
  newpath
  cf findfont cs scalefont dup
  /FontMatrix get 0 get /Ts exch def /FontInfo get dup
  /UnderlinePosition get Ts mul /To exch def
  /UnderlineThickness get Ts mul /Tt exch def
  ux uy To add moveto  Tcx uy To add lineto
  Tt setlinewidth stroke
  grestore
} bd
/OLE {
  /Tcx currentpoint pop def
  gsave
  newpath
  cf findfont cs scalefont dup
  /FontMatrix get 0 get /Ts exch def /FontInfo get dup
  /UnderlinePosition get Ts mul /To exch def
  /UnderlineThickness get Ts mul /Tt exch def
  ux uy To add cs add moveto Tcx uy To add cs add lineto
  Tt setlinewidth stroke
  grestore
} bd
/SOE {
  /Tcx currentpoint pop def
  gsave
  newpath
  cf findfont cs scalefont dup
  /FontMatrix get 0 get /Ts exch def /FontInfo get dup
  /UnderlinePosition get Ts mul /To exch def
  /UnderlineThickness get Ts mul /Tt exch def
  ux uy To add cs 10 mul 26 idiv add moveto Tcx uy To add cs 10 mul 26 idiv add lineto
  Tt setlinewidth stroke
  grestore
} bd
/QT {
/Y22 exch store
/X22 exch store
/Y21 exch store
/X21 exch store
currentpoint
/Y21 load 2 mul add 3 div exch
/X21 load 2 mul add 3 div exch
/X21 load 2 mul /X22 load add 3 div
/Y21 load 2 mul /Y22 load add 3 div
/X22 load /Y22 load curveto
} bd
/SSPD {
dup length /d exch dict def
{
/v exch def
/k exch def
currentpagedevice k known {
/cpdv currentpagedevice k get def
v cpdv ne {
/upd false def
/nullv v type /nulltype eq def
/nullcpdv cpdv type /nulltype eq def
nullv nullcpdv or
{
/upd true def
} {
/sametype v type cpdv type eq def
sametype {
v type /arraytype eq {
/vlen v length def
/cpdvlen cpdv length def
vlen cpdvlen eq {
0 1 vlen 1 sub {
/i exch def
/obj v i get def
/cpdobj cpdv i get def
obj cpdobj ne {
/upd true def
exit
} if
} for
} {
/upd true def
} ifelse
} {
v type /dicttype eq {
v {
/dv exch def
/dk exch def
/cpddv cpdv dk get def
dv cpddv ne {
/upd true def
exit
} if
} forall
} {
/upd true def
} ifelse
} ifelse
} if
} ifelse
upd true eq {
d k v put
} if
} if
} if
} forall
d length 0 gt {
d setpagedevice
} if
} bd
%%EndResource
%%BeginResource: procset (Apache XML Graphics EPS ProcSet) 1.0 0
%%Version: 1.0 0
%%Copyright: (Copyright 2002-2003 The Apache Software Foundation. License terms: http://www.apache.org/licenses/LICENSE-2.0)
/BeginEPSF { %def
/b4_Inc_state save def         % Save state for cleanup
/dict_count countdictstack def % Count objects on dict stack
/op_count count 1 sub def      % Count objects on operand stack
userdict begin                 % Push userdict on dict stack
/showpage { } def              % Redefine showpage, { } = null proc
0 setgray 0 setlinecap         % Prepare graphics state
1 setlinewidth 0 setlinejoin
10 setmiterlimit [ ] 0 setdash newpath
/languagelevel where           % If level not equal to 1 then
{pop languagelevel             % set strokeadjust and
1 ne                           % overprint to their defaults.
{false setstrokeadjust false setoverprint
} if
} if
} bd
/EndEPSF { %def
count op_count sub {pop} repeat            % Clean up stacks
countdictstack dict_count sub {end} repeat
b4_Inc_state restore
} bd
%%EndResource
%FOPBeginFontDict
%%IncludeResource: font Courier-Bold
%%IncludeResource: font Helvetica
%%IncludeResource: font Courier-BoldOblique
%%IncludeResource: font Courier-Oblique
%%IncludeResource: font Times-Roman
%%IncludeResource: font Helvetica-BoldOblique
%%IncludeResource: font Helvetica-Bold
%%IncludeResource: font Helvetica-Oblique
%%IncludeResource: font Times-BoldItalic
%%IncludeResource: font Courier
%%IncludeResource: font Times-Italic
%%IncludeResource: font Times-Bold
%%IncludeResource: font Symbol
%%IncludeResource: font ZapfDingbats
%FOPEndFontDict
%%BeginResource: encoding WinAnsiEncoding
/WinAnsiEncoding [
/.notdef /.notdef /.notdef /.notdef /.notdef
/.notdef /.notdef /.notdef /.notdef /.notdef
/.notdef /.notdef /.notdef /.notdef /.notdef
/.notdef /.notdef /.notdef /.notdef /.notdef
/.notdef /.notdef /.notdef /.notdef /.notdef
/.notdef /.notdef /.notdef /.notdef /.notdef
/.notdef /.notdef /space /exclam /quotedbl
/numbersign /dollar /percent /ampersand /quotesingle
/parenleft /parenright /asterisk /plus /comma
/hyphen /period /slash /zero /one
/two /three /four /five /six
/seven /eight /nine /colon /semicolon
/less /equal /greater /question /at
/A /B /C /D /E
/F /G /H /I /J
/K /L /M /N /O
/P /Q /R /S /T
/U /V /W /X /Y
/Z /bracketleft /backslash /bracketright /asciicircum
/underscore /quoteleft /a /b /c
/d /e /f /g /h
/i /j /k /l /m
/n /o /p /q /r
/s /t /u /v /w
/x /y /z /braceleft /bar
/braceright /asciitilde /bullet /Euro /bullet
/quotesinglbase /florin /quotedblbase /ellipsis /dagger
/daggerdbl /circumflex /perthousand /Scaron /guilsinglleft
/OE /bullet /Zcaron /bullet /bullet
/quoteleft /quoteright /quotedblleft /quotedblright /bullet
/endash /emdash /asciitilde /trademark /scaron
/guilsinglright /oe /bullet /zcaron /Ydieresis
/space /exclamdown /cent /sterling /currency
/yen /brokenbar /section /dieresis /copyright
/ordfeminine /guillemotleft /logicalnot /sfthyphen /registered
/macron /degree /plusminus /twosuperior /threesuperior
/acute /mu /paragraph /middot /cedilla
/onesuperior /ordmasculine /guillemotright /onequarter /onehalf
/threequarters /questiondown /Agrave /Aacute /Acircumflex
/Atilde /Adieresis /Aring /AE /Ccedilla
/Egrave /Eacute /Ecircumflex /Edieresis /Igrave
/Iacute /Icircumflex /Idieresis /Eth /Ntilde
/Ograve /Oacute /Ocircumflex /Otilde /Odieresis
/multiply /Oslash /Ugrave /Uacute /Ucircumflex
/Udieresis /Yacute /Thorn /germandbls /agrave
/aacute /acircumflex /atilde /adieresis /aring
/ae /ccedilla /egrave /eacute /ecircumflex
/edieresis /igrave /iacute /icircumflex /idieresis
/eth /ntilde /ograve /oacute /ocircumflex
/otilde /odieresis /divide /oslash /ugrave
/uacute /ucircumflex /udieresis /yacute /thorn
/ydieresis
] def
%%EndResource
%FOPBeginFontReencode
/Courier-Bold findfont
dup length dict begin
  {1 index /FID ne {def} {pop pop} ifelse} forall
  /Encoding WinAnsiEncoding def
  currentdict
end
/Courier-Bold exch definefont pop
/Helvetica findfont
dup length dict begin
  {1 index /FID ne {def} {pop pop} ifelse} forall
  /Encoding WinAnsiEncoding def
  currentdict
end
/Helvetica exch definefont pop
/Courier-BoldOblique findfont
dup length dict begin
  {1 index /FID ne {def} {pop pop} ifelse} forall
  /Encoding WinAnsiEncoding def
  currentdict
end
/Courier-BoldOblique exch definefont pop
/Courier-Oblique findfont
dup length dict begin
  {1 index /FID ne {def} {pop pop} ifelse} forall
  /Encoding WinAnsiEncoding def
  currentdict
end
/Courier-Oblique exch definefont pop
/Times-Roman findfont
dup length dict begin
  {1 index /FID ne {def} {pop pop} ifelse} forall
  /Encoding WinAnsiEncoding def
  currentdict
end
/Times-Roman exch definefont pop
/Helvetica-BoldOblique findfont
dup length dict begin
  {1 index /FID ne {def} {pop pop} ifelse} forall
  /Encoding WinAnsiEncoding def
  currentdict
end
/Helvetica-BoldOblique exch definefont pop
/Helvetica-Bold findfont
dup length dict begin
  {1 index /FID ne {def} {pop pop} ifelse} forall
  /Encoding WinAnsiEncoding def
  currentdict
end
/Helvetica-Bold exch definefont pop
/Helvetica-Oblique findfont
dup length dict begin
  {1 index /FID ne {def} {pop pop} ifelse} forall
  /Encoding WinAnsiEncoding def
  currentdict
end
/Helvetica-Oblique exch definefont pop
/Times-BoldItalic findfont
dup length dict begin
  {1 index /FID ne {def} {pop pop} ifelse} forall
  /Encoding WinAnsiEncoding def
  currentdict
end
/Times-BoldItalic exch definefont pop
/Courier findfont
dup length dict begin
  {1 index /FID ne {def} {pop pop} ifelse} forall
  /Encoding WinAnsiEncoding def
  currentdict
end
/Courier exch definefont pop
/Times-Italic findfont
dup length dict begin
  {1 index /FID ne {def} {pop pop} ifelse} forall
  /Encoding WinAnsiEncoding def
  currentdict
end
/Times-Italic exch definefont pop
/Times-Bold findfont
dup length dict begin
  {1 index /FID ne {def} {pop pop} ifelse} forall
  /Encoding WinAnsiEncoding def
  currentdict
end
/Times-Bold exch definefont pop
%FOPEndFontReencode
%%EndProlog
%%Page: 1 1
%%PageBoundingBox: 0 0 656 300
%%BeginPageSetup
[1 0 0 -1 0 300] CT
%%EndPageSetup
GS
[0.75 0 0 0.75 0 0] CT
1 GC
N
0 0 875 400 re
f
GR
GS
[0.75 0 0 0.75 0 0] CT
1 GC
N
0 0 875 400 re
f
GR
GS
[0.75 0 0 0.75 0 0] CT
2 setlinecap
10.0 ML
4 LW
N
114 73 M
114.373 73 L
114.745 73 L
115.118 73 L
115.491 73 L
115.864 73 L
116.236 73 L
116.609 73 L
116.982 73 L
117.355 73 L
117.727 73 L
118.1 73 L
118.473 73 L
118.846 73 L
119.218 73 L
119.591 73 L
119.964 73 L
120.337 73 L
120.709 73 L
121.082 73 L
121.455 73 L
121.828 73 L
122.2 73 L
122.573 73 L
122.946 73 L
123.319 73 L
123.691 73 L
124.064 73 L
124.437 73 L
124.81 73 L
125.182 73 L
125.555 73 L
125.928 73 L
126.301 73 L
126.673 73 L
127.046 73 L
127.419 73 L
127.792 73 L
128.164 73 L
128.537 73 L
128.91 73 L
129.283 73 L
129.655 73 L
130.028 73 L
130.401 73 L
130.774 73 L
131.146 73 L
131.519 73 L
131.892 73 L
132.265 73 L
132.637 73 L
133.01 73 L
133.383 73 L
133.756 73 L
134.128 73 L
134.501 73 L
134.874 73 L
135.246 73 L
135.619 73 L
135.992 73 L
136.365 73 L
136.737 73 L
137.11 73 L
137.483 73 L
137.856 73 L
138.228 73 L
138.601 73 L
138.974 73 L
139.347 73 L
139.719 73 L
140.092 73 L
140.465 73 L
140.838 73 L
141.21 73 L
141.583 73 L
141.956 73 L
142.329 73 L
142.701 73 L
143.074 73 L
143.447 73 L
143.82 73 L
144.192 73 L
144.565 73 L
144.938 73 L
145.311 73 L
145.683 73 L
146.056 73 L
146.429 73 L
146.802 73 L
147.174 73 L
147.547 73 L
147.92 73 L
148.293 73 L
148.665 73 L
149.038 73 L
149.411 73 L
149.784 73 L
150.156 73 L
150.529 73 L
150.902 73 L
151.275 73 L
151.647 73 L
152.02 73 L
152.393 73 L
152.766 73 L
153.138 73 L
153.511 73 L
153.884 73 L
154.257 73 L
154.629 73 L
155.002 73 L
155.375 73 L
155.747 73 L
156.12 73 L
156.493 73 L
156.866 73 L
157.238 73 L
157.611 73 L
157.984 73 L
158.357 73 L
158.729 73 L
159.102 73 L
159.475 73 L
159.848 73 L
160.22 73 L
160.593 73 L
160.966 73 L
161.339 73 L
161.711 73 L
162.084 73 L
162.457 73 L
162.83 73 L
163.202 73 L
163.575 73 L
163.948 73 L
164.321 73 L
164.693 73 L
165.066 73 L
165.439 73 L
165.812 73 L
166.184 73 L
166.557 73 L
166.93 73 L
167.303 73 L
167.675 73 L
168.048 73 L
168.421 73 L
168.794 73 L
169.166 73 L
169.539 73 L
169.912 73 L
170.285 73 L
170.657 73 L
171.03 73 L
171.403 73 L
171.776 73 L
172.148 73 L
172.521 73 L
172.894 73 L
173.267 73 L
173.639 73 L
174.012 73 L
174.385 73 L
174.758 73 L
175.13 73 L
175.503 73 L
175.876 73 L
176.249 73 L
176.621 73 L
176.994 73 L
177.367 73 L
177.739 73 L
178.112 73 L
178.485 73 L
178.858 73 L
179.23 73 L
179.603 73 L
179.976 73 L
180.349 73 L
180.721 73 L
181.094 73 L
181.467 73 L
181.84 73 L
182.212 73 L
182.585 73 L
182.958 73 L
183.331 73 L
183.703 73 L
184.076 73 L
184.449 73 L
184.822 73 L
185.194 73 L
185.567 73 L
185.94 73 L
186.313 73 L
186.685 73 L
187.058 73 L
187.431 73 L
187.804 73 L
188.176 73 L
188.549 73 L
188.922 73 L
189.295 73 L
189.667 73 L
190.04 73 L
190.413 73 L
190.786 73 L
191.158 73 L
191.531 73 L
191.904 73 L
192.277 73 L
192.649 73 L
193.022 73 L
193.395 73 L
193.768 73 L
194.14 73 L
194.513 73 L
194.886 73 L
195.259 73 L
195.631 73 L
196.004 73 L
196.377 73 L
196.749 73 L
197.122 73 L
197.495 73 L
197.868 73 L
198.24 73 L
198.613 73 L
198.986 73 L
199.359 73 L
199.731 73 L
200.104 73 L
200.477 73 L
200.85 73 L
201.222 73 L
201.595 73 L
201.968 73 L
202.341 73 L
202.713 73 L
203.086 73 L
203.459 73 L
203.832 73 L
204.204 73 L
204.577 73 L
204.95 73 L
205.323 73 L
205.695 73 L
206.068 73 L
206.441 73 L
206.814 73 L
207.186 73 L
207.559 73 L
207.932 73 L
208.305 73 L
208.677 73 L
209.05 73 L
209.423 73 L
209.796 73 L
210.168 73 L
210.541 73 L
210.914 73 L
211.287 73 L
211.659 73 L
212.032 73 L
212.405 73 L
212.778 73 L
213.15 73 L
213.523 73 L
213.896 73 L
214.269 73 L
214.641 73 L
215.014 73 L
215.387 73 L
215.76 73 L
216.132 73 L
216.505 73 L
216.878 73 L
217.251 73 L
217.623 73 L
217.996 73 L
218.369 73 L
218.741 73 L
219.114 73 L
219.487 73 L
219.86 73 L
220.232 73 L
220.605 73 L
220.978 73 L
221.351 73 L
221.723 73 L
222.096 73 L
222.469 73 L
222.842 73 L
223.214 73 L
223.587 73 L
223.96 73 L
224.333 73 L
224.705 73 L
225.078 73 L
225.451 73 L
225.824 73 L
226.196 73 L
226.569 73 L
226.942 73 L
227.315 73 L
227.687 73 L
228.06 73 L
228.433 73 L
228.806 73 L
229.178 73 L
229.551 73 L
229.924 73 L
230.297 73 L
230.669 73 L
231.042 73 L
231.415 73 L
231.788 73 L
232.16 73 L
232.533 73 L
232.906 73 L
233.279 73 L
233.651 73 L
234.024 73 L
234.397 73 L
234.77 73 L
235.142 73 L
235.515 73 L
235.888 73 L
236.261 73 L
236.633 73 L
237.006 73 L
237.379 73 L
237.751 73 L
238.124 73 L
238.497 73 L
238.87 73 L
239.242 73 L
239.615 73 L
239.988 73 L
240.361 73 L
240.733 73 L
241.106 73 L
241.479 73 L
241.852 73 L
242.224 73 L
242.597 73 L
242.97 73 L
243.343 73 L
243.715 73 L
244.088 73 L
244.461 73 L
244.834 73 L
245.206 73 L
245.579 73 L
245.952 73 L
246.325 73 L
246.697 73 L
247.07 73 L
247.443 73 L
247.816 73 L
248.188 73 L
248.561 73 L
248.934 73 L
249.307 73 L
249.679 73 L
250.052 73 L
250.425 73 L
250.798 73 L
251.17 73 L
251.543 73 L
251.916 73 L
252.289 73 L
252.661 73 L
253.034 73 L
253.407 73 L
253.78 73 L
254.152 73 L
254.525 73 L
254.898 73 L
255.271 73 L
255.643 73 L
256.016 73 L
256.389 73 L
256.762 73 L
257.134 73 L
257.507 73 L
257.88 73 L
258.253 73 L
258.625 73 L
258.998 73 L
259.371 73 L
259.743 73 L
260.116 73 L
260.489 73 L
260.862 73 L
261.234 73 L
261.607 73 L
261.98 73 L
262.353 73 L
262.725 73 L
263.098 73 L
263.471 73 L
263.844 73 L
264.216 73 L
264.589 73 L
264.962 73 L
265.335 73 L
265.707 73 L
266.08 73 L
266.453 73 L
266.826 73 L
267.198 73 L
267.571 73 L
267.944 73 L
268.317 73 L
268.689 73 L
269.062 73 L
269.435 73 L
269.808 73 L
270.18 73 L
270.553 73 L
270.926 73 L
271.299 73 L
271.671 73 L
272.044 73 L
272.417 73 L
272.79 73 L
273.162 73 L
273.535 73 L
273.908 73 L
274.281 73 L
274.653 73 L
275.026 73 L
275.399 73 L
275.772 73 L
276.144 73 L
276.517 73 L
276.89 73 L
277.263 73 L
277.635 73 L
278.008 73 L
278.381 73 L
278.754 73 L
279.126 73 L
279.499 73 L
279.872 73 L
280.244 73 L
280.617 73 L
280.99 73 L
281.363 73 L
281.735 73 L
282.108 73 L
282.481 73 L
282.854 73 L
283.226 73 L
283.599 73 L
283.972 73 L
284.345 73 L
284.717 73 L
285.09 73 L
285.463 73 L
285.836 73 L
286.208 73 L
286.581 73 L
286.954 73 L
287.327 73 L
287.699 73 L
288.072 73 L
288.445 73 L
288.818 73 L
289.19 73 L
289.563 73 L
289.936 73 L
290.309 73 L
290.681 73 L
291.054 73 L
291.427 73 L
291.8 73 L
292.172 73 L
292.545 73 L
292.918 73 L
293.291 73 L
293.663 73 L
294.036 73 L
294.409 73 L
294.782 73 L
295.154 73 L
295.527 73 L
295.9 73 L
296.273 73 L
296.645 73 L
297.018 73 L
297.391 73 L
297.764 73 L
298.136 73 L
298.509 73 L
298.882 73 L
299.255 73 L
299.627 73 L
300 73 L
S
GR
GS
[0.75 0 0 0.75 0 0] CT
0.702 GC
N
207.5 346.5 M
214.167 346.5 L
213.273 343.167 L
cp
f
GR
GS
[0.75 0 0 0.75 0 0] CT
0.702 GC
N
207.5 346.5 M
213.273 343.167 L
210.833 340.727 L
cp
f
GR
GS
[0.75 0 0 0.75 0 0] CT
0.702 GC
N
207.5 346.5 M
210.833 340.727 L
207.5 339.833 L
cp
f
GR
GS
[0.75 0 0 0.75 0 0] CT
0.702 GC
N
207.5 346.5 M
207.5 339.833 L
204.167 340.727 L
cp
f
GR
GS
[0.75 0 0 0.75 0 0] CT
0.702 GC
N
207.5 346.5 M
204.167 340.727 L
201.727 343.167 L
cp
f
GR
GS
[0.75 0 0 0.75 0 0] CT
0.702 GC
N
207.5 346.5 M
201.727 343.167 L
200.833 346.5 L
cp
f
GR
GS
[0.75 0 0 0.75 0 0] CT
0.702 GC
N
207.5 346.5 M
200.833 346.5 L
201.727 349.833 L
cp
f
GR
GS
[0.75 0 0 0.75 0 0] CT
0.702 GC
N
207.5 346.5 M
201.727 349.833 L
204.167 352.273 L
cp
f
GR
GS
[0.75 0 0 0.75 0 0] CT
0.702 GC
N
207.5 346.5 M
204.167 352.273 L
207.5 353.167 L
cp
f
GR
GS
[0.75 0 0 0.75 0 0] CT
0.702 GC
N
207.5 346.5 M
207.5 353.167 L
210.833 352.273 L
cp
f
GR
GS
[0.75 0 0 0.75 0 0] CT
0.702 GC
N
207.5 346.5 M
210.833 352.273 L
213.273 349.833 L
cp
f
GR
GS
[0.75 0 0 0.75 0 0] CT
0.702 GC
N
207.5 346.5 M
213.273 349.833 L
214.167 346.5 L
cp
f
GR
GS
[0.75 0 0 0.75 0 0] CT
0.702 GC
2 setlinecap
10.0 ML
N
214.167 346.5 M
213.273 343.167 L
210.833 340.727 L
207.5 339.833 L
204.167 340.727 L
201.727 343.167 L
200.833 346.5 L
201.727 349.833 L
204.167 352.273 L
207.5 353.167 L
210.833 352.273 L
213.273 349.833 L
214.167 346.5 L
S
GR
GS
[0.75 0 0 0.75 0 0] CT
2 setlinecap
10.0 ML
1.333 LW
N
214.167 346.5 M
213.273 343.167 L
210.833 340.727 L
207.5 339.833 L
204.167 340.727 L
201.727 343.167 L
200.833 346.5 L
201.727 349.833 L
204.167 352.273 L
207.5 353.167 L
210.833 352.273 L
213.273 349.833 L
214.167 346.5 L
S
GR
GS
[0.75 0 0 0.75 0 0] CT
2 setlinecap
10.0 ML
4 LW
N
122.455 160 M
122.455 176.909 L
291.545 176.909 L
291.545 160 L
S
GR
GS
[0.75 0 0 0.75 0 0] CT
[10 6] 0 setdash
2 LJ
N
182.263 340.396 M
182.941 337.97 L
183.619 336.17 L
184.296 334.692 L
184.974 333.423 L
185.652 332.304 L
186.33 331.301 L
187.007 330.392 L
187.685 329.561 L
188.363 328.796 L
189.04 328.09 L
189.718 327.435 L
190.396 326.827 L
191.074 326.26 L
191.751 325.732 L
192.429 325.239 L
193.107 324.78 L
193.784 324.351 L
194.462 323.952 L
195.14 323.58 L
195.818 323.234 L
196.495 322.914 L
197.173 322.617 L
197.851 322.344 L
198.529 322.093 L
199.206 321.863 L
199.884 321.655 L
200.562 321.467 L
201.239 321.299 L
201.917 321.151 L
202.595 321.022 L
203.273 320.912 L
203.95 320.82 L
204.628 320.748 L
205.306 320.693 L
205.983 320.657 L
206.661 320.639 L
207.339 320.639 L
208.017 320.657 L
208.694 320.693 L
209.372 320.748 L
210.05 320.82 L
210.727 320.912 L
211.405 321.022 L
212.083 321.151 L
212.761 321.299 L
213.438 321.467 L
214.116 321.655 L
214.794 321.863 L
215.471 322.093 L
216.149 322.344 L
216.827 322.617 L
217.505 322.914 L
218.182 323.234 L
218.86 323.58 L
219.538 323.952 L
220.216 324.351 L
220.893 324.78 L
221.571 325.239 L
222.249 325.732 L
222.926 326.26 L
223.604 326.827 L
224.282 327.435 L
224.96 328.09 L
225.637 328.796 L
226.315 329.561 L
226.993 330.392 L
227.67 331.301 L
228.348 332.304 L
229.026 333.423 L
229.704 334.692 L
230.381 336.17 L
231.059 337.97 L
231.737 340.396 L
S
GR
GS
[0.75 0 0 0.75 0 0] CT
[10 6] 0 setdash
2 LJ
N
165.32 338.944 M
165.998 335.713 L
166.676 333.314 L
167.353 331.333 L
168.031 329.617 L
168.709 328.09 L
169.387 326.707 L
170.064 325.439 L
170.742 324.267 L
171.42 323.174 L
172.097 322.151 L
172.775 321.188 L
173.453 320.279 L
174.131 319.418 L
174.808 318.601 L
175.486 317.825 L
176.164 317.084 L
176.842 316.378 L
177.519 315.704 L
178.197 315.059 L
178.875 314.441 L
179.552 313.85 L
180.23 313.284 L
180.908 312.741 L
181.586 312.22 L
182.263 311.721 L
182.941 311.242 L
183.619 310.782 L
184.296 310.341 L
184.974 309.919 L
185.652 309.514 L
186.33 309.126 L
187.007 308.754 L
187.685 308.398 L
188.363 308.057 L
189.04 307.732 L
189.718 307.421 L
190.396 307.125 L
191.074 306.842 L
191.751 306.573 L
192.429 306.318 L
193.107 306.076 L
193.784 305.846 L
194.462 305.629 L
195.14 305.425 L
195.818 305.233 L
196.495 305.053 L
197.173 304.885 L
197.851 304.729 L
198.529 304.585 L
199.206 304.452 L
199.884 304.331 L
200.562 304.22 L
201.239 304.122 L
201.917 304.034 L
202.595 303.957 L
203.273 303.892 L
203.95 303.837 L
204.628 303.794 L
205.306 303.761 L
205.983 303.74 L
206.661 303.729 L
207.339 303.729 L
208.017 303.74 L
208.694 303.761 L
209.372 303.794 L
210.05 303.837 L
210.727 303.892 L
211.405 303.957 L
212.083 304.034 L
212.761 304.122 L
213.438 304.22 L
214.116 304.331 L
214.794 304.452 L
215.471 304.585 L
216.149 304.729 L
216.827 304.885 L
217.505 305.053 L
218.182 305.233 L
218.86 305.425 L
219.538 305.629 L
220.216 305.846 L
220.893 306.076 L
221.571 306.318 L
222.249 306.573 L
222.926 306.842 L
223.604 307.125 L
224.282 307.421 L
224.96 307.732 L
225.637 308.057 L
226.315 308.398 L
226.993 308.754 L
227.67 309.126 L
228.348 309.514 L
229.026 309.919 L
229.704 310.341 L
230.381 310.782 L
231.059 311.242 L
231.737 311.721 L
232.414 312.22 L
233.092 312.741 L
233.77 313.284 L
234.448 313.85 L
235.125 314.441 L
235.803 315.059 L
236.481 315.704 L
237.158 316.378 L
237.836 317.084 L
238.514 317.825 L
239.192 318.601 L
239.869 319.418 L
240.547 320.279 L
241.225 321.188 L
241.903 322.151 L
242.58 323.174 L
243.258 324.267 L
243.936 325.439 L
244.613 326.707 L
245.291 328.09 L
245.969 329.617 L
246.647 331.333 L
247.324 333.314 L
248.002 335.713 L
248.68 338.944 L
S
GR
GS
[0.75 0 0 0.75 0 0] CT
[10 6] 0 setdash
2 LJ
N
148.377 337.884 M
149.055 333.964 L
149.733 331.069 L
150.41 328.676 L
151.088 326.6 L
151.766 324.747 L
152.444 323.063 L
153.121 321.514 L
153.799 320.074 L
154.477 318.727 L
155.154 317.46 L
155.832 316.262 L
156.51 315.125 L
157.188 314.044 L
157.865 313.011 L
158.543 312.023 L
159.221 311.077 L
159.899 310.168 L
160.576 309.294 L
161.254 308.453 L
161.932 307.642 L
162.609 306.86 L
163.287 306.104 L
163.965 305.374 L
164.643 304.668 L
165.32 303.985 L
165.998 303.323 L
166.676 302.682 L
167.353 302.061 L
168.031 301.459 L
168.709 300.875 L
169.387 300.308 L
170.064 299.759 L
170.742 299.226 L
171.42 298.708 L
172.097 298.206 L
172.775 297.718 L
173.453 297.245 L
174.131 296.785 L
174.808 296.339 L
175.486 295.906 L
176.164 295.486 L
176.842 295.079 L
177.519 294.684 L
178.197 294.3 L
178.875 293.928 L
179.552 293.568 L
180.23 293.219 L
180.908 292.88 L
181.586 292.553 L
182.263 292.236 L
182.941 291.929 L
183.619 291.633 L
184.296 291.346 L
184.974 291.07 L
185.652 290.803 L
186.33 290.545 L
187.007 290.297 L
187.685 290.059 L
188.363 289.829 L
189.04 289.609 L
189.718 289.398 L
190.396 289.195 L
191.074 289.001 L
191.751 288.816 L
192.429 288.64 L
193.107 288.472 L
193.784 288.313 L
194.462 288.161 L
195.14 288.019 L
195.818 287.884 L
196.495 287.758 L
197.173 287.64 L
197.851 287.53 L
198.529 287.428 L
199.206 287.334 L
199.884 287.248 L
200.562 287.169 L
201.239 287.099 L
201.917 287.037 L
202.595 286.982 L
203.273 286.936 L
203.95 286.897 L
204.628 286.866 L
205.306 286.842 L
205.983 286.827 L
206.661 286.819 L
207.339 286.819 L
208.017 286.827 L
208.694 286.842 L
209.372 286.866 L
210.05 286.897 L
210.727 286.936 L
211.405 286.982 L
212.083 287.037 L
212.761 287.099 L
213.438 287.169 L
214.116 287.248 L
214.794 287.334 L
215.471 287.428 L
216.149 287.53 L
216.827 287.64 L
217.505 287.758 L
218.182 287.884 L
218.86 288.019 L
219.538 288.161 L
220.216 288.313 L
220.893 288.472 L
221.571 288.64 L
222.249 288.816 L
222.926 289.001 L
223.604 289.195 L
224.282 289.398 L
224.96 289.609 L
225.637 289.829 L
226.315 290.059 L
226.993 290.297 L
227.67 290.545 L
228.348 290.803 L
229.026 291.07 L
229.704 291.346 L
230.381 291.633 L
231.059 291.929 L
231.737 292.236 L
232.414 292.553 L
233.092 292.88 L
233.77 293.219 L
234.448 293.568 L
235.125 293.928 L
235.803 294.3 L
236.481 294.684 L
237.158 295.079 L
237.836 295.486 L
238.514 295.906 L
239.192 296.339 L
239.869 296.785 L
240.547 297.245 L
241.225 297.718 L
241.903 298.206 L
242.58 298.708 L
243.258 299.226 L
243.936 299.759 L
244.613 300.308 L
245.291 300.875 L
245.969 301.459 L
246.647 302.061 L
247.324 302.682 L
248.002 303.323 L
248.68 303.985 L
249.357 304.668 L
250.035 305.374 L
250.713 306.104 L
251.391 306.86 L
252.068 307.642 L
252.746 308.453 L
253.424 309.294 L
254.101 310.168 L
254.779 311.077 L
255.457 312.023 L
256.135 313.011 L
256.812 314.044 L
257.49 315.125 L
258.168 316.262 L
258.846 317.46 L
259.523 318.727 L
260.201 320.074 L
260.879 321.514 L
261.556 323.063 L
262.234 324.747 L
262.912 326.6 L
263.59 328.676 L
264.267 331.069 L
264.945 333.964 L
265.623 337.884 L
S
GR
GS
[0.75 0 0 0.75 0 0] CT
[10 6] 0 setdash
2 LJ
N
131.434 337.075 M
132.112 332.523 L
132.79 329.187 L
133.467 326.435 L
134.145 324.045 L
134.823 321.911 L
135.501 319.968 L
136.178 318.177 L
136.856 316.51 L
137.534 314.947 L
138.212 313.474 L
138.889 312.077 L
139.567 310.749 L
140.245 309.482 L
140.922 308.27 L
141.6 307.107 L
142.278 305.989 L
142.956 304.913 L
143.633 303.875 L
144.311 302.873 L
144.989 301.904 L
145.666 300.966 L
146.344 300.058 L
147.022 299.176 L
147.7 298.321 L
148.377 297.49 L
149.055 296.683 L
149.733 295.897 L
150.41 295.133 L
151.088 294.389 L
151.766 293.664 L
152.444 292.958 L
153.121 292.27 L
153.799 291.599 L
154.477 290.944 L
155.154 290.306 L
155.832 289.682 L
156.51 289.074 L
157.188 288.48 L
157.865 287.9 L
158.543 287.334 L
159.221 286.78 L
159.899 286.24 L
160.576 285.712 L
161.254 285.196 L
161.932 284.692 L
162.609 284.199 L
163.287 283.718 L
163.965 283.248 L
164.643 282.789 L
165.32 282.34 L
165.998 281.901 L
166.676 281.473 L
167.353 281.054 L
168.031 280.645 L
168.709 280.246 L
169.387 279.856 L
170.064 279.475 L
170.742 279.103 L
171.42 278.74 L
172.097 278.386 L
172.775 278.041 L
173.453 277.703 L
174.131 277.375 L
174.808 277.054 L
175.486 276.742 L
176.164 276.437 L
176.842 276.141 L
177.519 275.852 L
178.197 275.571 L
178.875 275.298 L
179.552 275.032 L
180.23 274.774 L
180.908 274.523 L
181.586 274.279 L
182.263 274.042 L
182.941 273.813 L
183.619 273.59 L
184.296 273.375 L
184.974 273.167 L
185.652 272.965 L
186.33 272.771 L
187.007 272.583 L
187.685 272.401 L
188.363 272.227 L
189.04 272.059 L
189.718 271.898 L
190.396 271.743 L
191.074 271.595 L
191.751 271.453 L
192.429 271.317 L
193.107 271.188 L
193.784 271.066 L
194.462 270.949 L
195.14 270.839 L
195.818 270.735 L
196.495 270.638 L
197.173 270.546 L
197.851 270.461 L
198.529 270.382 L
199.206 270.309 L
199.884 270.243 L
200.562 270.182 L
201.239 270.127 L
201.917 270.079 L
202.595 270.037 L
203.273 270 L
203.95 269.97 L
204.628 269.946 L
205.306 269.928 L
205.983 269.916 L
206.661 269.91 L
207.339 269.91 L
208.017 269.916 L
208.694 269.928 L
209.372 269.946 L
210.05 269.97 L
210.727 270 L
211.405 270.037 L
212.083 270.079 L
212.761 270.127 L
213.438 270.182 L
214.116 270.243 L
214.794 270.309 L
215.471 270.382 L
216.149 270.461 L
216.827 270.546 L
217.505 270.638 L
218.182 270.735 L
218.86 270.839 L
219.538 270.949 L
220.216 271.066 L
220.893 271.188 L
221.571 271.317 L
222.249 271.453 L
222.926 271.595 L
223.604 271.743 L
224.282 271.898 L
224.96 272.059 L
225.637 272.227 L
226.315 272.401 L
226.993 272.583 L
227.67 272.771 L
228.348 272.965 L
229.026 273.167 L
229.704 273.375 L
230.381 273.59 L
231.059 273.813 L
231.737 274.042 L
232.414 274.279 L
233.092 274.523 L
233.77 274.774 L
234.448 275.032 L
235.125 275.298 L
235.803 275.571 L
236.481 275.852 L
237.158 276.141 L
237.836 276.437 L
238.514 276.742 L
239.192 277.054 L
239.869 277.375 L
240.547 277.703 L
241.225 278.041 L
241.903 278.386 L
242.58 278.74 L
243.258 279.103 L
243.936 279.475 L
244.613 279.856 L
245.291 280.246 L
245.969 280.645 L
246.647 281.054 L
247.324 281.473 L
248.002 281.901 L
248.68 282.34 L
249.357 282.789 L
250.035 283.248 L
250.713 283.718 L
251.391 284.199 L
252.068 284.692 L
252.746 285.196 L
253.424 285.712 L
254.101 286.24 L
254.779 286.78 L
255.457 287.334 L
256.135 287.9 L
256.812 288.48 L
257.49 289.074 L
258.168 289.682 L
258.846 290.306 L
259.523 290.944 L
260.201 291.599 L
260.879 292.27 L
261.556 292.958 L
262.234 293.664 L
262.912 294.389 L
263.59 295.133 L
264.267 295.897 L
264.945 296.683 L
265.623 297.49 L
266.3 298.321 L
266.978 299.176 L
267.656 300.058 L
268.334 300.966 L
269.011 301.904 L
269.689 302.873 L
270.367 303.875 L
271.044 304.913 L
271.722 305.989 L
272.4 307.107 L
273.078 308.27 L
273.755 309.482 L
274.433 310.749 L
275.111 312.077 L
275.788 313.474 L
276.466 314.947 L
277.144 316.51 L
277.822 318.177 L
278.499 319.968 L
279.177 321.911 L
279.855 324.045 L
280.533 326.435 L
281.21 329.187 L
281.888 332.523 L
282.566 337.075 L
S
GR
GS
[0.75 0 0 0.75 98.18182 291.20455] CT
/Helvetica 19 F
GS
[1 0 0 1 0 0] CT
0 7.078 moveto 
1 -1 scale
(\(a\) At the focus) t 
GR
GR
GS
[0.75 0 0 0.75 0 0] CT
2 setlinecap
10.0 ML
4 LW
N
359 86.875 M
359.375 87.685 L
359.75 88.474 L
360.124 89.19 L
360.499 89.909 L
360.874 90.546 L
361.249 91.158 L
361.623 91.735 L
361.998 92.23 L
362.373 92.727 L
362.747 93.114 L
363.122 93.484 L
363.497 93.795 L
363.872 94.031 L
364.246 94.264 L
364.621 94.361 L
364.996 94.459 L
365.371 94.465 L
365.745 94.421 L
366.12 94.338 L
366.495 94.15 L
366.87 93.962 L
367.244 93.646 L
367.619 93.316 L
367.994 92.909 L
368.369 92.44 L
368.743 91.941 L
369.118 91.34 L
369.493 90.737 L
369.868 90.023 L
370.242 89.296 L
370.617 88.501 L
370.992 87.659 L
371.367 86.785 L
371.741 85.842 L
372.116 84.893 L
372.491 83.862 L
372.866 82.827 L
373.24 81.739 L
373.615 80.632 L
373.99 79.496 L
374.365 78.334 L
374.739 77.159 L
375.114 75.958 L
375.489 74.754 L
375.864 73.534 L
376.238 72.311 L
376.613 71.09 L
376.988 69.867 L
377.363 68.658 L
377.737 67.455 L
378.112 66.269 L
378.487 65.105 L
378.862 63.955 L
379.236 62.849 L
379.611 61.749 L
379.986 60.719 L
380.361 59.686 L
380.735 58.745 L
381.11 57.806 L
381.485 56.958 L
381.86 56.128 L
382.234 55.385 L
382.609 54.678 L
382.984 54.051 L
383.359 53.48 L
383.733 52.979 L
384.108 52.555 L
384.483 52.19 L
384.858 51.921 L
385.232 51.698 L
385.607 51.59 L
385.982 51.516 L
386.357 51.572 L
386.731 51.652 L
387.106 51.872 L
387.481 52.109 L
387.856 52.491 L
388.23 52.883 L
388.605 53.424 L
388.98 53.969 L
389.355 54.661 L
389.729 55.354 L
390.104 56.187 L
390.479 57.022 L
390.854 57.982 L
391.228 58.947 L
391.603 60.022 L
391.978 61.103 L
392.353 62.278 L
392.727 63.458 L
393.102 64.717 L
393.477 65.979 L
393.852 67.3 L
394.226 68.626 L
394.601 69.989 L
394.976 71.357 L
395.351 72.74 L
395.725 74.126 L
396.1 75.508 L
396.475 76.887 L
396.85 78.246 L
397.224 79.594 L
397.599 80.908 L
397.974 82.2 L
398.349 83.447 L
398.723 84.659 L
399.098 85.819 L
399.473 86.926 L
399.848 87.979 L
400.222 88.958 L
400.597 89.888 L
400.972 90.719 L
401.347 91.508 L
401.721 92.172 L
402.096 92.808 L
402.471 93.288 L
402.846 93.747 L
403.22 94.044 L
403.595 94.304 L
403.97 94.421 L
404.345 94.474 L
404.719 94.407 L
405.094 94.249 L
405.469 93.999 L
405.844 93.63 L
406.218 93.198 L
406.593 92.623 L
406.968 92.015 L
407.343 91.243 L
407.717 90.441 L
408.092 89.511 L
408.467 88.529 L
408.842 87.456 L
409.216 86.314 L
409.591 85.114 L
409.966 83.833 L
410.341 82.525 L
410.715 81.133 L
411.09 79.725 L
411.465 78.263 L
411.84 76.782 L
412.214 75.275 L
412.589 73.756 L
412.964 72.228 L
413.339 70.705 L
413.713 69.183 L
414.088 67.688 L
414.463 66.209 L
414.838 64.766 L
415.212 63.366 L
415.587 61.998 L
415.962 60.711 L
416.337 59.45 L
416.711 58.298 L
417.086 57.194 L
417.461 56.18 L
417.836 55.262 L
418.21 54.402 L
418.585 53.694 L
418.96 53.036 L
419.335 52.526 L
419.709 52.106 L
420.084 51.787 L
420.459 51.617 L
420.834 51.507 L
421.208 51.584 L
421.583 51.734 L
421.958 52.011 L
422.333 52.42 L
422.707 52.894 L
423.082 53.554 L
423.457 54.272 L
423.832 55.117 L
424.206 56.066 L
424.581 57.08 L
424.956 58.238 L
425.331 59.443 L
425.705 60.745 L
426.08 62.118 L
426.455 63.536 L
426.83 65.043 L
427.204 66.576 L
427.579 68.158 L
427.954 69.769 L
428.329 71.397 L
428.703 73.043 L
429.078 74.687 L
429.453 76.328 L
429.828 77.945 L
430.202 79.548 L
430.577 81.098 L
430.952 82.61 L
431.327 84.078 L
431.701 85.454 L
432.076 86.787 L
432.451 88.019 L
432.826 89.16 L
433.2 90.244 L
433.575 91.16 L
433.95 92.006 L
434.325 92.741 L
434.699 93.322 L
435.074 93.825 L
435.449 94.16 L
435.824 94.372 L
436.198 94.498 L
436.573 94.411 L
436.948 94.238 L
437.323 93.937 L
437.697 93.465 L
438.072 92.909 L
438.447 92.197 L
438.822 91.36 L
439.196 90.443 L
439.571 89.363 L
439.946 88.201 L
440.321 86.957 L
440.695 85.583 L
441.07 84.153 L
441.445 82.647 L
441.82 81.063 L
442.194 79.442 L
442.569 77.766 L
442.944 76.058 L
443.319 74.333 L
443.693 72.592 L
444.068 70.855 L
444.443 69.122 L
444.818 67.426 L
445.192 65.759 L
445.567 64.124 L
445.942 62.574 L
446.317 61.074 L
446.691 59.643 L
447.066 58.33 L
447.441 57.088 L
447.816 55.952 L
448.19 54.956 L
448.565 54.047 L
448.94 53.28 L
449.315 52.664 L
449.689 52.147 L
450.064 51.801 L
450.439 51.606 L
450.814 51.517 L
451.188 51.615 L
451.563 51.857 L
451.938 52.206 L
452.313 52.745 L
452.687 53.415 L
453.062 54.186 L
453.437 55.134 L
453.812 56.193 L
454.186 57.342 L
454.561 58.643 L
454.936 60.03 L
455.311 61.488 L
455.685 63.06 L
456.06 64.691 L
456.435 66.37 L
456.81 68.115 L
457.184 69.888 L
457.559 71.682 L
457.934 73.492 L
458.309 75.296 L
458.683 77.091 L
459.058 78.851 L
459.433 80.57 L
459.808 82.25 L
460.182 83.849 L
460.557 85.37 L
460.932 86.826 L
461.307 88.162 L
461.681 89.385 L
462.056 90.52 L
462.431 91.507 L
462.806 92.35 L
463.18 93.086 L
463.555 93.661 L
463.93 94.066 L
464.305 94.353 L
464.679 94.476 L
465.054 94.413 L
465.429 94.229 L
465.804 93.893 L
466.178 93.362 L
466.553 92.716 L
466.928 91.94 L
467.303 90.974 L
467.677 89.907 L
468.052 88.738 L
468.427 87.4 L
468.802 85.982 L
469.176 84.484 L
469.551 82.869 L
469.926 81.194 L
470.301 79.468 L
470.675 77.678 L
471.05 75.858 L
471.425 74.019 L
471.8 72.168 L
472.174 70.326 L
472.549 68.5 L
472.924 66.703 L
473.299 64.965 L
473.673 63.276 L
474.048 61.648 L
474.423 60.134 L
474.798 58.698 L
475.172 57.344 L
475.547 56.156 L
475.922 55.074 L
476.297 54.096 L
476.671 53.301 L
477.046 52.648 L
477.421 52.115 L
477.796 51.763 L
478.17 51.584 L
478.545 51.534 L
478.92 51.648 L
479.295 51.959 L
479.669 52.395 L
480.044 52.968 L
480.419 53.747 L
480.794 54.641 L
481.168 55.646 L
481.543 56.833 L
481.918 58.122 L
482.293 59.502 L
482.667 61.01 L
483.042 62.605 L
483.417 64.264 L
483.792 65.998 L
484.166 67.79 L
484.541 69.612 L
484.916 71.463 L
485.291 73.326 L
485.665 75.185 L
486.04 77.036 L
486.415 78.842 L
486.79 80.609 L
487.164 82.333 L
487.539 83.966 L
487.914 85.518 L
488.289 86.995 L
488.663 88.353 L
489.038 89.582 L
489.413 90.711 L
489.788 91.708 L
490.162 92.53 L
490.537 93.233 L
490.912 93.806 L
491.287 94.163 L
491.661 94.392 L
492.036 94.494 L
492.411 94.374 L
492.786 94.114 L
493.16 93.728 L
493.535 93.15 L
493.91 92.421 L
494.285 91.576 L
494.659 90.576 L
495.034 89.428 L
495.409 88.184 L
495.784 86.827 L
496.158 85.34 L
496.533 83.782 L
496.908 82.154 L
497.283 80.431 L
497.657 78.668 L
498.032 76.869 L
498.407 75.031 L
498.782 73.184 L
499.156 71.335 L
499.531 69.5 L
499.906 67.695 L
500.281 65.921 L
500.655 64.206 L
501.03 62.565 L
501.405 60.986 L
501.78 59.497 L
502.154 58.131 L
502.529 56.853 L
502.904 55.684 L
503.279 54.683 L
503.653 53.789 L
504.028 53.012 L
504.403 52.442 L
504.778 51.99 L
505.152 51.656 L
505.527 51.55 L
505.902 51.567 L
506.277 51.705 L
506.651 52.057 L
507.026 52.54 L
507.401 53.138 L
507.776 53.925 L
508.15 54.839 L
508.525 55.854 L
508.9 57.024 L
509.275 58.306 L
509.649 59.668 L
510.024 61.147 L
510.399 62.711 L
510.774 64.33 L
511.148 66.023 L
511.523 67.765 L
511.898 69.534 L
512.273 71.334 L
512.647 73.141 L
513.022 74.947 L
513.397 76.739 L
513.772 78.496 L
514.146 80.222 L
514.521 81.894 L
514.896 83.49 L
515.271 85.029 L
515.645 86.477 L
516.02 87.813 L
516.395 89.07 L
516.77 90.203 L
517.144 91.198 L
517.519 92.098 L
517.894 92.848 L
518.269 93.443 L
518.643 93.935 L
519.018 94.255 L
519.393 94.42 L
519.768 94.476 L
520.142 94.35 L
520.517 94.078 L
520.892 93.701 L
521.267 93.139 L
521.641 92.451 L
522.016 91.668 L
522.391 90.708 L
522.766 89.65 L
523.14 88.511 L
523.515 87.217 L
523.89 85.856 L
524.265 84.425 L
524.639 82.885 L
525.014 81.303 L
525.389 79.67 L
525.764 77.98 L
526.138 76.272 L
526.513 74.539 L
526.888 72.799 L
527.263 71.062 L
527.637 69.339 L
528.012 67.647 L
528.387 65.98 L
528.762 64.376 L
529.136 62.825 L
529.511 61.32 L
529.886 59.933 L
530.26 58.607 L
530.635 57.365 L
531.01 56.259 L
531.385 55.227 L
531.76 54.324 L
532.134 53.554 L
532.509 52.866 L
532.884 52.356 L
533.259 51.958 L
533.633 51.657 L
534.008 51.558 L
534.383 51.546 L
534.758 51.671 L
535.132 51.957 L
535.507 52.327 L
535.882 52.867 L
536.257 53.517 L
536.631 54.251 L
537.006 55.161 L
537.381 56.136 L
537.755 57.219 L
538.13 58.413 L
538.505 59.66 L
538.88 61.022 L
539.255 62.436 L
539.629 63.904 L
540.004 65.445 L
540.379 67.009 L
540.754 68.618 L
541.128 70.246 L
541.503 71.886 L
541.878 73.534 L
542.253 75.174 L
542.627 76.801 L
543.002 78.396 L
543.377 79.974 L
543.752 81.486 L
544.126 82.96 L
544.501 84.378 L
544.876 85.711 L
545.25 87.003 L
545.625 88.17 L
546 89.275 L
S
GR
GS
[0.75 0 0 0.75 0 0] CT
0.702 GC
N
512.5 346.5 M
519.167 346.5 L
518.273 343.167 L
cp
f
GR
GS
[0.75 0 0 0.75 0 0] CT
0.702 GC
N
512.5 346.5 M
518.273 343.167 L
515.833 340.727 L
cp
f
GR
GS
[0.75 0 0 0.75 0 0] CT
0.702 GC
N
512.5 346.5 M
515.833 340.727 L
512.5 339.833 L
cp
f
GR
GS
[0.75 0 0 0.75 0 0] CT
0.702 GC
N
512.5 346.5 M
512.5 339.833 L
509.167 340.727 L
cp
f
GR
GS
[0.75 0 0 0.75 0 0] CT
0.702 GC
N
512.5 346.5 M
509.167 340.727 L
506.727 343.167 L
cp
f
GR
GS
[0.75 0 0 0.75 0 0] CT
0.702 GC
N
512.5 346.5 M
506.727 343.167 L
505.833 346.5 L
cp
f
GR
GS
[0.75 0 0 0.75 0 0] CT
0.702 GC
N
512.5 346.5 M
505.833 346.5 L
506.727 349.833 L
cp
f
GR
GS
[0.75 0 0 0.75 0 0] CT
0.702 GC
N
512.5 346.5 M
506.727 349.833 L
509.167 352.273 L
cp
f
GR
GS
[0.75 0 0 0.75 0 0] CT
0.702 GC
N
512.5 346.5 M
509.167 352.273 L
512.5 353.167 L
cp
f
GR
GS
[0.75 0 0 0.75 0 0] CT
0.702 GC
N
512.5 346.5 M
512.5 353.167 L
515.833 352.273 L
cp
f
GR
GS
[0.75 0 0 0.75 0 0] CT
0.702 GC
N
512.5 346.5 M
515.833 352.273 L
518.273 349.833 L
cp
f
GR
GS
[0.75 0 0 0.75 0 0] CT
0.702 GC
N
512.5 346.5 M
518.273 349.833 L
519.167 346.5 L
cp
f
GR
GS
[0.75 0 0 0.75 0 0] CT
0.702 GC
2 setlinecap
10.0 ML
N
519.167 346.5 M
518.273 343.167 L
515.833 340.727 L
512.5 339.833 L
509.167 340.727 L
506.727 343.167 L
505.833 346.5 L
506.727 349.833 L
509.167 352.273 L
512.5 353.167 L
515.833 352.273 L
518.273 349.833 L
519.167 346.5 L
S
GR
GS
[0.75 0 0 0.75 0 0] CT
2 setlinecap
10.0 ML
1.333 LW
N
459.167 346.5 M
458.273 343.167 L
455.833 340.727 L
452.5 339.833 L
449.167 340.727 L
446.727 343.167 L
445.833 346.5 L
446.727 349.833 L
449.167 352.273 L
452.5 353.167 L
455.833 352.273 L
458.273 349.833 L
459.167 346.5 L
S
GR
GS
[0.75 0 0 0.75 0 0] CT
2 setlinecap
10.0 ML
4 LW
N
367.5 159.5 M
367.5 176.5 L
537.5 176.5 L
537.5 159.5 L
S
GR
GS
[0.75 0 0 0.75 0 0] CT
[10 6] 0 setdash
2 LJ
N
486.909 341.952 M
487.59 339.124 L
488.272 337.161 L
488.953 335.588 L
489.634 334.252 L
490.316 333.082 L
490.997 332.039 L
491.678 331.096 L
492.36 330.236 L
493.041 329.447 L
493.722 328.719 L
494.404 328.044 L
495.085 327.418 L
495.767 326.835 L
496.448 326.292 L
497.129 325.785 L
497.811 325.312 L
498.492 324.872 L
499.173 324.461 L
499.855 324.078 L
500.536 323.722 L
501.217 323.392 L
501.899 323.086 L
502.58 322.804 L
503.262 322.544 L
503.943 322.306 L
504.624 322.09 L
505.306 321.894 L
505.987 321.719 L
506.668 321.564 L
507.35 321.428 L
508.031 321.311 L
508.712 321.213 L
509.394 321.134 L
510.075 321.073 L
510.757 321.03 L
511.438 321.006 L
512.119 321 L
512.801 321.013 L
513.482 321.043 L
514.163 321.092 L
514.845 321.159 L
515.526 321.245 L
516.207 321.349 L
516.889 321.473 L
517.57 321.616 L
518.252 321.778 L
518.933 321.961 L
519.614 322.163 L
520.296 322.387 L
520.977 322.632 L
521.658 322.9 L
522.34 323.19 L
523.021 323.505 L
523.702 323.844 L
524.384 324.209 L
525.065 324.601 L
525.747 325.022 L
526.428 325.474 L
527.109 325.958 L
527.791 326.477 L
528.472 327.034 L
529.153 327.632 L
529.835 328.274 L
530.516 328.967 L
531.197 329.716 L
531.879 330.529 L
532.56 331.416 L
533.241 332.392 L
533.923 333.475 L
534.604 334.697 L
535.286 336.106 L
535.967 337.792 L
536.648 339.965 L
537.33 343.557 L
S
GR
GS
[0.75 0 0 0.75 0 0] CT
[10 6] 0 setdash
2 LJ
N
469.875 340.869 M
470.556 337.084 L
471.237 334.472 L
471.919 332.367 L
472.6 330.566 L
473.282 328.975 L
473.963 327.541 L
474.644 326.232 L
475.326 325.023 L
476.007 323.9 L
476.688 322.85 L
477.37 321.863 L
478.051 320.932 L
478.732 320.052 L
479.414 319.216 L
480.095 318.423 L
480.777 317.667 L
481.458 316.946 L
482.139 316.258 L
482.821 315.6 L
483.502 314.97 L
484.183 314.368 L
484.865 313.79 L
485.546 313.237 L
486.227 312.706 L
486.909 312.197 L
487.59 311.709 L
488.272 311.241 L
488.953 310.792 L
489.634 310.361 L
490.316 309.948 L
490.997 309.552 L
491.678 309.173 L
492.36 308.81 L
493.041 308.463 L
493.722 308.131 L
494.404 307.814 L
495.085 307.511 L
495.767 307.222 L
496.448 306.948 L
497.129 306.687 L
497.811 306.439 L
498.492 306.204 L
499.173 305.982 L
499.855 305.772 L
500.536 305.575 L
501.217 305.391 L
501.899 305.218 L
502.58 305.057 L
503.262 304.908 L
503.943 304.771 L
504.624 304.645 L
505.306 304.531 L
505.987 304.428 L
506.668 304.336 L
507.35 304.255 L
508.031 304.186 L
508.712 304.127 L
509.394 304.08 L
510.075 304.044 L
510.757 304.018 L
511.438 304.004 L
512.119 304 L
512.801 304.008 L
513.482 304.026 L
514.163 304.055 L
514.845 304.095 L
515.526 304.147 L
516.207 304.209 L
516.889 304.282 L
517.57 304.367 L
518.252 304.462 L
518.933 304.569 L
519.614 304.688 L
520.296 304.817 L
520.977 304.959 L
521.658 305.112 L
522.34 305.277 L
523.021 305.454 L
523.702 305.643 L
524.384 305.844 L
525.065 306.058 L
525.747 306.285 L
526.428 306.524 L
527.109 306.776 L
527.791 307.042 L
528.472 307.322 L
529.153 307.615 L
529.835 307.923 L
530.516 308.246 L
531.197 308.583 L
531.879 308.936 L
532.56 309.304 L
533.241 309.689 L
533.923 310.091 L
534.604 310.51 L
535.286 310.947 L
535.967 311.402 L
536.648 311.878 L
537.33 312.373 L
538.011 312.889 L
538.692 313.428 L
539.374 313.99 L
540.055 314.576 L
540.736 315.188 L
541.418 315.827 L
542.099 316.495 L
542.781 317.195 L
543.462 317.927 L
544.143 318.696 L
544.825 319.504 L
545.506 320.354 L
546.019 321.03 L
S
GR
GS
[0.75 0 0 0.75 0 0] CT
[10 6] 0 setdash
2 LJ
N
452.841 340.142 M
453.522 335.519 L
454.203 332.365 L
454.885 329.824 L
455.566 327.646 L
456.247 325.718 L
456.929 323.974 L
457.61 322.375 L
458.292 320.894 L
458.973 319.511 L
459.654 318.213 L
460.336 316.986 L
461.017 315.824 L
461.698 314.72 L
462.38 313.666 L
463.061 312.659 L
463.742 311.694 L
464.424 310.768 L
465.105 309.879 L
465.787 309.022 L
466.468 308.198 L
467.149 307.402 L
467.831 306.634 L
468.512 305.892 L
469.193 305.174 L
469.875 304.48 L
470.556 303.807 L
471.237 303.156 L
471.919 302.526 L
472.6 301.914 L
473.282 301.321 L
473.963 300.746 L
474.644 300.188 L
475.326 299.647 L
476.007 299.121 L
476.688 298.611 L
477.37 298.116 L
478.051 297.636 L
478.732 297.169 L
479.414 296.717 L
480.095 296.277 L
480.777 295.851 L
481.458 295.437 L
482.139 295.036 L
482.821 294.646 L
483.502 294.269 L
484.183 293.903 L
484.865 293.548 L
485.546 293.204 L
486.227 292.871 L
486.909 292.549 L
487.59 292.238 L
488.272 291.936 L
488.953 291.645 L
489.634 291.364 L
490.316 291.092 L
490.997 290.83 L
491.678 290.578 L
492.36 290.335 L
493.041 290.101 L
493.722 289.877 L
494.404 289.661 L
495.085 289.455 L
495.767 289.257 L
496.448 289.068 L
497.129 288.888 L
497.811 288.717 L
498.492 288.554 L
499.173 288.399 L
499.855 288.253 L
500.536 288.115 L
501.217 287.985 L
501.899 287.864 L
502.58 287.75 L
503.262 287.645 L
503.943 287.548 L
504.624 287.459 L
505.306 287.378 L
505.987 287.305 L
506.668 287.239 L
507.35 287.182 L
508.031 287.133 L
508.712 287.091 L
509.394 287.057 L
510.075 287.031 L
510.757 287.013 L
511.438 287.003 L
512.119 287 L
512.801 287.005 L
513.482 287.018 L
514.163 287.039 L
514.845 287.068 L
515.526 287.105 L
516.207 287.149 L
516.889 287.201 L
517.57 287.261 L
518.252 287.329 L
518.933 287.405 L
519.614 287.489 L
520.296 287.581 L
520.977 287.681 L
521.658 287.789 L
522.34 287.905 L
523.021 288.03 L
523.702 288.162 L
524.384 288.303 L
525.065 288.452 L
525.747 288.61 L
526.428 288.776 L
527.109 288.95 L
527.791 289.134 L
528.472 289.325 L
529.153 289.526 L
529.835 289.736 L
530.516 289.954 L
531.197 290.182 L
531.879 290.419 L
532.56 290.665 L
533.241 290.921 L
533.923 291.186 L
534.604 291.461 L
535.286 291.746 L
535.967 292.04 L
536.648 292.345 L
537.33 292.661 L
538.011 292.987 L
538.692 293.323 L
539.374 293.671 L
540.055 294.029 L
540.736 294.399 L
541.418 294.781 L
542.099 295.175 L
542.781 295.58 L
543.462 295.999 L
544.143 296.429 L
544.825 296.873 L
545.506 297.331 L
546.019 297.686 L
S
GR
GS
[0.75 0 0 0.75 0 0] CT
[10 6] 0 setdash
2 LJ
N
435.807 339.658 M
436.488 334.245 L
437.169 330.606 L
437.851 327.682 L
438.532 325.176 L
439.213 322.955 L
439.895 320.944 L
440.576 319.098 L
441.258 317.384 L
441.939 315.78 L
442.62 314.271 L
443.302 312.843 L
443.983 311.487 L
444.664 310.194 L
445.346 308.957 L
446.027 307.772 L
446.708 306.634 L
447.39 305.539 L
448.071 304.484 L
448.753 303.465 L
449.434 302.48 L
450.115 301.527 L
450.797 300.605 L
451.478 299.71 L
452.159 298.841 L
452.841 297.998 L
453.522 297.179 L
454.203 296.382 L
454.885 295.607 L
455.566 294.852 L
456.247 294.118 L
456.929 293.402 L
457.61 292.704 L
458.292 292.024 L
458.973 291.36 L
459.654 290.713 L
460.336 290.082 L
461.017 289.465 L
461.698 288.863 L
462.38 288.276 L
463.061 287.702 L
463.742 287.141 L
464.424 286.594 L
465.105 286.059 L
465.787 285.536 L
466.468 285.026 L
467.149 284.527 L
467.831 284.039 L
468.512 283.563 L
469.193 283.098 L
469.875 282.643 L
470.556 282.199 L
471.237 281.765 L
471.919 281.341 L
472.6 280.926 L
473.282 280.522 L
473.963 280.127 L
474.644 279.741 L
475.326 279.364 L
476.007 278.996 L
476.688 278.637 L
477.37 278.287 L
478.051 277.945 L
478.732 277.612 L
479.414 277.287 L
480.095 276.971 L
480.777 276.662 L
481.458 276.361 L
482.139 276.069 L
482.821 275.784 L
483.502 275.506 L
484.183 275.237 L
484.865 274.974 L
485.546 274.719 L
486.227 274.472 L
486.909 274.232 L
487.59 273.999 L
488.272 273.773 L
488.953 273.554 L
489.634 273.342 L
490.316 273.138 L
490.997 272.94 L
491.678 272.749 L
492.36 272.564 L
493.041 272.387 L
493.722 272.216 L
494.404 272.051 L
495.085 271.893 L
495.767 271.742 L
496.448 271.598 L
497.129 271.459 L
497.811 271.327 L
498.492 271.202 L
499.173 271.083 L
499.855 270.97 L
500.536 270.864 L
501.217 270.764 L
501.899 270.67 L
502.58 270.582 L
503.262 270.501 L
503.943 270.425 L
504.624 270.356 L
505.306 270.293 L
505.987 270.237 L
506.668 270.186 L
507.35 270.141 L
508.031 270.103 L
508.712 270.071 L
509.394 270.044 L
510.075 270.024 L
510.757 270.01 L
511.438 270.002 L
512.119 270 L
512.801 270.004 L
513.482 270.014 L
514.163 270.031 L
514.845 270.053 L
515.526 270.081 L
516.207 270.116 L
516.889 270.156 L
517.57 270.203 L
518.252 270.256 L
518.933 270.315 L
519.614 270.38 L
520.296 270.451 L
520.977 270.529 L
521.658 270.612 L
522.34 270.702 L
523.021 270.798 L
523.702 270.9 L
524.384 271.009 L
525.065 271.124 L
525.747 271.245 L
526.428 271.373 L
527.109 271.507 L
527.791 271.647 L
528.472 271.794 L
529.153 271.948 L
529.835 272.108 L
530.516 272.275 L
531.197 272.448 L
531.879 272.628 L
532.56 272.815 L
533.241 273.008 L
533.923 273.209 L
534.604 273.416 L
535.286 273.63 L
535.967 273.851 L
536.648 274.08 L
537.33 274.315 L
538.011 274.558 L
538.692 274.808 L
539.374 275.065 L
540.055 275.33 L
540.736 275.602 L
541.418 275.882 L
542.099 276.17 L
542.781 276.466 L
543.462 276.769 L
544.143 277.081 L
544.825 277.4 L
545.506 277.728 L
546.019 277.981 L
S
GR
GS
[0.75 0 0 0.75 294.75 291.75] CT
/Helvetica 19 F
GS
[1 0 0 1 0 0] CT
0 7.078 moveto 
1 -1 scale
(\(b\) Off-axis) t 
GR
GR
GS
[0.75 0 0 0.75 0 0] CT
2 setlinecap
10.0 ML
4 LW
N
605 94.079 M
605.375 94.271 L
605.75 94.443 L
606.124 94.458 L
606.499 94.441 L
606.874 94.28 L
607.248 94.072 L
607.623 93.737 L
607.998 93.344 L
608.373 92.841 L
608.747 92.269 L
609.122 91.605 L
609.497 90.866 L
609.872 90.052 L
610.246 89.159 L
610.621 88.208 L
610.996 87.178 L
611.371 86.106 L
611.745 84.957 L
612.12 83.78 L
612.495 82.534 L
612.87 81.272 L
613.245 79.952 L
613.619 78.624 L
613.994 77.254 L
614.369 75.881 L
614.743 74.486 L
615.118 73.091 L
615.493 71.696 L
615.868 70.304 L
616.242 68.931 L
616.617 67.567 L
616.992 66.238 L
617.367 64.926 L
617.741 63.661 L
618.116 62.424 L
618.491 61.244 L
618.866 60.103 L
619.24 59.026 L
619.615 58.002 L
619.99 57.045 L
620.365 56.153 L
620.74 55.331 L
621.114 54.586 L
621.489 53.911 L
621.864 53.326 L
622.238 52.809 L
622.613 52.392 L
622.988 52.039 L
623.363 51.796 L
623.737 51.613 L
624.112 51.547 L
624.487 51.536 L
624.862 51.645 L
625.236 51.805 L
625.611 52.087 L
625.986 52.415 L
626.361 52.862 L
626.735 53.352 L
627.11 53.956 L
627.485 54.599 L
627.86 55.348 L
628.234 56.133 L
628.609 57.013 L
628.984 57.926 L
629.359 58.923 L
629.733 59.949 L
630.108 61.044 L
630.483 62.166 L
630.858 63.343 L
631.232 64.542 L
631.607 65.78 L
631.982 67.037 L
632.357 68.318 L
632.731 69.612 L
633.106 70.916 L
633.481 72.226 L
633.856 73.534 L
634.23 74.84 L
634.605 76.134 L
634.98 77.414 L
635.355 78.677 L
635.729 79.911 L
636.104 81.126 L
636.479 82.296 L
636.854 83.449 L
637.228 84.536 L
637.603 85.613 L
637.978 86.6 L
638.353 87.585 L
638.727 88.464 L
639.102 89.335 L
639.477 90.104 L
639.852 90.848 L
640.226 91.502 L
640.601 92.11 L
640.976 92.644 L
641.351 93.107 L
641.725 93.519 L
642.1 93.832 L
642.475 94.122 L
642.85 94.282 L
643.224 94.441 L
643.599 94.456 L
643.974 94.462 L
644.349 94.36 L
644.723 94.214 L
645.098 94 L
645.473 93.708 L
645.848 93.388 L
646.222 92.956 L
646.597 92.526 L
646.972 91.973 L
647.347 91.413 L
647.721 90.779 L
648.096 90.1 L
648.471 89.391 L
648.846 88.605 L
649.22 87.824 L
649.595 86.953 L
649.97 86.08 L
650.345 85.164 L
650.719 84.216 L
651.094 83.262 L
651.469 82.255 L
651.844 81.254 L
652.218 80.219 L
652.593 79.177 L
652.968 78.13 L
653.343 77.064 L
653.717 76.004 L
654.092 74.936 L
654.467 73.87 L
654.842 72.81 L
655.216 71.756 L
655.591 70.708 L
655.966 69.677 L
656.341 68.658 L
656.715 67.647 L
657.09 66.672 L
657.465 65.703 L
657.84 64.759 L
658.214 63.849 L
658.589 62.944 L
658.964 62.089 L
659.339 61.256 L
659.713 60.429 L
660.088 59.678 L
660.463 58.934 L
660.838 58.209 L
661.212 57.557 L
661.587 56.91 L
661.962 56.296 L
662.337 55.749 L
662.711 55.206 L
663.086 54.704 L
663.461 54.266 L
663.836 53.831 L
664.21 53.439 L
664.585 53.112 L
664.96 52.788 L
665.335 52.499 L
665.709 52.283 L
666.084 52.07 L
666.459 51.873 L
666.834 51.767 L
667.208 51.662 L
667.583 51.557 L
667.958 51.544 L
668.333 51.542 L
668.707 51.541 L
669.082 51.589 L
669.457 51.686 L
669.832 51.781 L
670.206 51.876 L
670.581 52.063 L
670.956 52.247 L
671.331 52.429 L
671.705 52.64 L
672.08 52.904 L
672.455 53.165 L
672.83 53.422 L
673.204 53.72 L
673.579 54.048 L
673.954 54.372 L
674.329 54.692 L
674.703 55.046 L
675.078 55.425 L
675.453 55.8 L
675.828 56.169 L
676.202 56.55 L
676.577 56.968 L
676.952 57.378 L
677.327 57.782 L
677.701 58.18 L
678.076 58.609 L
678.451 59.042 L
678.826 59.468 L
679.2 59.886 L
679.575 60.297 L
679.95 60.734 L
680.325 61.168 L
680.699 61.593 L
681.074 62.01 L
681.449 62.419 L
681.824 62.833 L
682.198 63.253 L
682.573 63.664 L
682.948 64.066 L
683.323 64.459 L
683.697 64.843 L
684.072 65.225 L
684.447 65.609 L
684.822 65.983 L
685.196 66.348 L
685.571 66.702 L
685.946 67.047 L
686.321 67.383 L
686.695 67.71 L
687.07 68.036 L
687.445 68.351 L
687.82 68.656 L
688.194 68.951 L
688.569 69.236 L
688.944 69.51 L
689.319 69.774 L
689.693 70.028 L
690.068 70.271 L
690.443 70.507 L
690.818 70.733 L
691.192 70.948 L
691.567 71.153 L
691.942 71.346 L
692.317 71.53 L
692.691 71.702 L
693.066 71.864 L
693.441 72.015 L
693.816 72.155 L
694.19 72.285 L
694.565 72.404 L
694.94 72.512 L
695.315 72.609 L
695.689 72.696 L
696.064 72.771 L
696.439 72.836 L
696.814 72.89 L
697.188 72.934 L
697.563 72.966 L
697.938 72.988 L
698.313 72.999 L
698.687 72.999 L
699.062 72.988 L
699.437 72.966 L
699.812 72.934 L
700.186 72.89 L
700.561 72.836 L
700.936 72.771 L
701.311 72.696 L
701.685 72.609 L
702.06 72.512 L
702.435 72.404 L
702.81 72.285 L
703.184 72.155 L
703.559 72.015 L
703.934 71.864 L
704.309 71.702 L
704.683 71.53 L
705.058 71.346 L
705.433 71.153 L
705.808 70.948 L
706.182 70.733 L
706.557 70.507 L
706.932 70.271 L
707.307 70.028 L
707.681 69.774 L
708.056 69.51 L
708.431 69.236 L
708.806 68.951 L
709.18 68.656 L
709.555 68.351 L
709.93 68.036 L
710.305 67.71 L
710.679 67.383 L
711.054 67.047 L
711.429 66.702 L
711.804 66.348 L
712.178 65.983 L
712.553 65.609 L
712.928 65.225 L
713.303 64.843 L
713.677 64.459 L
714.052 64.066 L
714.427 63.664 L
714.802 63.253 L
715.176 62.833 L
715.551 62.419 L
715.926 62.01 L
716.301 61.593 L
716.675 61.168 L
717.05 60.734 L
717.425 60.297 L
717.8 59.886 L
718.174 59.468 L
718.549 59.042 L
718.924 58.609 L
719.299 58.18 L
719.673 57.782 L
720.048 57.378 L
720.423 56.968 L
720.798 56.55 L
721.172 56.169 L
721.547 55.8 L
721.922 55.425 L
722.297 55.046 L
722.671 54.692 L
723.046 54.372 L
723.421 54.048 L
723.796 53.72 L
724.17 53.422 L
724.545 53.165 L
724.92 52.904 L
725.295 52.64 L
725.669 52.429 L
726.044 52.247 L
726.419 52.063 L
726.794 51.876 L
727.168 51.781 L
727.543 51.686 L
727.918 51.589 L
728.293 51.541 L
728.667 51.542 L
729.042 51.544 L
729.417 51.557 L
729.792 51.662 L
730.166 51.767 L
730.541 51.873 L
730.916 52.07 L
731.291 52.283 L
731.665 52.499 L
732.04 52.788 L
732.415 53.112 L
732.79 53.439 L
733.164 53.831 L
733.539 54.266 L
733.914 54.704 L
734.289 55.206 L
734.663 55.749 L
735.038 56.296 L
735.413 56.91 L
735.788 57.557 L
736.162 58.209 L
736.537 58.934 L
736.912 59.678 L
737.287 60.429 L
737.661 61.256 L
738.036 62.089 L
738.411 62.944 L
738.786 63.849 L
739.16 64.759 L
739.535 65.703 L
739.91 66.672 L
740.285 67.647 L
740.659 68.658 L
741.034 69.677 L
741.409 70.708 L
741.784 71.756 L
742.158 72.81 L
742.533 73.87 L
742.908 74.936 L
743.283 76.004 L
743.657 77.064 L
744.032 78.13 L
744.407 79.177 L
744.782 80.219 L
745.156 81.254 L
745.531 82.255 L
745.906 83.262 L
746.281 84.216 L
746.655 85.164 L
747.03 86.08 L
747.405 86.953 L
747.78 87.824 L
748.154 88.605 L
748.529 89.391 L
748.904 90.1 L
749.279 90.779 L
749.653 91.413 L
750.028 91.973 L
750.403 92.526 L
750.778 92.956 L
751.152 93.388 L
751.527 93.708 L
751.902 94 L
752.277 94.214 L
752.651 94.36 L
753.026 94.462 L
753.401 94.456 L
753.776 94.441 L
754.15 94.282 L
754.525 94.122 L
754.9 93.832 L
755.275 93.519 L
755.649 93.107 L
756.024 92.644 L
756.399 92.11 L
756.774 91.502 L
757.148 90.848 L
757.523 90.104 L
757.898 89.335 L
758.273 88.464 L
758.647 87.585 L
759.022 86.6 L
759.397 85.613 L
759.772 84.536 L
760.146 83.449 L
760.521 82.296 L
760.896 81.126 L
761.271 79.911 L
761.645 78.677 L
762.02 77.414 L
762.395 76.134 L
762.77 74.84 L
763.144 73.534 L
763.519 72.226 L
763.894 70.916 L
764.269 69.612 L
764.643 68.318 L
765.018 67.037 L
765.393 65.78 L
765.768 64.542 L
766.142 63.343 L
766.517 62.166 L
766.892 61.044 L
767.267 59.949 L
767.641 58.923 L
768.016 57.926 L
768.391 57.013 L
768.766 56.133 L
769.14 55.348 L
769.515 54.599 L
769.89 53.956 L
770.265 53.352 L
770.639 52.862 L
771.014 52.415 L
771.389 52.087 L
771.764 51.805 L
772.138 51.645 L
772.513 51.536 L
772.888 51.547 L
773.263 51.613 L
773.637 51.796 L
774.012 52.039 L
774.387 52.392 L
774.762 52.809 L
775.136 53.326 L
775.511 53.911 L
775.886 54.586 L
776.26 55.331 L
776.635 56.153 L
777.01 57.045 L
777.385 58.002 L
777.76 59.026 L
778.134 60.103 L
778.509 61.244 L
778.884 62.424 L
779.259 63.661 L
779.633 64.926 L
780.008 66.238 L
780.383 67.567 L
780.758 68.931 L
781.132 70.304 L
781.507 71.696 L
781.882 73.091 L
782.257 74.486 L
782.631 75.881 L
783.006 77.254 L
783.381 78.624 L
783.755 79.952 L
784.13 81.272 L
784.505 82.534 L
784.88 83.78 L
785.255 84.957 L
785.629 86.106 L
786.004 87.178 L
786.379 88.208 L
786.754 89.159 L
787.128 90.052 L
787.503 90.866 L
787.878 91.605 L
788.253 92.269 L
788.627 92.841 L
789.002 93.344 L
789.377 93.737 L
789.752 94.072 L
790.126 94.28 L
790.501 94.441 L
790.876 94.458 L
791.25 94.443 L
791.625 94.271 L
792 94.079 L
S
GR
GS
[0.75 0 0 0.75 0 0] CT
0.702 GC
N
698.5 261.5 M
705.167 261.5 L
704.273 258.167 L
cp
f
GR
GS
[0.75 0 0 0.75 0 0] CT
0.702 GC
N
698.5 261.5 M
704.273 258.167 L
701.833 255.727 L
cp
f
GR
GS
[0.75 0 0 0.75 0 0] CT
0.702 GC
N
698.5 261.5 M
701.833 255.727 L
698.5 254.833 L
cp
f
GR
GS
[0.75 0 0 0.75 0 0] CT
0.702 GC
N
698.5 261.5 M
698.5 254.833 L
695.167 255.727 L
cp
f
GR
GS
[0.75 0 0 0.75 0 0] CT
0.702 GC
N
698.5 261.5 M
695.167 255.727 L
692.727 258.167 L
cp
f
GR
GS
[0.75 0 0 0.75 0 0] CT
0.702 GC
N
698.5 261.5 M
692.727 258.167 L
691.833 261.5 L
cp
f
GR
GS
[0.75 0 0 0.75 0 0] CT
0.702 GC
N
698.5 261.5 M
691.833 261.5 L
692.727 264.833 L
cp
f
GR
GS
[0.75 0 0 0.75 0 0] CT
0.702 GC
N
698.5 261.5 M
692.727 264.833 L
695.167 267.273 L
cp
f
GR
GS
[0.75 0 0 0.75 0 0] CT
0.702 GC
N
698.5 261.5 M
695.167 267.273 L
698.5 268.167 L
cp
f
GR
GS
[0.75 0 0 0.75 0 0] CT
0.702 GC
N
698.5 261.5 M
698.5 268.167 L
701.833 267.273 L
cp
f
GR
GS
[0.75 0 0 0.75 0 0] CT
0.702 GC
N
698.5 261.5 M
701.833 267.273 L
704.273 264.833 L
cp
f
GR
GS
[0.75 0 0 0.75 0 0] CT
0.702 GC
N
698.5 261.5 M
704.273 264.833 L
705.167 261.5 L
cp
f
GR
GS
[0.75 0 0 0.75 0 0] CT
0.702 GC
2 setlinecap
10.0 ML
N
705.167 261.5 M
704.273 258.167 L
701.833 255.727 L
698.5 254.833 L
695.167 255.727 L
692.727 258.167 L
691.833 261.5 L
692.727 264.833 L
695.167 267.273 L
698.5 268.167 L
701.833 267.273 L
704.273 264.833 L
705.167 261.5 L
S
GR
GS
[0.75 0 0 0.75 0 0] CT
2 setlinecap
10.0 ML
1.333 LW
N
705.167 346.5 M
704.273 343.167 L
701.833 340.727 L
698.5 339.833 L
695.167 340.727 L
692.727 343.167 L
691.833 346.5 L
692.727 349.833 L
695.167 352.273 L
698.5 353.167 L
701.833 352.273 L
704.273 349.833 L
705.167 346.5 L
S
GR
GS
[0.75 0 0 0.75 0 0] CT
2 setlinecap
10.0 ML
4 LW
N
613.5 159.5 M
613.5 176.5 L
783.5 176.5 L
783.5 159.5 L
S
GR
GS
[0.75 0 0 0.75 0 0] CT
[10 6] 0 setdash
2 LJ
N
673.63 255.866 M
674.312 253.427 L
674.993 251.617 L
675.674 250.132 L
676.356 248.856 L
677.037 247.731 L
677.718 246.722 L
678.4 245.808 L
679.081 244.972 L
679.763 244.204 L
680.444 243.494 L
681.125 242.835 L
681.807 242.224 L
682.488 241.654 L
683.169 241.123 L
683.851 240.628 L
684.532 240.166 L
685.213 239.735 L
685.895 239.333 L
686.576 238.96 L
687.258 238.612 L
687.939 238.29 L
688.62 237.992 L
689.302 237.717 L
689.983 237.464 L
690.664 237.234 L
691.346 237.024 L
692.027 236.835 L
692.708 236.666 L
693.39 236.517 L
694.071 236.388 L
694.753 236.277 L
695.434 236.185 L
696.115 236.112 L
696.797 236.057 L
697.478 236.02 L
698.159 236.002 L
698.841 236.002 L
699.522 236.02 L
700.203 236.057 L
700.885 236.112 L
701.566 236.185 L
702.247 236.277 L
702.929 236.388 L
703.61 236.517 L
704.292 236.666 L
704.973 236.835 L
705.654 237.024 L
706.336 237.234 L
707.017 237.464 L
707.698 237.717 L
708.38 237.992 L
709.061 238.29 L
709.742 238.612 L
710.424 238.96 L
711.105 239.333 L
711.787 239.735 L
712.468 240.166 L
713.149 240.628 L
713.831 241.123 L
714.512 241.654 L
715.193 242.224 L
715.875 242.835 L
716.556 243.494 L
717.237 244.204 L
717.919 244.972 L
718.6 245.808 L
719.282 246.722 L
719.963 247.731 L
720.644 248.856 L
721.326 250.132 L
722.007 251.617 L
722.688 253.427 L
723.37 255.866 L
S
GR
GS
[0.75 0 0 0.75 0 0] CT
[10 6] 0 setdash
2 LJ
N
656.596 254.406 M
657.278 251.158 L
657.959 248.746 L
658.64 246.754 L
659.322 245.029 L
660.003 243.494 L
660.684 242.103 L
661.366 240.829 L
662.047 239.65 L
662.728 238.551 L
663.41 237.522 L
664.091 236.554 L
664.773 235.641 L
665.454 234.775 L
666.135 233.954 L
666.817 233.173 L
667.498 232.429 L
668.179 231.719 L
668.861 231.041 L
669.542 230.392 L
670.223 229.772 L
670.905 229.177 L
671.586 228.608 L
672.268 228.062 L
672.949 227.538 L
673.63 227.036 L
674.312 226.555 L
674.993 226.093 L
675.674 225.65 L
676.356 225.225 L
677.037 224.818 L
677.718 224.427 L
678.4 224.054 L
679.081 223.696 L
679.763 223.353 L
680.444 223.026 L
681.125 222.714 L
681.807 222.416 L
682.488 222.132 L
683.169 221.861 L
683.851 221.605 L
684.532 221.361 L
685.213 221.13 L
685.895 220.912 L
686.576 220.707 L
687.258 220.514 L
687.939 220.333 L
688.62 220.164 L
689.302 220.007 L
689.983 219.862 L
690.664 219.729 L
691.346 219.606 L
692.027 219.496 L
692.708 219.396 L
693.39 219.308 L
694.071 219.231 L
694.753 219.166 L
695.434 219.111 L
696.115 219.067 L
696.797 219.034 L
697.478 219.012 L
698.159 219.001 L
698.841 219.001 L
699.522 219.012 L
700.203 219.034 L
700.885 219.067 L
701.566 219.111 L
702.247 219.166 L
702.929 219.231 L
703.61 219.308 L
704.292 219.396 L
704.973 219.496 L
705.654 219.606 L
706.336 219.729 L
707.017 219.862 L
707.698 220.007 L
708.38 220.164 L
709.061 220.333 L
709.742 220.514 L
710.424 220.707 L
711.105 220.912 L
711.787 221.13 L
712.468 221.361 L
713.149 221.605 L
713.831 221.861 L
714.512 222.132 L
715.193 222.416 L
715.875 222.714 L
716.556 223.026 L
717.237 223.353 L
717.919 223.696 L
718.6 224.054 L
719.282 224.427 L
719.963 224.818 L
720.644 225.225 L
721.326 225.65 L
722.007 226.093 L
722.688 226.555 L
723.37 227.036 L
724.051 227.538 L
724.732 228.062 L
725.414 228.608 L
726.095 229.177 L
726.777 229.772 L
727.458 230.392 L
728.139 231.041 L
728.821 231.719 L
729.502 232.429 L
730.183 233.173 L
730.865 233.954 L
731.546 234.775 L
732.227 235.641 L
732.909 236.554 L
733.59 237.522 L
734.272 238.551 L
734.953 239.65 L
735.634 240.829 L
736.316 242.103 L
736.997 243.494 L
737.678 245.029 L
738.36 246.754 L
739.041 248.746 L
739.722 251.158 L
740.404 254.406 L
S
GR
GS
[0.75 0 0 0.75 0 0] CT
[10 6] 0 setdash
2 LJ
N
639.562 253.341 M
640.243 249.399 L
640.925 246.488 L
641.606 244.083 L
642.288 241.996 L
642.969 240.133 L
643.65 238.44 L
644.332 236.882 L
645.013 235.435 L
645.694 234.081 L
646.376 232.807 L
647.057 231.602 L
647.738 230.459 L
648.42 229.372 L
649.101 228.334 L
649.783 227.341 L
650.464 226.389 L
651.145 225.475 L
651.827 224.597 L
652.508 223.751 L
653.189 222.936 L
653.871 222.149 L
654.552 221.39 L
655.233 220.656 L
655.915 219.946 L
656.596 219.259 L
657.278 218.594 L
657.959 217.949 L
658.64 217.325 L
659.322 216.719 L
660.003 216.132 L
660.684 215.563 L
661.366 215.01 L
662.047 214.474 L
662.728 213.954 L
663.41 213.449 L
664.091 212.958 L
664.773 212.483 L
665.454 212.021 L
666.135 211.572 L
666.817 211.137 L
667.498 210.715 L
668.179 210.305 L
668.861 209.908 L
669.542 209.522 L
670.223 209.148 L
670.905 208.786 L
671.586 208.435 L
672.268 208.095 L
672.949 207.766 L
673.63 207.447 L
674.312 207.139 L
674.993 206.84 L
675.674 206.552 L
676.356 206.274 L
677.037 206.006 L
677.718 205.747 L
678.4 205.498 L
679.081 205.258 L
679.763 205.027 L
680.444 204.806 L
681.125 204.593 L
681.807 204.39 L
682.488 204.195 L
683.169 204.009 L
683.851 203.832 L
684.532 203.663 L
685.213 203.502 L
685.895 203.351 L
686.576 203.207 L
687.258 203.072 L
687.939 202.945 L
688.62 202.826 L
689.302 202.715 L
689.983 202.613 L
690.664 202.518 L
691.346 202.432 L
692.027 202.353 L
692.708 202.283 L
693.39 202.22 L
694.071 202.165 L
694.753 202.118 L
695.434 202.079 L
696.115 202.048 L
696.797 202.024 L
697.478 202.009 L
698.159 202.001 L
698.841 202.001 L
699.522 202.009 L
700.203 202.024 L
700.885 202.048 L
701.566 202.079 L
702.247 202.118 L
702.929 202.165 L
703.61 202.22 L
704.292 202.283 L
704.973 202.353 L
705.654 202.432 L
706.336 202.518 L
707.017 202.613 L
707.698 202.715 L
708.38 202.826 L
709.061 202.945 L
709.742 203.072 L
710.424 203.207 L
711.105 203.351 L
711.787 203.502 L
712.468 203.663 L
713.149 203.832 L
713.831 204.009 L
714.512 204.195 L
715.193 204.39 L
715.875 204.593 L
716.556 204.806 L
717.237 205.027 L
717.919 205.258 L
718.6 205.498 L
719.282 205.747 L
719.963 206.006 L
720.644 206.274 L
721.326 206.552 L
722.007 206.84 L
722.688 207.139 L
723.37 207.447 L
724.051 207.766 L
724.732 208.095 L
725.414 208.435 L
726.095 208.786 L
726.777 209.148 L
727.458 209.522 L
728.139 209.908 L
728.821 210.305 L
729.502 210.715 L
730.183 211.137 L
730.865 211.572 L
731.546 212.021 L
732.227 212.483 L
732.909 212.958 L
733.59 213.449 L
734.272 213.954 L
734.953 214.474 L
735.634 215.01 L
736.316 215.563 L
736.997 216.132 L
737.678 216.719 L
738.36 217.325 L
739.041 217.949 L
739.722 218.594 L
740.404 219.259 L
741.085 219.946 L
741.767 220.656 L
742.448 221.39 L
743.129 222.149 L
743.811 222.936 L
744.492 223.751 L
745.173 224.597 L
745.855 225.475 L
746.536 226.389 L
747.217 227.341 L
747.899 228.334 L
748.58 229.372 L
749.262 230.459 L
749.943 231.602 L
750.624 232.807 L
751.306 234.081 L
751.987 235.435 L
752.668 236.882 L
753.35 238.44 L
754.031 240.133 L
754.712 241.996 L
755.394 244.083 L
756.075 246.488 L
756.757 249.399 L
757.438 253.341 L
S
GR
GS
[0.75 0 0 0.75 0 0] CT
[10 6] 0 setdash
2 LJ
N
622.528 252.527 M
623.209 247.951 L
623.891 244.597 L
624.572 241.83 L
625.253 239.427 L
625.935 237.281 L
626.616 235.328 L
627.298 233.527 L
627.979 231.852 L
628.66 230.28 L
629.342 228.799 L
630.023 227.395 L
630.704 226.06 L
631.386 224.786 L
632.067 223.567 L
632.748 222.398 L
633.43 221.274 L
634.111 220.192 L
634.793 219.149 L
635.474 218.141 L
636.155 217.167 L
636.837 216.224 L
637.518 215.311 L
638.199 214.425 L
638.881 213.565 L
639.562 212.729 L
640.243 211.917 L
640.925 211.128 L
641.606 210.36 L
642.288 209.612 L
642.969 208.883 L
643.65 208.173 L
644.332 207.481 L
645.013 206.806 L
645.694 206.148 L
646.376 205.506 L
647.057 204.88 L
647.738 204.268 L
648.42 203.671 L
649.101 203.088 L
649.783 202.518 L
650.464 201.962 L
651.145 201.419 L
651.827 200.888 L
652.508 200.369 L
653.189 199.862 L
653.871 199.367 L
654.552 198.883 L
655.233 198.411 L
655.915 197.949 L
656.596 197.497 L
657.278 197.057 L
657.959 196.626 L
658.64 196.205 L
659.322 195.794 L
660.003 195.392 L
660.684 195 L
661.366 194.617 L
662.047 194.244 L
662.728 193.879 L
663.41 193.523 L
664.091 193.175 L
664.773 192.836 L
665.454 192.506 L
666.135 192.184 L
666.817 191.869 L
667.498 191.563 L
668.179 191.265 L
668.861 190.975 L
669.542 190.693 L
670.223 190.418 L
670.905 190.15 L
671.586 189.891 L
672.268 189.638 L
672.949 189.393 L
673.63 189.155 L
674.312 188.925 L
674.993 188.701 L
675.674 188.485 L
676.356 188.275 L
677.037 188.073 L
677.718 187.877 L
678.4 187.688 L
679.081 187.506 L
679.763 187.33 L
680.444 187.161 L
681.125 186.999 L
681.807 186.844 L
682.488 186.694 L
683.169 186.552 L
683.851 186.416 L
684.532 186.286 L
685.213 186.163 L
685.895 186.046 L
686.576 185.935 L
687.258 185.831 L
687.939 185.733 L
688.62 185.641 L
689.302 185.555 L
689.983 185.476 L
690.664 185.402 L
691.346 185.335 L
692.027 185.274 L
692.708 185.22 L
693.39 185.171 L
694.071 185.128 L
694.753 185.092 L
695.434 185.061 L
696.115 185.037 L
696.797 185.019 L
697.478 185.007 L
698.159 185.001 L
698.841 185.001 L
699.522 185.007 L
700.203 185.019 L
700.885 185.037 L
701.566 185.061 L
702.247 185.092 L
702.929 185.128 L
703.61 185.171 L
704.292 185.22 L
704.973 185.274 L
705.654 185.335 L
706.336 185.402 L
707.017 185.476 L
707.698 185.555 L
708.38 185.641 L
709.061 185.733 L
709.742 185.831 L
710.424 185.935 L
711.105 186.046 L
711.787 186.163 L
712.468 186.286 L
713.149 186.416 L
713.831 186.552 L
714.512 186.694 L
715.193 186.844 L
715.875 186.999 L
716.556 187.161 L
717.237 187.33 L
717.919 187.506 L
718.6 187.688 L
719.282 187.877 L
719.963 188.073 L
720.644 188.275 L
721.326 188.485 L
722.007 188.701 L
722.688 188.925 L
723.37 189.155 L
724.051 189.393 L
724.732 189.638 L
725.414 189.891 L
726.095 190.15 L
726.777 190.418 L
727.458 190.693 L
728.139 190.975 L
728.821 191.265 L
729.502 191.563 L
730.183 191.869 L
730.865 192.184 L
731.546 192.506 L
732.227 192.836 L
732.909 193.175 L
733.59 193.523 L
734.272 193.879 L
734.953 194.244 L
735.634 194.617 L
736.316 195 L
736.997 195.392 L
737.678 195.794 L
738.36 196.205 L
739.041 196.626 L
739.722 197.057 L
740.404 197.497 L
741.085 197.949 L
741.767 198.411 L
742.448 198.883 L
743.129 199.367 L
743.811 199.862 L
744.492 200.369 L
745.173 200.888 L
745.855 201.419 L
746.536 201.962 L
747.217 202.518 L
747.899 203.088 L
748.58 203.671 L
749.262 204.268 L
749.943 204.88 L
750.624 205.506 L
751.306 206.148 L
751.987 206.806 L
752.668 207.481 L
753.35 208.173 L
754.031 208.883 L
754.712 209.612 L
755.394 210.36 L
756.075 211.128 L
756.757 211.917 L
757.438 212.729 L
758.119 213.565 L
758.801 214.425 L
759.482 215.311 L
760.163 216.224 L
760.845 217.167 L
761.526 218.141 L
762.207 219.149 L
762.889 220.192 L
763.57 221.274 L
764.252 222.398 L
764.933 223.567 L
765.614 224.786 L
766.296 226.06 L
766.977 227.395 L
767.658 228.799 L
768.34 230.28 L
769.021 231.852 L
769.702 233.527 L
770.384 235.328 L
771.065 237.281 L
771.747 239.427 L
772.428 241.83 L
773.109 244.597 L
773.791 247.951 L
774.472 252.527 L
S
GR
GS
[0.75 0 0 0.75 472.875 291.75] CT
/Helvetica 19 F
GS
[1 0 0 1 0 0] CT
0 7.078 moveto 
1 -1 scale
(\(c\) Multi-path) t 
GR
GR
%%Trailer
%%BoundingBox: 85 4 595 262
%%Pages: 1
%%EOF
