%!PS-Adobe-2.0 EPSF-1.2
%%Creator: MATLAB, The Mathworks, Inc.
%%Title: autocorrelation.eps
%%CreationDate: 10/23/2001  11:54:06
%%DocumentNeededFonts: Times-Roman
%%+ Helvetica
%%DocumentProcessColors: Cyan Magenta Yellow Black
%%Pages: 1
%%BoundingBox:    45   192   544   584
%%EndComments

%%BeginProlog
% MathWorks dictionary
/MathWorks 160 dict begin
% definition operators
/bdef {bind def} bind def
/ldef {load def} bind def
/xdef {exch def} bdef
/xstore {exch store} bdef
% operator abbreviations
/c  /clip ldef
/cc /concat ldef
/cp /closepath ldef
/gr /grestore ldef
/gs /gsave ldef
/mt /moveto ldef
/np /newpath ldef
/cm /currentmatrix ldef
/sm /setmatrix ldef
/rm /rmoveto ldef
/rl /rlineto ldef
/s /show ldef
/sc {setcmykcolor} bdef
/sr /setrgbcolor ldef
/sg /setgray ldef
/w /setlinewidth ldef
/j /setlinejoin ldef
/cap /setlinecap ldef
/rc {rectclip} bdef
/rf {rectfill} bdef
% page state control
/pgsv () def
/bpage {/pgsv save def} bdef
/epage {pgsv restore} bdef
/bplot /gsave ldef
/eplot {stroke grestore} bdef
% orientation switch
/portraitMode 0 def /landscapeMode 1 def /rotateMode 2 def
% coordinate system mappings
/dpi2point 0 def
% font control
/FontSize 0 def
/FMS {/FontSize xstore findfont [FontSize 0 0 FontSize neg 0 0]
  makefont setfont} bdef
/reencode {exch dup where {pop load} {pop StandardEncoding} ifelse
  exch dup 3 1 roll findfont dup length dict begin
  { 1 index /FID ne {def}{pop pop} ifelse } forall
  /Encoding exch def currentdict end definefont pop} bdef
/isroman {findfont /CharStrings get /Agrave known} bdef
/FMSR {3 1 roll 1 index dup isroman {reencode} {pop pop} ifelse
  exch FMS} bdef
/csm {1 dpi2point div -1 dpi2point div scale neg translate
 dup landscapeMode eq {pop -90 rotate}
  {rotateMode eq {90 rotate} if} ifelse} bdef
% line types: solid, dotted, dashed, dotdash
/SO { [] 0 setdash } bdef
/DO { [.5 dpi2point mul 4 dpi2point mul] 0 setdash } bdef
/DA { [6 dpi2point mul] 0 setdash } bdef
/DD { [.5 dpi2point mul 4 dpi2point mul 6 dpi2point mul 4
  dpi2point mul] 0 setdash } bdef
% macros for lines and objects
/L {lineto stroke} bdef
/MP {3 1 roll moveto 1 sub {rlineto} repeat} bdef
/AP {{rlineto} repeat} bdef
/PDlw -1 def
/W {/PDlw currentlinewidth def setlinewidth} def
/PP {closepath eofill} bdef
/DP {closepath stroke} bdef
/MR {4 -2 roll moveto dup  0 exch rlineto exch 0 rlineto
  neg 0 exch rlineto closepath} bdef
/FR {MR stroke} bdef
/PR {MR fill} bdef
/L1i {{currentfile picstr readhexstring pop} image} bdef
/tMatrix matrix def
/MakeOval {newpath tMatrix currentmatrix pop translate scale
0 0 1 0 360 arc tMatrix setmatrix} bdef
/FO {MakeOval stroke} bdef
/PO {MakeOval fill} bdef
/PD {currentlinewidth 2 div 0 360 arc fill
   PDlw -1 eq not {PDlw w /PDlw -1 def} if} def
/FA {newpath tMatrix currentmatrix pop translate scale
  0 0 1 5 -2 roll arc tMatrix setmatrix stroke} bdef
/PA {newpath tMatrix currentmatrix pop	translate 0 0 moveto scale
  0 0 1 5 -2 roll arc closepath tMatrix setmatrix fill} bdef
/FAn {newpath tMatrix currentmatrix pop translate scale
  0 0 1 5 -2 roll arcn tMatrix setmatrix stroke} bdef
/PAn {newpath tMatrix currentmatrix pop translate 0 0 moveto scale
  0 0 1 5 -2 roll arcn closepath tMatrix setmatrix fill} bdef
/vradius 0 def /hradius 0 def /lry 0 def
/lrx 0 def /uly 0 def /ulx 0 def /rad 0 def
/MRR {/vradius xdef /hradius xdef /lry xdef /lrx xdef /uly xdef
  /ulx xdef newpath tMatrix currentmatrix pop ulx hradius add uly
  vradius add translate hradius vradius scale 0 0 1 180 270 arc 
  tMatrix setmatrix lrx hradius sub uly vradius add translate
  hradius vradius scale 0 0 1 270 360 arc tMatrix setmatrix
  lrx hradius sub lry vradius sub translate hradius vradius scale
  0 0 1 0 90 arc tMatrix setmatrix ulx hradius add lry vradius sub
  translate hradius vradius scale 0 0 1 90 180 arc tMatrix setmatrix
  closepath} bdef
/FRR {MRR stroke } bdef
/PRR {MRR fill } bdef
/MlrRR {/lry xdef /lrx xdef /uly xdef /ulx xdef /rad lry uly sub 2 div def
  newpath tMatrix currentmatrix pop ulx rad add uly rad add translate
  rad rad scale 0 0 1 90 270 arc tMatrix setmatrix lrx rad sub lry rad
  sub translate rad rad scale 0 0 1 270 90 arc tMatrix setmatrix
  closepath} bdef
/FlrRR {MlrRR stroke } bdef
/PlrRR {MlrRR fill } bdef
/MtbRR {/lry xdef /lrx xdef /uly xdef /ulx xdef /rad lrx ulx sub 2 div def
  newpath tMatrix currentmatrix pop ulx rad add uly rad add translate
  rad rad scale 0 0 1 180 360 arc tMatrix setmatrix lrx rad sub lry rad
  sub translate rad rad scale 0 0 1 0 180 arc tMatrix setmatrix
  closepath} bdef
/FtbRR {MtbRR stroke } bdef
/PtbRR {MtbRR fill } bdef
/stri 6 array def /dtri 6 array def
/smat 6 array def /dmat 6 array def
/tmat1 6 array def /tmat2 6 array def /dif 3 array def
/asub {/ind2 exch def /ind1 exch def dup dup
  ind1 get exch ind2 get sub exch } bdef
/tri_to_matrix {
  2 0 asub 3 1 asub 4 0 asub 5 1 asub
  dup 0 get exch 1 get 7 -1 roll astore } bdef
/compute_transform {
  dmat dtri tri_to_matrix tmat1 invertmatrix 
  smat stri tri_to_matrix tmat2 concatmatrix } bdef
/ds {stri astore pop} bdef
/dt {dtri astore pop} bdef
/db {2 copy /cols xdef /rows xdef mul dup string
  currentfile exch readhexstring pop
  /bmap xdef pop pop} bdef
/it {gs np dtri aload pop moveto lineto lineto cp c
  cols rows 8 compute_transform 
  {bmap} image gr}bdef
/il {newpath moveto lineto stroke}bdef
currentdict end def
%%EndProlog

%%BeginSetup
MathWorks begin

0 cap

end
%%EndSetup

%%Page: 1 1
%%BeginPageSetup
%%PageBoundingBox:    45   192   544   584
MathWorks begin
bpage
%%EndPageSetup

%%BeginObject: obj1
bplot

/dpi2point 12 def
portraitMode 0216 7344 csm

  328   332  5984  4697 MR c np
92 dict begin %Colortable dictionary
/c0 { 0 0 0 sr} bdef
/c1 { 1 1 1 sr} bdef
/c2 { 1 0 0 sr} bdef
/c3 { 0 1 0 sr} bdef
/c4 { 0 0 1 sr} bdef
/c5 { 1 1 0 sr} bdef
/c6 { 1 0 1 sr} bdef
/c7 { 0 1 1 sr} bdef
c0
1 j
1 sg
   0    0 6920 5190 PR
6 w
0 1786 5363 0 0 -1786 899 2174 4 MP
PP
-5363 0 0 1786 5363 0 0 -1786 899 2174 5 MP stroke
4 w
DO
SO
6 w
0 sg
 899 2174 mt 6262 2174 L
 899  388 mt 6262  388 L
 899 2174 mt  899  388 L
6262 2174 mt 6262  388 L
 899 2174 mt 6262 2174 L
 899 2174 mt  899  388 L
 899 2174 mt  899 2120 L
 899  389 mt  899  442 L
%%IncludeResource: font Times-Roman
/Times-Roman /ISOLatin1Encoding 168 FMSR

 857 2358 mt 
(0) s
1595 2174 mt 1595 2120 L
1595  389 mt 1595  442 L
1490 2358 mt 
(0.1) s
2291 2174 mt 2291 2120 L
2291  389 mt 2291  442 L
2186 2358 mt 
(0.2) s
2988 2174 mt 2988 2120 L
2988  389 mt 2988  442 L
2883 2358 mt 
(0.3) s
3684 2174 mt 3684 2120 L
3684  389 mt 3684  442 L
3579 2358 mt 
(0.4) s
4381 2174 mt 4381 2120 L
4381  389 mt 4381  442 L
4276 2358 mt 
(0.5) s
5077 2174 mt 5077 2120 L
5077  389 mt 5077  442 L
4972 2358 mt 
(0.6) s
5774 2174 mt 5774 2120 L
5774  389 mt 5774  442 L
5669 2358 mt 
(0.7) s
 899 2092 mt  952 2092 L
6262 2092 mt 6208 2092 L
 686 2152 mt 
(-1) s
 899 1687 mt  952 1687 L
6262 1687 mt 6208 1687 L
 560 1747 mt 
(-0.5) s
 899 1281 mt  952 1281 L
6262 1281 mt 6208 1281 L
 780 1341 mt 
(0) s
 899  875 mt  952  875 L
6262  875 mt 6208  875 L
 654  935 mt 
(0.5) s
 899  470 mt  952  470 L
6262  470 mt 6208  470 L
 780  530 mt 
(1) s
 899 2174 mt 6262 2174 L
 899  388 mt 6262  388 L
 899 2174 mt  899  388 L
6262 2174 mt 6262  388 L
gs 899 389 5364 1786 MR c np
54 0 54 0 53 0 54 0 54 0 53 0 54 0 54 0 
53 0 54 0 53 0 54 0 54 0 53 0 54 0 54 0 
53 0 54 0 53 1 54 0 54 0 53 0 54 0 54 -1 
53 0 54 -1 54 0 53 -1 54 -1 53 0 54 -1 54 0 
53 1 54 1 54 2 53 3 54 3 53 3 54 3 54 3 
53 1 54 -1 54 -2 53 -5 54 -8 53 -10 54 -11 54 -11 
53 -10 54 -8 54 -3 53 3 54 9 54 17 53 24 54 29 
53 32 54 31 54 26 53 18 54 5 54 -10 53 -28 54 -44 
53 -59 54 -69 54 -72 53 -68 54 -55 54 -33 53 -5 54 28 
53 63 54 93 54 118 53 132 54 132 54 118 53 90 54 47 
54 -3 53 -59 54 -112 53 -157 54 -188 54 -201 53 -194 54 -164 
54 -115 53 -52 54 21 53 94 54 159 54 211 53 241 54 246 
54 226 53 181 54 118 952 510 100 MP stroke
53 40 899 470 2 MP stroke
54 0 54 0 53 0 54 0 54 0 53 0 54 0 54 0 
53 0 54 0 53 0 54 0 54 0 53 0 54 0 54 0 
53 0 54 0 53 1 54 0 54 0 53 0 54 0 54 0 
53 1 54 0 54 0 53 0 54 1 53 0 54 1 54 1 
53 0 54 1 54 1 53 1 54 2 53 1 54 2 54 2 
53 2 54 2 54 3 53 2 54 4 53 3 54 4 54 5 
53 4 54 6 54 6 53 6 54 7 54 7 53 9 54 8 
53 10 54 10 54 11 53 12 54 13 54 13 53 14 54 15 
53 16 54 16 54 18 53 18 54 19 54 19 53 20 54 21 
53 22 54 22 54 22 53 23 54 23 54 23 53 23 54 23 
54 23 53 23 54 23 53 22 54 21 54 21 53 20 54 19 
54 18 53 17 54 15 53 14 54 13 54 11 53 10 54 8 
54 6 53 5 54 2 952 471 100 MP stroke
53 1 899 470 2 MP stroke
DA
54 0 54 0 53 0 54 0 54 0 53 0 54 0 54 0 
53 0 54 0 53 0 54 0 54 0 53 0 54 0 54 0 
53 0 54 0 53 0 54 0 54 0 53 0 54 0 54 0 
53 0 54 0 54 0 53 0 54 0 53 0 54 0 54 0 
53 0 54 0 54 0 53 0 54 0 53 0 54 0 54 0 
53 0 54 0 54 1 53 0 54 0 53 0 54 1 54 0 
53 0 54 1 54 1 53 1 54 1 54 1 53 2 54 2 
53 2 54 3 54 3 53 4 54 4 54 5 53 6 54 7 
53 8 54 8 54 10 53 11 54 13 54 14 53 15 54 17 
53 18 54 20 54 22 53 23 54 25 54 26 53 28 54 29 
54 30 53 32 54 32 53 32 54 33 54 33 53 32 54 32 
54 31 53 30 54 28 53 26 54 24 54 22 53 18 54 16 
54 12 53 9 54 6 952 471 100 MP stroke
53 1 899 470 2 MP stroke
DO
0 -1785 1971 2174 2 MP stroke
gr

DO
%%IncludeResource: font Symbol
/Symbol /ISOLatin1Encoding 168 FMSR

1971 1747 mt 
(\254) s
2136 1747 mt 
(l) s
%%IncludeResource: font Times-Roman
/Times-Roman /ISOLatin1Encoding 168 FMSR

2228 1747 mt 
(/2) s
%%IncludeResource: font Times-Roman
/Times-Roman /ISOLatin1Encoding 192 FMSR

2937 2542 mt 
(Axial shift [mm]) s
 505 1967 mt  -90 rotate
(C) s
90 rotate
%%IncludeResource: font Times-Roman
/Times-Roman /ISOLatin1Encoding 144 FMSR

 601 1839 mt  -90 rotate
(AA) s
90 rotate
%%IncludeResource: font Times-Roman
/Times-Roman /ISOLatin1Encoding 192 FMSR

 505 1632 mt  -90 rotate
( [normalized]) s
90 rotate
SO
1 sg
0 1784 5362 0 0 -1784 899 4618 4 MP
PP
-5362 0 0 1784 5362 0 0 -1784 899 4618 5 MP stroke
4 w
DO
SO
6 w
0 sg
 899 4618 mt 6261 4618 L
 899 2834 mt 6261 2834 L
 899 4618 mt  899 2834 L
6261 4618 mt 6261 2834 L
 899 4618 mt 6261 4618 L
 899 4618 mt  899 2834 L
 899 4618 mt  899 4564 L
 899 2834 mt  899 2887 L
%%IncludeResource: font Times-Roman
/Times-Roman /ISOLatin1Encoding 168 FMSR

 857 4802 mt 
(0) s
1769 4618 mt 1769 4564 L
1769 2834 mt 1769 2887 L
1664 4802 mt 
(0.1) s
2640 4618 mt 2640 4564 L
2640 2834 mt 2640 2887 L
2535 4802 mt 
(0.2) s
3510 4618 mt 3510 4564 L
3510 2834 mt 3510 2887 L
3405 4802 mt 
(0.3) s
4381 4618 mt 4381 4564 L
4381 2834 mt 4381 2887 L
4276 4802 mt 
(0.4) s
5252 4618 mt 5252 4564 L
5252 2834 mt 5252 2887 L
5147 4802 mt 
(0.5) s
6122 4618 mt 6122 4564 L
6122 2834 mt 6122 2887 L
6017 4802 mt 
(0.6) s
 899 4469 mt  952 4469 L
6262 4469 mt 6208 4469 L
 780 4529 mt 
(0) s
 899 4172 mt  952 4172 L
6262 4172 mt 6208 4172 L
 654 4232 mt 
(0.2) s
 899 3874 mt  952 3874 L
6262 3874 mt 6208 3874 L
 654 3934 mt 
(0.4) s
 899 3577 mt  952 3577 L
6262 3577 mt 6208 3577 L
 654 3637 mt 
(0.6) s
 899 3280 mt  952 3280 L
6262 3280 mt 6208 3280 L
 654 3340 mt 
(0.8) s
 899 2982 mt  952 2982 L
6262 2982 mt 6208 2982 L
 780 3042 mt 
(1) s
 899 4618 mt 6261 4618 L
 899 2834 mt 6261 2834 L
 899 4618 mt  899 2834 L
6261 4618 mt 6261 2834 L
gs 899 2834 5364 1785 MR c np
26 0 27 0 27 0 27 0 27 0 26 0 27 0 27 0 
27 0 27 1 26 0 27 0 27 0 27 0 27 0 27 1 
26 0 27 0 27 1 27 0 27 1 26 0 27 1 27 0 
27 1 27 1 27 0 26 1 27 1 27 1 27 1 27 1 
26 2 27 1 27 1 27 1 27 2 26 2 27 1 27 2 
27 2 27 2 27 2 26 2 27 2 27 2 27 3 27 2 
26 3 27 3 27 2 27 3 27 3 27 4 26 3 27 3 
27 4 27 4 27 3 26 4 27 5 27 4 27 4 27 5 
26 4 27 5 27 5 27 5 27 5 27 6 26 5 27 6 
27 6 27 6 27 6 26 6 27 7 27 7 27 6 27 7 
27 8 26 7 27 8 27 7 27 8 27 9 26 8 27 8 
27 9 27 9 27 9 26 10 27 9 27 10 27 10 27 10 
27 10 26 11 27 11 3607 4108 100 MP stroke
27 11 27 11 27 12 26 11 27 12 27 12 27 12 27 13 
27 13 26 12 27 13 27 13 27 14 27 13 26 14 27 13 
27 14 27 14 27 14 26 14 27 14 27 15 27 14 27 15 
27 14 26 15 27 14 27 15 27 15 27 15 26 15 27 14 
27 15 27 15 27 15 27 15 26 15 27 15 27 14 27 15 
27 15 26 15 27 14 27 15 27 14 27 15 26 14 27 14 
27 15 27 14 27 14 27 14 26 13 27 14 27 13 27 14 
27 13 26 13 27 13 27 13 27 12 27 13 27 12 26 12 
27 12 27 11 27 12 27 11 26 11 27 11 27 10 27 10 
27 10 26 10 27 10 27 9 27 9 27 8 27 9 26 8 
27 8 27 7 27 7 27 7 26 6 27 6 27 6 27 6 
27 5 27 4 26 5 27 4 27 3 27 3 27 3 26 2 
27 2 27 2 27 1 952 2983 100 MP stroke
27 1 26 0 899 2982 3 MP stroke
DA
26 0 27 0 27 0 27 0 27 0 26 0 27 0 27 0 
27 0 27 0 26 0 27 0 27 0 27 0 27 0 27 0 
26 0 27 0 27 0 27 0 27 0 26 0 27 0 27 0 
27 0 27 0 27 0 26 0 27 0 27 0 27 0 27 0 
26 0 27 0 27 0 27 0 27 0 26 0 27 0 27 1 
27 0 27 0 27 0 26 0 27 0 27 0 27 0 27 0 
26 0 27 1 27 0 27 0 27 0 27 0 26 1 27 0 
27 0 27 1 27 0 26 0 27 1 27 0 27 1 27 1 
26 0 27 1 27 1 27 0 27 1 27 1 26 1 27 1 
27 1 27 1 27 2 26 1 27 2 27 1 27 2 27 2 
27 1 26 2 27 3 27 2 27 2 27 3 26 2 27 3 
27 3 27 4 27 3 26 3 27 4 27 4 27 4 27 5 
27 5 26 4 27 6 3607 4381 100 MP stroke
27 5 27 6 27 6 26 6 27 7 27 7 27 7 27 7 
27 8 26 8 27 9 27 9 27 9 27 9 26 10 27 10 
27 11 27 11 27 11 26 11 27 12 27 13 27 12 27 13 
27 14 26 13 27 14 27 15 27 14 27 15 26 16 27 15 
27 16 27 16 27 17 27 17 26 17 27 17 27 18 27 18 
27 18 26 19 27 18 27 19 27 19 27 20 26 19 27 20 
27 19 27 20 27 20 27 20 26 20 27 21 27 20 27 20 
27 21 26 20 27 20 27 20 27 21 27 20 27 20 26 20 
27 20 27 19 27 20 27 19 26 19 27 19 27 18 27 18 
27 18 26 18 27 17 27 17 27 16 27 16 27 16 26 15 
27 15 27 14 27 13 27 13 26 13 27 11 27 12 27 10 
27 10 27 9 26 9 27 8 27 7 27 6 27 5 26 5 
27 4 27 3 27 2 952 2984 100 MP stroke
27 1 26 1 899 2982 3 MP stroke
DO
0 -1784 2239 4618 2 MP stroke
5362 0 899 3726 2 MP stroke
gr

DO
%%IncludeResource: font Symbol
/Symbol /ISOLatin1Encoding 168 FMSR

2239 4529 mt 
(\254) s
2404 4529 mt 
(l) s
%%IncludeResource: font Times-Roman
/Times-Roman /ISOLatin1Encoding 168 FMSR

2496 4529 mt 
( z / 2 D) s
%%IncludeResource: font Times-Roman
/Times-Roman /ISOLatin1Encoding 192 FMSR

2879 4986 mt 
(Lateral shift [mm]) s
 599 4412 mt  -90 rotate
(C) s
90 rotate
%%IncludeResource: font Times-Roman
/Times-Roman /ISOLatin1Encoding 144 FMSR

 695 4284 mt  -90 rotate
(AA) s
90 rotate
%%IncludeResource: font Times-Roman
/Times-Roman /ISOLatin1Encoding 192 FMSR

 599 4077 mt  -90 rotate
( [normalized]) s
90 rotate
SO

end

eplot
%%EndObject

epage
end

showpage

%%Trailer
%%EOF
