%!PS-Adobe-2.0 EPSF-2.0
%%Title: flat_phase.eps
%%Creator: fig2dev Version 3.2 Patchlevel 0-beta3
%%CreationDate: Fri Nov  6 22:07:07 1998
%%For: mea1@moomin.valley (Red Hat Linux User,,,,)
%%Orientation: Portrait
%%BoundingBox: 0 0 625 534
%%Pages: 0
%%BeginSetup
%%EndSetup
%%Magnification: 1.0000
%%EndComments
/$F2psDict 200 dict def
$F2psDict begin
$F2psDict /mtrx matrix put
/col-1 {0 setgray} bind def
/col0 {0.000 0.000 0.000 srgb} bind def
/col1 {0.000 0.000 1.000 srgb} bind def
/col2 {0.000 1.000 0.000 srgb} bind def
/col3 {0.000 1.000 1.000 srgb} bind def
/col4 {1.000 0.000 0.000 srgb} bind def
/col5 {1.000 0.000 1.000 srgb} bind def
/col6 {1.000 1.000 0.000 srgb} bind def
/col7 {1.000 1.000 1.000 srgb} bind def
/col8 {0.000 0.000 0.560 srgb} bind def
/col9 {0.000 0.000 0.690 srgb} bind def
/col10 {0.000 0.000 0.820 srgb} bind def
/col11 {0.530 0.810 1.000 srgb} bind def
/col12 {0.000 0.560 0.000 srgb} bind def
/col13 {0.000 0.690 0.000 srgb} bind def
/col14 {0.000 0.820 0.000 srgb} bind def
/col15 {0.000 0.560 0.560 srgb} bind def
/col16 {0.000 0.690 0.690 srgb} bind def
/col17 {0.000 0.820 0.820 srgb} bind def
/col18 {0.560 0.000 0.000 srgb} bind def
/col19 {0.690 0.000 0.000 srgb} bind def
/col20 {0.820 0.000 0.000 srgb} bind def
/col21 {0.560 0.000 0.560 srgb} bind def
/col22 {0.690 0.000 0.690 srgb} bind def
/col23 {0.820 0.000 0.820 srgb} bind def
/col24 {0.500 0.190 0.000 srgb} bind def
/col25 {0.630 0.250 0.000 srgb} bind def
/col26 {0.750 0.380 0.000 srgb} bind def
/col27 {1.000 0.500 0.500 srgb} bind def
/col28 {1.000 0.630 0.630 srgb} bind def
/col29 {1.000 0.750 0.750 srgb} bind def
/col30 {1.000 0.880 0.880 srgb} bind def
/col31 {1.000 0.840 0.000 srgb} bind def

end
save
-53.0 563.0 translate
1 -1 scale

/cp {closepath} bind def
/ef {eofill} bind def
/gr {grestore} bind def
/gs {gsave} bind def
/sa {save} bind def
/rs {restore} bind def
/l {lineto} bind def
/m {moveto} bind def
/rm {rmoveto} bind def
/n {newpath} bind def
/s {stroke} bind def
/sh {show} bind def
/slc {setlinecap} bind def
/slj {setlinejoin} bind def
/slw {setlinewidth} bind def
/srgb {setrgbcolor} bind def
/rot {rotate} bind def
/sc {scale} bind def
/sd {setdash} bind def
/ff {findfont} bind def
/sf {setfont} bind def
/scf {scalefont} bind def
/sw {stringwidth} bind def
/tr {translate} bind def
/tnt {dup dup currentrgbcolor
  4 -2 roll dup 1 exch sub 3 -1 roll mul add
  4 -2 roll dup 1 exch sub 3 -1 roll mul add
  4 -2 roll dup 1 exch sub 3 -1 roll mul add srgb}
  bind def
/shd {dup dup currentrgbcolor 4 -2 roll mul 4 -2 roll mul
  4 -2 roll mul srgb} bind def
/$F2psBegin {$F2psDict begin /$F2psEnteredState save def} def
/$F2psEnd {$F2psEnteredState restore end} def
%%EndProlog

$F2psBegin
10 setmiterlimit
n -1000 10375 m -1000 -1000 l 12284 -1000 l 12284 10375 l cp clip
 0.06000 0.06000 sc
% Polyline
7.500 slw
gs  clippath
5058 2640 m 5346 2700 l 5058 2760 l 5415 2760 l 5415 2640 l cp
1242 2760 m 954 2700 l 1242 2640 l 885 2640 l 885 2760 l cp
clip
n 900 2700 m 5400 2700 l gs col0 s gr gr

% arrowhead
15.000 slw
n 1242 2760 m 954 2700 l 1242 2640 l 1194 2700 l 1242 2760 l  cp gs 0.00 setgray ef gr  col0 s
% arrowhead
n 5058 2640 m 5346 2700 l 5058 2760 l 5106 2700 l 5058 2640 l  cp gs 0.00 setgray ef gr  col0 s
% Polyline
7.500 slw
gs  clippath
2940 942 m 3000 654 l 3060 942 l 3060 585 l 2940 585 l cp
clip
n 3000 2700 m 3000 600 l gs col0 s gr gr

% arrowhead
15.000 slw
n 2940 942 m 3000 654 l 3060 942 l 3000 894 l 2940 942 l  cp gs 0.00 setgray ef gr  col0 s
/Times-Roman ff 360.00 scf sf
5100 3225 m
gs 1 -1 sc (k) dup sw pop 2 div neg 0 rm  col0 sh gr
/Times-Roman ff 360.00 scf sf
5400 3375 m
gs 1 -1 sc (lat) dup sw pop 2 div neg 0 rm  col0 sh gr
/Times-Roman ff 360.00 scf sf
3450 900 m
gs 1 -1 sc (|A|) dup sw pop 2 div neg 0 rm  col0 sh gr
% Polyline
7.500 slw
gs  clippath
10758 2640 m 11046 2700 l 10758 2760 l 11115 2760 l 11115 2640 l cp
6942 2760 m 6654 2700 l 6942 2640 l 6585 2640 l 6585 2760 l cp
clip
n 6600 2700 m 11100 2700 l gs col0 s gr gr

% arrowhead
15.000 slw
n 6942 2760 m 6654 2700 l 6942 2640 l 6894 2700 l 6942 2760 l  cp gs 0.00 setgray ef gr  col0 s
% arrowhead
n 10758 2640 m 11046 2700 l 10758 2760 l 10806 2700 l 10758 2640 l  cp gs 0.00 setgray ef gr  col0 s
% Polyline
7.500 slw
gs  clippath
8640 942 m 8700 654 l 8760 942 l 8760 585 l 8640 585 l cp
clip
n 8700 2700 m 8700 600 l gs col0 s gr gr

% arrowhead
15.000 slw
n 8640 942 m 8700 654 l 8760 942 l 8700 894 l 8640 942 l  cp gs 0.00 setgray ef gr  col0 s
/Times-Roman ff 360.00 scf sf
10800 3225 m
gs 1 -1 sc (k) dup sw pop 2 div neg 0 rm  col0 sh gr
/Times-Roman ff 360.00 scf sf
11100 3375 m
gs 1 -1 sc (lat) dup sw pop 2 div neg 0 rm  col0 sh gr
/Symbol ff 360.00 scf sf
9150 825 m
gs 1 -1 sc (f) dup sw pop 2 div neg 0 rm  col0 sh gr
% Polyline
7.500 slw
gs  clippath
5058 8640 m 5346 8700 l 5058 8760 l 5415 8760 l 5415 8640 l cp
1242 8760 m 954 8700 l 1242 8640 l 885 8640 l 885 8760 l cp
clip
n 900 8700 m 5400 8700 l gs col0 s gr gr

% arrowhead
15.000 slw
n 1242 8760 m 954 8700 l 1242 8640 l 1194 8700 l 1242 8760 l  cp gs 0.00 setgray ef gr  col0 s
% arrowhead
n 5058 8640 m 5346 8700 l 5058 8760 l 5106 8700 l 5058 8640 l  cp gs 0.00 setgray ef gr  col0 s
% Polyline
7.500 slw
gs  clippath
2940 6942 m 3000 6654 l 3060 6942 l 3060 6585 l 2940 6585 l cp
clip
n 3000 8700 m 3000 6600 l gs col0 s gr gr

% arrowhead
15.000 slw
n 2940 6942 m 3000 6654 l 3060 6942 l 3000 6894 l 2940 6942 l  cp gs 0.00 setgray ef gr  col0 s
/Times-Roman ff 360.00 scf sf
5100 9225 m
gs 1 -1 sc (k) dup sw pop 2 div neg 0 rm  col0 sh gr
/Times-Roman ff 360.00 scf sf
5400 9375 m
gs 1 -1 sc (lat) dup sw pop 2 div neg 0 rm  col0 sh gr
/Times-Roman ff 360.00 scf sf
3450 6900 m
gs 1 -1 sc (|A|) dup sw pop 2 div neg 0 rm  col0 sh gr
% Polyline
7.500 slw
gs  clippath
10758 8640 m 11046 8700 l 10758 8760 l 11115 8760 l 11115 8640 l cp
6942 8760 m 6654 8700 l 6942 8640 l 6585 8640 l 6585 8760 l cp
clip
n 6600 8700 m 11100 8700 l gs col0 s gr gr

% arrowhead
15.000 slw
n 6942 8760 m 6654 8700 l 6942 8640 l 6894 8700 l 6942 8760 l  cp gs 0.00 setgray ef gr  col0 s
% arrowhead
n 10758 8640 m 11046 8700 l 10758 8760 l 10806 8700 l 10758 8640 l  cp gs 0.00 setgray ef gr  col0 s
% Polyline
7.500 slw
gs  clippath
8640 6942 m 8700 6654 l 8760 6942 l 8760 6585 l 8640 6585 l cp
clip
n 8700 8700 m 8700 6600 l gs col0 s gr gr

% arrowhead
15.000 slw
n 8640 6942 m 8700 6654 l 8760 6942 l 8700 6894 l 8640 6942 l  cp gs 0.00 setgray ef gr  col0 s
/Times-Roman ff 360.00 scf sf
10800 9225 m
gs 1 -1 sc (k) dup sw pop 2 div neg 0 rm  col0 sh gr
/Times-Roman ff 360.00 scf sf
11100 9375 m
gs 1 -1 sc (lat) dup sw pop 2 div neg 0 rm  col0 sh gr
/Symbol ff 360.00 scf sf
9150 6825 m
gs 1 -1 sc (f) dup sw pop 2 div neg 0 rm  col0 sh gr
% Polyline
7.500 slw
gs  clippath
5058 5640 m 5346 5700 l 5058 5760 l 5415 5760 l 5415 5640 l cp
1242 5760 m 954 5700 l 1242 5640 l 885 5640 l 885 5760 l cp
clip
n 900 5700 m 5400 5700 l gs col0 s gr gr

% arrowhead
15.000 slw
n 1242 5760 m 954 5700 l 1242 5640 l 1194 5700 l 1242 5760 l  cp gs 0.00 setgray ef gr  col0 s
% arrowhead
n 5058 5640 m 5346 5700 l 5058 5760 l 5106 5700 l 5058 5640 l  cp gs 0.00 setgray ef gr  col0 s
% Polyline
7.500 slw
gs  clippath
2940 3942 m 3000 3654 l 3060 3942 l 3060 3585 l 2940 3585 l cp
clip
n 3000 5700 m 3000 3600 l gs col0 s gr gr

% arrowhead
15.000 slw
n 2940 3942 m 3000 3654 l 3060 3942 l 3000 3894 l 2940 3942 l  cp gs 0.00 setgray ef gr  col0 s
/Times-Roman ff 360.00 scf sf
5100 6225 m
gs 1 -1 sc (k) dup sw pop 2 div neg 0 rm  col0 sh gr
/Times-Roman ff 360.00 scf sf
5400 6375 m
gs 1 -1 sc (lat) dup sw pop 2 div neg 0 rm  col0 sh gr
/Times-Roman ff 360.00 scf sf
3450 3900 m
gs 1 -1 sc (|A|) dup sw pop 2 div neg 0 rm  col0 sh gr
% Polyline
7.500 slw
gs  clippath
10758 5640 m 11046 5700 l 10758 5760 l 11115 5760 l 11115 5640 l cp
6942 5760 m 6654 5700 l 6942 5640 l 6585 5640 l 6585 5760 l cp
clip
n 6600 5700 m 11100 5700 l gs col0 s gr gr

% arrowhead
15.000 slw
n 6942 5760 m 6654 5700 l 6942 5640 l 6894 5700 l 6942 5760 l  cp gs 0.00 setgray ef gr  col0 s
% arrowhead
n 10758 5640 m 11046 5700 l 10758 5760 l 10806 5700 l 10758 5640 l  cp gs 0.00 setgray ef gr  col0 s
% Polyline
7.500 slw
gs  clippath
8640 3942 m 8700 3654 l 8760 3942 l 8760 3585 l 8640 3585 l cp
clip
n 8700 5700 m 8700 3600 l gs col0 s gr gr

% arrowhead
15.000 slw
n 8640 3942 m 8700 3654 l 8760 3942 l 8700 3894 l 8640 3942 l  cp gs 0.00 setgray ef gr  col0 s
/Times-Roman ff 360.00 scf sf
10800 6225 m
gs 1 -1 sc (k) dup sw pop 2 div neg 0 rm  col0 sh gr
/Times-Roman ff 360.00 scf sf
11100 6375 m
gs 1 -1 sc (lat) dup sw pop 2 div neg 0 rm  col0 sh gr
/Symbol ff 360.00 scf sf
9150 3825 m
gs 1 -1 sc (f) dup sw pop 2 div neg 0 rm  col0 sh gr
% Polyline
gs  clippath
10458 1740 m 10746 1800 l 10458 1860 l 10830 1860 l 10830 1740 l cp
7242 1860 m 6954 1800 l 7242 1740 l 6870 1740 l 6870 1860 l cp
clip
n 6900 1800 m 10800 1800 l gs col0 s gr gr

% arrowhead
n 7242 1860 m 6954 1800 l 7242 1740 l 7194 1800 l 7242 1860 l  cp gs 0.00 setgray ef gr  col0 s
% arrowhead
n 10458 1740 m 10746 1800 l 10458 1860 l 10506 1800 l 10458 1740 l  cp gs 0.00 setgray ef gr  col0 s
% Polyline
gs  clippath
4758 1740 m 5046 1800 l 4758 1860 l 5130 1860 l 5130 1740 l cp
1542 1860 m 1254 1800 l 1542 1740 l 1170 1740 l 1170 1860 l cp
clip
n 1200 1800 m 5100 1800 l gs col0 s gr gr

% arrowhead
n 1542 1860 m 1254 1800 l 1542 1740 l 1494 1800 l 1542 1860 l  cp gs 0.00 setgray ef gr  col0 s
% arrowhead
n 4758 1740 m 5046 1800 l 4758 1860 l 4806 1800 l 4758 1740 l  cp gs 0.00 setgray ef gr  col0 s
% Polyline
n 3000 7800 m 1500 8700 l gs col0 s gr 
% Polyline
n 3000 7800 m 4800 8700 l gs col0 s gr 
% Polyline
gs  clippath
4758 4740 m 5046 4800 l 4758 4860 l 5130 4860 l 5130 4740 l cp
1542 4860 m 1254 4800 l 1542 4740 l 1170 4740 l 1170 4860 l cp
clip
n 1200 4800 m 5100 4800 l gs col0 s gr gr

% arrowhead
n 1542 4860 m 1254 4800 l 1542 4740 l 1494 4800 l 1542 4860 l  cp gs 0.00 setgray ef gr  col0 s
% arrowhead
n 4758 4740 m 5046 4800 l 4758 4860 l 4806 4800 l 4758 4740 l  cp gs 0.00 setgray ef gr  col0 s
% Polyline
n 7052 8337 m 7053 8341 l 7054 8349 l 7057 8364 l 7060 8386 l 7066 8416 l
 7072 8452 l 7079 8494 l 7087 8540 l 7096 8588 l 7105 8635 l
 7113 8682 l 7121 8726 l 7129 8767 l 7136 8803 l 7143 8836 l
 7149 8865 l 7154 8890 l 7159 8910 l 7163 8927 l 7167 8941 l
 7171 8951 l 7174 8958 l 7177 8962 l 7182 8963 l 7186 8958 l
 7189 8946 l 7193 8929 l 7196 8907 l 7199 8882 l 7202 8855 l
 7205 8827 l 7208 8799 l 7211 8774 l 7215 8752 l 7218 8733 l
 7222 8720 l 7227 8712 l 7232 8710 l 7238 8714 l 7245 8722 l
 7253 8736 l 7261 8753 l 7271 8773 l 7280 8796 l 7291 8819 l
 7301 8842 l 7312 8864 l 7322 8884 l 7332 8901 l 7342 8915 l
 7352 8925 l 7364 8930 l 7375 8931 l 7388 8927 l 7400 8918 l
 7414 8907 l 7427 8894 l 7440 8880 l 7454 8867 l 7466 8855 l
 7479 8845 l 7490 8839 l 7502 8837 l 7510 8838 l 7517 8841 l
 7525 8845 l 7533 8851 l 7541 8857 l 7549 8864 l 7558 8872 l
 7566 8879 l 7574 8886 l 7581 8891 l 7589 8896 l 7596 8898 l
 7602 8899 l 7608 8897 l 7613 8893 l 7618 8886 l 7623 8875 l
 7627 8862 l 7630 8847 l 7633 8829 l 7636 8808 l 7639 8785 l
 7641 8759 l 7643 8732 l 7646 8704 l 7648 8674 l 7650 8645 l
 7652 8615 l 7654 8587 l 7656 8560 l 7658 8534 l 7661 8512 l
 7663 8492 l 7665 8476 l 7668 8464 l 7671 8455 l 7674 8450 l
 7677 8450 l 7681 8453 l 7685 8462 l 7689 8474 l 7694 8490 l
 7699 8510 l 7705 8533 l 7711 8559 l 7717 8587 l 7724 8618 l
 7730 8649 l 7738 8681 l 7745 8714 l 7752 8746 l 7759 8776 l
 7767 8805 l 7774 8832 l 7781 8856 l 7788 8878 l 7795 8897 l
 7802 8912 l 7810 8925 l 7817 8935 l 7825 8941 l 7833 8944 l
 7842 8944 l 7850 8942 l 7858 8937 l 7867 8931 l 7875 8923 l
 7884 8914 l 7892 8905 l 7900 8896 l 7907 8887 l 7914 8879 l
 7921 8872 l 7928 8867 l 7934 8863 l 7940 8862 l 7950 8866 l
 7959 8876 l 7969 8891 l 7978 8910 l 7988 8928 l 7997 8945 l
 8005 8958 l 8013 8964 l 8020 8961 l 8027 8950 l 8031 8938 l
 8035 8924 l 8039 8906 l 8043 8886 l 8048 8863 l 8053 8839 l
 8059 8813 l 8065 8786 l 8071 8760 l 8078 8734 l 8086 8710 l
 8094 8688 l 8102 8668 l 8111 8652 l 8121 8639 l 8131 8630 l
 8141 8625 l 8152 8625 l 8163 8628 l 8174 8635 l 8186 8646 l
 8199 8659 l 8213 8676 l 8227 8695 l 8242 8715 l 8257 8738 l
 8272 8761 l 8288 8785 l 8303 8809 l 8318 8832 l 8333 8854 l
 8347 8874 l 8361 8892 l 8373 8908 l 8385 8920 l 8396 8929 l
 8405 8935 l 8415 8937 l 8424 8935 l 8432 8928 l 8439 8916 l
 8446 8901 l 8452 8882 l 8458 8861 l 8463 8836 l 8468 8811 l
 8472 8784 l 8476 8756 l 8479 8730 l 8483 8704 l 8486 8681 l
 8489 8660 l 8492 8642 l 8495 8628 l 8498 8618 l 8502 8612 l
 8507 8611 l 8513 8616 l 8520 8628 l 8528 8644 l 8536 8665 l
 8545 8689 l 8554 8715 l 8563 8742 l 8572 8767 l 8582 8790 l
 8591 8810 l 8599 8824 l 8607 8834 l 8615 8837 l 8621 8834 l
 8627 8827 l 8633 8815 l 8639 8799 l 8645 8779 l 8651 8756 l
 8657 8731 l 8663 8703 l 8668 8675 l 8674 8648 l 8679 8621 l
 8684 8596 l 8689 8573 l 8693 8553 l 8698 8537 l 8702 8525 l
 8711 8510 l 8720 8508 l 8730 8515 l 8741 8528 l 8753 8542 l
 8765 8553 l 8777 8556 l 8790 8550 l 8796 8541 l 8803 8530 l
 8810 8517 l 8818 8501 l 8826 8483 l 8835 8465 l 8843 8446 l
 8852 8428 l 8861 8411 l 8869 8396 l 8878 8384 l 8886 8376 l
 8894 8372 l 8901 8372 l 8908 8377 l 8915 8387 l 8919 8397 l
 8923 8409 l 8927 8424 l 8931 8441 l 8935 8461 l 8939 8482 l
 8943 8506 l 8947 8532 l 8951 8559 l 8955 8587 l 8959 8617 l
 8963 8647 l 8967 8678 l 8970 8709 l 8974 8740 l 8977 8770 l
 8981 8799 l 8984 8827 l 8987 8853 l 8990 8879 l 8993 8902 l
 8996 8924 l 8999 8944 l 9002 8962 l 9004 8976 l 9007 8989 l
 9009 9001 l 9012 9011 l 9015 9021 l 9017 9029 l 9020 9037 l
 9023 9043 l 9026 9049 l 9029 9054 l 9032 9057 l 9035 9061 l
 9038 9063 l 9041 9064 l 9045 9065 l 9048 9066 l 9051 9066 l
 9055 9065 l 9058 9064 l 9061 9063 l 9065 9061 l 9068 9060 l
 9072 9058 l 9075 9056 l 9079 9054 l 9082 9052 l 9086 9051 l
 9090 9050 l 9097 9048 l 9105 9046 l 9113 9045 l 9122 9045 l
 9132 9044 l 9141 9043 l 9150 9041 l 9159 9038 l 9168 9034 l
 9176 9028 l 9184 9021 l 9191 9012 l 9197 9000 l 9202 8987 l
 9206 8973 l 9210 8957 l 9213 8939 l 9216 8919 l 9219 8898 l
 9222 8875 l 9224 8852 l 9227 8828 l 9230 8805 l 9232 8782 l
 9235 8761 l 9238 8742 l 9241 8724 l 9244 8709 l 9248 8697 l
 9252 8687 l 9258 8678 l 9266 8672 l 9275 8669 l 9286 8668 l
 9298 8669 l 9312 8669 l 9328 8669 l 9346 8667 l 9364 8662 l
 9384 8654 l 9405 8642 l 9427 8625 l 9441 8611 l 9456 8596 l
 9472 8579 l 9488 8560 l 9505 8540 l 9523 8519 l 9542 8497 l
 9561 8474 l 9581 8451 l 9600 8429 l 9620 8408 l 9639 8389 l
 9658 8371 l 9676 8355 l 9693 8342 l 9709 8332 l 9724 8325 l
 9739 8322 l 9752 8321 l 9765 8325 l 9776 8332 l 9787 8342 l
 9797 8357 l 9807 8374 l 9817 8395 l 9825 8418 l 9834 8444 l
 9842 8473 l 9849 8502 l 9856 8533 l 9862 8564 l 9868 8596 l
 9874 8626 l 9879 8656 l 9883 8683 l 9887 8709 l 9891 8733 l
 9895 8754 l 9899 8772 l 9902 8787 l 9906 8800 l 9910 8811 l
 9914 8818 l 9918 8822 l 9922 8824 l 9927 8824 l 9931 8822 l
 9936 8819 l 9941 8814 l 9946 8809 l 9952 8803 l 9957 8797 l
 9962 8792 l 9968 8788 l 9973 8785 l 9978 8784 l 9984 8784 l
 9990 8787 l 9997 8794 l 10005 8804 l 10014 8818 l 10023 8834 l
 10033 8852 l 10043 8871 l 10054 8889 l 10065 8906 l 10075 8922 l
 10086 8933 l 10097 8942 l 10107 8945 l 10117 8944 l 10127 8937 l
 10135 8928 l 10142 8915 l 10150 8898 l 10158 8879 l 10167 8858 l
 10175 8834 l 10184 8809 l 10193 8783 l 10202 8756 l 10211 8731 l
 10220 8706 l 10229 8683 l 10237 8663 l 10246 8645 l 10254 8631 l
 10262 8621 l 10269 8614 l 10277 8612 l 10285 8614 l 10292 8621 l
 10300 8631 l 10308 8645 l 10317 8663 l 10325 8684 l 10334 8707 l
 10343 8732 l 10352 8758 l 10361 8785 l 10370 8812 l 10379 8838 l
 10387 8863 l 10396 8886 l 10404 8906 l 10412 8924 l 10419 8938 l
 10427 8950 l 10437 8959 l 10447 8963 l 10457 8963 l 10468 8958 l
 10479 8949 l 10489 8937 l 10500 8923 l 10511 8907 l 10521 8891 l
 10531 8874 l 10540 8859 l 10549 8845 l 10557 8833 l 10565 8825 l
 10577 8816 l 10589 8814 l 10601 8817 l 10613 8823 l 10624 8828 l
 10634 8829 l 10643 8824 l 10652 8812 l 10655 8804 l 10659 8795 l
 10662 8783 l 10666 8768 l 10670 8751 l 10674 8731 l 10679 8708 l
 10684 8681 l 10689 8652 l 10694 8619 l 10700 8585 l 10706 8550 l
 10711 8516 l 10716 8485 l 10720 8459 l 10723 8438 l 10725 8424 l
 10726 8416 l 10727 8413 l 10727 8412 l gs col0 s gr 
% Polyline
n 7052 5337 m 7053 5341 l 7054 5349 l 7057 5364 l 7060 5386 l 7066 5416 l
 7072 5452 l 7079 5494 l 7087 5540 l 7096 5588 l 7105 5635 l
 7113 5682 l 7121 5726 l 7129 5767 l 7136 5803 l 7143 5836 l
 7149 5865 l 7154 5890 l 7159 5910 l 7163 5927 l 7167 5941 l
 7171 5951 l 7174 5958 l 7177 5962 l 7182 5963 l 7186 5958 l
 7189 5946 l 7193 5929 l 7196 5907 l 7199 5882 l 7202 5855 l
 7205 5827 l 7208 5799 l 7211 5774 l 7215 5752 l 7218 5733 l
 7222 5720 l 7227 5712 l 7232 5710 l 7238 5714 l 7245 5722 l
 7253 5736 l 7261 5753 l 7271 5773 l 7280 5796 l 7291 5819 l
 7301 5842 l 7312 5864 l 7322 5884 l 7332 5901 l 7342 5915 l
 7352 5925 l 7364 5930 l 7375 5931 l 7388 5927 l 7400 5918 l
 7414 5907 l 7427 5894 l 7440 5880 l 7454 5867 l 7466 5855 l
 7479 5845 l 7490 5839 l 7502 5837 l 7510 5838 l 7517 5841 l
 7525 5845 l 7533 5851 l 7541 5857 l 7549 5864 l 7558 5872 l
 7566 5879 l 7574 5886 l 7581 5891 l 7589 5896 l 7596 5898 l
 7602 5899 l 7608 5897 l 7613 5893 l 7618 5886 l 7623 5875 l
 7627 5862 l 7630 5847 l 7633 5829 l 7636 5808 l 7639 5785 l
 7641 5759 l 7643 5732 l 7646 5704 l 7648 5674 l 7650 5645 l
 7652 5615 l 7654 5587 l 7656 5560 l 7658 5534 l 7661 5512 l
 7663 5492 l 7665 5476 l 7668 5464 l 7671 5455 l 7674 5450 l
 7677 5450 l 7681 5453 l 7685 5462 l 7689 5474 l 7694 5490 l
 7699 5510 l 7705 5533 l 7711 5559 l 7717 5587 l 7724 5618 l
 7730 5649 l 7738 5681 l 7745 5714 l 7752 5746 l 7759 5776 l
 7767 5805 l 7774 5832 l 7781 5856 l 7788 5878 l 7795 5897 l
 7802 5912 l 7810 5925 l 7817 5935 l 7825 5941 l 7833 5944 l
 7842 5944 l 7850 5942 l 7858 5937 l 7867 5931 l 7875 5923 l
 7884 5914 l 7892 5905 l 7900 5896 l 7907 5887 l 7914 5879 l
 7921 5872 l 7928 5867 l 7934 5863 l 7940 5862 l 7950 5866 l
 7959 5876 l 7969 5891 l 7978 5910 l 7988 5928 l 7997 5945 l
 8005 5958 l 8013 5964 l 8020 5961 l 8027 5950 l 8031 5938 l
 8035 5924 l 8039 5906 l 8043 5886 l 8048 5863 l 8053 5839 l
 8059 5813 l 8065 5786 l 8071 5760 l 8078 5734 l 8086 5710 l
 8094 5688 l 8102 5668 l 8111 5652 l 8121 5639 l 8131 5630 l
 8141 5625 l 8152 5625 l 8163 5628 l 8174 5635 l 8186 5646 l
 8199 5659 l 8213 5676 l 8227 5695 l 8242 5715 l 8257 5738 l
 8272 5761 l 8288 5785 l 8303 5809 l 8318 5832 l 8333 5854 l
 8347 5874 l 8361 5892 l 8373 5908 l 8385 5920 l 8396 5929 l
 8405 5935 l 8415 5937 l 8424 5935 l 8432 5928 l 8439 5916 l
 8446 5901 l 8452 5882 l 8458 5861 l 8463 5836 l 8468 5811 l
 8472 5784 l 8476 5756 l 8479 5730 l 8483 5704 l 8486 5681 l
 8489 5660 l 8492 5642 l 8495 5628 l 8498 5618 l 8502 5612 l
 8507 5611 l 8513 5616 l 8520 5628 l 8528 5644 l 8536 5665 l
 8545 5689 l 8554 5715 l 8563 5742 l 8572 5767 l 8582 5790 l
 8591 5810 l 8599 5824 l 8607 5834 l 8615 5837 l 8621 5834 l
 8627 5827 l 8633 5815 l 8639 5799 l 8645 5779 l 8651 5756 l
 8657 5731 l 8663 5703 l 8668 5675 l 8674 5648 l 8679 5621 l
 8684 5596 l 8689 5573 l 8693 5553 l 8698 5537 l 8702 5525 l
 8711 5510 l 8720 5508 l 8730 5515 l 8741 5528 l 8753 5542 l
 8765 5553 l 8777 5556 l 8790 5550 l 8796 5541 l 8803 5530 l
 8810 5517 l 8818 5501 l 8826 5483 l 8835 5465 l 8843 5446 l
 8852 5428 l 8861 5411 l 8869 5396 l 8878 5384 l 8886 5376 l
 8894 5372 l 8901 5372 l 8908 5377 l 8915 5387 l 8919 5397 l
 8923 5409 l 8927 5424 l 8931 5441 l 8935 5461 l 8939 5482 l
 8943 5506 l 8947 5532 l 8951 5559 l 8955 5587 l 8959 5617 l
 8963 5647 l 8967 5678 l 8970 5709 l 8974 5740 l 8977 5770 l
 8981 5799 l 8984 5827 l 8987 5853 l 8990 5879 l 8993 5902 l
 8996 5924 l 8999 5944 l 9002 5962 l 9004 5976 l 9007 5989 l
 9009 6001 l 9012 6011 l 9015 6021 l 9017 6029 l 9020 6037 l
 9023 6043 l 9026 6049 l 9029 6054 l 9032 6057 l 9035 6061 l
 9038 6063 l 9041 6064 l 9045 6065 l 9048 6066 l 9051 6066 l
 9055 6065 l 9058 6064 l 9061 6063 l 9065 6061 l 9068 6060 l
 9072 6058 l 9075 6056 l 9079 6054 l 9082 6052 l 9086 6051 l
 9090 6050 l 9097 6048 l 9105 6046 l 9113 6045 l 9122 6045 l
 9132 6044 l 9141 6043 l 9150 6041 l 9159 6038 l 9168 6034 l
 9176 6028 l 9184 6021 l 9191 6012 l 9197 6000 l 9202 5987 l
 9206 5973 l 9210 5957 l 9213 5939 l 9216 5919 l 9219 5898 l
 9222 5875 l 9224 5852 l 9227 5828 l 9230 5805 l 9232 5782 l
 9235 5761 l 9238 5742 l 9241 5724 l 9244 5709 l 9248 5697 l
 9252 5687 l 9258 5678 l 9266 5672 l 9275 5669 l 9286 5668 l
 9298 5669 l 9312 5669 l 9328 5669 l 9346 5667 l 9364 5662 l
 9384 5654 l 9405 5642 l 9427 5625 l 9441 5611 l 9456 5596 l
 9472 5579 l 9488 5560 l 9505 5540 l 9523 5519 l 9542 5497 l
 9561 5474 l 9581 5451 l 9600 5429 l 9620 5408 l 9639 5389 l
 9658 5371 l 9676 5355 l 9693 5342 l 9709 5332 l 9724 5325 l
 9739 5322 l 9752 5321 l 9765 5325 l 9776 5332 l 9787 5342 l
 9797 5357 l 9807 5374 l 9817 5395 l 9825 5418 l 9834 5444 l
 9842 5473 l 9849 5502 l 9856 5533 l 9862 5564 l 9868 5596 l
 9874 5626 l 9879 5656 l 9883 5683 l 9887 5709 l 9891 5733 l
 9895 5754 l 9899 5772 l 9902 5787 l 9906 5800 l 9910 5811 l
 9914 5818 l 9918 5822 l 9922 5824 l 9927 5824 l 9931 5822 l
 9936 5819 l 9941 5814 l 9946 5809 l 9952 5803 l 9957 5797 l
 9962 5792 l 9968 5788 l 9973 5785 l 9978 5784 l 9984 5784 l
 9990 5787 l 9997 5794 l 10005 5804 l 10014 5818 l 10023 5834 l
 10033 5852 l 10043 5871 l 10054 5889 l 10065 5906 l 10075 5922 l
 10086 5933 l 10097 5942 l 10107 5945 l 10117 5944 l 10127 5937 l
 10135 5928 l 10142 5915 l 10150 5898 l 10158 5879 l 10167 5858 l
 10175 5834 l 10184 5809 l 10193 5783 l 10202 5756 l 10211 5731 l
 10220 5706 l 10229 5683 l 10237 5663 l 10246 5645 l 10254 5631 l
 10262 5621 l 10269 5614 l 10277 5612 l 10285 5614 l 10292 5621 l
 10300 5631 l 10308 5645 l 10317 5663 l 10325 5684 l 10334 5707 l
 10343 5732 l 10352 5758 l 10361 5785 l 10370 5812 l 10379 5838 l
 10387 5863 l 10396 5886 l 10404 5906 l 10412 5924 l 10419 5938 l
 10427 5950 l 10437 5959 l 10447 5963 l 10457 5963 l 10468 5958 l
 10479 5949 l 10489 5937 l 10500 5923 l 10511 5907 l 10521 5891 l
 10531 5874 l 10540 5859 l 10549 5845 l 10557 5833 l 10565 5825 l
 10577 5816 l 10589 5814 l 10601 5817 l 10613 5823 l 10624 5828 l
 10634 5829 l 10643 5824 l 10652 5812 l 10655 5804 l 10659 5795 l
 10662 5783 l 10666 5768 l 10670 5751 l 10674 5731 l 10679 5708 l
 10684 5681 l 10689 5652 l 10694 5619 l 10700 5585 l 10706 5550 l
 10711 5516 l 10716 5485 l 10720 5459 l 10723 5438 l 10725 5424 l
 10726 5416 l 10727 5413 l 10727 5412 l gs col0 s gr 
$F2psEnd
rs
