%!PS-Adobe-2.0 EPSF-2.0
%%Title: component_det.eps
%%Creator: fig2dev Version 3.2 Patchlevel 0-beta3
%%CreationDate: Sun Nov  8 13:18:55 1998
%%For: mea1@moomin.valley (Red Hat Linux User,,,,)
%%Orientation: Portrait
%%BoundingBox: 0 0 274 184
%%Pages: 0
%%BeginSetup
%%EndSetup
%%Magnification: 1.0000
%%EndComments
/$F2psDict 200 dict def
$F2psDict begin
$F2psDict /mtrx matrix put
/col-1 {0 setgray} bind def
/col0 {0.000 0.000 0.000 srgb} bind def
/col1 {0.000 0.000 1.000 srgb} bind def
/col2 {0.000 1.000 0.000 srgb} bind def
/col3 {0.000 1.000 1.000 srgb} bind def
/col4 {1.000 0.000 0.000 srgb} bind def
/col5 {1.000 0.000 1.000 srgb} bind def
/col6 {1.000 1.000 0.000 srgb} bind def
/col7 {1.000 1.000 1.000 srgb} bind def
/col8 {0.000 0.000 0.560 srgb} bind def
/col9 {0.000 0.000 0.690 srgb} bind def
/col10 {0.000 0.000 0.820 srgb} bind def
/col11 {0.530 0.810 1.000 srgb} bind def
/col12 {0.000 0.560 0.000 srgb} bind def
/col13 {0.000 0.690 0.000 srgb} bind def
/col14 {0.000 0.820 0.000 srgb} bind def
/col15 {0.000 0.560 0.560 srgb} bind def
/col16 {0.000 0.690 0.690 srgb} bind def
/col17 {0.000 0.820 0.820 srgb} bind def
/col18 {0.560 0.000 0.000 srgb} bind def
/col19 {0.690 0.000 0.000 srgb} bind def
/col20 {0.820 0.000 0.000 srgb} bind def
/col21 {0.560 0.000 0.560 srgb} bind def
/col22 {0.690 0.000 0.690 srgb} bind def
/col23 {0.820 0.000 0.820 srgb} bind def
/col24 {0.500 0.190 0.000 srgb} bind def
/col25 {0.630 0.250 0.000 srgb} bind def
/col26 {0.750 0.380 0.000 srgb} bind def
/col27 {1.000 0.500 0.500 srgb} bind def
/col28 {1.000 0.630 0.630 srgb} bind def
/col29 {1.000 0.750 0.750 srgb} bind def
/col30 {1.000 0.880 0.880 srgb} bind def
/col31 {1.000 0.840 0.000 srgb} bind def

end
save
-34.0 218.0 translate
1 -1 scale

/cp {closepath} bind def
/ef {eofill} bind def
/gr {grestore} bind def
/gs {gsave} bind def
/sa {save} bind def
/rs {restore} bind def
/l {lineto} bind def
/m {moveto} bind def
/rm {rmoveto} bind def
/n {newpath} bind def
/s {stroke} bind def
/sh {show} bind def
/slc {setlinecap} bind def
/slj {setlinejoin} bind def
/slw {setlinewidth} bind def
/srgb {setrgbcolor} bind def
/rot {rotate} bind def
/sc {scale} bind def
/sd {setdash} bind def
/ff {findfont} bind def
/sf {setfont} bind def
/scf {scalefont} bind def
/sw {stringwidth} bind def
/tr {translate} bind def
/tnt {dup dup currentrgbcolor
  4 -2 roll dup 1 exch sub 3 -1 roll mul add
  4 -2 roll dup 1 exch sub 3 -1 roll mul add
  4 -2 roll dup 1 exch sub 3 -1 roll mul add srgb}
  bind def
/shd {dup dup currentrgbcolor 4 -2 roll mul 4 -2 roll mul
  4 -2 roll mul srgb} bind def
/$F2psBegin {$F2psDict begin /$F2psEnteredState save def} def
/$F2psEnd {$F2psEnteredState restore end} def
%%EndProlog

$F2psBegin
10 setmiterlimit
n -1000 4622 m -1000 -1000 l 6122 -1000 l 6122 4622 l cp clip
 0.06000 0.06000 sc
% Polyline
15.000 slw
 [90] 0 sd
n 4200 1725 m 4200 2100 l gs col0 s gr  [] 0 sd
% Polyline
gs  clippath
2340 942 m 2400 654 l 2460 942 l 2460 570 l 2340 570 l cp
clip
n 2400 600 m 2400 2100 l gs col0 s gr gr

% arrowhead
n 2340 942 m 2400 654 l 2460 942 l 2400 894 l 2340 942 l  cp gs 0.00 setgray ef gr  col0 s
% Polyline
n 2700 1725 m 2700 2100 l gs col0 s gr 
% Polyline
n 2100 1725 m 2100 2100 l gs col0 s gr 
% Polyline
gs  clippath
4140 2592 m 4200 2304 l 4260 2592 l 4260 2220 l 4140 2220 l cp
2640 2592 m 2700 2304 l 2760 2592 l 2760 2220 l 2640 2220 l cp
clip
n 2700 2250 m 2700 3300 l 4200 3300 l 4200 2250 l gs col0 s gr gr

% arrowhead
n 2640 2592 m 2700 2304 l 2760 2592 l 2700 2544 l 2640 2592 l  cp gs 0.00 setgray ef gr  col0 s
% arrowhead
n 4140 2592 m 4200 2304 l 4260 2592 l 4200 2544 l 4140 2592 l  cp gs 0.00 setgray ef gr  col0 s
% Polyline
gs  clippath
4758 2040 m 5046 2100 l 4758 2160 l 5130 2160 l 5130 2040 l cp
clip
n 1200 2100 m 5100 2100 l gs col0 s gr gr

% arrowhead
n 4758 2040 m 5046 2100 l 4758 2160 l 4806 2100 l 4758 2040 l  cp gs 0.00 setgray ef gr  col0 s
% Polyline
 [90] 0 sd
n 1200 2100 m 600 2100 l gs col0 s gr  [] 0 sd
% Polyline
gs  clippath
3540 2592 m 3600 2304 l 3660 2592 l 3660 2220 l 3540 2220 l cp
2040 2592 m 2100 2304 l 2160 2592 l 2160 2220 l 2040 2220 l cp
clip
n 2100 2250 m 2100 3600 l 3600 3600 l 3600 2250 l gs col0 s gr gr

% arrowhead
n 2040 2592 m 2100 2304 l 2160 2592 l 2100 2544 l 2040 2592 l  cp gs 0.00 setgray ef gr  col0 s
% arrowhead
n 3540 2592 m 3600 2304 l 3660 2592 l 3600 2544 l 3540 2592 l  cp gs 0.00 setgray ef gr  col0 s
% Polyline
 [90] 0 sd
n 3600 1725 m 3600 2100 l gs col0 s gr  [] 0 sd
% Polyline
 [90] 0 sd
n 3300 2100 m 3302 2098 l 3306 2092 l 3312 2083 l 3323 2068 l 3338 2048 l
 3357 2022 l 3380 1991 l 3406 1957 l 3435 1919 l 3465 1879 l
 3497 1839 l 3529 1798 l 3561 1759 l 3593 1722 l 3623 1688 l
 3652 1656 l 3680 1627 l 3706 1601 l 3731 1579 l 3755 1559 l
 3778 1543 l 3799 1529 l 3820 1518 l 3841 1510 l 3861 1504 l
 3880 1501 l 3900 1500 l 3920 1501 l 3939 1504 l 3959 1510 l
 3980 1518 l 4001 1529 l 4022 1543 l 4045 1559 l 4069 1579 l
 4094 1601 l 4120 1627 l 4148 1656 l 4177 1688 l 4207 1722 l
 4239 1759 l 4271 1798 l 4303 1839 l 4335 1879 l 4365 1919 l
 4394 1957 l 4420 1991 l 4443 2022 l 4462 2048 l 4477 2068 l
 4488 2083 l 4494 2092 l 4498 2098 l 4500 2100 l gs col0 s gr  [] 0 sd
% Polyline
n 1800 2100 m 1802 2098 l 1806 2092 l 1812 2083 l 1823 2068 l 1838 2048 l
 1857 2022 l 1880 1991 l 1906 1957 l 1935 1919 l 1965 1879 l
 1997 1839 l 2029 1798 l 2061 1759 l 2093 1722 l 2123 1688 l
 2152 1656 l 2180 1627 l 2206 1601 l 2231 1579 l 2255 1559 l
 2278 1543 l 2299 1529 l 2320 1518 l 2341 1510 l 2361 1504 l
 2380 1501 l 2400 1500 l 2420 1501 l 2439 1504 l 2459 1510 l
 2480 1518 l 2501 1529 l 2522 1543 l 2545 1559 l 2569 1579 l
 2594 1601 l 2620 1627 l 2648 1656 l 2677 1688 l 2707 1722 l
 2739 1759 l 2771 1798 l 2803 1839 l 2835 1879 l 2865 1919 l
 2894 1957 l 2920 1991 l 2943 2022 l 2962 2048 l 2977 2068 l
 2988 2083 l 2994 2092 l 2998 2098 l 3000 2100 l gs col0 s gr 
/Times-Roman ff 360.00 scf sf
2550 975 m
gs 1 -1 sc (|A|) col0 sh gr
/Times-Roman ff 360.00 scf sf
4875 2475 m
gs 1 -1 sc (f) col0 sh gr
$F2psEnd
rs
