%!PS-Adobe-2.0 EPSF-2.0
%%Title: square_det.eps
%%Creator: fig2dev Version 3.2 Patchlevel 0-beta3
%%CreationDate: Sun Nov  8 12:57:19 1998
%%For: mea1@moomin.valley (Red Hat Linux User,,,,)
%%Orientation: Portrait
%%BoundingBox: 0 0 886 128
%%Pages: 0
%%BeginSetup
%%EndSetup
%%Magnification: 1.0000
%%EndComments
/$F2psDict 200 dict def
$F2psDict begin
$F2psDict /mtrx matrix put
/col-1 {0 setgray} bind def
/col0 {0.000 0.000 0.000 srgb} bind def
/col1 {0.000 0.000 1.000 srgb} bind def
/col2 {0.000 1.000 0.000 srgb} bind def
/col3 {0.000 1.000 1.000 srgb} bind def
/col4 {1.000 0.000 0.000 srgb} bind def
/col5 {1.000 0.000 1.000 srgb} bind def
/col6 {1.000 1.000 0.000 srgb} bind def
/col7 {1.000 1.000 1.000 srgb} bind def
/col8 {0.000 0.000 0.560 srgb} bind def
/col9 {0.000 0.000 0.690 srgb} bind def
/col10 {0.000 0.000 0.820 srgb} bind def
/col11 {0.530 0.810 1.000 srgb} bind def
/col12 {0.000 0.560 0.000 srgb} bind def
/col13 {0.000 0.690 0.000 srgb} bind def
/col14 {0.000 0.820 0.000 srgb} bind def
/col15 {0.000 0.560 0.560 srgb} bind def
/col16 {0.000 0.690 0.690 srgb} bind def
/col17 {0.000 0.820 0.820 srgb} bind def
/col18 {0.560 0.000 0.000 srgb} bind def
/col19 {0.690 0.000 0.000 srgb} bind def
/col20 {0.820 0.000 0.000 srgb} bind def
/col21 {0.560 0.000 0.560 srgb} bind def
/col22 {0.690 0.000 0.690 srgb} bind def
/col23 {0.820 0.000 0.820 srgb} bind def
/col24 {0.500 0.190 0.000 srgb} bind def
/col25 {0.630 0.250 0.000 srgb} bind def
/col26 {0.750 0.380 0.000 srgb} bind def
/col27 {1.000 0.500 0.500 srgb} bind def
/col28 {1.000 0.630 0.630 srgb} bind def
/col29 {1.000 0.750 0.750 srgb} bind def
/col30 {1.000 0.880 0.880 srgb} bind def
/col31 {1.000 0.840 0.000 srgb} bind def

end
save
-34.0 198.0 translate
1 -1 scale

/cp {closepath} bind def
/ef {eofill} bind def
/gr {grestore} bind def
/gs {gsave} bind def
/sa {save} bind def
/rs {restore} bind def
/l {lineto} bind def
/m {moveto} bind def
/rm {rmoveto} bind def
/n {newpath} bind def
/s {stroke} bind def
/sh {show} bind def
/slc {setlinecap} bind def
/slj {setlinejoin} bind def
/slw {setlinewidth} bind def
/srgb {setrgbcolor} bind def
/rot {rotate} bind def
/sc {scale} bind def
/sd {setdash} bind def
/ff {findfont} bind def
/sf {setfont} bind def
/scf {scalefont} bind def
/sw {stringwidth} bind def
/tr {translate} bind def
/tnt {dup dup currentrgbcolor
  4 -2 roll dup 1 exch sub 3 -1 roll mul add
  4 -2 roll dup 1 exch sub 3 -1 roll mul add
  4 -2 roll dup 1 exch sub 3 -1 roll mul add srgb}
  bind def
/shd {dup dup currentrgbcolor 4 -2 roll mul 4 -2 roll mul
  4 -2 roll mul srgb} bind def
/reencdict 12 dict def /ReEncode { reencdict begin
/newcodesandnames exch def /newfontname exch def /basefontname exch def
/basefontdict basefontname findfont def /newfont basefontdict maxlength dict def
basefontdict { exch dup /FID ne { dup /Encoding eq
{ exch dup length array copy newfont 3 1 roll put }
{ exch newfont 3 1 roll put } ifelse } { pop pop } ifelse } forall
newfont /FontName newfontname put newcodesandnames aload pop
128 1 255 { newfont /Encoding get exch /.notdef put } for
newcodesandnames length 2 idiv { newfont /Encoding get 3 1 roll put } repeat
newfontname newfont definefont pop end } def
/isovec [
8#200 /grave 8#201 /acute 8#202 /circumflex 8#203 /tilde
8#204 /macron 8#205 /breve 8#206 /dotaccent 8#207 /dieresis
8#210 /ring 8#211 /cedilla 8#212 /hungarumlaut 8#213 /ogonek 8#214 /caron
8#220 /dotlessi 8#230 /oe 8#231 /OE
8#240 /space 8#241 /exclamdown 8#242 /cent 8#243 /sterling
8#244 /currency 8#245 /yen 8#246 /brokenbar 8#247 /section 8#250 /dieresis
8#251 /copyright 8#252 /ordfeminine 8#253 /guillemotleft 8#254 /logicalnot
8#255 /endash 8#256 /registered 8#257 /macron 8#260 /degree 8#261 /plusminus
8#262 /twosuperior 8#263 /threesuperior 8#264 /acute 8#265 /mu 8#266 /paragraph
8#267 /periodcentered 8#270 /cedilla 8#271 /onesuperior 8#272 /ordmasculine
8#273 /guillemotright 8#274 /onequarter 8#275 /onehalf
8#276 /threequarters 8#277 /questiondown 8#300 /Agrave 8#301 /Aacute
8#302 /Acircumflex 8#303 /Atilde 8#304 /Adieresis 8#305 /Aring
8#306 /AE 8#307 /Ccedilla 8#310 /Egrave 8#311 /Eacute
8#312 /Ecircumflex 8#313 /Edieresis 8#314 /Igrave 8#315 /Iacute
8#316 /Icircumflex 8#317 /Idieresis 8#320 /Eth 8#321 /Ntilde 8#322 /Ograve
8#323 /Oacute 8#324 /Ocircumflex 8#325 /Otilde 8#326 /Odieresis 8#327 /multiply
8#330 /Oslash 8#331 /Ugrave 8#332 /Uacute 8#333 /Ucircumflex
8#334 /Udieresis 8#335 /Yacute 8#336 /Thorn 8#337 /germandbls 8#340 /agrave
8#341 /aacute 8#342 /acircumflex 8#343 /atilde 8#344 /adieresis 8#345 /aring
8#346 /ae 8#347 /ccedilla 8#350 /egrave 8#351 /eacute
8#352 /ecircumflex 8#353 /edieresis 8#354 /igrave 8#355 /iacute
8#356 /icircumflex 8#357 /idieresis 8#360 /eth 8#361 /ntilde 8#362 /ograve
8#363 /oacute 8#364 /ocircumflex 8#365 /otilde 8#366 /odieresis 8#367 /divide
8#370 /oslash 8#371 /ugrave 8#372 /uacute 8#373 /ucircumflex
8#374 /udieresis 8#375 /yacute 8#376 /thorn 8#377 /ydieresis] def
/Times-Roman /Times-Roman-iso isovec ReEncode
/$F2psBegin {$F2psDict begin /$F2psEnteredState save def} def
/$F2psEnd {$F2psEnteredState restore end} def
%%EndProlog

$F2psBegin
10 setmiterlimit
n -1000 4300 m -1000 -1000 l 16322 -1000 l 16322 4300 l cp clip
 0.06000 0.06000 sc
/Times-Roman-iso ff 360.00 scf sf
1575 3225 m
gs 1 -1 sc (-f) col0 sh gr
/Times-Roman-iso ff 360.00 scf sf
1950 3300 m
gs 1 -1 sc (c) col0 sh gr
/Times-Roman-iso ff 360.00 scf sf
2850 3225 m
gs 1 -1 sc (f) col0 sh gr
/Times-Roman-iso ff 360.00 scf sf
3000 3300 m
gs 1 -1 sc (c) col0 sh gr
/Times-Roman-iso ff 360.00 scf sf
6225 3225 m
gs 1 -1 sc (-2f) col0 sh gr
/Times-Roman-iso ff 360.00 scf sf
6750 3300 m
gs 1 -1 sc (c) col0 sh gr
/Times-Roman-iso ff 360.00 scf sf
8775 3225 m
gs 1 -1 sc (2f) col0 sh gr
/Times-Roman-iso ff 360.00 scf sf
9075 3300 m
gs 1 -1 sc (c) col0 sh gr
% Arc
15.000 slw
gs n 6600.0 2700.0 300.0 180.0 0.0 arc
gs col0 s gr
 gr

% Arc
gs n 9000.0 2700.0 300.0 180.0 0.0 arc
gs col0 s gr
 gr

% Polyline
gs  clippath
5358 2040 m 5646 2100 l 5358 2160 l 5730 2160 l 5730 2040 l cp
clip
n 4500 2100 m 5700 2100 l gs col0 s gr gr

% arrowhead
n 5358 2040 m 5646 2100 l 5358 2160 l 5406 2100 l 5358 2040 l  cp gs 0.00 setgray ef gr  col0 s
% Polyline
gs  clippath
9558 2640 m 9846 2700 l 9558 2760 l 9930 2760 l 9930 2640 l cp
6042 2760 m 5754 2700 l 6042 2640 l 5670 2640 l 5670 2760 l cp
clip
n 5700 2700 m 9900 2700 l gs col0 s gr gr

% arrowhead
n 6042 2760 m 5754 2700 l 6042 2640 l 5994 2700 l 6042 2760 l  cp gs 0.00 setgray ef gr  col0 s
% arrowhead
n 9558 2640 m 9846 2700 l 9558 2760 l 9606 2700 l 9558 2640 l  cp gs 0.00 setgray ef gr  col0 s
% Polyline
gs  clippath
7740 1542 m 7800 1254 l 7860 1542 l 7860 1170 l 7740 1170 l cp
clip
n 7800 1200 m 7800 2700 l gs col0 s gr gr

% arrowhead
n 7740 1542 m 7800 1254 l 7860 1542 l 7800 1494 l 7740 1542 l  cp gs 0.00 setgray ef gr  col0 s
% Polyline
7.500 slw
 [60] 0 sd
n 7050 2700 m 8550 2700 l 8550 1800 l 7050 1800 l cp gs col0 s gr  [] 0 sd
% Polyline
15.000 slw
n 7200 2700 m 7202 2698 l 7206 2692 l 7212 2683 l 7223 2668 l 7238 2648 l
 7257 2622 l 7280 2591 l 7306 2557 l 7335 2519 l 7365 2479 l
 7397 2439 l 7429 2398 l 7461 2359 l 7493 2322 l 7523 2288 l
 7552 2256 l 7580 2227 l 7606 2201 l 7631 2179 l 7655 2159 l
 7678 2143 l 7699 2129 l 7720 2118 l 7741 2110 l 7761 2104 l
 7780 2101 l 7800 2100 l 7820 2101 l 7839 2104 l 7859 2110 l
 7880 2118 l 7901 2129 l 7922 2143 l 7945 2159 l 7969 2179 l
 7994 2201 l 8020 2227 l 8048 2256 l 8077 2288 l 8107 2322 l
 8139 2359 l 8171 2398 l 8203 2439 l 8235 2479 l 8265 2519 l
 8294 2557 l 8320 2591 l 8343 2622 l 8362 2648 l 8377 2668 l
 8388 2683 l 8394 2692 l 8398 2698 l 8400 2700 l gs col0 s gr 
/Times-Roman-iso ff 360.00 scf sf
8025 1575 m
gs 1 -1 sc (|A|) col0 sh gr
/Times-Roman-iso ff 360.00 scf sf
9750 3075 m
gs 1 -1 sc (f) col0 sh gr
/Times-Roman-iso ff 360.00 scf sf
4950 1950 m
gs 1 -1 sc ([e\(t\)]) dup sw pop 2 div neg 0 rm  col0 sh gr
/Times-Roman-iso ff 270.00 scf sf
5400 1800 m
gs 1 -1 sc (2) dup sw pop 2 div neg 0 rm  col0 sh gr
% Arc
gs n 1800.0 2700.0 300.0 180.0 0.0 arc
gs col0 s gr
 gr

% Arc
gs n 3000.0 2700.0 300.0 180.0 0.0 arc
gs col0 s gr
 gr

% Polyline
gs  clippath
3858 2640 m 4146 2700 l 3858 2760 l 4230 2760 l 4230 2640 l cp
942 2760 m 654 2700 l 942 2640 l 570 2640 l 570 2760 l cp
clip
n 600 2700 m 4200 2700 l gs col0 s gr gr

% arrowhead
n 942 2760 m 654 2700 l 942 2640 l 894 2700 l 942 2760 l  cp gs 0.00 setgray ef gr  col0 s
% arrowhead
n 3858 2640 m 4146 2700 l 3858 2760 l 3906 2700 l 3858 2640 l  cp gs 0.00 setgray ef gr  col0 s
% Polyline
gs  clippath
2340 1542 m 2400 1254 l 2460 1542 l 2460 1170 l 2340 1170 l cp
clip
n 2400 1200 m 2400 2700 l gs col0 s gr gr

% arrowhead
n 2340 1542 m 2400 1254 l 2460 1542 l 2400 1494 l 2340 1542 l  cp gs 0.00 setgray ef gr  col0 s
% Polyline
gs  clippath
11058 2040 m 11346 2100 l 11058 2160 l 11430 2160 l 11430 2040 l cp
clip
n 10200 2100 m 11400 2100 l gs col0 s gr gr

% arrowhead
n 11058 2040 m 11346 2100 l 11058 2160 l 11106 2100 l 11058 2040 l  cp gs 0.00 setgray ef gr  col0 s
% Polyline
gs  clippath
13440 1542 m 13500 1254 l 13560 1542 l 13560 1170 l 13440 1170 l cp
clip
n 13500 1200 m 13500 2700 l gs col0 s gr gr

% arrowhead
n 13440 1542 m 13500 1254 l 13560 1542 l 13500 1494 l 13440 1542 l  cp gs 0.00 setgray ef gr  col0 s
% Polyline
gs  clippath
14958 2640 m 15246 2700 l 14958 2760 l 15330 2760 l 15330 2640 l cp
12042 2760 m 11754 2700 l 12042 2640 l 11670 2640 l 11670 2760 l cp
clip
n 11700 2700 m 15300 2700 l gs col0 s gr gr

% arrowhead
n 12042 2760 m 11754 2700 l 12042 2640 l 11994 2700 l 12042 2760 l  cp gs 0.00 setgray ef gr  col0 s
% arrowhead
n 14958 2640 m 15246 2700 l 14958 2760 l 15006 2700 l 14958 2640 l  cp gs 0.00 setgray ef gr  col0 s
% Polyline
n 12900 2700 m 12902 2698 l 12906 2692 l 12912 2683 l 12923 2668 l 12938 2648 l
 12957 2622 l 12980 2591 l 13006 2557 l 13035 2519 l 13065 2479 l
 13097 2439 l 13129 2398 l 13161 2359 l 13193 2322 l 13223 2288 l
 13252 2256 l 13280 2227 l 13306 2201 l 13331 2179 l 13355 2159 l
 13378 2143 l 13399 2129 l 13420 2118 l 13441 2110 l 13461 2104 l
 13480 2101 l 13500 2100 l 13520 2101 l 13539 2104 l 13559 2110 l
 13580 2118 l 13601 2129 l 13622 2143 l 13645 2159 l 13669 2179 l
 13694 2201 l 13720 2227 l 13748 2256 l 13777 2288 l 13807 2322 l
 13839 2359 l 13871 2398 l 13903 2439 l 13935 2479 l 13965 2519 l
 13994 2557 l 14020 2591 l 14043 2622 l 14062 2648 l 14077 2668 l
 14088 2683 l 14094 2692 l 14098 2698 l 14100 2700 l gs col0 s gr 
/Times-Roman-iso ff 360.00 scf sf
2625 1575 m
gs 1 -1 sc (|A|) col0 sh gr
/Times-Roman-iso ff 360.00 scf sf
4050 3075 m
gs 1 -1 sc (f) col0 sh gr
/Times-Roman-iso ff 360.00 scf sf
13725 1575 m
gs 1 -1 sc (|A|) col0 sh gr
/Times-Roman-iso ff 360.00 scf sf
10650 1950 m
gs 1 -1 sc (LPF) dup sw pop 2 div neg 0 rm  col0 sh gr
/Times-Roman-iso ff 360.00 scf sf
15075 3075 m
gs 1 -1 sc (f) col0 sh gr
$F2psEnd
rs
