%!PS-Adobe-2.0 EPSF-2.0
%%Title: dof.eps
%%Creator: fig2dev Version 3.2 Patchlevel 0-beta3
%%CreationDate: Fri Nov  6 19:55:59 1998
%%For: mea1@moomin.valley (Red Hat Linux User,,,,)
%%Orientation: Portrait
%%BoundingBox: 0 0 475 148
%%Pages: 0
%%BeginSetup
%%EndSetup
%%Magnification: 1.0000
%%EndComments
/$F2psDict 200 dict def
$F2psDict begin
$F2psDict /mtrx matrix put
/col-1 {0 setgray} bind def
/col0 {0.000 0.000 0.000 srgb} bind def
/col1 {0.000 0.000 1.000 srgb} bind def
/col2 {0.000 1.000 0.000 srgb} bind def
/col3 {0.000 1.000 1.000 srgb} bind def
/col4 {1.000 0.000 0.000 srgb} bind def
/col5 {1.000 0.000 1.000 srgb} bind def
/col6 {1.000 1.000 0.000 srgb} bind def
/col7 {1.000 1.000 1.000 srgb} bind def
/col8 {0.000 0.000 0.560 srgb} bind def
/col9 {0.000 0.000 0.690 srgb} bind def
/col10 {0.000 0.000 0.820 srgb} bind def
/col11 {0.530 0.810 1.000 srgb} bind def
/col12 {0.000 0.560 0.000 srgb} bind def
/col13 {0.000 0.690 0.000 srgb} bind def
/col14 {0.000 0.820 0.000 srgb} bind def
/col15 {0.000 0.560 0.560 srgb} bind def
/col16 {0.000 0.690 0.690 srgb} bind def
/col17 {0.000 0.820 0.820 srgb} bind def
/col18 {0.560 0.000 0.000 srgb} bind def
/col19 {0.690 0.000 0.000 srgb} bind def
/col20 {0.820 0.000 0.000 srgb} bind def
/col21 {0.560 0.000 0.560 srgb} bind def
/col22 {0.690 0.000 0.690 srgb} bind def
/col23 {0.820 0.000 0.820 srgb} bind def
/col24 {0.500 0.190 0.000 srgb} bind def
/col25 {0.630 0.250 0.000 srgb} bind def
/col26 {0.750 0.380 0.000 srgb} bind def
/col27 {1.000 0.500 0.500 srgb} bind def
/col28 {1.000 0.630 0.630 srgb} bind def
/col29 {1.000 0.750 0.750 srgb} bind def
/col30 {1.000 0.880 0.880 srgb} bind def
/col31 {1.000 0.840 0.000 srgb} bind def

end
save
-70.0 254.0 translate
1 -1 scale

/cp {closepath} bind def
/ef {eofill} bind def
/gr {grestore} bind def
/gs {gsave} bind def
/sa {save} bind def
/rs {restore} bind def
/l {lineto} bind def
/m {moveto} bind def
/rm {rmoveto} bind def
/n {newpath} bind def
/s {stroke} bind def
/sh {show} bind def
/slc {setlinecap} bind def
/slj {setlinejoin} bind def
/slw {setlinewidth} bind def
/srgb {setrgbcolor} bind def
/rot {rotate} bind def
/sc {scale} bind def
/sd {setdash} bind def
/ff {findfont} bind def
/sf {setfont} bind def
/scf {scalefont} bind def
/sw {stringwidth} bind def
/tr {translate} bind def
/tnt {dup dup currentrgbcolor
  4 -2 roll dup 1 exch sub 3 -1 roll mul add
  4 -2 roll dup 1 exch sub 3 -1 roll mul add
  4 -2 roll dup 1 exch sub 3 -1 roll mul add srgb}
  bind def
/shd {dup dup currentrgbcolor 4 -2 roll mul 4 -2 roll mul
  4 -2 roll mul srgb} bind def
/$F2psBegin {$F2psDict begin /$F2psEnteredState save def} def
/$F2psEnd {$F2psEnteredState restore end} def
%%EndProlog

$F2psBegin
10 setmiterlimit
n -1000 5222 m -1000 -1000 l 10083 -1000 l 10083 5222 l cp clip
 0.06000 0.06000 sc
% Polyline
7.500 slw
 [60] 0 sd
n 2850 2850 m 2850 3900 l gs col0 s gr  [] 0 sd
% Polyline
 [60] 0 sd
n 3525 2850 m 3525 3900 l gs col0 s gr  [] 0 sd
% Polyline
15.000 slw
gs  clippath
2337 3660 m 2769 3750 l 2337 3840 l 2880 3840 l 2880 3660 l cp
clip
n 2850 3750 m 1800 3750 l gs col0 s gr gr

% arrowhead
30.000 slw
n 2337 3660 m 2769 3750 l 2337 3840 l 2409 3750 l 2337 3660 l  cp gs 0.00 setgray ef gr  col0 s
% Polyline
15.000 slw
gs  clippath
4038 3840 m 3606 3750 l 4038 3660 l 3495 3660 l 3495 3840 l cp
clip
n 3525 3750 m 4575 3750 l gs col0 s gr gr

% arrowhead
30.000 slw
n 4038 3840 m 3606 3750 l 4038 3660 l 3966 3750 l 4038 3840 l  cp gs 0.00 setgray ef gr  col0 s
% Polyline
7.500 slw
 [60] 0 sd
n 7275 2850 m 7275 3900 l gs col0 s gr  [] 0 sd
% Polyline
15.000 slw
gs  clippath
6762 3660 m 7194 3750 l 6762 3840 l 7305 3840 l 7305 3660 l cp
clip
n 7275 3750 m 6225 3750 l gs col0 s gr gr

% arrowhead
30.000 slw
n 6762 3660 m 7194 3750 l 6762 3840 l 6834 3750 l 6762 3660 l  cp gs 0.00 setgray ef gr  col0 s
% Polyline
7.500 slw
 [60] 0 sd
n 7575 2850 m 7575 3900 l gs col0 s gr  [] 0 sd
% Polyline
15.000 slw
gs  clippath
8088 3840 m 7656 3750 l 8088 3660 l 7545 3660 l 7545 3840 l cp
clip
n 7575 3750 m 8625 3750 l gs col0 s gr gr

% arrowhead
30.000 slw
n 8088 3840 m 7656 3750 l 8088 3660 l 8016 3750 l 8088 3840 l  cp gs 0.00 setgray ef gr  col0 s
% Arc
7.500 slw
gs n 7425.0 4960.7 1816.9 -155.2 -24.8 arc
gs col0 s gr
 gr

% Arc
gs n 7425.0 1039.3 1816.9 155.2 24.8 arcn
gs col0 s gr
 gr

% Arc
gs n 3225.0 -375.0 3228.5 120.7 59.3 arcn
gs col0 s gr
 gr

% Arc
gs n 3225.0 6375.0 3228.5 -120.7 -59.3 arc
gs col0 s gr
 gr

% Polyline
15.000 slw
n 5400 1800 m 5700 1800 l 5700 4200 l 5400 4200 l gs col0 s gr 
% Polyline
n 1200 2400 m 1500 2400 l 1500 3600 l 1200 3600 l gs col0 s gr 
$F2psEnd
rs
