%!PS-Adobe-2.0 EPSF-2.0
%%Title: fdatten.eps
%%Creator: fig2dev Version 3.2 Patchlevel 0-beta3
%%CreationDate: Wed Oct 28 21:47:08 1998
%%For: mea1@moomin.valley (Red Hat Linux User,,,,)
%%Orientation: Portrait
%%BoundingBox: 0 0 481 245
%%Pages: 0
%%BeginSetup
%%EndSetup
%%Magnification: 1.0000
%%EndComments
/$F2psDict 200 dict def
$F2psDict begin
$F2psDict /mtrx matrix put
/col-1 {0 setgray} bind def
/col0 {0.000 0.000 0.000 srgb} bind def
/col1 {0.000 0.000 1.000 srgb} bind def
/col2 {0.000 1.000 0.000 srgb} bind def
/col3 {0.000 1.000 1.000 srgb} bind def
/col4 {1.000 0.000 0.000 srgb} bind def
/col5 {1.000 0.000 1.000 srgb} bind def
/col6 {1.000 1.000 0.000 srgb} bind def
/col7 {1.000 1.000 1.000 srgb} bind def
/col8 {0.000 0.000 0.560 srgb} bind def
/col9 {0.000 0.000 0.690 srgb} bind def
/col10 {0.000 0.000 0.820 srgb} bind def
/col11 {0.530 0.810 1.000 srgb} bind def
/col12 {0.000 0.560 0.000 srgb} bind def
/col13 {0.000 0.690 0.000 srgb} bind def
/col14 {0.000 0.820 0.000 srgb} bind def
/col15 {0.000 0.560 0.560 srgb} bind def
/col16 {0.000 0.690 0.690 srgb} bind def
/col17 {0.000 0.820 0.820 srgb} bind def
/col18 {0.560 0.000 0.000 srgb} bind def
/col19 {0.690 0.000 0.000 srgb} bind def
/col20 {0.820 0.000 0.000 srgb} bind def
/col21 {0.560 0.000 0.560 srgb} bind def
/col22 {0.690 0.000 0.690 srgb} bind def
/col23 {0.820 0.000 0.820 srgb} bind def
/col24 {0.500 0.190 0.000 srgb} bind def
/col25 {0.630 0.250 0.000 srgb} bind def
/col26 {0.750 0.380 0.000 srgb} bind def
/col27 {1.000 0.500 0.500 srgb} bind def
/col28 {1.000 0.630 0.630 srgb} bind def
/col29 {1.000 0.750 0.750 srgb} bind def
/col30 {1.000 0.880 0.880 srgb} bind def
/col31 {1.000 0.840 0.000 srgb} bind def

end
save
-52.0 351.0 translate
1 -1 scale

/cp {closepath} bind def
/ef {eofill} bind def
/gr {grestore} bind def
/gs {gsave} bind def
/sa {save} bind def
/rs {restore} bind def
/l {lineto} bind def
/m {moveto} bind def
/rm {rmoveto} bind def
/n {newpath} bind def
/s {stroke} bind def
/sh {show} bind def
/slc {setlinecap} bind def
/slj {setlinejoin} bind def
/slw {setlinewidth} bind def
/srgb {setrgbcolor} bind def
/rot {rotate} bind def
/sc {scale} bind def
/sd {setdash} bind def
/ff {findfont} bind def
/sf {setfont} bind def
/scf {scalefont} bind def
/sw {stringwidth} bind def
/tr {translate} bind def
/tnt {dup dup currentrgbcolor
  4 -2 roll dup 1 exch sub 3 -1 roll mul add
  4 -2 roll dup 1 exch sub 3 -1 roll mul add
  4 -2 roll dup 1 exch sub 3 -1 roll mul add srgb}
  bind def
/shd {dup dup currentrgbcolor 4 -2 roll mul 4 -2 roll mul
  4 -2 roll mul srgb} bind def
/$F2psBegin {$F2psDict begin /$F2psEnteredState save def} def
/$F2psEnd {$F2psEnteredState restore end} def
%%EndProlog

$F2psBegin
10 setmiterlimit
n -1000 6850 m -1000 -1000 l 9876 -1000 l 9876 6850 l cp clip
 0.06000 0.06000 sc
% Polyline
30.000 slw
gs  clippath
870 2079 m 900 1935 l 930 2079 l 930 1755 l 870 1755 l cp
clip
n 900 1800 m 900 5100 l gs col0 s gr gr

% arrowhead
60.000 slw
n 870 2079 m 900 1935 l 930 2079 l 900 2055 l 870 2079 l  cp gs 0.00 setgray ef gr  col0 s
% Polyline
30.000 slw
gs  clippath
7821 5070 m 7965 5100 l 7821 5130 l 8145 5130 l 8145 5070 l cp
clip
n 900 5100 m 8100 5100 l gs col0 s gr gr

% arrowhead
60.000 slw
n 7821 5070 m 7965 5100 l 7821 5130 l 7845 5100 l 7821 5070 l  cp gs 0.00 setgray ef gr  col0 s
% Polyline
30.000 slw
 [120] 0 sd
n 3600 5100 m 3602 5099 l 3606 5098 l 3613 5095 l 3624 5090 l 3640 5083 l
 3660 5074 l 3686 5063 l 3715 5049 l 3749 5034 l 3786 5016 l
 3825 4997 l 3866 4977 l 3908 4955 l 3950 4932 l 3992 4909 l
 4033 4885 l 4073 4861 l 4112 4836 l 4149 4811 l 4185 4786 l
 4219 4761 l 4251 4734 l 4282 4707 l 4312 4680 l 4341 4651 l
 4369 4621 l 4396 4590 l 4422 4558 l 4448 4524 l 4474 4488 l
 4500 4450 l 4522 4417 l 4544 4382 l 4565 4346 l 4588 4309 l
 4610 4271 l 4632 4232 l 4655 4191 l 4678 4149 l 4702 4107 l
 4726 4063 l 4750 4019 l 4774 3975 l 4799 3930 l 4823 3884 l
 4849 3839 l 4874 3794 l 4899 3750 l 4925 3706 l 4950 3662 l
 4975 3620 l 5001 3579 l 5026 3539 l 5051 3501 l 5077 3465 l
 5101 3430 l 5126 3398 l 5150 3367 l 5174 3339 l 5198 3313 l
 5222 3290 l 5245 3269 l 5268 3251 l 5290 3236 l 5312 3223 l
 5335 3213 l 5356 3206 l 5378 3201 l 5400 3200 l 5422 3201 l
 5444 3206 l 5465 3213 l 5488 3223 l 5510 3236 l 5532 3251 l
 5555 3269 l 5578 3290 l 5602 3313 l 5626 3339 l 5650 3367 l
 5674 3398 l 5699 3430 l 5723 3465 l 5749 3501 l 5774 3539 l
 5799 3579 l 5825 3620 l 5850 3662 l 5875 3706 l 5901 3750 l
 5926 3794 l 5951 3839 l 5977 3884 l 6001 3930 l 6026 3975 l
 6050 4019 l 6074 4063 l 6098 4107 l 6122 4149 l 6145 4191 l
 6168 4232 l 6190 4271 l 6212 4309 l 6235 4346 l 6256 4382 l
 6278 4417 l 6300 4450 l 6326 4488 l 6352 4524 l 6378 4558 l
 6404 4590 l 6431 4621 l 6459 4651 l 6488 4680 l 6518 4707 l
 6549 4734 l 6581 4761 l 6615 4786 l 6651 4811 l 6688 4836 l
 6727 4861 l 6767 4885 l 6808 4909 l 6850 4932 l 6892 4955 l
 6934 4977 l 6975 4997 l 7014 5016 l 7051 5034 l 7085 5049 l
 7114 5063 l 7140 5074 l 7160 5083 l 7176 5090 l 7187 5095 l
 7194 5098 l 7198 5099 l 7200 5100 l gs col0 s gr  [] 0 sd
% Polyline
n 3000 5100 m 3002 5099 l 3006 5098 l 3013 5095 l 3024 5090 l 3040 5084 l
 3060 5076 l 3086 5065 l 3115 5053 l 3149 5039 l 3186 5023 l
 3225 5005 l 3266 4986 l 3308 4967 l 3350 4947 l 3392 4926 l
 3433 4905 l 3473 4884 l 3512 4863 l 3549 4842 l 3585 4820 l
 3619 4799 l 3651 4777 l 3682 4755 l 3712 4732 l 3741 4709 l
 3769 4685 l 3796 4660 l 3822 4634 l 3848 4608 l 3874 4579 l
 3900 4550 l 3923 4523 l 3946 4494 l 3969 4465 l 3992 4435 l
 4016 4403 l 4040 4371 l 4064 4338 l 4089 4304 l 4114 4269 l
 4139 4234 l 4165 4199 l 4190 4163 l 4217 4126 l 4243 4090 l
 4270 4054 l 4296 4018 l 4323 3983 l 4350 3949 l 4377 3915 l
 4404 3882 l 4430 3851 l 4457 3820 l 4483 3792 l 4510 3765 l
 4535 3740 l 4561 3716 l 4586 3695 l 4611 3675 l 4636 3658 l
 4660 3643 l 4684 3630 l 4708 3619 l 4731 3611 l 4754 3605 l
 4777 3601 l 4800 3600 l 4823 3601 l 4846 3605 l 4869 3611 l
 4892 3619 l 4916 3630 l 4940 3643 l 4964 3658 l 4989 3675 l
 5014 3695 l 5039 3716 l 5065 3740 l 5090 3765 l 5117 3792 l
 5143 3820 l 5170 3851 l 5196 3882 l 5223 3915 l 5250 3949 l
 5277 3983 l 5304 4018 l 5330 4054 l 5357 4090 l 5383 4126 l
 5410 4163 l 5435 4199 l 5461 4234 l 5486 4269 l 5511 4304 l
 5536 4338 l 5560 4371 l 5584 4403 l 5608 4435 l 5631 4465 l
 5654 4494 l 5677 4523 l 5700 4550 l 5726 4579 l 5752 4608 l
 5778 4634 l 5804 4660 l 5831 4685 l 5859 4709 l 5888 4732 l
 5918 4755 l 5949 4777 l 5981 4799 l 6015 4820 l 6051 4842 l
 6088 4863 l 6127 4884 l 6167 4905 l 6208 4926 l 6250 4947 l
 6292 4967 l 6334 4986 l 6375 5005 l 6414 5023 l 6451 5039 l
 6485 5053 l 6514 5065 l 6540 5076 l 6560 5084 l 6576 5090 l
 6587 5095 l 6594 5098 l 6598 5099 l 6600 5100 l gs col0 s gr 
/Times-Roman ff 420.00 scf sf
1500 2100 m
gs 1 -1 sc (|A|) dup sw pop 2 div neg 0 rm  col0 sh gr
/Times-Roman ff 420.00 scf sf
7800 5700 m
gs 1 -1 sc (f) dup sw pop 2 div neg 0 rm  col0 sh gr
/Times-Roman ff 360.00 scf sf
2925 3975 m
gs 1 -1 sc (Received pulse) dup sw pop 2 div neg 0 rm  col0 sh gr
/Times-Roman ff 360.00 scf sf
7500 3450 m
gs 1 -1 sc (Transmitted pulse) dup sw pop 2 div neg 0 rm  col0 sh gr
/Times-Roman ff 420.00 scf sf
8025 5850 m
gs 1 -1 sc (t) dup sw pop 2 div neg 0 rm  col0 sh gr
$F2psEnd
rs
