%!PS-Adobe-2.0 EPSF-2.0
%%Title: four_elconv.eps
%%Creator: fig2dev Version 3.2 Patchlevel 0-beta3
%%CreationDate: Thu Oct 29 20:16:23 1998
%%For: mea1@moomin.valley (Red Hat Linux User,,,,)
%%Orientation: Portrait
%%BoundingBox: 0 0 1239 263
%%Pages: 0
%%BeginSetup
%%EndSetup
%%Magnification: 1.0000
%%EndComments
/$F2psDict 200 dict def
$F2psDict begin
$F2psDict /mtrx matrix put
/col-1 {0 setgray} bind def
/col0 {0.000 0.000 0.000 srgb} bind def
/col1 {0.000 0.000 1.000 srgb} bind def
/col2 {0.000 1.000 0.000 srgb} bind def
/col3 {0.000 1.000 1.000 srgb} bind def
/col4 {1.000 0.000 0.000 srgb} bind def
/col5 {1.000 0.000 1.000 srgb} bind def
/col6 {1.000 1.000 0.000 srgb} bind def
/col7 {1.000 1.000 1.000 srgb} bind def
/col8 {0.000 0.000 0.560 srgb} bind def
/col9 {0.000 0.000 0.690 srgb} bind def
/col10 {0.000 0.000 0.820 srgb} bind def
/col11 {0.530 0.810 1.000 srgb} bind def
/col12 {0.000 0.560 0.000 srgb} bind def
/col13 {0.000 0.690 0.000 srgb} bind def
/col14 {0.000 0.820 0.000 srgb} bind def
/col15 {0.000 0.560 0.560 srgb} bind def
/col16 {0.000 0.690 0.690 srgb} bind def
/col17 {0.000 0.820 0.820 srgb} bind def
/col18 {0.560 0.000 0.000 srgb} bind def
/col19 {0.690 0.000 0.000 srgb} bind def
/col20 {0.820 0.000 0.000 srgb} bind def
/col21 {0.560 0.000 0.560 srgb} bind def
/col22 {0.690 0.000 0.690 srgb} bind def
/col23 {0.820 0.000 0.820 srgb} bind def
/col24 {0.500 0.190 0.000 srgb} bind def
/col25 {0.630 0.250 0.000 srgb} bind def
/col26 {0.750 0.380 0.000 srgb} bind def
/col27 {1.000 0.500 0.500 srgb} bind def
/col28 {1.000 0.630 0.630 srgb} bind def
/col29 {1.000 0.750 0.750 srgb} bind def
/col30 {1.000 0.880 0.880 srgb} bind def
/col31 {1.000 0.840 0.000 srgb} bind def

end
save
-47.0 297.0 translate
1 -1 scale

/cp {closepath} bind def
/ef {eofill} bind def
/gr {grestore} bind def
/gs {gsave} bind def
/sa {save} bind def
/rs {restore} bind def
/l {lineto} bind def
/m {moveto} bind def
/rm {rmoveto} bind def
/n {newpath} bind def
/s {stroke} bind def
/sh {show} bind def
/slc {setlinecap} bind def
/slj {setlinejoin} bind def
/slw {setlinewidth} bind def
/srgb {setrgbcolor} bind def
/rot {rotate} bind def
/sc {scale} bind def
/sd {setdash} bind def
/ff {findfont} bind def
/sf {setfont} bind def
/scf {scalefont} bind def
/sw {stringwidth} bind def
/tr {translate} bind def
/tnt {dup dup currentrgbcolor
  4 -2 roll dup 1 exch sub 3 -1 roll mul add
  4 -2 roll dup 1 exch sub 3 -1 roll mul add
  4 -2 roll dup 1 exch sub 3 -1 roll mul add srgb}
  bind def
/shd {dup dup currentrgbcolor 4 -2 roll mul 4 -2 roll mul
  4 -2 roll mul srgb} bind def
/$F2psBegin {$F2psDict begin /$F2psEnteredState save def} def
/$F2psEnd {$F2psEnteredState restore end} def
%%EndProlog

$F2psBegin
10 setmiterlimit
n -1000 5950 m -1000 -1000 l 22430 -1000 l 22430 5950 l cp clip
 0.06000 0.06000 sc
% Polyline
60.000 slw
n 14700 4200 m 15000 3600 l 15300 4200 l gs col0 s gr 
% Polyline
n 14100 4200 m 14400 2925 l 14700 4200 l gs col0 s gr 
% Polyline
n 13500 4200 m 13800 3600 l 14100 4200 l gs col0 s gr 
% Polyline
n 19800 4200 m 20100 3600 l 20400 4200 l gs col0 s gr 
% Polyline
n 19200 4200 m 19500 2925 l 19800 4200 l gs col0 s gr 
% Polyline
n 18600 4200 m 18900 3600 l 19200 4200 l gs col0 s gr 
/Times-Roman ff 480.00 scf sf
21300 4950 m
gs 1 -1 sc (x) dup sw pop 2 div neg 0 rm  col0 sh gr
/Times-Roman ff 570.00 scf sf
21075 4800 m
gs 1 -1 sc (k) dup sw pop 2 div neg 0 rm  col0 sh gr
% Polyline
30.000 slw
gs  clippath
10896 4170 m 11040 4200 l 10896 4230 l 11220 4230 l 11220 4170 l cp
1104 4230 m 960 4200 l 1104 4170 l 780 4170 l 780 4230 l cp
clip
n 825 4200 m 11175 4200 l gs col0 s gr gr

% arrowhead
60.000 slw
n 1104 4230 m 960 4200 l 1104 4170 l 1080 4200 l 1104 4230 l  cp gs 0.00 setgray ef gr  col0 s
% arrowhead
n 10896 4170 m 11040 4200 l 10896 4230 l 10920 4200 l 10896 4170 l  cp gs 0.00 setgray ef gr  col0 s
% Polyline
30.000 slw
gs  clippath
5970 2079 m 6000 1935 l 6030 2079 l 6030 1755 l 5970 1755 l cp
clip
n 6000 1800 m 6000 4200 l gs col0 s gr gr

% arrowhead
60.000 slw
n 5970 2079 m 6000 1935 l 6030 2079 l 6000 2055 l 5970 2079 l  cp gs 0.00 setgray ef gr  col0 s
% Polyline
n 1800 4200 m 1800 3300 l 3000 3300 l 3000 4200 l gs col0 s gr 
% Polyline
n 3900 4200 m 3900 3300 l 5100 3300 l 5100 4200 l gs col0 s gr 
% Polyline
n 6900 4200 m 6900 3300 l 8100 3300 l 8100 4200 l gs col0 s gr 
% Polyline
n 9000 4200 m 9000 3300 l 10200 3300 l 10200 4200 l gs col0 s gr 
% Polyline
30.000 slw
gs  clippath
21021 4170 m 21165 4200 l 21021 4230 l 21345 4230 l 21345 4170 l cp
12579 4230 m 12435 4200 l 12579 4170 l 12255 4170 l 12255 4230 l cp
clip
n 12300 4200 m 21300 4200 l gs col0 s gr gr

% arrowhead
60.000 slw
n 12579 4230 m 12435 4200 l 12579 4170 l 12555 4200 l 12579 4230 l  cp gs 0.00 setgray ef gr  col0 s
% arrowhead
n 21021 4170 m 21165 4200 l 21021 4230 l 21045 4200 l 21021 4170 l  cp gs 0.00 setgray ef gr  col0 s
% Polyline
30.000 slw
gs  clippath
16770 879 m 16800 735 l 16830 879 l 16830 555 l 16770 555 l cp
clip
n 16800 600 m 16800 4200 l gs col0 s gr gr

% arrowhead
60.000 slw
n 16770 879 m 16800 735 l 16830 879 l 16800 855 l 16770 879 l  cp gs 0.00 setgray ef gr  col0 s
% Polyline
n 16500 4200 m 16800 1800 l 17100 4200 l gs col0 s gr 
% Polyline
n 15900 4200 m 16200 2925 l 16500 4200 l gs col0 s gr 
% Polyline
n 17100 4200 m 17400 3000 l 17700 4200 l gs col0 s gr 
/Times-Roman ff 480.00 scf sf
10950 4650 m
gs 1 -1 sc (x) dup sw pop 2 div neg 0 rm  col0 sh gr
/Times-Roman ff 480.00 scf sf
6375 2100 m
gs 1 -1 sc (|A|) dup sw pop 2 div neg 0 rm  col0 sh gr
/Times-Roman ff 480.00 scf sf
17325 1200 m
gs 1 -1 sc (|A|) dup sw pop 2 div neg 0 rm  col0 sh gr
$F2psEnd
rs
