%!PS-Adobe-2.0 EPSF-2.0
%%Title: four_el.eps
%%Creator: fig2dev Version 3.2 Patchlevel 0-beta3
%%CreationDate: Thu Oct 29 20:07:27 1998
%%For: mea1@moomin.valley (Red Hat Linux User,,,,)
%%Orientation: Portrait
%%BoundingBox: 0 0 430 209
%%Pages: 0
%%BeginSetup
%%EndSetup
%%Magnification: 1.0000
%%EndComments
/$F2psDict 200 dict def
$F2psDict begin
$F2psDict /mtrx matrix put
/col-1 {0 setgray} bind def
/col0 {0.000 0.000 0.000 srgb} bind def
/col1 {0.000 0.000 1.000 srgb} bind def
/col2 {0.000 1.000 0.000 srgb} bind def
/col3 {0.000 1.000 1.000 srgb} bind def
/col4 {1.000 0.000 0.000 srgb} bind def
/col5 {1.000 0.000 1.000 srgb} bind def
/col6 {1.000 1.000 0.000 srgb} bind def
/col7 {1.000 1.000 1.000 srgb} bind def
/col8 {0.000 0.000 0.560 srgb} bind def
/col9 {0.000 0.000 0.690 srgb} bind def
/col10 {0.000 0.000 0.820 srgb} bind def
/col11 {0.530 0.810 1.000 srgb} bind def
/col12 {0.000 0.560 0.000 srgb} bind def
/col13 {0.000 0.690 0.000 srgb} bind def
/col14 {0.000 0.820 0.000 srgb} bind def
/col15 {0.000 0.560 0.560 srgb} bind def
/col16 {0.000 0.690 0.690 srgb} bind def
/col17 {0.000 0.820 0.820 srgb} bind def
/col18 {0.560 0.000 0.000 srgb} bind def
/col19 {0.690 0.000 0.000 srgb} bind def
/col20 {0.820 0.000 0.000 srgb} bind def
/col21 {0.560 0.000 0.560 srgb} bind def
/col22 {0.690 0.000 0.690 srgb} bind def
/col23 {0.820 0.000 0.820 srgb} bind def
/col24 {0.500 0.190 0.000 srgb} bind def
/col25 {0.630 0.250 0.000 srgb} bind def
/col26 {0.750 0.380 0.000 srgb} bind def
/col27 {1.000 0.500 0.500 srgb} bind def
/col28 {1.000 0.630 0.630 srgb} bind def
/col29 {1.000 0.750 0.750 srgb} bind def
/col30 {1.000 0.880 0.880 srgb} bind def
/col31 {1.000 0.840 0.000 srgb} bind def

end
save
-161.0 225.0 translate
1 -1 scale

/cp {closepath} bind def
/ef {eofill} bind def
/gr {grestore} bind def
/gs {gsave} bind def
/sa {save} bind def
/rs {restore} bind def
/l {lineto} bind def
/m {moveto} bind def
/rm {rmoveto} bind def
/n {newpath} bind def
/s {stroke} bind def
/sh {show} bind def
/slc {setlinecap} bind def
/slj {setlinejoin} bind def
/slw {setlinewidth} bind def
/srgb {setrgbcolor} bind def
/rot {rotate} bind def
/sc {scale} bind def
/sd {setdash} bind def
/ff {findfont} bind def
/sf {setfont} bind def
/scf {scalefont} bind def
/sw {stringwidth} bind def
/tr {translate} bind def
/tnt {dup dup currentrgbcolor
  4 -2 roll dup 1 exch sub 3 -1 roll mul add
  4 -2 roll dup 1 exch sub 3 -1 roll mul add
  4 -2 roll dup 1 exch sub 3 -1 roll mul add srgb}
  bind def
/shd {dup dup currentrgbcolor 4 -2 roll mul 4 -2 roll mul
  4 -2 roll mul srgb} bind def
 /DrawEllipse {
	/endangle exch def
	/startangle exch def
	/yrad exch def
	/xrad exch def
	/y exch def
	/x exch def
	/savematrix mtrx currentmatrix def
	x y tr xrad yrad sc 0 0 1 startangle endangle arc
	closepath
	savematrix setmatrix
	} def

/$F2psBegin {$F2psDict begin /$F2psEnteredState save def} def
/$F2psEnd {$F2psEnteredState restore end} def
%%EndProlog

$F2psBegin
10 setmiterlimit
n -1000 4750 m -1000 -1000 l 10847 -1000 l 10847 4750 l cp clip
 0.06000 0.06000 sc
% Polyline
15.000 slw
gs  clippath
8040 642 m 8100 354 l 8160 642 l 8160 270 l 8040 270 l cp
clip
n 8100 3300 m 8100 300 l gs 0.00 setgray ef gr gs col0 s gr gr

% arrowhead
n 8040 642 m 8100 354 l 8160 642 l 8100 594 l 8040 642 l  cp gs 0.00 setgray ef gr  col0 s
/Times-Roman ff 360.00 scf sf
9375 3750 m
gs 1 -1 sc (x) dup sw pop 2 div neg 0 rm  col0 sh gr
/Times-Roman ff 360.00 scf sf
9150 3675 m
gs 1 -1 sc (k) dup sw pop 2 div neg 0 rm  col0 sh gr
/Times-Roman ff 360.00 scf sf
8700 750 m
gs 1 -1 sc (z) dup sw pop 2 div neg 0 rm  col0 sh gr
/Times-Roman ff 360.00 scf sf
8475 675 m
gs 1 -1 sc (k) dup sw pop 2 div neg 0 rm  col0 sh gr
% Polyline
n 6425 1950 m 6433 1965 l 6442 1981 l 6452 1997 l 6463 2013 l 6476 2029 l
 6489 2046 l 6503 2064 l 6519 2081 l 6535 2098 l 6553 2116 l
 6570 2133 l 6588 2149 l 6607 2165 l 6625 2181 l 6644 2196 l
 6662 2210 l 6681 2224 l 6700 2238 l 6719 2251 l 6739 2264 l
 6760 2277 l 6781 2290 l 6802 2302 l 6824 2315 l 6846 2326 l
 6868 2337 l 6890 2347 l 6910 2356 l 6930 2363 l 6948 2370 l
 6965 2374 l 6981 2378 l 6994 2379 l 7006 2379 l 7017 2378 l
 7025 2375 l 7032 2370 l 7037 2364 l 7041 2356 l 7043 2346 l
 7044 2335 l 7043 2322 l 7041 2307 l 7038 2291 l 7033 2274 l
 7027 2255 l 7019 2236 l 7011 2217 l 7002 2197 l 6993 2178 l
 6983 2158 l 6972 2138 l 6961 2119 l 6950 2100 l 6940 2083 l
 6929 2065 l 6917 2048 l 6905 2030 l 6892 2012 l 6879 1993 l
 6865 1975 l 6851 1956 l 6837 1938 l 6822 1919 l 6806 1902 l
 6791 1884 l 6776 1868 l 6761 1852 l 6746 1837 l 6731 1823 l
 6717 1809 l 6703 1797 l 6689 1786 l 6675 1775 l 6658 1763 l
 6640 1751 l 6623 1740 l 6605 1730 l 6586 1720 l 6568 1712 l
 6550 1704 l 6532 1696 l 6515 1690 l 6498 1684 l 6483 1679 l
 6469 1674 l 6456 1671 l 6444 1667 l 6434 1665 l 6425 1663 l
 6419 1661 l 6414 1660 l 6410 1659 l 6405 1658 l 6401 1657 l
 6398 1656 l 6394 1656 l 6391 1656 l 6388 1656 l 6386 1657 l
 6384 1658 l 6382 1659 l 6380 1660 l 6379 1662 l 6378 1664 l
 6377 1667 l 6376 1670 l 6376 1673 l 6375 1676 l 6375 1680 l
 6375 1685 l 6375 1689 l 6375 1694 l 6375 1700 l 6375 1711 l
 6375 1723 l 6376 1736 l 6376 1752 l 6377 1769 l 6379 1787 l
 6382 1807 l 6385 1827 l 6390 1848 l 6395 1869 l 6401 1890 l
 6408 1910 l 6416 1930 l cp gs col0 s gr 
% Polyline
n 6650 1725 m 6657 1739 l 6665 1753 l 6674 1767 l 6684 1781 l 6694 1796 l
 6706 1811 l 6718 1827 l 6732 1843 l 6746 1859 l 6760 1875 l
 6776 1891 l 6792 1907 l 6808 1923 l 6824 1939 l 6841 1954 l
 6858 1969 l 6874 1983 l 6891 1997 l 6908 2011 l 6925 2025 l
 6944 2040 l 6964 2056 l 6985 2071 l 7006 2086 l 7027 2102 l
 7049 2117 l 7071 2131 l 7093 2145 l 7115 2158 l 7135 2169 l
 7155 2179 l 7173 2188 l 7190 2195 l 7206 2199 l 7219 2202 l
 7231 2204 l 7242 2203 l 7250 2200 l 7258 2194 l 7263 2186 l
 7267 2175 l 7269 2162 l 7269 2146 l 7267 2128 l 7264 2108 l
 7259 2086 l 7253 2063 l 7246 2039 l 7237 2015 l 7228 1991 l
 7219 1967 l 7209 1944 l 7198 1922 l 7188 1900 l 7178 1881 l
 7168 1862 l 7157 1844 l 7146 1825 l 7135 1806 l 7122 1787 l
 7110 1769 l 7096 1750 l 7082 1732 l 7068 1714 l 7054 1697 l
 7039 1681 l 7024 1665 l 7010 1651 l 6995 1637 l 6980 1624 l
 6965 1612 l 6950 1600 l 6933 1587 l 6914 1575 l 6895 1563 l
 6876 1551 l 6855 1539 l 6835 1528 l 6814 1517 l 6793 1507 l
 6772 1497 l 6753 1488 l 6734 1480 l 6717 1472 l 6701 1466 l
 6687 1460 l 6674 1455 l 6663 1450 l 6657 1448 l 6651 1445 l
 6646 1443 l 6641 1442 l 6636 1440 l 6632 1438 l 6628 1437 l
 6625 1436 l 6621 1435 l 6618 1435 l 6615 1435 l 6613 1435 l
 6611 1435 l 6609 1435 l 6607 1436 l 6605 1437 l 6604 1439 l
 6603 1441 l 6602 1443 l 6602 1445 l 6601 1448 l 6601 1451 l
 6600 1454 l 6600 1458 l 6600 1462 l 6600 1466 l 6600 1470 l
 6600 1475 l 6600 1486 l 6600 1498 l 6601 1511 l 6601 1527 l
 6602 1544 l 6604 1562 l 6607 1582 l 6610 1602 l 6615 1623 l
 6620 1644 l 6626 1665 l 6633 1685 l 6641 1705 l cp gs col0 s gr 
% Polyline
n 6938 1450 m 6943 1464 l 6949 1478 l 6956 1493 l 6963 1509 l 6971 1525 l
 6980 1542 l 6989 1560 l 6999 1578 l 7010 1597 l 7021 1616 l
 7033 1635 l 7045 1654 l 7058 1674 l 7071 1693 l 7083 1711 l
 7097 1730 l 7110 1748 l 7123 1765 l 7136 1783 l 7150 1800 l
 7166 1819 l 7182 1838 l 7198 1858 l 7215 1877 l 7233 1896 l
 7251 1915 l 7269 1933 l 7288 1951 l 7306 1967 l 7323 1981 l
 7340 1994 l 7356 2005 l 7371 2014 l 7384 2021 l 7396 2026 l
 7407 2028 l 7417 2028 l 7425 2025 l 7432 2020 l 7438 2012 l
 7443 2002 l 7446 1990 l 7449 1975 l 7450 1958 l 7450 1939 l
 7449 1918 l 7447 1895 l 7444 1871 l 7439 1847 l 7434 1821 l
 7428 1796 l 7421 1771 l 7414 1746 l 7405 1722 l 7397 1698 l
 7388 1675 l 7379 1655 l 7369 1634 l 7359 1614 l 7348 1593 l
 7337 1573 l 7325 1553 l 7312 1532 l 7299 1512 l 7285 1492 l
 7272 1473 l 7257 1454 l 7243 1436 l 7229 1419 l 7215 1402 l
 7201 1387 l 7188 1373 l 7175 1359 l 7162 1347 l 7150 1336 l
 7138 1325 l 7120 1311 l 7103 1298 l 7086 1286 l 7069 1274 l
 7052 1264 l 7036 1255 l 7019 1246 l 7004 1239 l 6990 1232 l
 6977 1227 l 6965 1222 l 6954 1218 l 6945 1215 l 6938 1213 l
 6934 1211 l 6930 1210 l 6927 1209 l 6924 1208 l 6921 1207 l
 6918 1207 l 6916 1206 l 6914 1206 l 6911 1206 l 6910 1206 l
 6908 1206 l 6906 1206 l 6905 1207 l 6904 1208 l 6903 1209 l
 6902 1210 l 6902 1212 l 6901 1214 l 6901 1216 l 6900 1218 l
 6900 1221 l 6900 1224 l 6900 1227 l 6900 1230 l 6900 1234 l
 6900 1238 l 6900 1245 l 6900 1255 l 6900 1265 l 6901 1277 l
 6902 1290 l 6903 1305 l 6905 1321 l 6908 1338 l 6911 1356 l
 6915 1374 l 6919 1393 l 6925 1412 l 6931 1431 l cp gs col0 s gr 
% Polyline
n 9775 1950 m 9767 1965 l 9758 1981 l 9748 1997 l 9737 2013 l 9724 2029 l
 9711 2046 l 9697 2064 l 9681 2081 l 9665 2098 l 9647 2116 l
 9630 2133 l 9612 2149 l 9593 2165 l 9575 2181 l 9556 2196 l
 9538 2210 l 9519 2224 l 9500 2238 l 9481 2251 l 9461 2264 l
 9440 2277 l 9419 2290 l 9398 2302 l 9376 2315 l 9354 2326 l
 9332 2337 l 9310 2347 l 9290 2356 l 9270 2363 l 9252 2370 l
 9235 2374 l 9219 2378 l 9206 2379 l 9194 2379 l 9183 2378 l
 9175 2375 l 9168 2370 l 9163 2364 l 9159 2356 l 9157 2346 l
 9156 2335 l 9157 2322 l 9159 2307 l 9162 2291 l 9167 2274 l
 9173 2255 l 9181 2236 l 9189 2217 l 9198 2197 l 9207 2178 l
 9217 2158 l 9228 2138 l 9239 2119 l 9250 2100 l 9260 2083 l
 9271 2065 l 9283 2048 l 9295 2030 l 9308 2012 l 9321 1993 l
 9335 1975 l 9349 1956 l 9363 1938 l 9378 1919 l 9394 1902 l
 9409 1884 l 9424 1868 l 9439 1852 l 9454 1837 l 9469 1823 l
 9483 1809 l 9497 1797 l 9511 1786 l 9525 1775 l 9542 1763 l
 9560 1751 l 9577 1740 l 9595 1730 l 9614 1720 l 9632 1712 l
 9650 1704 l 9668 1696 l 9685 1690 l 9702 1684 l 9717 1679 l
 9731 1674 l 9744 1671 l 9756 1667 l 9766 1665 l 9775 1663 l
 9781 1661 l 9786 1660 l 9790 1659 l 9795 1658 l 9799 1657 l
 9802 1656 l 9806 1656 l 9809 1656 l 9812 1656 l 9814 1657 l
 9816 1658 l 9818 1659 l 9820 1660 l 9821 1662 l 9822 1664 l
 9823 1667 l 9824 1670 l 9824 1673 l 9825 1676 l 9825 1680 l
 9825 1685 l 9825 1689 l 9825 1694 l 9825 1700 l 9825 1711 l
 9825 1723 l 9824 1736 l 9824 1752 l 9823 1769 l 9821 1787 l
 9818 1807 l 9815 1827 l 9810 1848 l 9805 1869 l 9799 1890 l
 9792 1910 l 9784 1930 l cp gs col0 s gr 
% Polyline
n 9550 1725 m 9543 1739 l 9535 1753 l 9526 1767 l 9516 1781 l 9506 1796 l
 9494 1811 l 9482 1827 l 9468 1843 l 9454 1859 l 9440 1875 l
 9424 1891 l 9408 1907 l 9392 1923 l 9376 1939 l 9359 1954 l
 9342 1969 l 9326 1983 l 9309 1997 l 9292 2011 l 9275 2025 l
 9256 2040 l 9236 2056 l 9215 2071 l 9194 2086 l 9173 2102 l
 9151 2117 l 9129 2131 l 9107 2145 l 9085 2158 l 9065 2169 l
 9045 2179 l 9027 2188 l 9010 2195 l 8994 2199 l 8981 2202 l
 8969 2204 l 8958 2203 l 8950 2200 l 8942 2194 l 8937 2186 l
 8933 2175 l 8931 2162 l 8931 2146 l 8933 2128 l 8936 2108 l
 8941 2086 l 8947 2063 l 8954 2039 l 8963 2015 l 8972 1991 l
 8981 1967 l 8991 1944 l 9002 1922 l 9013 1900 l 9022 1881 l
 9032 1862 l 9043 1844 l 9054 1825 l 9065 1806 l 9078 1787 l
 9090 1769 l 9104 1750 l 9118 1732 l 9132 1714 l 9146 1697 l
 9161 1681 l 9176 1665 l 9190 1651 l 9205 1637 l 9220 1624 l
 9235 1612 l 9250 1600 l 9266 1589 l 9282 1578 l 9298 1567 l
 9315 1556 l 9333 1546 l 9352 1536 l 9370 1526 l 9389 1516 l
 9407 1507 l 9425 1498 l 9443 1490 l 9460 1482 l 9476 1476 l
 9490 1469 l 9504 1464 l 9516 1459 l 9527 1454 l 9538 1450 l
 9543 1448 l 9549 1445 l 9554 1443 l 9559 1442 l 9564 1440 l
 9568 1438 l 9572 1437 l 9575 1436 l 9579 1435 l 9582 1435 l
 9585 1435 l 9587 1435 l 9589 1435 l 9591 1435 l 9593 1436 l
 9595 1437 l 9596 1439 l 9597 1441 l 9598 1443 l 9598 1445 l
 9599 1448 l 9599 1451 l 9600 1454 l 9600 1458 l 9600 1462 l
 9600 1466 l 9600 1470 l 9600 1475 l 9600 1486 l 9600 1498 l
 9599 1511 l 9599 1527 l 9598 1544 l 9596 1562 l 9593 1582 l
 9590 1602 l 9585 1623 l 9580 1644 l 9574 1665 l 9567 1685 l
 9559 1705 l cp gs col0 s gr 
% Polyline
n 9263 1450 m 9257 1464 l 9251 1478 l 9244 1493 l 9237 1509 l 9229 1525 l
 9220 1542 l 9211 1560 l 9201 1578 l 9190 1597 l 9179 1616 l
 9167 1635 l 9155 1654 l 9142 1674 l 9129 1693 l 9117 1711 l
 9103 1730 l 9090 1748 l 9077 1765 l 9064 1783 l 9050 1800 l
 9034 1819 l 9018 1838 l 9002 1858 l 8985 1877 l 8967 1896 l
 8949 1915 l 8931 1933 l 8912 1951 l 8894 1967 l 8877 1981 l
 8860 1994 l 8844 2005 l 8829 2014 l 8816 2021 l 8804 2026 l
 8793 2028 l 8783 2028 l 8775 2025 l 8768 2020 l 8762 2012 l
 8757 2002 l 8754 1990 l 8751 1975 l 8750 1958 l 8750 1939 l
 8751 1918 l 8753 1895 l 8756 1871 l 8761 1847 l 8766 1821 l
 8772 1796 l 8779 1771 l 8786 1746 l 8795 1722 l 8803 1698 l
 8813 1675 l 8821 1655 l 8831 1634 l 8841 1614 l 8852 1593 l
 8863 1573 l 8875 1553 l 8888 1532 l 8901 1512 l 8915 1492 l
 8928 1473 l 8943 1454 l 8957 1436 l 8971 1419 l 8985 1402 l
 8999 1387 l 9012 1373 l 9025 1359 l 9038 1347 l 9050 1336 l
 9063 1325 l 9080 1311 l 9097 1298 l 9114 1286 l 9131 1274 l
 9148 1264 l 9164 1255 l 9181 1246 l 9196 1239 l 9210 1232 l
 9223 1227 l 9235 1222 l 9246 1218 l 9255 1215 l 9263 1213 l
 9266 1211 l 9270 1210 l 9273 1209 l 9276 1208 l 9279 1207 l
 9282 1207 l 9284 1206 l 9286 1206 l 9289 1206 l 9290 1206 l
 9292 1206 l 9294 1206 l 9295 1207 l 9296 1208 l 9297 1209 l
 9298 1210 l 9298 1212 l 9299 1214 l 9299 1216 l 9300 1218 l
 9300 1221 l 9300 1224 l 9300 1227 l 9300 1230 l 9300 1234 l
 9300 1238 l 9300 1245 l 9300 1255 l 9300 1265 l 9299 1277 l
 9298 1290 l 9297 1305 l 9295 1321 l 9292 1338 l 9289 1356 l
 9285 1374 l 9281 1393 l 9275 1412 l 9269 1431 l cp gs col0 s gr 
% Ellipse
n 7800 1500 150 525 0 360 DrawEllipse gs col0 s gr

% Ellipse
n 8100 1500 150 525 0 360 DrawEllipse gs col7 1.00 shd ef gr gs col0 s gr

% Ellipse
n 8400 1500 150 525 0 360 DrawEllipse gs col0 s gr

% Polyline
gs  clippath
7242 3360 m 6954 3300 l 7242 3240 l 6870 3240 l 6870 3360 l cp
clip
n 8100 3300 m 6900 3300 l gs 0.00 setgray ef gr gs col0 s gr gr

% arrowhead
n 7242 3360 m 6954 3300 l 7242 3240 l 7194 3300 l 7242 3360 l  cp gs 0.00 setgray ef gr  col0 s
% Polyline
gs  clippath
8958 3240 m 9246 3300 l 8958 3360 l 9330 3360 l 9330 3240 l cp
clip
n 8100 3300 m 9300 3300 l gs 0.00 setgray ef gr gs col0 s gr gr

% arrowhead
n 8958 3240 m 9246 3300 l 8958 3360 l 9006 3300 l 8958 3240 l  cp gs 0.00 setgray ef gr  col0 s
% Polyline
7.500 slw
n 4200 3600 m 4200 3300 l 4500 3300 l 4500 3600 l gs col0 s gr 
% Polyline
n 4800 3600 m 4800 3300 l 5100 3300 l 5100 3600 l gs col0 s gr 
% Polyline
n 3300 3600 m 3300 3300 l 3600 3300 l 3600 3600 l gs col0 s gr 
% Polyline
n 2700 3600 m 2700 3300 l 3000 3300 l 3000 3600 l gs col0 s gr 
% Polyline
15.000 slw
gs  clippath
3840 642 m 3900 354 l 3960 642 l 3960 270 l 3840 270 l cp
clip
n 3900 3300 m 3900 300 l gs 0.00 setgray ef gr gs col0 s gr gr

% arrowhead
n 3840 642 m 3900 354 l 3960 642 l 3900 594 l 3840 642 l  cp gs 0.00 setgray ef gr  col0 s
/Times-Roman ff 360.00 scf sf
5400 3375 m
gs 1 -1 sc (x) dup sw pop 2 div neg 0 rm  col0 sh gr
/Times-Roman ff 270.00 scf sf
8100 1575 m
gs 1 -1 sc (4) dup sw pop 2 div neg 0 rm  col0 sh gr
/Times-Roman ff 270.00 scf sf
7800 1575 m
gs 1 -1 sc (2) dup sw pop 2 div neg 0 rm  col0 sh gr
/Times-Roman ff 270.00 scf sf
8400 1575 m
gs 1 -1 sc (2) dup sw pop 2 div neg 0 rm  col0 sh gr
/Times-Roman ff 270.00 scf sf
6825 1875 m
gs 1 -1 sc (2) col0 sh gr
/Times-Roman ff 270.00 scf sf
6600 2100 m
gs 1 -1 sc (1) col0 sh gr
/Times-Roman ff 270.00 scf sf
7125 1725 m
gs 1 -1 sc (1) col0 sh gr
/Times-Roman ff 270.00 scf sf
8925 1725 m
gs 1 -1 sc (1) col0 sh gr
/Times-Roman ff 270.00 scf sf
9225 1875 m
gs 1 -1 sc (2) col0 sh gr
/Times-Roman ff 270.00 scf sf
9450 2100 m
gs 1 -1 sc (1) col0 sh gr
$F2psEnd
rs
