%!PS-Adobe-2.0 EPSF-2.0
%%Title: impulsepair_squared.eps
%%Creator: fig2dev Version 3.2 Patchlevel 0-beta3
%%CreationDate: Sun Oct 25 18:41:00 1998
%%For: mea1@moomin.valley (Red Hat Linux User,,,,)
%%Orientation: Portrait
%%BoundingBox: 0 0 1275 366
%%Pages: 0
%%BeginSetup
%%EndSetup
%%Magnification: 1.0000
%%EndComments
/$F2psDict 200 dict def
$F2psDict begin
$F2psDict /mtrx matrix put
/col-1 {0 setgray} bind def
/col0 {0.000 0.000 0.000 srgb} bind def
/col1 {0.000 0.000 1.000 srgb} bind def
/col2 {0.000 1.000 0.000 srgb} bind def
/col3 {0.000 1.000 1.000 srgb} bind def
/col4 {1.000 0.000 0.000 srgb} bind def
/col5 {1.000 0.000 1.000 srgb} bind def
/col6 {1.000 1.000 0.000 srgb} bind def
/col7 {1.000 1.000 1.000 srgb} bind def
/col8 {0.000 0.000 0.560 srgb} bind def
/col9 {0.000 0.000 0.690 srgb} bind def
/col10 {0.000 0.000 0.820 srgb} bind def
/col11 {0.530 0.810 1.000 srgb} bind def
/col12 {0.000 0.560 0.000 srgb} bind def
/col13 {0.000 0.690 0.000 srgb} bind def
/col14 {0.000 0.820 0.000 srgb} bind def
/col15 {0.000 0.560 0.560 srgb} bind def
/col16 {0.000 0.690 0.690 srgb} bind def
/col17 {0.000 0.820 0.820 srgb} bind def
/col18 {0.560 0.000 0.000 srgb} bind def
/col19 {0.690 0.000 0.000 srgb} bind def
/col20 {0.820 0.000 0.000 srgb} bind def
/col21 {0.560 0.000 0.560 srgb} bind def
/col22 {0.690 0.000 0.690 srgb} bind def
/col23 {0.820 0.000 0.820 srgb} bind def
/col24 {0.500 0.190 0.000 srgb} bind def
/col25 {0.630 0.250 0.000 srgb} bind def
/col26 {0.750 0.380 0.000 srgb} bind def
/col27 {1.000 0.500 0.500 srgb} bind def
/col28 {1.000 0.630 0.630 srgb} bind def
/col29 {1.000 0.750 0.750 srgb} bind def
/col30 {1.000 0.880 0.880 srgb} bind def
/col31 {1.000 0.840 0.000 srgb} bind def

end
save
-82.0 368.0 translate
1 -1 scale

/cp {closepath} bind def
/ef {eofill} bind def
/gr {grestore} bind def
/gs {gsave} bind def
/sa {save} bind def
/rs {restore} bind def
/l {lineto} bind def
/m {moveto} bind def
/rm {rmoveto} bind def
/n {newpath} bind def
/s {stroke} bind def
/sh {show} bind def
/slc {setlinecap} bind def
/slj {setlinejoin} bind def
/slw {setlinewidth} bind def
/srgb {setrgbcolor} bind def
/rot {rotate} bind def
/sc {scale} bind def
/sd {setdash} bind def
/ff {findfont} bind def
/sf {setfont} bind def
/scf {scalefont} bind def
/sw {stringwidth} bind def
/tr {translate} bind def
/tnt {dup dup currentrgbcolor
  4 -2 roll dup 1 exch sub 3 -1 roll mul add
  4 -2 roll dup 1 exch sub 3 -1 roll mul add
  4 -2 roll dup 1 exch sub 3 -1 roll mul add srgb}
  bind def
/shd {dup dup currentrgbcolor 4 -2 roll mul 4 -2 roll mul
  4 -2 roll mul srgb} bind def
/reencdict 12 dict def /ReEncode { reencdict begin
/newcodesandnames exch def /newfontname exch def /basefontname exch def
/basefontdict basefontname findfont def /newfont basefontdict maxlength dict def
basefontdict { exch dup /FID ne { dup /Encoding eq
{ exch dup length array copy newfont 3 1 roll put }
{ exch newfont 3 1 roll put } ifelse } { pop pop } ifelse } forall
newfont /FontName newfontname put newcodesandnames aload pop
128 1 255 { newfont /Encoding get exch /.notdef put } for
newcodesandnames length 2 idiv { newfont /Encoding get 3 1 roll put } repeat
newfontname newfont definefont pop end } def
/isovec [
8#200 /grave 8#201 /acute 8#202 /circumflex 8#203 /tilde
8#204 /macron 8#205 /breve 8#206 /dotaccent 8#207 /dieresis
8#210 /ring 8#211 /cedilla 8#212 /hungarumlaut 8#213 /ogonek 8#214 /caron
8#220 /dotlessi 8#230 /oe 8#231 /OE
8#240 /space 8#241 /exclamdown 8#242 /cent 8#243 /sterling
8#244 /currency 8#245 /yen 8#246 /brokenbar 8#247 /section 8#250 /dieresis
8#251 /copyright 8#252 /ordfeminine 8#253 /guillemotleft 8#254 /logicalnot
8#255 /endash 8#256 /registered 8#257 /macron 8#260 /degree 8#261 /plusminus
8#262 /twosuperior 8#263 /threesuperior 8#264 /acute 8#265 /mu 8#266 /paragraph
8#267 /periodcentered 8#270 /cedilla 8#271 /onesuperior 8#272 /ordmasculine
8#273 /guillemotright 8#274 /onequarter 8#275 /onehalf
8#276 /threequarters 8#277 /questiondown 8#300 /Agrave 8#301 /Aacute
8#302 /Acircumflex 8#303 /Atilde 8#304 /Adieresis 8#305 /Aring
8#306 /AE 8#307 /Ccedilla 8#310 /Egrave 8#311 /Eacute
8#312 /Ecircumflex 8#313 /Edieresis 8#314 /Igrave 8#315 /Iacute
8#316 /Icircumflex 8#317 /Idieresis 8#320 /Eth 8#321 /Ntilde 8#322 /Ograve
8#323 /Oacute 8#324 /Ocircumflex 8#325 /Otilde 8#326 /Odieresis 8#327 /multiply
8#330 /Oslash 8#331 /Ugrave 8#332 /Uacute 8#333 /Ucircumflex
8#334 /Udieresis 8#335 /Yacute 8#336 /Thorn 8#337 /germandbls 8#340 /agrave
8#341 /aacute 8#342 /acircumflex 8#343 /atilde 8#344 /adieresis 8#345 /aring
8#346 /ae 8#347 /ccedilla 8#350 /egrave 8#351 /eacute
8#352 /ecircumflex 8#353 /edieresis 8#354 /igrave 8#355 /iacute
8#356 /icircumflex 8#357 /idieresis 8#360 /eth 8#361 /ntilde 8#362 /ograve
8#363 /oacute 8#364 /ocircumflex 8#365 /otilde 8#366 /odieresis 8#367 /divide
8#370 /oslash 8#371 /ugrave 8#372 /uacute 8#373 /ucircumflex
8#374 /udieresis 8#375 /yacute 8#376 /thorn 8#377 /ydieresis] def
/Times-Roman /Times-Roman-iso isovec ReEncode
/$F2psBegin {$F2psDict begin /$F2psEnteredState save def} def
/$F2psEnd {$F2psEnteredState restore end} def
%%EndProlog

$F2psBegin
10 setmiterlimit
n -1000 7130 m -1000 -1000 l 23604 -1000 l 23604 7130 l cp clip
 0.06000 0.06000 sc
% Polyline
60.000 slw
gs  clippath
22271 4170 m 22415 4200 l 22271 4230 l 22625 4230 l 22625 4170 l cp
12504 4230 m 12360 4200 l 12504 4170 l 12150 4170 l 12150 4230 l cp
clip
n 12225 4200 m 22550 4200 l gs col0 s gr gr

% arrowhead
n 12504 4230 m 12360 4200 l 12504 4170 l 12480 4200 l 12504 4230 l  cp gs 0.00 setgray ef gr  col0 s
% arrowhead
n 22271 4170 m 22415 4200 l 22271 4230 l 22295 4200 l 22271 4170 l  cp gs 0.00 setgray ef gr  col0 s
% Polyline
105.000 slw
gs  clippath
17200 2487 m 17400 1527 l 17600 2487 l 17600 1380 l 17200 1380 l cp
clip
n 17400 4200 m 17400 1500 l gs col0 s gr gr

% arrowhead
7.500 slw
n 17200 2487 m 17400 1527 l 17600 2487 l 17400 2327 l 17200 2487 l  cp gs 0.00 setgray ef gr  col0 s
% Polyline
105.000 slw
gs  clippath
13600 3687 m 13800 2727 l 14000 3687 l 14000 2580 l 13600 2580 l cp
clip
n 13800 4200 m 13800 2700 l gs col0 s gr gr

% arrowhead
7.500 slw
n 13600 3687 m 13800 2727 l 14000 3687 l 13800 3527 l 13600 3687 l  cp gs 0.00 setgray ef gr  col0 s
% Polyline
105.000 slw
gs  clippath
20800 3687 m 21000 2727 l 21200 3687 l 21200 2580 l 20800 2580 l cp
clip
n 21000 4200 m 21000 2700 l gs col0 s gr gr

% arrowhead
7.500 slw
n 20800 3687 m 21000 2727 l 21200 3687 l 21000 3527 l 20800 3687 l  cp gs 0.00 setgray ef gr  col0 s
/Times-Roman-iso ff 480.00 scf sf
8625 5250 m
gs 1 -1 sc (x) dup sw pop 2 div neg 0 rm  col0 sh gr
/Times-Roman-iso ff 570.00 scf sf
8400 5100 m
gs 1 -1 sc (f) dup sw pop 2 div neg 0 rm  col0 sh gr
/Times-Roman-iso ff 480.00 scf sf
21225 5175 m
gs 1 -1 sc (x) dup sw pop 2 div neg 0 rm  col0 sh gr
/Times-Roman-iso ff 570.00 scf sf
20775 5025 m
gs 1 -1 sc (2 f) dup sw pop 2 div neg 0 rm  col0 sh gr
/Times-Roman-iso ff 480.00 scf sf
11625 4950 m
gs 1 -1 sc (x) dup sw pop 2 div neg 0 rm  col0 sh gr
/Times-Roman-iso ff 570.00 scf sf
11400 4800 m
gs 1 -1 sc (k) dup sw pop 2 div neg 0 rm  col0 sh gr
/Times-Roman-iso ff 480.00 scf sf
22425 4950 m
gs 1 -1 sc (x) dup sw pop 2 div neg 0 rm  col0 sh gr
/Times-Roman-iso ff 570.00 scf sf
22200 4800 m
gs 1 -1 sc (k) dup sw pop 2 div neg 0 rm  col0 sh gr
% Polyline
60.000 slw
gs  clippath
11496 4170 m 11640 4200 l 11496 4230 l 11850 4230 l 11850 4170 l cp
1704 4230 m 1560 4200 l 1704 4170 l 1350 4170 l 1350 4230 l cp
clip
n 1425 4200 m 11775 4200 l gs col0 s gr gr

% arrowhead
n 1704 4230 m 1560 4200 l 1704 4170 l 1680 4200 l 1704 4230 l  cp gs 0.00 setgray ef gr  col0 s
% arrowhead
n 11496 4170 m 11640 4200 l 11496 4230 l 11520 4200 l 11496 4170 l  cp gs 0.00 setgray ef gr  col0 s
% Polyline
105.000 slw
gs  clippath
4600 2487 m 4800 1527 l 5000 2487 l 5000 1380 l 4600 1380 l cp
clip
n 4800 4200 m 4800 1500 l gs col0 s gr gr

% arrowhead
7.500 slw
n 4600 2487 m 4800 1527 l 5000 2487 l 4800 2327 l 4600 2487 l  cp gs 0.00 setgray ef gr  col0 s
% Polyline
105.000 slw
gs  clippath
8200 2487 m 8400 1527 l 8600 2487 l 8600 1380 l 8200 1380 l cp
clip
n 8400 4200 m 8400 1500 l gs col0 s gr gr

% arrowhead
7.500 slw
n 8200 2487 m 8400 1527 l 8600 2487 l 8400 2327 l 8200 2487 l  cp gs 0.00 setgray ef gr  col0 s
% Polyline
60.000 slw
gs  clippath
6570 379 m 6600 235 l 6630 379 l 6630 25 l 6570 25 l cp
clip
n 6600 100 m 6600 4200 l gs col0 s gr gr

% arrowhead
n 6570 379 m 6600 235 l 6630 379 l 6600 355 l 6570 379 l  cp gs 0.00 setgray ef gr  col0 s
% Polyline
gs  clippath
17370 379 m 17400 235 l 17430 379 l 17430 25 l 17370 25 l cp
clip
n 17400 100 m 17400 4200 l gs col0 s gr gr

% arrowhead
n 17370 379 m 17400 235 l 17430 379 l 17400 355 l 17370 379 l  cp gs 0.00 setgray ef gr  col0 s
/Times-Roman-iso ff 480.00 scf sf
14100 5100 m
gs 1 -1 sc (x) dup sw pop 2 div neg 0 rm  col0 sh gr
/Times-Roman-iso ff 570.00 scf sf
13500 4950 m
gs 1 -1 sc (-2 f) dup sw pop 2 div neg 0 rm  col0 sh gr
/Times-Roman-iso ff 480.00 scf sf
5025 5175 m
gs 1 -1 sc (x) dup sw pop 2 div neg 0 rm  col0 sh gr
/Times-Roman-iso ff 570.00 scf sf
4650 5025 m
gs 1 -1 sc (-f) dup sw pop 2 div neg 0 rm  col0 sh gr
/Times-Roman-iso ff 480.00 scf sf
17400 4950 m
gs 1 -1 sc (DC) dup sw pop 2 div neg 0 rm  col0 sh gr
/Times-Roman-iso ff 480.00 scf sf
6600 6000 m
gs 1 -1 sc (Tx only) dup sw pop 2 div neg 0 rm  col0 sh gr
/Times-Roman-iso ff 480.00 scf sf
17400 6000 m
gs 1 -1 sc (Tx-Rx) dup sw pop 2 div neg 0 rm  col0 sh gr
$F2psEnd
rs
