%!PS-Adobe-2.0 EPSF-2.0
%%Title: interference.eps
%%Creator: fig2dev Version 3.2 Patchlevel 3c
%%CreationDate: Sun Sep 23 15:17:55 2001
%%For: mea1@node6 (Martin Anderson)
%%BoundingBox: 0 0 646 556
%%Magnification: 1.0000
%%EndComments
/$F2psDict 200 dict def
$F2psDict begin
$F2psDict /mtrx matrix put
/col-1 {0 setgray} bind def
/col0 {0.000 0.000 0.000 srgb} bind def
/col1 {0.000 0.000 1.000 srgb} bind def
/col2 {0.000 1.000 0.000 srgb} bind def
/col3 {0.000 1.000 1.000 srgb} bind def
/col4 {1.000 0.000 0.000 srgb} bind def
/col5 {1.000 0.000 1.000 srgb} bind def
/col6 {1.000 1.000 0.000 srgb} bind def
/col7 {1.000 1.000 1.000 srgb} bind def
/col8 {0.000 0.000 0.560 srgb} bind def
/col9 {0.000 0.000 0.690 srgb} bind def
/col10 {0.000 0.000 0.820 srgb} bind def
/col11 {0.530 0.810 1.000 srgb} bind def
/col12 {0.000 0.560 0.000 srgb} bind def
/col13 {0.000 0.690 0.000 srgb} bind def
/col14 {0.000 0.820 0.000 srgb} bind def
/col15 {0.000 0.560 0.560 srgb} bind def
/col16 {0.000 0.690 0.690 srgb} bind def
/col17 {0.000 0.820 0.820 srgb} bind def
/col18 {0.560 0.000 0.000 srgb} bind def
/col19 {0.690 0.000 0.000 srgb} bind def
/col20 {0.820 0.000 0.000 srgb} bind def
/col21 {0.560 0.000 0.560 srgb} bind def
/col22 {0.690 0.000 0.690 srgb} bind def
/col23 {0.820 0.000 0.820 srgb} bind def
/col24 {0.500 0.190 0.000 srgb} bind def
/col25 {0.630 0.250 0.000 srgb} bind def
/col26 {0.750 0.380 0.000 srgb} bind def
/col27 {1.000 0.500 0.500 srgb} bind def
/col28 {1.000 0.630 0.630 srgb} bind def
/col29 {1.000 0.750 0.750 srgb} bind def
/col30 {1.000 0.880 0.880 srgb} bind def
/col31 {1.000 0.840 0.000 srgb} bind def

end
save
newpath 0 556 moveto 0 0 lineto 646 0 lineto 646 556 lineto closepath clip newpath
-85.0 618.0 translate
1 -1 scale

/cp {closepath} bind def
/ef {eofill} bind def
/gr {grestore} bind def
/gs {gsave} bind def
/sa {save} bind def
/rs {restore} bind def
/l {lineto} bind def
/m {moveto} bind def
/rm {rmoveto} bind def
/n {newpath} bind def
/s {stroke} bind def
/sh {show} bind def
/slc {setlinecap} bind def
/slj {setlinejoin} bind def
/slw {setlinewidth} bind def
/srgb {setrgbcolor} bind def
/rot {rotate} bind def
/sc {scale} bind def
/sd {setdash} bind def
/ff {findfont} bind def
/sf {setfont} bind def
/scf {scalefont} bind def
/sw {stringwidth} bind def
/tr {translate} bind def
/tnt {dup dup currentrgbcolor
  4 -2 roll dup 1 exch sub 3 -1 roll mul add
  4 -2 roll dup 1 exch sub 3 -1 roll mul add
  4 -2 roll dup 1 exch sub 3 -1 roll mul add srgb}
  bind def
/shd {dup dup currentrgbcolor 4 -2 roll mul 4 -2 roll mul
  4 -2 roll mul srgb} bind def
/reencdict 12 dict def /ReEncode { reencdict begin
/newcodesandnames exch def /newfontname exch def /basefontname exch def
/basefontdict basefontname findfont def /newfont basefontdict maxlength dict def
basefontdict { exch dup /FID ne { dup /Encoding eq
{ exch dup length array copy newfont 3 1 roll put }
{ exch newfont 3 1 roll put } ifelse } { pop pop } ifelse } forall
newfont /FontName newfontname put newcodesandnames aload pop
128 1 255 { newfont /Encoding get exch /.notdef put } for
newcodesandnames length 2 idiv { newfont /Encoding get 3 1 roll put } repeat
newfontname newfont definefont pop end } def
/isovec [
8#055 /minus 8#200 /grave 8#201 /acute 8#202 /circumflex 8#203 /tilde
8#204 /macron 8#205 /breve 8#206 /dotaccent 8#207 /dieresis
8#210 /ring 8#211 /cedilla 8#212 /hungarumlaut 8#213 /ogonek 8#214 /caron
8#220 /dotlessi 8#230 /oe 8#231 /OE
8#240 /space 8#241 /exclamdown 8#242 /cent 8#243 /sterling
8#244 /currency 8#245 /yen 8#246 /brokenbar 8#247 /section 8#250 /dieresis
8#251 /copyright 8#252 /ordfeminine 8#253 /guillemotleft 8#254 /logicalnot
8#255 /hyphen 8#256 /registered 8#257 /macron 8#260 /degree 8#261 /plusminus
8#262 /twosuperior 8#263 /threesuperior 8#264 /acute 8#265 /mu 8#266 /paragraph
8#267 /periodcentered 8#270 /cedilla 8#271 /onesuperior 8#272 /ordmasculine
8#273 /guillemotright 8#274 /onequarter 8#275 /onehalf
8#276 /threequarters 8#277 /questiondown 8#300 /Agrave 8#301 /Aacute
8#302 /Acircumflex 8#303 /Atilde 8#304 /Adieresis 8#305 /Aring
8#306 /AE 8#307 /Ccedilla 8#310 /Egrave 8#311 /Eacute
8#312 /Ecircumflex 8#313 /Edieresis 8#314 /Igrave 8#315 /Iacute
8#316 /Icircumflex 8#317 /Idieresis 8#320 /Eth 8#321 /Ntilde 8#322 /Ograve
8#323 /Oacute 8#324 /Ocircumflex 8#325 /Otilde 8#326 /Odieresis 8#327 /multiply
8#330 /Oslash 8#331 /Ugrave 8#332 /Uacute 8#333 /Ucircumflex
8#334 /Udieresis 8#335 /Yacute 8#336 /Thorn 8#337 /germandbls 8#340 /agrave
8#341 /aacute 8#342 /acircumflex 8#343 /atilde 8#344 /adieresis 8#345 /aring
8#346 /ae 8#347 /ccedilla 8#350 /egrave 8#351 /eacute
8#352 /ecircumflex 8#353 /edieresis 8#354 /igrave 8#355 /iacute
8#356 /icircumflex 8#357 /idieresis 8#360 /eth 8#361 /ntilde 8#362 /ograve
8#363 /oacute 8#364 /ocircumflex 8#365 /otilde 8#366 /odieresis 8#367 /divide
8#370 /oslash 8#371 /ugrave 8#372 /uacute 8#373 /ucircumflex
8#374 /udieresis 8#375 /yacute 8#376 /thorn 8#377 /ydieresis] def
/Times-Roman /Times-Roman-iso isovec ReEncode
 /DrawEllipse {
	/endangle exch def
	/startangle exch def
	/yrad exch def
	/xrad exch def
	/y exch def
	/x exch def
	/savematrix mtrx currentmatrix def
	x y tr xrad yrad sc 0 0 1 startangle endangle arc
	closepath
	savematrix setmatrix
	} def

% japanese.ps for fig2dev 3.2
%
% This file will inserted into PostScript output by fig2dev
% when Japanese text is included in the file.
% This code try to use HeiseiMin-W3-EUC-H and HeiseiKakuGo-W5-EUC-H
% if Ryumin-Light-EUC-H is not supported.  --- T.Sato, 1999/3/27

/has_morisawa_font true def
FontDirectory /Ryumin-Light-EUC-H known not {
  systemdict /resourcestatus known {
    /Ryumin-Light-EUC-H /Font resourcestatus {
      pop pop
    } {
      /has_morisawa_font false def
    } ifelse
  } if
} if

16 dict begin
  /FontName /CompositeRoman def  /FontType 0 def
  /WMode 0 def    /FMapType 3 def  /FontMatrix matrix def
  /Encoding [0 1] def
  has_morisawa_font {
    /FDepVector [ /Times-Roman findfont
        /Ryumin-Light-EUC-H findfont ] def
  } {
    /FDepVector [ /Times-Roman findfont
        /HeiseiMin-W3-EUC-H findfont ] def
  } ifelse
  FontName currentdict
  end
definefont pop

16 dict begin
  /FontName /CompositeBold def  /FontType 0 def
  /WMode 0 def    /FMapType 3 def  /FontMatrix matrix def
  /Encoding [0 1] def
  has_morisawa_font {
    /FDepVector [ /Times-Bold findfont
        /GothicBBB-Medium-EUC-H findfont ] def
  } {
    /FDepVector [ /Times-Bold findfont
        /HeiseiKakuGo-W5-EUC-H findfont ] def
  } ifelse
  FontName currentdict
  end
definefont pop

% end of japanese.ps
/$F2psBegin {$F2psDict begin /$F2psEnteredState save def} def
/$F2psEnd {$F2psEnteredState restore end} def

$F2psBegin
%%Page: 1 1
10 setmiterlimit
 0.06000 0.06000 sc
%
% Fig objects follow
%
7.500 slw
% Ellipse
n 4200 2100 106 106 0 360 DrawEllipse gs col0 s gr

% Polyline
gs  clippath
8115 2130 m 8115 2070 l 7930 2070 l 8080 2100 l 7930 2130 l cp
6330 1185 m 6270 1185 l 6270 1370 l 6300 1220 l 6330 1370 l cp
eoclip
n 6300 1200 m 6300 2100 l
 8100 2100 l gs col0 s gr gr

% arrowhead
n 6330 1370 m 6300 1220 l 6270 1370 l 6300 1340 l 6330 1370 l 
 cp gs 0.00 setgray ef gr  col0 s
% arrowhead
n 7930 2130 m 8080 2100 l 7930 2070 l 7960 2100 l 7930 2130 l 
 cp gs 0.00 setgray ef gr  col0 s
% Polyline
2 slj
n 6600 2100 m 6601 2101 l 6605 2104 l 6614 2113 l 6629 2126 l 6647 2141 l
 6665 2157 l 6683 2171 l 6699 2182 l 6714 2190 l 6727 2196 l
 6738 2199 l 6750 2200 l 6758 2200 l 6765 2198 l 6773 2196 l
 6781 2192 l 6790 2187 l 6798 2180 l 6807 2172 l 6816 2162 l
 6825 2151 l 6834 2137 l 6843 2123 l 6852 2106 l 6860 2088 l
 6869 2068 l 6877 2047 l 6885 2025 l 6892 2001 l 6900 1975 l
 6906 1954 l 6912 1933 l 6917 1910 l 6923 1886 l 6930 1862 l
 6936 1837 l 6943 1812 l 6949 1787 l 6956 1763 l 6964 1739 l
 6971 1716 l 6978 1695 l 6986 1676 l 6994 1658 l 7002 1643 l
 7010 1631 l 7018 1621 l 7026 1615 l 7034 1612 l 7042 1612 l
 7050 1616 l 7058 1624 l 7067 1635 l 7075 1650 l 7082 1665 l
 7089 1683 l 7096 1703 l 7104 1726 l 7112 1751 l 7120 1778 l
 7128 1808 l 7136 1840 l 7145 1873 l 7154 1908 l 7163 1945 l
 7172 1983 l 7181 2021 l 7191 2060 l 7200 2100 l 7209 2140 l
 7219 2179 l 7228 2217 l 7237 2255 l 7246 2292 l 7255 2327 l
 7264 2360 l 7272 2392 l 7280 2422 l 7288 2449 l 7296 2474 l
 7304 2497 l 7311 2517 l 7318 2535 l 7325 2550 l 7333 2565 l
 7342 2576 l 7350 2584 l 7358 2588 l 7366 2588 l 7374 2585 l
 7382 2579 l 7390 2569 l 7398 2557 l 7406 2542 l 7414 2524 l
 7422 2505 l 7429 2484 l 7436 2461 l 7444 2437 l 7451 2413 l
 7457 2388 l 7464 2363 l 7470 2338 l 7477 2314 l 7483 2290 l
 7488 2267 l 7494 2246 l 7500 2225 l 7508 2199 l 7515 2175 l
 7523 2153 l 7531 2132 l 7540 2112 l 7548 2094 l 7557 2077 l
 7566 2063 l 7575 2049 l 7584 2038 l 7593 2028 l 7602 2020 l
 7610 2013 l 7619 2008 l 7627 2004 l 7635 2002 l 7642 2000 l
 7650 2000 l 7662 2001 l 7673 2004 l 7686 2010 l 7701 2018 l
 7717 2029 l 7735 2043 l 7753 2059 l 7771 2074 l 7786 2087 l
 7795 2096 l 7799 2099 l
 7800 2100 l gs col0 s gr 
% Arc
n 1696.9 2437.5 1903.5 -46.8 46.8 arc
gs col0 s gr

% Arc
n 1818.8 2437.5 1181.8 -41.8 41.8 arc
gs col0 s gr

% Ellipse
n 1500 2400 75 75 0 360 DrawEllipse gs 0.00 setgray ef gr gs col0 s gr

/CompositeRoman ff 360.00 scf sf
4200 2700 m
gs 1 -1 sc (Hydrophone) col0 sh gr
/CompositeRoman ff 360.00 scf sf
6225 3450 m
gs 1 -1 sc (Hydrophone record) col0 sh gr
% Ellipse
n 3750 6450 106 106 0 360 DrawEllipse gs col0 s gr

% Ellipse
n 4050 7350 106 106 0 360 DrawEllipse gs col0 s gr

% Ellipse
n 4050 7950 106 106 0 360 DrawEllipse gs col0 s gr

% Arc
n 1696.9 7537.5 1903.5 -46.8 46.8 arc
gs col0 s gr

% Arc
n 1818.8 7537.5 1181.8 -41.8 41.8 arc
gs col0 s gr

% Arc
n 1696.9 8437.5 1903.5 -46.8 46.8 arc
gs col0 s gr

% Arc
n 1818.8 8437.5 1181.8 -41.8 41.8 arc
gs col0 s gr

% Ellipse
n 1500 7500 75 75 0 360 DrawEllipse gs 0.00 setgray ef gr gs col0 s gr

% Ellipse
n 1500 8400 75 75 0 360 DrawEllipse gs 0.00 setgray ef gr gs col0 s gr

% Polyline
0 slj
gs  clippath
8715 5730 m 8715 5670 l 8530 5670 l 8680 5700 l 8530 5730 l cp
5205 4785 m 5145 4785 l 5145 4970 l 5175 4820 l 5205 4970 l cp
eoclip
n 5175 4800 m 5175 5700 l
 8700 5700 l gs col0 s gr gr

% arrowhead
n 5205 4970 m 5175 4820 l 5145 4970 l 5175 4940 l 5205 4970 l 
 cp gs 0.00 setgray ef gr  col0 s
% arrowhead
n 8530 5730 m 8680 5700 l 8530 5670 l 8560 5700 l 8530 5730 l 
 cp gs 0.00 setgray ef gr  col0 s
% Polyline
gs  clippath
7515 9330 m 7515 9270 l 7330 9270 l 7480 9300 l 7330 9330 l cp
5730 8385 m 5670 8385 l 5670 8570 l 5700 8420 l 5730 8570 l cp
eoclip
n 5700 8400 m 5700 9300 l
 7500 9300 l gs col0 s gr gr

% arrowhead
n 5730 8570 m 5700 8420 l 5670 8570 l 5700 8540 l 5730 8570 l 
 cp gs 0.00 setgray ef gr  col0 s
% arrowhead
n 7330 9330 m 7480 9300 l 7330 9270 l 7360 9300 l 7330 9330 l 
 cp gs 0.00 setgray ef gr  col0 s
% Polyline
gs  clippath
7515 7530 m 7515 7470 l 7330 7470 l 7480 7500 l 7330 7530 l cp
5730 6585 m 5670 6585 l 5670 6770 l 5700 6620 l 5730 6770 l cp
eoclip
n 5700 6600 m 5700 7500 l
 7500 7500 l gs col0 s gr gr

% arrowhead
n 5730 6770 m 5700 6620 l 5670 6770 l 5700 6740 l 5730 6770 l 
 cp gs 0.00 setgray ef gr  col0 s
% arrowhead
n 7330 7530 m 7480 7500 l 7330 7470 l 7360 7500 l 7330 7530 l 
 cp gs 0.00 setgray ef gr  col0 s
% Polyline
gs  clippath
5415 7380 m 5415 7320 l 5230 7320 l 5380 7350 l 5230 7380 l cp
eoclip
n 4650 7350 m
 5400 7350 l gs col0 s gr gr

% arrowhead
n 5230 7380 m 5380 7350 l 5230 7320 l 5260 7350 l 5230 7380 l 
 cp gs 0.00 setgray ef gr  col0 s
% Polyline
gs  clippath
5389 8731 m 5431 8689 l 5301 8558 l 5386 8686 l 5258 8601 l cp
eoclip
n 4650 7950 m
 5400 8700 l gs col0 s gr gr

% arrowhead
n 5258 8601 m 5386 8686 l 5301 8558 l 5301 8601 l 5258 8601 l 
 cp gs 0.00 setgray ef gr  col0 s
% Polyline
gs  clippath
4982 5707 m 4935 5669 l 4820 5814 l 4938 5716 l 4867 5851 l cp
eoclip
n 4350 6450 m
 4950 5700 l gs col0 s gr gr

% arrowhead
n 4867 5851 m 4938 5716 l 4820 5814 l 4863 5809 l 4867 5851 l 
 cp gs 0.00 setgray ef gr  col0 s
% Polyline
2 slj
n 5475 5700 m 5476 5701 l 5480 5704 l 5489 5713 l 5504 5726 l 5522 5741 l
 5540 5757 l 5558 5771 l 5574 5782 l 5589 5790 l 5602 5796 l
 5613 5799 l 5625 5800 l 5633 5800 l 5640 5798 l 5648 5796 l
 5656 5792 l 5665 5787 l 5673 5780 l 5682 5772 l 5691 5762 l
 5700 5751 l 5709 5737 l 5718 5723 l 5727 5706 l 5735 5688 l
 5744 5668 l 5752 5647 l 5760 5625 l 5767 5601 l 5775 5575 l
 5781 5554 l 5787 5533 l 5792 5510 l 5798 5486 l 5805 5462 l
 5811 5437 l 5818 5412 l 5824 5387 l 5831 5363 l 5839 5339 l
 5846 5316 l 5853 5295 l 5861 5276 l 5869 5258 l 5877 5243 l
 5885 5231 l 5893 5221 l 5901 5215 l 5909 5212 l 5917 5212 l
 5925 5216 l 5933 5224 l 5942 5235 l 5950 5250 l 5957 5265 l
 5964 5283 l 5971 5303 l 5979 5326 l 5987 5351 l 5995 5378 l
 6003 5408 l 6011 5440 l 6020 5473 l 6029 5508 l 6038 5545 l
 6047 5583 l 6056 5621 l 6066 5660 l 6075 5700 l 6084 5740 l
 6094 5779 l 6103 5817 l 6112 5855 l 6121 5892 l 6130 5927 l
 6139 5960 l 6147 5992 l 6155 6022 l 6163 6049 l 6171 6074 l
 6179 6097 l 6186 6117 l 6193 6135 l 6200 6150 l 6208 6165 l
 6217 6176 l 6225 6184 l 6233 6188 l 6241 6188 l 6249 6185 l
 6257 6179 l 6265 6169 l 6273 6157 l 6281 6142 l 6289 6124 l
 6297 6105 l 6304 6084 l 6311 6061 l 6319 6037 l 6326 6013 l
 6332 5988 l 6339 5963 l 6345 5938 l 6352 5914 l 6358 5890 l
 6363 5867 l 6369 5846 l 6375 5825 l 6383 5799 l 6390 5775 l
 6398 5753 l 6406 5732 l 6415 5712 l 6423 5694 l 6432 5677 l
 6441 5663 l 6450 5649 l 6459 5638 l 6468 5628 l 6477 5620 l
 6485 5613 l 6494 5608 l 6502 5604 l 6510 5602 l 6517 5600 l
 6525 5600 l 6537 5601 l 6548 5604 l 6561 5610 l 6576 5618 l
 6592 5629 l 6610 5643 l 6628 5659 l 6646 5674 l 6661 5687 l
 6670 5696 l 6674 5699 l
 6675 5700 l gs col0 s gr 
% Polyline
n 7200 5700 m 7201 5701 l 7205 5704 l 7214 5713 l 7229 5726 l 7247 5741 l
 7265 5757 l 7283 5771 l 7299 5782 l 7314 5790 l 7327 5796 l
 7338 5799 l 7350 5800 l 7358 5800 l 7365 5798 l 7373 5796 l
 7381 5792 l 7390 5787 l 7398 5780 l 7407 5772 l 7416 5762 l
 7425 5751 l 7434 5737 l 7443 5723 l 7452 5706 l 7460 5688 l
 7469 5668 l 7477 5647 l 7485 5625 l 7492 5601 l 7500 5575 l
 7506 5554 l 7512 5533 l 7517 5510 l 7523 5486 l 7530 5462 l
 7536 5437 l 7543 5412 l 7549 5387 l 7556 5363 l 7564 5339 l
 7571 5316 l 7578 5295 l 7586 5276 l 7594 5258 l 7602 5243 l
 7610 5231 l 7618 5221 l 7626 5215 l 7634 5212 l 7642 5212 l
 7650 5216 l 7658 5224 l 7667 5235 l 7675 5250 l 7682 5265 l
 7689 5283 l 7696 5303 l 7704 5326 l 7712 5351 l 7720 5378 l
 7728 5408 l 7736 5440 l 7745 5473 l 7754 5508 l 7763 5545 l
 7772 5583 l 7781 5621 l 7791 5660 l 7800 5700 l 7809 5740 l
 7819 5779 l 7828 5817 l 7837 5855 l 7846 5892 l 7855 5927 l
 7864 5960 l 7872 5992 l 7880 6022 l 7888 6049 l 7896 6074 l
 7904 6097 l 7911 6117 l 7918 6135 l 7925 6150 l 7933 6165 l
 7942 6176 l 7950 6184 l 7958 6188 l 7966 6188 l 7974 6185 l
 7982 6179 l 7990 6169 l 7998 6157 l 8006 6142 l 8014 6124 l
 8022 6105 l 8029 6084 l 8036 6061 l 8044 6037 l 8051 6013 l
 8057 5988 l 8064 5963 l 8070 5938 l 8077 5914 l 8083 5890 l
 8088 5867 l 8094 5846 l 8100 5825 l 8108 5799 l 8115 5775 l
 8123 5753 l 8131 5732 l 8140 5712 l 8148 5694 l 8157 5677 l
 8166 5663 l 8175 5649 l 8184 5638 l 8193 5628 l 8202 5620 l
 8210 5613 l 8219 5608 l 8227 5604 l 8235 5602 l 8242 5600 l
 8250 5600 l 8262 5601 l 8273 5604 l 8286 5610 l 8301 5618 l
 8317 5629 l 8335 5643 l 8353 5659 l 8371 5674 l 8386 5687 l
 8395 5696 l 8399 5699 l
 8400 5700 l gs col0 s gr 
% Polyline
n 6000 9300 m 6000 9301 l 6003 9306 l 6010 9317 l 6020 9336 l 6034 9360 l
 6049 9387 l 6065 9414 l 6081 9437 l 6095 9458 l 6108 9474 l
 6119 9486 l 6130 9494 l 6140 9499 l 6150 9500 l 6157 9499 l
 6164 9497 l 6171 9493 l 6178 9487 l 6186 9479 l 6193 9469 l
 6201 9456 l 6209 9441 l 6217 9422 l 6225 9401 l 6233 9378 l
 6241 9351 l 6249 9322 l 6257 9291 l 6264 9257 l 6272 9220 l
 6279 9181 l 6286 9140 l 6293 9097 l 6300 9050 l 6305 9015 l
 6310 8978 l 6315 8940 l 6320 8900 l 6325 8859 l 6331 8817 l
 6336 8775 l 6342 8732 l 6347 8689 l 6353 8647 l 6359 8605 l
 6366 8565 l 6372 8526 l 6378 8490 l 6385 8456 l 6392 8426 l
 6398 8399 l 6405 8375 l 6412 8356 l 6419 8341 l 6426 8330 l
 6433 8325 l 6440 8324 l 6446 8328 l 6453 8338 l 6461 8353 l
 6468 8374 l 6475 8400 l 6480 8421 l 6485 8445 l 6490 8471 l
 6495 8500 l 6501 8531 l 6506 8565 l 6512 8602 l 6517 8640 l
 6523 8681 l 6529 8725 l 6535 8770 l 6541 8817 l 6548 8866 l
 6554 8916 l 6560 8968 l 6567 9022 l 6573 9076 l 6580 9131 l
 6587 9187 l 6593 9243 l 6600 9300 l 6607 9357 l 6613 9413 l
 6620 9469 l 6627 9524 l 6633 9578 l 6640 9632 l 6646 9684 l
 6652 9734 l 6659 9783 l 6665 9830 l 6671 9875 l 6677 9919 l
 6683 9960 l 6688 9998 l 6694 10035 l 6699 10069 l 6705 10100 l
 6710 10129 l 6715 10155 l 6720 10179 l 6725 10200 l 6732 10226 l
 6739 10247 l 6747 10262 l 6754 10272 l 6760 10276 l 6767 10275 l
 6774 10270 l 6781 10259 l 6788 10244 l 6795 10225 l 6802 10201 l
 6808 10174 l 6815 10144 l 6822 10110 l 6828 10074 l 6834 10035 l
 6841 9995 l 6847 9953 l 6853 9911 l 6858 9868 l 6864 9825 l
 6869 9783 l 6875 9741 l 6880 9700 l 6885 9660 l 6890 9622 l
 6895 9585 l 6900 9550 l 6907 9503 l 6914 9460 l 6921 9419 l
 6928 9380 l 6936 9343 l 6943 9309 l 6951 9278 l 6959 9249 l
 6967 9222 l 6975 9199 l 6983 9178 l 6991 9159 l 6999 9144 l
 7007 9131 l 7014 9121 l 7022 9113 l 7029 9107 l 7036 9103 l
 7043 9101 l 7050 9100 l 7060 9101 l 7070 9106 l 7081 9114 l
 7092 9126 l 7105 9142 l 7119 9163 l 7135 9186 l 7151 9213 l
 7166 9240 l 7180 9264 l 7190 9283 l 7197 9294 l 7200 9299 l

 7200 9300 l gs col0 s gr 
% Polyline
n 6000 7500 m 6001 7501 l 6005 7504 l 6014 7513 l 6029 7526 l 6047 7541 l
 6065 7557 l 6083 7571 l 6099 7582 l 6114 7590 l 6127 7596 l
 6138 7599 l 6150 7600 l 6162 7599 l 6173 7596 l 6186 7592 l
 6198 7585 l 6212 7577 l 6225 7568 l 6238 7558 l 6252 7546 l
 6264 7535 l 6277 7523 l 6288 7511 l 6300 7500 l 6309 7491 l
 6317 7483 l 6327 7474 l 6336 7466 l 6346 7458 l 6356 7450 l
 6367 7443 l 6378 7437 l 6390 7432 l 6402 7428 l 6414 7426 l
 6426 7425 l 6438 7426 l 6450 7428 l 6462 7432 l 6475 7438 l
 6488 7445 l 6502 7454 l 6517 7465 l 6532 7477 l 6548 7491 l
 6565 7505 l 6582 7520 l 6600 7536 l 6618 7551 l 6635 7566 l
 6652 7580 l 6668 7592 l 6683 7603 l 6698 7612 l 6712 7620 l
 6725 7625 l 6738 7628 l 6750 7630 l 6762 7629 l 6774 7627 l
 6786 7622 l 6798 7616 l 6810 7609 l 6822 7600 l 6833 7591 l
 6844 7580 l 6854 7569 l 6864 7557 l 6873 7546 l 6883 7535 l
 6891 7523 l 6900 7513 l 6912 7498 l 6923 7484 l 6936 7471 l
 6948 7458 l 6962 7445 l 6975 7434 l 6988 7424 l 7002 7415 l
 7014 7408 l 7027 7404 l 7038 7401 l 7050 7400 l 7062 7401 l
 7073 7404 l 7086 7410 l 7101 7418 l 7117 7429 l 7135 7443 l
 7153 7459 l 7171 7474 l 7186 7487 l 7195 7496 l 7199 7499 l

 7200 7500 l gs col0 s gr 
/CompositeRoman ff 360.00 scf sf
9000 5400 m
gs 1 -1 sc (No interference) col0 sh gr
/CompositeRoman ff 360.00 scf sf
9000 5775 m
gs 1 -1 sc (occurs far off-axis.) col0 sh gr
/CompositeRoman ff 360.00 scf sf
7800 7200 m
gs 1 -1 sc (Destructive interference) col0 sh gr
/CompositeRoman ff 360.00 scf sf
7800 7575 m
gs 1 -1 sc (occurs immediately off-axis.) col0 sh gr
/CompositeRoman ff 360.00 scf sf
7800 9000 m
gs 1 -1 sc (Constructive interference) col0 sh gr
/CompositeRoman ff 360.00 scf sf
7800 9375 m
gs 1 -1 sc (occurs on-axis.) col0 sh gr
$F2psEnd
rs
