%!PS-Adobe-2.0 EPSF-2.0
%%Title: k_comb_system.eps
%%Creator: fig2dev Version 3.2 Patchlevel 0-beta3
%%CreationDate: Thu Oct 29 20:49:01 1998
%%For: mea1@moomin.valley (Red Hat Linux User,,,,)
%%Orientation: Portrait
%%BoundingBox: 0 0 659 253
%%Pages: 0
%%BeginSetup
%%EndSetup
%%Magnification: 1.0000
%%EndComments
/$F2psDict 200 dict def
$F2psDict begin
$F2psDict /mtrx matrix put
/col-1 {0 setgray} bind def
/col0 {0.000 0.000 0.000 srgb} bind def
/col1 {0.000 0.000 1.000 srgb} bind def
/col2 {0.000 1.000 0.000 srgb} bind def
/col3 {0.000 1.000 1.000 srgb} bind def
/col4 {1.000 0.000 0.000 srgb} bind def
/col5 {1.000 0.000 1.000 srgb} bind def
/col6 {1.000 1.000 0.000 srgb} bind def
/col7 {1.000 1.000 1.000 srgb} bind def
/col8 {0.000 0.000 0.560 srgb} bind def
/col9 {0.000 0.000 0.690 srgb} bind def
/col10 {0.000 0.000 0.820 srgb} bind def
/col11 {0.530 0.810 1.000 srgb} bind def
/col12 {0.000 0.560 0.000 srgb} bind def
/col13 {0.000 0.690 0.000 srgb} bind def
/col14 {0.000 0.820 0.000 srgb} bind def
/col15 {0.000 0.560 0.560 srgb} bind def
/col16 {0.000 0.690 0.690 srgb} bind def
/col17 {0.000 0.820 0.820 srgb} bind def
/col18 {0.560 0.000 0.000 srgb} bind def
/col19 {0.690 0.000 0.000 srgb} bind def
/col20 {0.820 0.000 0.000 srgb} bind def
/col21 {0.560 0.000 0.560 srgb} bind def
/col22 {0.690 0.000 0.690 srgb} bind def
/col23 {0.820 0.000 0.820 srgb} bind def
/col24 {0.500 0.190 0.000 srgb} bind def
/col25 {0.630 0.250 0.000 srgb} bind def
/col26 {0.750 0.380 0.000 srgb} bind def
/col27 {1.000 0.500 0.500 srgb} bind def
/col28 {1.000 0.630 0.630 srgb} bind def
/col29 {1.000 0.750 0.750 srgb} bind def
/col30 {1.000 0.880 0.880 srgb} bind def
/col31 {1.000 0.840 0.000 srgb} bind def

end
save
-35.0 306.0 translate
1 -1 scale

/cp {closepath} bind def
/ef {eofill} bind def
/gr {grestore} bind def
/gs {gsave} bind def
/sa {save} bind def
/rs {restore} bind def
/l {lineto} bind def
/m {moveto} bind def
/rm {rmoveto} bind def
/n {newpath} bind def
/s {stroke} bind def
/sh {show} bind def
/slc {setlinecap} bind def
/slj {setlinejoin} bind def
/slw {setlinewidth} bind def
/srgb {setrgbcolor} bind def
/rot {rotate} bind def
/sc {scale} bind def
/sd {setdash} bind def
/ff {findfont} bind def
/sf {setfont} bind def
/scf {scalefont} bind def
/sw {stringwidth} bind def
/tr {translate} bind def
/tnt {dup dup currentrgbcolor
  4 -2 roll dup 1 exch sub 3 -1 roll mul add
  4 -2 roll dup 1 exch sub 3 -1 roll mul add
  4 -2 roll dup 1 exch sub 3 -1 roll mul add srgb}
  bind def
/shd {dup dup currentrgbcolor 4 -2 roll mul 4 -2 roll mul
  4 -2 roll mul srgb} bind def
/$F2psBegin {$F2psDict begin /$F2psEnteredState save def} def
/$F2psEnd {$F2psEnteredState restore end} def
%%EndProlog

$F2psBegin
10 setmiterlimit
n -1000 6100 m -1000 -1000 l 12551 -1000 l 12551 6100 l cp clip
 0.06000 0.06000 sc
% Polyline
7.500 slw
gs  clippath
8940 1242 m 9000 954 l 9060 1242 l 9060 885 l 8940 885 l cp
clip
n 9000 2100 m 9000 900 l gs 0.00 setgray ef gr gs col0 s gr gr

% arrowhead
15.000 slw
n 8940 1242 m 9000 954 l 9060 1242 l 9000 1194 l 8940 1242 l  cp gs 0.00 setgray ef gr  col0 s
% Polyline
7.500 slw
gs  clippath
6090 3642 m 6150 3354 l 6210 3642 l 6210 3285 l 6090 3285 l cp
clip
n 6150 4500 m 6150 3300 l gs 0.00 setgray ef gr gs col0 s gr gr

% arrowhead
15.000 slw
n 6090 3642 m 6150 3354 l 6210 3642 l 6150 3594 l 6090 3642 l  cp gs 0.00 setgray ef gr  col0 s
% Polyline
7.500 slw
gs  clippath
2940 1242 m 3000 954 l 3060 1242 l 3060 885 l 2940 885 l cp
clip
n 3000 2100 m 3000 900 l gs 0.00 setgray ef gr gs col0 s gr gr

% arrowhead
15.000 slw
n 2940 1242 m 3000 954 l 3060 1242 l 3000 1194 l 2940 1242 l  cp gs 0.00 setgray ef gr  col0 s
/Times-Roman ff 360.00 scf sf
5475 2700 m
gs 1 -1 sc (z) dup sw pop 2 div neg 0 rm  col0 sh gr
/Times-Roman ff 360.00 scf sf
5250 2625 m
gs 1 -1 sc (k) dup sw pop 2 div neg 0 rm  col0 sh gr
/Times-Roman ff 360.00 scf sf
11475 2700 m
gs 1 -1 sc (z) dup sw pop 2 div neg 0 rm  col0 sh gr
/Times-Roman ff 360.00 scf sf
11250 2625 m
gs 1 -1 sc (k) dup sw pop 2 div neg 0 rm  col0 sh gr
% Polyline
7.500 slw
gs  clippath
6942 2160 m 6654 2100 l 6942 2040 l 6585 2040 l 6585 2160 l cp
clip
n 9000 2100 m 6600 2100 l gs 0.00 setgray ef gr gs col0 s gr gr

% arrowhead
15.000 slw
n 6942 2160 m 6654 2100 l 6942 2040 l 6894 2100 l 6942 2160 l  cp gs 0.00 setgray ef gr  col0 s
% Polyline
7.500 slw
gs  clippath
11058 2040 m 11346 2100 l 11058 2160 l 11415 2160 l 11415 2040 l cp
clip
n 9000 2100 m 11400 2100 l gs 0.00 setgray ef gr gs col0 s gr gr

% arrowhead
15.000 slw
n 11058 2040 m 11346 2100 l 11058 2160 l 11106 2100 l 11058 2040 l  cp gs 0.00 setgray ef gr  col0 s
% Polyline
n 9150 2100 m 9152 2099 l 9157 2096 l 9165 2092 l 9178 2085 l 9195 2075 l
 9217 2062 l 9243 2048 l 9272 2031 l 9304 2012 l 9337 1993 l
 9370 1973 l 9403 1952 l 9435 1932 l 9465 1911 l 9494 1892 l
 9521 1872 l 9547 1853 l 9570 1835 l 9592 1816 l 9613 1798 l
 9632 1779 l 9650 1760 l 9667 1741 l 9684 1721 l 9700 1700 l
 9717 1677 l 9734 1652 l 9750 1627 l 9766 1601 l 9783 1574 l
 9799 1546 l 9815 1518 l 9831 1489 l 9846 1461 l 9862 1433 l
 9878 1405 l 9893 1378 l 9908 1352 l 9923 1327 l 9937 1304 l
 9951 1283 l 9965 1264 l 9978 1248 l 9991 1233 l 10003 1222 l
 10015 1212 l 10027 1205 l 10039 1201 l 10050 1200 l 10061 1201 l
 10073 1205 l 10085 1212 l 10097 1222 l 10109 1233 l 10122 1248 l
 10135 1264 l 10149 1283 l 10163 1304 l 10177 1327 l 10192 1352 l
 10207 1378 l 10222 1405 l 10238 1433 l 10254 1461 l 10269 1489 l
 10285 1518 l 10301 1546 l 10317 1574 l 10334 1601 l 10350 1627 l
 10366 1652 l 10383 1677 l 10400 1700 l 10416 1721 l 10433 1741 l
 10450 1760 l 10468 1779 l 10487 1798 l 10508 1816 l 10530 1835 l
 10553 1853 l 10579 1872 l 10606 1892 l 10635 1911 l 10665 1932 l
 10697 1952 l 10730 1973 l 10763 1993 l 10796 2012 l 10828 2031 l
 10857 2048 l 10883 2062 l 10905 2075 l 10922 2085 l 10935 2092 l
 10943 2096 l 10948 2099 l 10950 2100 l gs col0 s gr 
% Polyline
n 7050 2100 m 7052 2099 l 7057 2096 l 7065 2092 l 7078 2085 l 7095 2075 l
 7117 2062 l 7143 2048 l 7172 2031 l 7204 2012 l 7237 1993 l
 7270 1973 l 7303 1952 l 7335 1932 l 7365 1911 l 7394 1892 l
 7421 1872 l 7447 1853 l 7470 1835 l 7492 1816 l 7513 1798 l
 7532 1779 l 7550 1760 l 7567 1741 l 7584 1721 l 7600 1700 l
 7617 1677 l 7634 1652 l 7650 1627 l 7666 1601 l 7683 1574 l
 7699 1546 l 7715 1518 l 7731 1489 l 7746 1461 l 7762 1433 l
 7778 1405 l 7793 1378 l 7808 1352 l 7823 1327 l 7837 1304 l
 7851 1283 l 7865 1264 l 7878 1248 l 7891 1233 l 7903 1222 l
 7915 1212 l 7927 1205 l 7939 1201 l 7950 1200 l 7961 1201 l
 7973 1205 l 7985 1212 l 7997 1222 l 8009 1233 l 8022 1248 l
 8035 1264 l 8049 1283 l 8063 1304 l 8077 1327 l 8092 1352 l
 8107 1378 l 8122 1405 l 8138 1433 l 8154 1461 l 8169 1489 l
 8185 1518 l 8201 1546 l 8217 1574 l 8234 1601 l 8250 1627 l
 8266 1652 l 8283 1677 l 8300 1700 l 8316 1721 l 8333 1741 l
 8350 1760 l 8368 1779 l 8387 1798 l 8408 1816 l 8430 1835 l
 8453 1853 l 8479 1872 l 8506 1892 l 8535 1911 l 8565 1932 l
 8597 1952 l 8630 1973 l 8663 1993 l 8696 2012 l 8728 2031 l
 8757 2048 l 8783 2062 l 8805 2075 l 8822 2085 l 8835 2092 l
 8843 2096 l 8848 2099 l 8850 2100 l gs col0 s gr 
% Polyline
n 5850 1575 m 6450 2175 l gs 0.00 setgray ef gr gs col0 s gr 
% Polyline
n 5850 2175 m 6450 1575 l gs 0.00 setgray ef gr gs col0 s gr 
/Times-Roman ff 360.00 scf sf
8625 5100 m
gs 1 -1 sc (z) dup sw pop 2 div neg 0 rm  col0 sh gr
/Times-Roman ff 360.00 scf sf
8400 5025 m
gs 1 -1 sc (k) dup sw pop 2 div neg 0 rm  col0 sh gr
% Polyline
n 4650 4500 m 4650 4200 l gs col0 s gr 
% Polyline
n 4350 4500 m 4350 4425 l gs col0 s gr 
% Polyline
n 4950 4500 m 4950 3750 l gs col0 s gr 
% Polyline
n 5250 4500 m 5250 3750 l gs col0 s gr 
% Polyline
n 5550 4500 m 5550 4200 l gs col0 s gr 
% Polyline
n 5850 4500 m 5850 4425 l gs col0 s gr 
% Polyline
n 6750 4500 m 6750 4200 l gs col0 s gr 
% Polyline
n 6450 4500 m 6450 4425 l gs col0 s gr 
% Polyline
n 7050 4500 m 7050 3750 l gs col0 s gr 
% Polyline
n 7350 4500 m 7350 3750 l gs col0 s gr 
% Polyline
n 7650 4500 m 7650 4200 l gs col0 s gr 
% Polyline
n 7950 4500 m 7950 4425 l gs col0 s gr 
% Polyline
n 2850 4200 m 3450 4200 l gs 0.00 setgray ef gr gs col0 s gr 
% Polyline
n 2850 3900 m 3450 3900 l gs 0.00 setgray ef gr gs col0 s gr 
% Polyline
7.500 slw
gs  clippath
4092 4560 m 3804 4500 l 4092 4440 l 3735 4440 l 3735 4560 l cp
clip
n 6150 4500 m 3750 4500 l gs 0.00 setgray ef gr gs col0 s gr gr

% arrowhead
15.000 slw
n 4092 4560 m 3804 4500 l 4092 4440 l 4044 4500 l 4092 4560 l  cp gs 0.00 setgray ef gr  col0 s
% Polyline
7.500 slw
gs  clippath
8208 4440 m 8496 4500 l 8208 4560 l 8565 4560 l 8565 4440 l cp
clip
n 6150 4500 m 8550 4500 l gs 0.00 setgray ef gr gs col0 s gr gr

% arrowhead
15.000 slw
n 8208 4440 m 8496 4500 l 8208 4560 l 8256 4500 l 8208 4440 l  cp gs 0.00 setgray ef gr  col0 s
% Polyline
7.500 slw
gs  clippath
942 2160 m 654 2100 l 942 2040 l 585 2040 l 585 2160 l cp
clip
n 3000 2100 m 600 2100 l gs 0.00 setgray ef gr gs col0 s gr gr

% arrowhead
15.000 slw
n 942 2160 m 654 2100 l 942 2040 l 894 2100 l 942 2160 l  cp gs 0.00 setgray ef gr  col0 s
% Polyline
7.500 slw
gs  clippath
5058 2040 m 5346 2100 l 5058 2160 l 5415 2160 l 5415 2040 l cp
clip
n 3000 2100 m 5400 2100 l gs 0.00 setgray ef gr gs col0 s gr gr

% arrowhead
15.000 slw
n 5058 2040 m 5346 2100 l 5058 2160 l 5106 2100 l 5058 2040 l  cp gs 0.00 setgray ef gr  col0 s
% Polyline
n 1200 2100 m 1200 1500 l gs col0 s gr 
% Polyline
n 1800 2100 m 1800 1500 l gs col0 s gr 
% Polyline
n 2100 2100 m 2100 1500 l gs col0 s gr 
% Polyline
n 2400 2100 m 2400 1500 l gs col0 s gr 
% Polyline
n 2700 2100 m 2700 1500 l gs col0 s gr 
% Polyline
n 3000 2100 m 3000 1500 l gs col0 s gr 
% Polyline
n 3300 2100 m 3300 1500 l gs col0 s gr 
% Polyline
n 3600 2100 m 3600 1500 l gs col0 s gr 
% Polyline
n 3900 2100 m 3900 1500 l gs col0 s gr 
% Polyline
n 4200 2100 m 4200 1500 l gs col0 s gr 
% Polyline
n 4500 2100 m 4500 1500 l gs col0 s gr 
% Polyline
n 4800 2100 m 4800 1500 l gs col0 s gr 
% Polyline
n 1500 2100 m 1500 1500 l gs col0 s gr 
$F2psEnd
rs
