%!PS-Adobe-2.0 EPSF-2.0
%%Title: k_deltapair.eps
%%Creator: fig2dev Version 3.2 Patchlevel 0-beta3
%%CreationDate: Thu Oct 29 20:27:44 1998
%%For: mea1@moomin.valley (Red Hat Linux User,,,,)
%%Orientation: Portrait
%%BoundingBox: 0 0 282 129
%%Pages: 0
%%BeginSetup
%%EndSetup
%%Magnification: 1.0000
%%EndComments
/$F2psDict 200 dict def
$F2psDict begin
$F2psDict /mtrx matrix put
/col-1 {0 setgray} bind def
/col0 {0.000 0.000 0.000 srgb} bind def
/col1 {0.000 0.000 1.000 srgb} bind def
/col2 {0.000 1.000 0.000 srgb} bind def
/col3 {0.000 1.000 1.000 srgb} bind def
/col4 {1.000 0.000 0.000 srgb} bind def
/col5 {1.000 0.000 1.000 srgb} bind def
/col6 {1.000 1.000 0.000 srgb} bind def
/col7 {1.000 1.000 1.000 srgb} bind def
/col8 {0.000 0.000 0.560 srgb} bind def
/col9 {0.000 0.000 0.690 srgb} bind def
/col10 {0.000 0.000 0.820 srgb} bind def
/col11 {0.530 0.810 1.000 srgb} bind def
/col12 {0.000 0.560 0.000 srgb} bind def
/col13 {0.000 0.690 0.000 srgb} bind def
/col14 {0.000 0.820 0.000 srgb} bind def
/col15 {0.000 0.560 0.560 srgb} bind def
/col16 {0.000 0.690 0.690 srgb} bind def
/col17 {0.000 0.820 0.820 srgb} bind def
/col18 {0.560 0.000 0.000 srgb} bind def
/col19 {0.690 0.000 0.000 srgb} bind def
/col20 {0.820 0.000 0.000 srgb} bind def
/col21 {0.560 0.000 0.560 srgb} bind def
/col22 {0.690 0.000 0.690 srgb} bind def
/col23 {0.820 0.000 0.820 srgb} bind def
/col24 {0.500 0.190 0.000 srgb} bind def
/col25 {0.630 0.250 0.000 srgb} bind def
/col26 {0.750 0.380 0.000 srgb} bind def
/col27 {1.000 0.500 0.500 srgb} bind def
/col28 {1.000 0.630 0.630 srgb} bind def
/col29 {1.000 0.750 0.750 srgb} bind def
/col30 {1.000 0.880 0.880 srgb} bind def
/col31 {1.000 0.840 0.000 srgb} bind def

end
save
-52.0 181.0 translate
1 -1 scale

/cp {closepath} bind def
/ef {eofill} bind def
/gr {grestore} bind def
/gs {gsave} bind def
/sa {save} bind def
/rs {restore} bind def
/l {lineto} bind def
/m {moveto} bind def
/rm {rmoveto} bind def
/n {newpath} bind def
/s {stroke} bind def
/sh {show} bind def
/slc {setlinecap} bind def
/slj {setlinejoin} bind def
/slw {setlinewidth} bind def
/srgb {setrgbcolor} bind def
/rot {rotate} bind def
/sc {scale} bind def
/sd {setdash} bind def
/ff {findfont} bind def
/sf {setfont} bind def
/scf {scalefont} bind def
/sw {stringwidth} bind def
/tr {translate} bind def
/tnt {dup dup currentrgbcolor
  4 -2 roll dup 1 exch sub 3 -1 roll mul add
  4 -2 roll dup 1 exch sub 3 -1 roll mul add
  4 -2 roll dup 1 exch sub 3 -1 roll mul add srgb}
  bind def
/shd {dup dup currentrgbcolor 4 -2 roll mul 4 -2 roll mul
  4 -2 roll mul srgb} bind def
 /DrawEllipse {
	/endangle exch def
	/startangle exch def
	/yrad exch def
	/xrad exch def
	/y exch def
	/x exch def
	/savematrix mtrx currentmatrix def
	x y tr xrad yrad sc 0 0 1 startangle endangle arc
	closepath
	savematrix setmatrix
	} def

/$F2psBegin {$F2psDict begin /$F2psEnteredState save def} def
/$F2psEnd {$F2psEnteredState restore end} def
%%EndProlog

$F2psBegin
10 setmiterlimit
n -1000 4012 m -1000 -1000 l 6551 -1000 l 6551 4012 l cp clip
 0.06000 0.06000 sc
% Polyline
15.000 slw
gs  clippath
2940 1242 m 3000 954 l 3060 1242 l 3060 870 l 2940 870 l cp
clip
n 3000 2100 m 3000 900 l gs 0.00 setgray ef gr gs col0 s gr gr

% arrowhead
n 2940 1242 m 3000 954 l 3060 1242 l 3000 1194 l 2940 1242 l  cp gs 0.00 setgray ef gr  col0 s
/Times-Roman ff 360.00 scf sf
5475 2700 m
gs 1 -1 sc (z) dup sw pop 2 div neg 0 rm  col0 sh gr
/Times-Roman ff 360.00 scf sf
5250 2625 m
gs 1 -1 sc (k) dup sw pop 2 div neg 0 rm  col0 sh gr
% Ellipse
n 4200 2100 75 75 0 360 DrawEllipse gs 0.00 setgray ef gr gs col0 s gr

% Ellipse
n 1800 2100 75 75 0 360 DrawEllipse gs 0.00 setgray ef gr gs col0 s gr

% Polyline
gs  clippath
1242 2160 m 954 2100 l 1242 2040 l 870 2040 l 870 2160 l cp
clip
n 3000 2100 m 900 2100 l gs 0.00 setgray ef gr gs col0 s gr gr

% arrowhead
n 1242 2160 m 954 2100 l 1242 2040 l 1194 2100 l 1242 2160 l  cp gs 0.00 setgray ef gr  col0 s
% Polyline
gs  clippath
5058 2040 m 5346 2100 l 5058 2160 l 5430 2160 l 5430 2040 l cp
clip
n 3000 2100 m 5400 2100 l gs 0.00 setgray ef gr gs col0 s gr gr

% arrowhead
n 5058 2040 m 5346 2100 l 5058 2160 l 5106 2100 l 5058 2040 l  cp gs 0.00 setgray ef gr  col0 s
% Polyline
7.500 slw
n 3000 2400 m 3000 3000 l gs 0.00 setgray ef gr gs col0 s gr 
% Polyline
n 4200 2400 m 4200 3000 l gs 0.00 setgray ef gr gs col0 s gr 
% Polyline
gs  clippath
2658 2640 m 2946 2700 l 2658 2760 l 3015 2760 l 3015 2640 l cp
clip
n 3000 2700 m 2400 2700 l gs 0.00 setgray ef gr gs col0 s gr gr

% arrowhead
15.000 slw
n 2658 2640 m 2946 2700 l 2658 2760 l 2706 2700 l 2658 2640 l  cp gs 0.00 setgray ef gr  col0 s
% Polyline
7.500 slw
gs  clippath
4542 2760 m 4254 2700 l 4542 2640 l 4185 2640 l 4185 2760 l cp
clip
n 4800 2700 m 4200 2700 l gs 0.00 setgray ef gr gs col0 s gr gr

% arrowhead
15.000 slw
n 4542 2760 m 4254 2700 l 4542 2640 l 4494 2700 l 4542 2760 l  cp gs 0.00 setgray ef gr  col0 s
/Times-Roman ff 420.00 scf sf
3600 2850 m
gs 1 -1 sc (1/a) dup sw pop 2 div neg 0 rm  col0 sh gr
$F2psEnd
rs
