%!PS-Adobe-2.0 EPSF-2.0
%%Title: lat_ax.eps
%%Creator: fig2dev Version 3.2 Patchlevel 0-beta3
%%CreationDate: Wed Oct 28 21:33:17 1998
%%For: mea1@moomin.valley (Red Hat Linux User,,,,)
%%Orientation: Portrait
%%BoundingBox: 0 0 1272 260
%%Pages: 0
%%BeginSetup
%%EndSetup
%%Magnification: 1.0000
%%EndComments
/$F2psDict 200 dict def
$F2psDict begin
$F2psDict /mtrx matrix put
/col-1 {0 setgray} bind def
/col0 {0.000 0.000 0.000 srgb} bind def
/col1 {0.000 0.000 1.000 srgb} bind def
/col2 {0.000 1.000 0.000 srgb} bind def
/col3 {0.000 1.000 1.000 srgb} bind def
/col4 {1.000 0.000 0.000 srgb} bind def
/col5 {1.000 0.000 1.000 srgb} bind def
/col6 {1.000 1.000 0.000 srgb} bind def
/col7 {1.000 1.000 1.000 srgb} bind def
/col8 {0.000 0.000 0.560 srgb} bind def
/col9 {0.000 0.000 0.690 srgb} bind def
/col10 {0.000 0.000 0.820 srgb} bind def
/col11 {0.530 0.810 1.000 srgb} bind def
/col12 {0.000 0.560 0.000 srgb} bind def
/col13 {0.000 0.690 0.000 srgb} bind def
/col14 {0.000 0.820 0.000 srgb} bind def
/col15 {0.000 0.560 0.560 srgb} bind def
/col16 {0.000 0.690 0.690 srgb} bind def
/col17 {0.000 0.820 0.820 srgb} bind def
/col18 {0.560 0.000 0.000 srgb} bind def
/col19 {0.690 0.000 0.000 srgb} bind def
/col20 {0.820 0.000 0.000 srgb} bind def
/col21 {0.560 0.000 0.560 srgb} bind def
/col22 {0.690 0.000 0.690 srgb} bind def
/col23 {0.820 0.000 0.820 srgb} bind def
/col24 {0.500 0.190 0.000 srgb} bind def
/col25 {0.630 0.250 0.000 srgb} bind def
/col26 {0.750 0.380 0.000 srgb} bind def
/col27 {1.000 0.500 0.500 srgb} bind def
/col28 {1.000 0.630 0.630 srgb} bind def
/col29 {1.000 0.750 0.750 srgb} bind def
/col30 {1.000 0.880 0.880 srgb} bind def
/col31 {1.000 0.840 0.000 srgb} bind def

end
save
-137.0 401.0 translate
1 -1 scale

/cp {closepath} bind def
/ef {eofill} bind def
/gr {grestore} bind def
/gs {gsave} bind def
/sa {save} bind def
/rs {restore} bind def
/l {lineto} bind def
/m {moveto} bind def
/rm {rmoveto} bind def
/n {newpath} bind def
/s {stroke} bind def
/sh {show} bind def
/slc {setlinecap} bind def
/slj {setlinejoin} bind def
/slw {setlinewidth} bind def
/srgb {setrgbcolor} bind def
/rot {rotate} bind def
/sc {scale} bind def
/sd {setdash} bind def
/ff {findfont} bind def
/sf {setfont} bind def
/scf {scalefont} bind def
/sw {stringwidth} bind def
/tr {translate} bind def
/tnt {dup dup currentrgbcolor
  4 -2 roll dup 1 exch sub 3 -1 roll mul add
  4 -2 roll dup 1 exch sub 3 -1 roll mul add
  4 -2 roll dup 1 exch sub 3 -1 roll mul add srgb}
  bind def
/shd {dup dup currentrgbcolor 4 -2 roll mul 4 -2 roll mul
  4 -2 roll mul srgb} bind def
/reencdict 12 dict def /ReEncode { reencdict begin
/newcodesandnames exch def /newfontname exch def /basefontname exch def
/basefontdict basefontname findfont def /newfont basefontdict maxlength dict def
basefontdict { exch dup /FID ne { dup /Encoding eq
{ exch dup length array copy newfont 3 1 roll put }
{ exch newfont 3 1 roll put } ifelse } { pop pop } ifelse } forall
newfont /FontName newfontname put newcodesandnames aload pop
128 1 255 { newfont /Encoding get exch /.notdef put } for
newcodesandnames length 2 idiv { newfont /Encoding get 3 1 roll put } repeat
newfontname newfont definefont pop end } def
/isovec [
8#200 /grave 8#201 /acute 8#202 /circumflex 8#203 /tilde
8#204 /macron 8#205 /breve 8#206 /dotaccent 8#207 /dieresis
8#210 /ring 8#211 /cedilla 8#212 /hungarumlaut 8#213 /ogonek 8#214 /caron
8#220 /dotlessi 8#230 /oe 8#231 /OE
8#240 /space 8#241 /exclamdown 8#242 /cent 8#243 /sterling
8#244 /currency 8#245 /yen 8#246 /brokenbar 8#247 /section 8#250 /dieresis
8#251 /copyright 8#252 /ordfeminine 8#253 /guillemotleft 8#254 /logicalnot
8#255 /endash 8#256 /registered 8#257 /macron 8#260 /degree 8#261 /plusminus
8#262 /twosuperior 8#263 /threesuperior 8#264 /acute 8#265 /mu 8#266 /paragraph
8#267 /periodcentered 8#270 /cedilla 8#271 /onesuperior 8#272 /ordmasculine
8#273 /guillemotright 8#274 /onequarter 8#275 /onehalf
8#276 /threequarters 8#277 /questiondown 8#300 /Agrave 8#301 /Aacute
8#302 /Acircumflex 8#303 /Atilde 8#304 /Adieresis 8#305 /Aring
8#306 /AE 8#307 /Ccedilla 8#310 /Egrave 8#311 /Eacute
8#312 /Ecircumflex 8#313 /Edieresis 8#314 /Igrave 8#315 /Iacute
8#316 /Icircumflex 8#317 /Idieresis 8#320 /Eth 8#321 /Ntilde 8#322 /Ograve
8#323 /Oacute 8#324 /Ocircumflex 8#325 /Otilde 8#326 /Odieresis 8#327 /multiply
8#330 /Oslash 8#331 /Ugrave 8#332 /Uacute 8#333 /Ucircumflex
8#334 /Udieresis 8#335 /Yacute 8#336 /Thorn 8#337 /germandbls 8#340 /agrave
8#341 /aacute 8#342 /acircumflex 8#343 /atilde 8#344 /adieresis 8#345 /aring
8#346 /ae 8#347 /ccedilla 8#350 /egrave 8#351 /eacute
8#352 /ecircumflex 8#353 /edieresis 8#354 /igrave 8#355 /iacute
8#356 /icircumflex 8#357 /idieresis 8#360 /eth 8#361 /ntilde 8#362 /ograve
8#363 /oacute 8#364 /ocircumflex 8#365 /otilde 8#366 /odieresis 8#367 /divide
8#370 /oslash 8#371 /ugrave 8#372 /uacute 8#373 /ucircumflex
8#374 /udieresis 8#375 /yacute 8#376 /thorn 8#377 /ydieresis] def
/Times-Roman /Times-Roman-iso isovec ReEncode
/$F2psBegin {$F2psDict begin /$F2psEnteredState save def} def
/$F2psEnd {$F2psEnteredState restore end} def
%%EndProlog

$F2psBegin
10 setmiterlimit
n -1000 7675 m -1000 -1000 l 24483 -1000 l 24483 7675 l cp clip
 0.06000 0.06000 sc
/Times-Roman-iso ff 480.00 scf sf
11325 6675 m
gs 1 -1 sc (x) dup sw pop 2 div neg 0 rm  col0 sh gr
/Times-Roman-iso ff 570.00 scf sf
10875 6525 m
gs 1 -1 sc (2 f) dup sw pop 2 div neg 0 rm  col0 sh gr
/Times-Roman-iso ff 480.00 scf sf
12525 6450 m
gs 1 -1 sc (x) dup sw pop 2 div neg 0 rm  col0 sh gr
/Times-Roman-iso ff 570.00 scf sf
12300 6300 m
gs 1 -1 sc (k) dup sw pop 2 div neg 0 rm  col0 sh gr
% Polyline
60.000 slw
n 7500 4500 m 3900 5700 l gs col0 s gr 
% Polyline
n 7500 4500 m 11175 5700 l gs col0 s gr 
% Polyline
30.000 slw
gs  clippath
7470 3579 m 7500 3435 l 7530 3579 l 7530 3255 l 7470 3255 l cp
clip
n 7500 3300 m 7500 5700 l gs col0 s gr gr

% arrowhead
60.000 slw
n 7470 3579 m 7500 3435 l 7530 3579 l 7500 3555 l 7470 3579 l  cp gs 0.00 setgray ef gr  col0 s
% Polyline
30.000 slw
gs  clippath
12371 5670 m 12515 5700 l 12371 5730 l 12695 5730 l 12695 5670 l cp
2604 5730 m 2460 5700 l 2604 5670 l 2280 5670 l 2280 5730 l cp
clip
n 2325 5700 m 12650 5700 l gs col0 s gr gr

% arrowhead
60.000 slw
n 2604 5730 m 2460 5700 l 2604 5670 l 2580 5700 l 2604 5730 l  cp gs 0.00 setgray ef gr  col0 s
% arrowhead
n 12371 5670 m 12515 5700 l 12371 5730 l 12395 5700 l 12371 5670 l  cp gs 0.00 setgray ef gr  col0 s
/Times-Roman-iso ff 480.00 scf sf
4200 6600 m
gs 1 -1 sc (x) dup sw pop 2 div neg 0 rm  col0 sh gr
/Times-Roman-iso ff 570.00 scf sf
3600 6450 m
gs 1 -1 sc (-2 f) dup sw pop 2 div neg 0 rm  col0 sh gr
/Times-Roman-iso ff 480.00 scf sf
7500 2700 m
gs 1 -1 sc (Lateral Tx-Rx response:) dup sw pop 2 div neg 0 rm  col0 sh gr
/Times-Roman-iso ff 480.00 scf sf
8025 3600 m
gs 1 -1 sc (|A|) dup sw pop 2 div neg 0 rm  col0 sh gr
/Times-Roman-iso ff 570.00 scf sf
21300 6300 m
gs 1 -1 sc (f) dup sw pop 2 div neg 0 rm  col0 sh gr
/Times-Roman-iso ff 480.00 scf sf
21525 6450 m
gs 1 -1 sc (c) dup sw pop 2 div neg 0 rm  col0 sh gr
% Polyline
30.000 slw
gs  clippath
18270 3579 m 18300 3435 l 18330 3579 l 18330 3255 l 18270 3255 l cp
clip
n 18300 3300 m 18300 5700 l gs col0 s gr gr

% arrowhead
60.000 slw
n 18270 3579 m 18300 3435 l 18330 3579 l 18300 3555 l 18270 3579 l  cp gs 0.00 setgray ef gr  col0 s
% Polyline
30.000 slw
gs  clippath
23171 5670 m 23315 5700 l 23171 5730 l 23495 5730 l 23495 5670 l cp
13404 5730 m 13260 5700 l 13404 5670 l 13080 5670 l 13080 5730 l cp
clip
n 13125 5700 m 23450 5700 l gs col0 s gr gr

% arrowhead
60.000 slw
n 13404 5730 m 13260 5700 l 13404 5670 l 13380 5700 l 13404 5730 l  cp gs 0.00 setgray ef gr  col0 s
% arrowhead
n 23171 5670 m 23315 5700 l 23171 5730 l 23195 5700 l 23171 5670 l  cp gs 0.00 setgray ef gr  col0 s
% Polyline
30.000 slw
n 20100 5700 m 20102 5699 l 20106 5697 l 20112 5693 l 20123 5686 l 20138 5677 l
 20157 5665 l 20180 5651 l 20206 5634 l 20235 5615 l 20265 5595 l
 20297 5573 l 20329 5550 l 20361 5526 l 20393 5502 l 20423 5478 l
 20452 5454 l 20480 5429 l 20506 5405 l 20531 5380 l 20555 5355 l
 20578 5329 l 20599 5302 l 20620 5274 l 20641 5246 l 20661 5215 l
 20680 5184 l 20700 5150 l 20717 5119 l 20734 5087 l 20752 5054 l
 20770 5019 l 20787 4983 l 20805 4946 l 20824 4908 l 20843 4869 l
 20861 4830 l 20881 4790 l 20900 4749 l 20920 4708 l 20940 4668 l
 20960 4627 l 20980 4587 l 21000 4549 l 21020 4511 l 21040 4474 l
 21060 4439 l 21080 4406 l 21100 4375 l 21119 4346 l 21139 4319 l
 21158 4295 l 21176 4273 l 21195 4254 l 21213 4238 l 21230 4224 l
 21248 4214 l 21266 4206 l 21283 4202 l 21300 4200 l 21317 4202 l
 21334 4206 l 21352 4214 l 21370 4224 l 21387 4238 l 21405 4254 l
 21424 4273 l 21443 4295 l 21461 4319 l 21481 4346 l 21500 4375 l
 21520 4406 l 21540 4439 l 21560 4474 l 21580 4511 l 21600 4549 l
 21620 4587 l 21640 4627 l 21660 4668 l 21680 4708 l 21700 4749 l
 21719 4790 l 21739 4830 l 21758 4869 l 21776 4908 l 21795 4946 l
 21813 4983 l 21830 5019 l 21848 5054 l 21866 5087 l 21883 5119 l
 21900 5150 l 21920 5184 l 21939 5215 l 21959 5246 l 21980 5274 l
 22001 5302 l 22022 5329 l 22045 5355 l 22069 5380 l 22094 5405 l
 22120 5429 l 22148 5454 l 22177 5478 l 22207 5502 l 22239 5526 l
 22271 5550 l 22303 5573 l 22335 5595 l 22365 5615 l 22394 5634 l
 22420 5651 l 22443 5665 l 22462 5677 l 22477 5686 l 22488 5693 l
 22494 5697 l 22498 5699 l 22500 5700 l gs col0 s gr 
% Polyline
n 14100 5700 m 14102 5699 l 14106 5697 l 14112 5693 l 14123 5686 l 14138 5677 l
 14157 5665 l 14180 5651 l 14206 5634 l 14235 5615 l 14265 5595 l
 14297 5573 l 14329 5550 l 14361 5526 l 14393 5502 l 14423 5478 l
 14452 5454 l 14480 5429 l 14506 5405 l 14531 5380 l 14555 5355 l
 14578 5329 l 14599 5302 l 14620 5274 l 14641 5246 l 14661 5215 l
 14680 5184 l 14700 5150 l 14717 5119 l 14734 5087 l 14752 5054 l
 14770 5019 l 14787 4983 l 14805 4946 l 14824 4908 l 14843 4869 l
 14861 4830 l 14881 4790 l 14900 4749 l 14920 4708 l 14940 4668 l
 14960 4627 l 14980 4587 l 15000 4549 l 15020 4511 l 15040 4474 l
 15060 4439 l 15080 4406 l 15100 4375 l 15119 4346 l 15139 4319 l
 15158 4295 l 15176 4273 l 15195 4254 l 15213 4238 l 15230 4224 l
 15248 4214 l 15266 4206 l 15283 4202 l 15300 4200 l 15317 4202 l
 15334 4206 l 15352 4214 l 15370 4224 l 15387 4238 l 15405 4254 l
 15424 4273 l 15443 4295 l 15461 4319 l 15481 4346 l 15500 4375 l
 15520 4406 l 15540 4439 l 15560 4474 l 15580 4511 l 15600 4549 l
 15620 4587 l 15640 4627 l 15660 4668 l 15680 4708 l 15700 4749 l
 15719 4790 l 15739 4830 l 15758 4869 l 15776 4908 l 15795 4946 l
 15813 4983 l 15830 5019 l 15848 5054 l 15866 5087 l 15883 5119 l
 15900 5150 l 15920 5184 l 15939 5215 l 15959 5246 l 15980 5274 l
 16001 5302 l 16022 5329 l 16045 5355 l 16069 5380 l 16094 5405 l
 16120 5429 l 16148 5454 l 16177 5478 l 16207 5502 l 16239 5526 l
 16271 5550 l 16303 5573 l 16335 5595 l 16365 5615 l 16394 5634 l
 16420 5651 l 16443 5665 l 16462 5677 l 16477 5686 l 16488 5693 l
 16494 5697 l 16498 5699 l 16500 5700 l gs col0 s gr 
/Times-Roman-iso ff 480.00 scf sf
18300 2700 m
gs 1 -1 sc (Axial Tx-Rx response:) dup sw pop 2 div neg 0 rm  col0 sh gr
/Times-Roman-iso ff 480.00 scf sf
18825 3600 m
gs 1 -1 sc (|A|) dup sw pop 2 div neg 0 rm  col0 sh gr
/Times-Roman-iso ff 480.00 scf sf
23325 6450 m
gs 1 -1 sc (t) dup sw pop 2 div neg 0 rm  col0 sh gr
/Times-Roman-iso ff 570.00 scf sf
23100 6300 m
gs 1 -1 sc (f) dup sw pop 2 div neg 0 rm  col0 sh gr
/Times-Roman-iso ff 570.00 scf sf
15150 6300 m
gs 1 -1 sc (-f) dup sw pop 2 div neg 0 rm  col0 sh gr
/Times-Roman-iso ff 480.00 scf sf
15525 6450 m
gs 1 -1 sc (c) dup sw pop 2 div neg 0 rm  col0 sh gr
$F2psEnd
rs
