%!PS-Adobe-2.0 EPSF-2.0
%%Title: path_length.eps
%%Creator: fig2dev Version 3.2 Patchlevel 0-beta3
%%CreationDate: Thu Oct 29 19:50:42 1998
%%For: mea1@moomin.valley (Red Hat Linux User,,,,)
%%Orientation: Portrait
%%BoundingBox: 0 0 242 164
%%Pages: 0
%%BeginSetup
%%EndSetup
%%Magnification: 1.0000
%%EndComments
/$F2psDict 200 dict def
$F2psDict begin
$F2psDict /mtrx matrix put
/col-1 {0 setgray} bind def
/col0 {0.000 0.000 0.000 srgb} bind def
/col1 {0.000 0.000 1.000 srgb} bind def
/col2 {0.000 1.000 0.000 srgb} bind def
/col3 {0.000 1.000 1.000 srgb} bind def
/col4 {1.000 0.000 0.000 srgb} bind def
/col5 {1.000 0.000 1.000 srgb} bind def
/col6 {1.000 1.000 0.000 srgb} bind def
/col7 {1.000 1.000 1.000 srgb} bind def
/col8 {0.000 0.000 0.560 srgb} bind def
/col9 {0.000 0.000 0.690 srgb} bind def
/col10 {0.000 0.000 0.820 srgb} bind def
/col11 {0.530 0.810 1.000 srgb} bind def
/col12 {0.000 0.560 0.000 srgb} bind def
/col13 {0.000 0.690 0.000 srgb} bind def
/col14 {0.000 0.820 0.000 srgb} bind def
/col15 {0.000 0.560 0.560 srgb} bind def
/col16 {0.000 0.690 0.690 srgb} bind def
/col17 {0.000 0.820 0.820 srgb} bind def
/col18 {0.560 0.000 0.000 srgb} bind def
/col19 {0.690 0.000 0.000 srgb} bind def
/col20 {0.820 0.000 0.000 srgb} bind def
/col21 {0.560 0.000 0.560 srgb} bind def
/col22 {0.690 0.000 0.690 srgb} bind def
/col23 {0.820 0.000 0.820 srgb} bind def
/col24 {0.500 0.190 0.000 srgb} bind def
/col25 {0.630 0.250 0.000 srgb} bind def
/col26 {0.750 0.380 0.000 srgb} bind def
/col27 {1.000 0.500 0.500 srgb} bind def
/col28 {1.000 0.630 0.630 srgb} bind def
/col29 {1.000 0.750 0.750 srgb} bind def
/col30 {1.000 0.880 0.880 srgb} bind def
/col31 {1.000 0.840 0.000 srgb} bind def

end
save
-323.0 226.0 translate
1 -1 scale

/cp {closepath} bind def
/ef {eofill} bind def
/gr {grestore} bind def
/gs {gsave} bind def
/sa {save} bind def
/rs {restore} bind def
/l {lineto} bind def
/m {moveto} bind def
/rm {rmoveto} bind def
/n {newpath} bind def
/s {stroke} bind def
/sh {show} bind def
/slc {setlinecap} bind def
/slj {setlinejoin} bind def
/slw {setlinewidth} bind def
/srgb {setrgbcolor} bind def
/rot {rotate} bind def
/sc {scale} bind def
/sd {setdash} bind def
/ff {findfont} bind def
/sf {setfont} bind def
/scf {scalefont} bind def
/sw {stringwidth} bind def
/tr {translate} bind def
/tnt {dup dup currentrgbcolor
  4 -2 roll dup 1 exch sub 3 -1 roll mul add
  4 -2 roll dup 1 exch sub 3 -1 roll mul add
  4 -2 roll dup 1 exch sub 3 -1 roll mul add srgb}
  bind def
/shd {dup dup currentrgbcolor 4 -2 roll mul 4 -2 roll mul
  4 -2 roll mul srgb} bind def
 /DrawEllipse {
	/endangle exch def
	/startangle exch def
	/yrad exch def
	/xrad exch def
	/y exch def
	/x exch def
	/savematrix mtrx currentmatrix def
	x y tr xrad yrad sc 0 0 1 startangle endangle arc
	closepath
	savematrix setmatrix
	} def

/$F2psBegin {$F2psDict begin /$F2psEnteredState save def} def
/$F2psEnd {$F2psEnteredState restore end} def
%%EndProlog

$F2psBegin
10 setmiterlimit
n -1000 4762 m -1000 -1000 l 10414 -1000 l 10414 4762 l cp clip
 0.06000 0.06000 sc
7.500 slw
% Ellipse
n 8100 2400 106 106 0 360 DrawEllipse gs 0.00 setgray ef gr gs col0 s gr

% Ellipse
n 9300 2400 106 106 0 360 DrawEllipse gs 0.00 setgray ef gr gs col0 s gr

% Polyline
n 5400 2250 m 5700 2250 l 5700 2550 l 5400 2550 l gs col0 s gr 
% Polyline
n 5400 3450 m 5700 3450 l 5700 3750 l 5400 3750 l gs col0 s gr 
% Polyline
n 5400 1050 m 5700 1050 l 5700 1350 l 5400 1350 l gs col0 s gr 
% Polyline
15.000 slw
gs  clippath
7683 2340 m 7971 2400 l 7683 2460 l 8055 2460 l 8055 2340 l cp
clip
n 5700 2400 m 8025 2400 l gs 0.00 setgray ef gr gs col0 s gr gr

% arrowhead
n 7683 2340 m 7971 2400 l 7683 2460 l 7731 2400 l 7683 2340 l  cp gs 0.00 setgray ef gr  col0 s
% Polyline
gs  clippath
8883 2340 m 9171 2400 l 8883 2460 l 9255 2460 l 9255 2340 l cp
clip
n 8100 2400 m 9225 2400 l gs 0.00 setgray ef gr gs col0 s gr gr

% arrowhead
n 8883 2340 m 9171 2400 l 8883 2460 l 8931 2400 l 8883 2340 l  cp gs 0.00 setgray ef gr  col0 s
% Polyline
gs  clippath
8917 2164 m 9173 2308 l 8881 2278 l 9235 2391 l 9272 2277 l cp
clip
n 5700 1200 m 9225 2325 l gs 0.00 setgray ef gr gs col0 s gr gr

% arrowhead
n 8917 2164 m 9173 2308 l 8881 2278 l 8945 2236 l 8917 2164 l  cp gs 0.00 setgray ef gr  col0 s
% Polyline
gs  clippath
8881 2522 m 9173 2491 l 8917 2636 l 9272 2523 l 9235 2409 l cp
clip
n 5700 3600 m 9225 2475 l gs 0.00 setgray ef gr gs col0 s gr gr

% arrowhead
n 8881 2522 m 9173 2491 l 8917 2636 l 8945 2564 l 8881 2522 l  cp gs 0.00 setgray ef gr  col0 s
% Polyline
gs  clippath
7743 2122 m 7976 2301 l 7691 2230 l 8026 2392 l 8078 2284 l cp
clip
n 5700 1200 m 8025 2325 l gs 0.00 setgray ef gr gs col0 s gr gr

% arrowhead
n 7743 2122 m 7976 2301 l 7691 2230 l 7760 2197 l 7743 2122 l  cp gs 0.00 setgray ef gr  col0 s
% Polyline
gs  clippath
7691 2570 m 7976 2498 l 7743 2678 l 8078 2516 l 8026 2408 l cp
clip
n 5700 3600 m 8025 2475 l gs 0.00 setgray ef gr gs col0 s gr gr

% arrowhead
n 7691 2570 m 7976 2498 l 7743 2678 l 7760 2603 l 7691 2570 l  cp gs 0.00 setgray ef gr  col0 s
$F2psEnd
rs
