%!PS-Adobe-2.0 EPSF-1.2
%%Creator: MATLAB, The Mathworks, Inc.
%%Title: quant_error.eps
%%CreationDate: 11/07/98  01:43:41
%%DocumentNeededFonts: Times-Roman
%%+ Helvetica
%%DocumentProcessColors: Cyan Magenta Yellow Black
%%Pages: 1
%%BoundingBox:    48   193   547   591
%%EndComments

%%BeginProlog

% MathWorks dictionary
/MathWorks 160 dict begin

% definition operators
/bdef {bind def} bind def
/ldef {load def} bind def
/xdef {exch def} bdef
/xstore {exch store} bdef

% operator abbreviations
/c  /clip ldef
/cc /concat ldef
/cp /closepath ldef
/gr /grestore ldef
/gs /gsave ldef
/mt /moveto ldef
/np /newpath ldef
/cm /currentmatrix ldef
/sm /setmatrix ldef
/rc {rectclip} bdef
/rf {rectfill} bdef
/rm /rmoveto ldef
/rl /rlineto ldef
/s /show ldef
/sc {setcmykcolor} bdef
/sr /setrgbcolor ldef
/sg /setgray ldef
/w /setlinewidth ldef
/j /setlinejoin ldef
/cap /setlinecap ldef

% page state control
/pgsv () def
/bpage {/pgsv save def} bdef
/epage {pgsv restore} bdef
/bplot /gsave ldef
/eplot {stroke grestore} bdef

% orientation switch
/portraitMode 	0 def
/landscapeMode 	1 def

% coordinate system mappings
/dpi2point 0 def

% font control
/FontSize 0 def
/FMS {
	/FontSize xstore		%save size off stack
	findfont
	[FontSize 0 0 FontSize neg 0 0]
	makefont
	setfont
	}bdef

/reencode {
exch dup where
{pop load} {pop StandardEncoding} ifelse
exch
dup 3 1 roll
findfont dup length dict begin
  { 1 index /FID ne {def}{pop pop} ifelse } forall
  /Encoding exch def
  currentdict
end
definefont pop
} bdef

/isroman {
findfont /CharStrings get
/Agrave known
} bdef

/FMSR {
3 1 roll 1 index
dup isroman
{reencode} {pop pop} ifelse
exch FMS
} bdef

/csm {
	1 dpi2point div -1 dpi2point div scale
	neg translate
	landscapeMode eq {90 rotate} if
	} bdef

% line types: solid, dotted, dashed, dotdash
/SO { [] 0 setdash } bdef
/DO { [.5 dpi2point mul 4 dpi2point mul] 0 setdash } bdef
/DA { [6 dpi2point mul] 0 setdash } bdef
/DD { [.5 dpi2point mul 4 dpi2point mul 6 dpi2point mul 4 dpi2point mul] 0 setdash } bdef

% macros for lines and objects
/L {
	lineto
	stroke
	} bdef
/MP {
	3 1 roll moveto
	1 sub {rlineto} repeat
	} bdef
/AP {
	{rlineto} repeat
	} bdef
/PP {
	closepath eofill
	} bdef
/DP {
	closepath stroke
	} bdef
/MR {
	4 -2 roll moveto
	dup  0 exch rlineto
	exch 0 rlineto
	neg  0 exch rlineto
	closepath
	} bdef
/FR {
	MR stroke
	} bdef
/PR {
	MR fill
	} bdef
/L1i {
	{ currentfile picstr readhexstring pop } image
	} bdef

/tMatrix matrix def
/MakeOval {
	newpath
	tMatrix currentmatrix pop
	translate scale
	0 0 1 0 360 arc
	tMatrix setmatrix
	} bdef
/FO {
	MakeOval
	stroke
	} bdef
/PO {
	MakeOval
	fill
	} bdef

/PD {
	currentlinecap 1 setlinecap 3 1 roll 2 copy moveto lineto stroke setlinecap
	} bdef

/FA {
	newpath
	tMatrix currentmatrix pop
	translate scale
	0 0 1 5 -2 roll arc
	tMatrix setmatrix
	stroke
	} bdef
/PA {
	newpath
	tMatrix currentmatrix pop
	translate 0 0 moveto scale
	0 0 1 5 -2 roll arc
	closepath
	tMatrix setmatrix
	fill
	} bdef

/FAn {
	newpath
	tMatrix currentmatrix pop
	translate scale
	0 0 1 5 -2 roll arcn
	tMatrix setmatrix
	stroke
	} bdef
/PAn {
	newpath
	tMatrix currentmatrix pop
	translate 0 0 moveto scale
	0 0 1 5 -2 roll arcn
	closepath
	tMatrix setmatrix
	fill
	} bdef

/MRR {
	/vradius xdef
	/hradius xdef
	/lry xdef
	/lrx xdef
	/uly xdef
	/ulx xdef
	newpath
	tMatrix currentmatrix pop
	ulx hradius add uly vradius add translate
	hradius vradius scale
	0 0 1 180 270 arc 
	tMatrix setmatrix
	lrx hradius sub uly vradius add translate
	hradius vradius scale
	0 0 1 270 360 arc
	tMatrix setmatrix
	lrx hradius sub lry vradius sub translate
	hradius vradius scale
	0 0 1 0 90 arc
	tMatrix setmatrix
	ulx hradius add lry vradius sub translate
	hradius vradius scale
	0 0 1 90 180 arc
	tMatrix setmatrix
	closepath
	} bdef
/FRR {
	MRR stroke } bdef
/PRR {
	MRR fill } bdef

/MlrRR {
	/lry xdef
	/lrx xdef
	/uly xdef
	/ulx xdef
	/rad lry uly sub 2 div def
	newpath
	tMatrix currentmatrix pop
	ulx rad add uly rad add translate
	rad rad scale
	0 0 1 90 270 arc
	tMatrix setmatrix
	lrx rad sub lry rad sub translate
	rad rad scale
	0 0 1 270 90 arc
	tMatrix setmatrix
	closepath
	} bdef
/FlrRR {
	MlrRR stroke } bdef
/PlrRR {
	MlrRR fill } bdef

/MtbRR {
	/lry xdef
	/lrx xdef
	/uly xdef
	/ulx xdef
	/rad lrx ulx sub 2 div def
	newpath
	tMatrix currentmatrix pop
	ulx rad add uly rad add translate
	rad rad scale
	0 0 1 180 360 arc
	tMatrix setmatrix
	lrx rad sub lry rad sub translate
	rad rad scale
	0 0 1 0 180 arc
	tMatrix setmatrix
	closepath
	} bdef
/FtbRR {
	MtbRR stroke } bdef
/PtbRR {
	MtbRR fill } bdef

currentdict end def
%%EndProlog

%%BeginSetup
MathWorks begin

0 cap

end
%%EndSetup

%%Page: 1 1
%%BeginPageSetup
%%PageBoundingBox:    48   193   547   591
MathWorks begin
bpage
%%EndPageSetup

%%BeginObject: graph1 1
bplot

/dpi2point 12 def
portraitMode 0216 7344 csm

  370   250  5979  4774 MR c np
88 dict begin %Colortable dictionary
/c0 { 0 0 0 sr} bdef
/c1 { 1 1 1 sr} bdef
/c2 { 1 0 0 sr} bdef
/c3 { 0 1 0 sr} bdef
/c4 { 0 0 1 sr} bdef
/c5 { 1 1 0 sr} bdef
/c6 { 1 0 1 sr} bdef
/c7 { 0 1 1 sr} bdef
1 j
1 sg
   0    0 6918 5185 PR
6 w
0 1782 5359 0 0 -1782 899 2170 4 MP
PP
-5359 0 0 1782 5359 0 0 -1782 899 2170 5 MP stroke
4 w
DO
SO
6 w
0 sg
 899 2170 mt 6258 2170 L
 899  388 mt 6258  388 L
 899 2170 mt  899  388 L
6258 2170 mt 6258  388 L
 899 2170 mt 6258 2170 L
 899 2170 mt  899  388 L
 899 2170 mt  899 2116 L
 899  388 mt  899  442 L
%%IncludeResource: font Times-Roman
/Times-Roman /ISOLatin1Encoding 168 FMSR

 763 2355 mt 
(-5) s
1435 2170 mt 1435 2116 L
1435  388 mt 1435  442 L
1299 2355 mt 
(-4) s
1971 2170 mt 1971 2116 L
1971  388 mt 1971  442 L
1835 2355 mt 
(-3) s
2507 2170 mt 2507 2116 L
2507  388 mt 2507  442 L
2371 2355 mt 
(-2) s
3043 2170 mt 3043 2116 L
3043  388 mt 3043  442 L
2907 2355 mt 
(-1) s
3579 2170 mt 3579 2116 L
3579  388 mt 3579  442 L
3537 2355 mt 
(0) s
4114 2170 mt 4114 2116 L
4114  388 mt 4114  442 L
4072 2355 mt 
(1) s
4650 2170 mt 4650 2116 L
4650  388 mt 4650  442 L
4608 2355 mt 
(2) s
5186 2170 mt 5186 2116 L
5186  388 mt 5186  442 L
5144 2355 mt 
(3) s
5722 2170 mt 5722 2116 L
5722  388 mt 5722  442 L
5680 2355 mt 
(4) s
6258 2170 mt 6258 2116 L
6258  388 mt 6258  442 L
6216 2355 mt 
(5) s
 899 2170 mt  953 2170 L
6258 2170 mt 6204 2170 L
 780 2230 mt 
(0) s
 899 1725 mt  953 1725 L
6258 1725 mt 6204 1725 L
 654 1785 mt 
(0.2) s
 899 1279 mt  953 1279 L
6258 1279 mt 6204 1279 L
 654 1339 mt 
(0.4) s
 899  833 mt  953  833 L
6258  833 mt 6204  833 L
 654  893 mt 
(0.6) s
 899  388 mt  953  388 L
6258  388 mt 6204  388 L
 654  448 mt 
(0.8) s
 899 2170 mt 6258 2170 L
 899  388 mt 6258  388 L
 899 2170 mt  899  388 L
6258 2170 mt 6258  388 L
gs 899 388 5360 1783 MR c np
2 0 2 0 1 0 2 0 2 0 1 0 2 0 2 0 
1 0 2 0 2 0 1 0 2 0 2 0 1 0 2 0 
1 0 2 0 2 0 1 0 2 0 2 0 1 0 2 0 
2 0 1 0 2 0 2 0 1 0 2 0 2 0 1 0 
2 0 2 0 1 0 2 0 1 0 2 0 2 0 1 0 
2 0 2 0 1 0 2 0 2 0 1 0 2 0 2 0 
1 0 2 0 2 0 1 0 2 0 2 0 1 0 2 0 
1 0 2 0 2 0 1 0 2 0 2 0 1 0 2 0 
2 0 1 0 2 0 2 0 1 0 2 0 2 0 1 0 
2 0 2 0 1 0 2 0 2 0 1 0 2 0 1 0 
2 0 2 0 1 0 2 0 2 0 1 0 2 0 2 0 
1 0 2 0 2 0 1 0 2 0 2 0 1 0 2 0 
2 0 1 0 2 0 6055 588 100 MP stroke
1 -179 2 0 2 0 1 0 2 0 2 0 1 0 2 0 
2 0 1 0 2 0 2 0 1 0 2 0 2 0 1 0 
2 0 2 0 1 0 2 0 1 0 2 0 2 0 1 0 
2 0 2 0 1 0 2 0 2 0 1 0 2 0 2 0 
1 0 2 0 2 0 1 0 2 0 2 0 1 0 2 0 
1 0 2 0 2 0 1 0 2 0 2 0 1 0 2 0 
2 0 1 0 2 0 2 0 1 0 2 0 2 0 1 0 
2 0 2 0 1 0 2 0 2 0 1 0 2 0 1 0 
2 0 2 0 1 0 2 0 2 0 1 0 2 0 2 0 
1 0 2 0 2 0 1 0 2 0 2 0 1 0 2 0 
2 0 1 0 2 0 1 0 2 0 2 0 1 0 2 0 
2 0 1 0 2 0 2 0 1 0 2 0 2 0 1 0 
2 0 2 0 1 0 5892 767 100 MP stroke
2 0 2 -178 1 0 2 0 1 0 2 0 2 0 1 0 
2 0 2 0 1 0 2 0 2 0 1 0 2 0 2 0 
1 0 2 0 2 0 1 0 2 0 2 0 1 0 2 0 
1 0 2 0 2 0 1 0 2 0 2 0 1 0 2 0 
2 0 1 0 2 0 2 0 1 0 2 0 2 0 1 0 
2 0 2 0 1 0 2 0 1 0 2 0 2 0 1 0 
2 0 2 0 1 0 2 0 2 0 1 0 2 0 2 0 
1 0 2 0 2 0 1 0 2 0 2 0 1 0 2 0 
2 0 1 0 2 0 1 0 2 0 2 0 1 0 2 0 
2 0 1 0 2 0 2 0 1 0 2 0 2 0 1 0 
2 0 2 0 1 0 2 0 2 0 1 0 2 0 1 0 
2 0 2 0 1 0 2 0 2 0 1 0 2 0 2 0 
1 0 2 0 2 0 5728 945 100 MP stroke
1 0 2 0 2 -178 1 0 2 0 2 0 1 0 2 0 
1 0 2 0 2 0 1 0 2 0 2 0 1 0 2 0 
2 0 1 0 2 0 2 0 1 0 2 0 2 0 1 0 
2 0 2 0 1 0 2 0 1 0 2 0 2 0 1 0 
2 0 2 0 1 0 2 0 2 0 1 0 2 0 2 0 
1 0 2 0 2 0 1 0 2 0 2 0 1 0 2 0 
2 0 1 0 2 0 1 0 2 0 2 0 1 0 2 0 
2 0 1 0 2 0 2 0 1 0 2 0 2 0 1 0 
2 0 2 0 1 0 2 0 2 0 1 0 2 0 1 0 
2 0 2 0 1 0 2 0 2 0 1 0 2 0 2 0 
1 0 2 0 2 0 1 0 2 0 2 0 1 0 2 0 
2 0 1 0 2 0 1 0 2 0 2 0 1 0 2 0 
2 0 1 0 2 0 5565 1123 100 MP stroke
2 0 1 0 2 0 2 -156 1 0 2 0 2 0 1 0 
2 0 2 0 1 0 2 0 1 0 2 0 2 0 1 0 
2 0 2 0 1 0 2 0 2 0 1 0 2 0 2 0 
1 0 2 0 2 0 1 0 2 0 2 0 1 0 2 0 
2 0 1 0 2 0 1 0 2 0 2 0 1 0 2 0 
2 0 1 0 2 0 2 0 1 0 2 0 2 0 1 0 
2 0 2 0 1 0 2 0 2 0 1 0 2 0 1 0 
2 0 2 0 1 0 2 0 2 0 1 0 2 0 2 0 
1 0 2 0 2 0 1 0 2 0 2 0 1 0 2 0 
2 0 1 0 2 0 1 0 2 0 2 0 1 0 2 0 
2 0 1 0 2 0 2 0 1 0 2 0 2 0 1 0 
2 0 2 0 1 0 2 0 2 0 1 0 2 0 1 0 
2 0 2 0 1 0 5402 1279 100 MP stroke
2 0 2 0 1 0 2 0 2 -156 1 0 2 0 2 0 
1 0 2 0 2 0 1 0 2 0 2 0 1 0 2 0 
2 0 1 0 2 0 1 0 2 0 2 0 1 0 2 0 
2 0 1 0 2 0 2 0 1 0 2 0 2 0 1 0 
2 0 2 0 1 0 2 0 2 0 1 0 2 0 1 0 
2 0 2 0 1 0 2 0 2 0 1 0 2 0 2 0 
1 0 2 0 2 0 1 0 2 0 2 0 1 0 2 0 
2 0 1 0 2 0 1 0 2 0 2 0 1 0 2 0 
2 0 1 0 2 0 2 0 1 0 2 0 2 0 1 0 
2 0 2 0 1 0 2 0 2 0 1 0 2 0 1 0 
2 0 2 0 1 0 2 0 2 0 1 0 2 0 2 0 
1 0 2 0 2 0 1 0 2 0 2 0 1 0 2 0 
2 0 1 0 2 0 5238 1435 100 MP stroke
2 0 1 0 2 0 1 0 2 0 2 -111 1 0 2 0 
2 0 1 0 2 0 2 0 1 0 2 0 2 0 1 0 
2 0 2 0 1 0 2 0 2 0 1 0 2 0 1 0 
2 0 2 0 1 0 2 0 2 0 1 0 2 0 2 0 
1 0 2 0 2 0 1 0 2 0 2 0 1 0 2 0 
2 0 1 0 2 0 1 0 2 0 2 0 1 0 2 0 
2 0 1 0 2 0 2 0 1 0 2 0 2 0 1 0 
2 0 2 0 1 0 2 0 2 0 1 0 2 0 1 0 
2 0 2 0 1 0 2 0 2 0 1 0 2 0 2 0 
1 0 2 0 2 0 1 0 2 0 2 0 1 0 2 0 
2 0 1 0 2 0 1 0 2 0 2 0 1 0 2 0 
2 0 1 0 2 0 2 0 1 0 2 0 2 0 1 0 
2 0 2 0 1 0 5075 1546 100 MP stroke
2 0 2 0 1 0 2 0 2 0 1 0 2 -134 1 0 
2 0 2 0 1 0 2 0 2 0 1 0 2 0 2 0 
1 0 2 0 2 0 1 0 2 0 2 0 1 0 2 0 
2 0 1 0 2 0 1 0 2 0 2 0 1 0 2 0 
2 0 1 0 2 0 2 0 1 0 2 0 2 0 1 0 
2 0 2 0 1 0 2 0 2 0 1 0 2 0 1 0 
2 0 2 0 1 0 2 0 2 0 1 0 2 0 2 0 
1 0 2 0 2 0 1 0 2 0 2 0 1 0 2 0 
2 0 1 0 2 0 1 0 2 0 2 0 1 0 2 0 
2 0 1 0 2 0 2 0 1 0 2 0 2 0 1 0 
2 0 2 0 1 0 2 0 2 0 1 0 2 0 2 0 
1 0 2 0 1 0 2 0 2 0 1 0 2 0 2 0 
1 0 2 0 2 0 4911 1680 100 MP stroke
1 0 2 0 2 0 1 0 2 0 2 0 1 0 2 -111 
2 0 1 0 2 0 1 0 2 0 2 0 1 0 2 0 
2 0 1 0 2 0 2 0 1 0 2 0 2 0 1 0 
2 0 2 0 1 0 2 0 2 0 1 0 2 0 1 0 
2 0 2 0 1 0 2 0 2 0 1 0 2 0 2 0 
1 0 2 0 2 0 1 0 2 0 2 0 1 0 2 0 
2 0 1 0 2 0 1 0 2 0 2 0 1 0 2 0 
2 0 1 0 2 0 2 0 1 0 2 0 2 0 1 0 
2 0 2 0 1 0 2 0 2 0 1 0 2 0 2 0 
1 0 2 0 1 0 2 0 2 0 1 0 2 0 2 0 
1 0 2 0 2 0 1 0 2 0 2 0 1 0 2 0 
2 0 1 0 2 0 2 0 1 0 2 0 1 0 2 0 
2 0 1 0 2 0 4748 1791 100 MP stroke
2 0 1 0 2 0 2 0 1 0 2 0 2 0 1 0 
2 -89 2 0 1 0 2 0 2 0 1 0 2 0 1 0 
2 0 2 0 1 0 2 0 2 0 1 0 2 0 2 0 
1 0 2 0 2 0 1 0 2 0 2 0 1 0 2 0 
2 0 1 0 2 0 1 0 2 0 2 0 1 0 2 0 
2 0 1 0 2 0 2 0 1 0 2 0 2 0 1 0 
2 0 2 0 1 0 2 0 2 0 1 0 2 0 2 0 
1 0 2 0 1 0 2 0 2 0 1 0 2 0 2 0 
1 0 2 0 2 0 1 0 2 0 2 0 1 0 2 0 
2 0 1 0 2 0 2 0 1 0 2 0 1 0 2 0 
2 0 1 0 2 0 2 0 1 0 2 0 2 0 1 0 
2 0 2 0 1 0 2 0 2 0 1 0 2 0 2 0 
1 0 2 0 1 0 4585 1880 100 MP stroke
2 0 2 0 1 0 2 0 2 0 1 0 2 0 2 0 
1 0 2 -90 2 0 1 0 2 0 2 0 1 0 2 0 
2 0 1 0 2 0 1 0 2 0 2 0 1 0 2 0 
2 0 1 0 2 0 2 0 1 0 2 0 2 0 1 0 
2 0 2 0 1 0 2 0 2 0 1 0 2 0 1 0 
2 0 2 0 1 0 2 0 2 0 1 0 2 0 2 0 
1 0 2 0 2 0 1 0 2 0 2 0 1 0 2 0 
2 0 1 0 2 0 2 0 1 0 2 0 1 0 2 0 
2 0 1 0 2 0 2 0 1 0 2 0 2 0 1 0 
2 0 2 0 1 0 2 0 2 0 1 0 2 0 2 0 
1 0 2 0 1 0 2 0 2 0 1 0 2 0 2 0 
1 0 2 0 2 0 1 0 2 0 2 0 1 0 2 0 
2 0 1 0 2 0 4421 1970 100 MP stroke
2 0 1 0 2 0 1 0 2 0 2 0 1 0 2 0 
2 0 1 0 2 -66 2 0 1 0 2 0 2 0 1 0 
2 0 2 0 1 0 2 0 2 0 1 0 2 0 1 0 
2 0 2 0 1 0 2 0 2 0 1 0 2 0 2 0 
1 0 2 0 2 0 1 0 2 0 2 0 1 0 2 0 
2 0 1 0 2 0 2 0 1 0 2 0 1 0 2 0 
2 0 1 0 2 0 2 0 1 0 2 0 2 0 1 0 
2 0 2 0 1 0 2 0 2 0 1 0 2 0 2 0 
1 0 2 0 1 0 2 0 2 0 1 0 2 0 2 0 
1 0 2 0 2 0 1 0 2 0 2 0 1 0 2 0 
2 0 1 0 2 0 2 0 1 0 2 0 1 0 2 0 
2 0 1 0 2 0 2 0 1 0 2 0 2 0 1 0 
2 0 2 0 1 0 4258 2036 100 MP stroke
2 0 2 0 1 0 2 0 2 0 1 0 2 0 1 0 
2 0 2 0 1 0 2 -45 2 0 1 0 2 0 2 0 
1 0 2 0 2 0 1 0 2 0 2 0 1 0 2 0 
2 0 1 0 2 0 2 0 1 0 2 0 1 0 2 0 
2 0 1 0 2 0 2 0 1 0 2 0 2 0 1 0 
2 0 2 0 1 0 2 0 2 0 1 0 2 0 2 0 
1 0 2 0 1 0 2 0 2 0 1 0 2 0 2 0 
1 0 2 0 2 0 1 0 2 0 2 0 1 0 2 0 
2 0 1 0 2 0 2 0 1 0 2 0 1 0 2 0 
2 0 1 0 2 0 2 0 1 0 2 0 2 0 1 0 
2 0 2 0 1 0 2 0 2 0 1 0 2 0 2 0 
1 0 2 0 1 0 2 0 2 0 1 0 2 0 2 0 
1 0 2 0 2 0 4094 2081 100 MP stroke
1 0 2 0 2 0 1 0 2 0 2 0 1 0 2 0 
2 0 1 0 2 0 2 0 1 -44 2 0 1 0 2 0 
2 0 1 0 2 0 2 0 1 0 2 0 2 0 1 0 
2 0 2 0 1 0 2 0 2 0 1 0 2 0 2 0 
1 0 2 0 1 0 2 0 2 0 1 0 2 0 2 0 
1 0 2 0 2 0 1 0 2 0 2 0 1 0 2 0 
2 0 1 0 2 0 2 0 1 0 2 0 1 0 2 0 
2 0 1 0 2 0 2 0 1 0 2 0 2 0 1 0 
2 0 2 0 1 0 2 0 2 0 1 0 2 0 2 0 
1 0 2 0 1 0 2 0 2 0 1 0 2 0 2 0 
1 0 2 0 2 0 1 0 2 0 2 0 1 0 2 0 
2 0 1 0 2 0 2 0 1 0 2 0 2 0 1 0 
2 0 1 0 2 0 3931 2125 100 MP stroke
2 0 1 0 2 0 2 0 1 0 2 0 2 0 1 0 
2 0 2 0 1 0 2 0 2 0 1 -23 2 0 2 0 
1 0 2 0 1 0 2 0 2 0 1 0 2 0 2 0 
1 0 2 0 2 0 1 0 2 0 2 0 1 0 2 0 
2 0 1 0 2 0 2 0 1 0 2 0 1 0 2 0 
2 0 1 0 2 0 2 0 1 0 2 0 2 0 1 0 
2 0 2 0 1 0 2 0 2 0 1 0 2 0 2 0 
1 0 2 0 1 0 2 0 2 0 1 0 2 0 2 0 
1 0 2 0 2 0 1 0 2 0 2 0 1 0 2 0 
2 0 1 0 2 0 2 0 1 0 2 0 1 0 2 0 
2 0 1 0 2 0 2 0 1 0 2 0 2 0 1 0 
2 0 2 0 1 0 2 0 2 0 1 0 2 0 2 0 
1 0 2 0 2 0 3767 2148 100 MP stroke
1 0 2 0 1 0 2 0 2 0 1 0 2 0 2 0 
1 0 2 0 2 0 1 0 2 0 2 0 1 -22 2 0 
2 0 1 0 2 0 2 0 1 0 2 0 1 0 2 0 
2 0 1 0 2 0 2 0 1 0 2 0 2 0 1 0 
2 0 2 0 1 0 2 0 2 0 1 0 2 0 2 0 
1 0 2 0 1 0 2 0 2 0 1 0 2 0 2 0 
1 0 2 0 2 0 1 0 2 0 2 0 1 0 2 0 
2 0 1 0 2 0 2 0 1 0 2 0 1 0 2 0 
2 0 1 0 2 0 2 0 1 0 2 0 2 0 1 0 
2 0 2 0 1 0 2 0 2 0 1 0 2 0 2 0 
1 0 2 0 2 0 1 0 2 0 1 0 2 0 2 0 
1 0 2 0 2 0 1 0 2 0 2 0 1 0 2 0 
2 0 1 0 2 0 3604 2170 100 MP stroke
2 0 1 0 2 0 2 0 1 0 2 0 1 0 2 0 
2 0 1 0 2 0 2 0 1 0 2 0 2 0 1 0 
2 0 2 0 1 0 2 0 2 0 1 0 2 0 2 0 
1 0 2 0 1 0 2 0 2 0 1 0 2 0 2 0 
1 0 2 0 2 0 1 0 2 0 2 0 1 0 2 0 
2 0 1 0 2 0 2 0 1 0 2 0 1 0 2 0 
2 0 1 0 2 0 2 0 1 0 2 0 2 0 1 0 
2 0 2 0 1 0 2 0 2 0 1 0 2 0 2 0 
1 0 2 0 2 0 1 0 2 0 1 0 2 0 2 0 
1 0 2 0 2 0 1 0 2 0 2 0 1 0 2 0 
2 0 1 0 2 0 2 0 1 0 2 0 2 0 1 0 
2 0 1 0 2 0 2 0 1 0 2 0 2 0 1 0 
2 0 2 0 1 0 3441 2170 100 MP stroke
2 0 2 0 1 0 2 0 2 0 1 0 2 0 2 0 
1 0 2 0 1 0 2 0 2 0 1 0 2 0 2 0 
1 22 2 0 2 0 1 0 2 0 2 0 1 0 2 0 
2 0 1 0 2 0 2 0 1 0 2 0 1 0 2 0 
2 0 1 0 2 0 2 0 1 0 2 0 2 0 1 0 
2 0 2 0 1 0 2 0 2 0 1 0 2 0 2 0 
1 0 2 0 2 0 1 0 2 0 1 0 2 0 2 0 
1 0 2 0 2 0 1 0 2 0 2 0 1 0 2 0 
2 0 1 0 2 0 2 0 1 0 2 0 2 0 1 0 
2 0 1 0 2 0 2 0 1 0 2 0 2 0 1 0 
2 0 2 0 1 0 2 0 2 0 1 0 2 0 2 0 
1 0 2 0 2 0 1 0 2 0 1 0 2 0 2 0 
1 0 2 0 2 0 3277 2148 100 MP stroke
1 0 2 0 2 0 1 0 2 0 2 0 1 0 2 0 
2 0 1 0 2 0 2 0 1 0 2 0 1 0 2 0 
2 0 1 23 2 0 2 0 1 0 2 0 2 0 1 0 
2 0 2 0 1 0 2 0 2 0 1 0 2 0 2 0 
1 0 2 0 1 0 2 0 2 0 1 0 2 0 2 0 
1 0 2 0 2 0 1 0 2 0 2 0 1 0 2 0 
2 0 1 0 2 0 2 0 1 0 2 0 2 0 1 0 
2 0 1 0 2 0 2 0 1 0 2 0 2 0 1 0 
2 0 2 0 1 0 2 0 2 0 1 0 2 0 2 0 
1 0 2 0 2 0 1 0 2 0 1 0 2 0 2 0 
1 0 2 0 2 0 1 0 2 0 2 0 1 0 2 0 
2 0 1 0 2 0 2 0 1 0 2 0 2 0 1 0 
2 0 1 0 2 0 3114 2125 100 MP stroke
2 0 1 0 2 0 2 0 1 0 2 0 2 0 1 0 
2 0 2 0 1 0 2 0 2 0 1 0 2 0 2 0 
1 0 2 0 1 44 2 0 2 0 1 0 2 0 2 0 
1 0 2 0 2 0 1 0 2 0 2 0 1 0 2 0 
2 0 1 0 2 0 2 0 1 0 2 0 2 0 1 0 
2 0 1 0 2 0 2 0 1 0 2 0 2 0 1 0 
2 0 2 0 1 0 2 0 2 0 1 0 2 0 2 0 
1 0 2 0 2 0 1 0 2 0 1 0 2 0 2 0 
1 0 2 0 2 0 1 0 2 0 2 0 1 0 2 0 
2 0 1 0 2 0 2 0 1 0 2 0 2 0 1 0 
2 0 1 0 2 0 2 0 1 0 2 0 2 0 1 0 
2 0 2 0 1 0 2 0 2 0 1 0 2 0 2 0 
1 0 2 0 2 0 2950 2081 100 MP stroke
1 0 2 0 1 0 2 0 2 0 1 0 2 0 2 0 
1 0 2 0 2 0 1 0 2 0 2 0 1 0 2 0 
2 0 1 0 2 0 2 45 1 0 2 0 2 0 1 0 
2 0 1 0 2 0 2 0 1 0 2 0 2 0 1 0 
2 0 2 0 1 0 2 0 2 0 1 0 2 0 2 0 
1 0 2 0 2 0 1 0 2 0 1 0 2 0 2 0 
1 0 2 0 2 0 1 0 2 0 2 0 1 0 2 0 
2 0 1 0 2 0 2 0 1 0 2 0 2 0 1 0 
2 0 1 0 2 0 2 0 1 0 2 0 2 0 1 0 
2 0 2 0 1 0 2 0 2 0 1 0 2 0 2 0 
1 0 2 0 2 0 1 0 2 0 1 0 2 0 2 0 
1 0 2 0 2 0 1 0 2 0 2 0 1 0 2 0 
2 0 1 0 2 0 2787 2036 100 MP stroke
2 0 1 0 2 0 2 0 1 0 2 0 2 0 1 0 
2 0 1 0 2 0 2 0 1 0 2 0 2 0 1 0 
2 0 2 0 1 0 2 0 2 66 1 0 2 0 2 0 
1 0 2 0 2 0 1 0 2 0 1 0 2 0 2 0 
1 0 2 0 2 0 1 0 2 0 2 0 1 0 2 0 
2 0 1 0 2 0 2 0 1 0 2 0 2 0 1 0 
2 0 1 0 2 0 2 0 1 0 2 0 2 0 1 0 
2 0 2 0 1 0 2 0 2 0 1 0 2 0 2 0 
1 0 2 0 2 0 1 0 2 0 1 0 2 0 2 0 
1 0 2 0 2 0 1 0 2 0 2 0 1 0 2 0 
2 0 1 0 2 0 2 0 1 0 2 0 2 0 1 0 
2 0 2 0 1 0 2 0 1 0 2 0 2 0 1 0 
2 0 2 0 1 0 2624 1970 100 MP stroke
2 0 2 0 1 0 2 0 2 0 1 0 2 0 2 0 
1 0 2 0 2 0 1 0 2 0 1 0 2 0 2 0 
1 0 2 0 2 0 1 0 2 0 2 90 1 0 2 0 
2 0 1 0 2 0 2 0 1 0 2 0 2 0 1 0 
2 0 1 0 2 0 2 0 1 0 2 0 2 0 1 0 
2 0 2 0 1 0 2 0 2 0 1 0 2 0 2 0 
1 0 2 0 2 0 1 0 2 0 1 0 2 0 2 0 
1 0 2 0 2 0 1 0 2 0 2 0 1 0 2 0 
2 0 1 0 2 0 2 0 1 0 2 0 2 0 1 0 
2 0 1 0 2 0 2 0 1 0 2 0 2 0 1 0 
2 0 2 0 1 0 2 0 2 0 1 0 2 0 2 0 
1 0 2 0 2 0 1 0 2 0 2 0 1 0 2 0 
1 0 2 0 2 0 2460 1880 100 MP stroke
1 0 2 0 2 0 1 0 2 0 2 0 1 0 2 0 
2 0 1 0 2 0 2 0 1 0 2 0 2 0 1 0 
2 0 1 0 2 0 2 0 1 0 2 0 2 89 1 0 
2 0 2 0 1 0 2 0 2 0 1 0 2 0 2 0 
1 0 2 0 2 0 1 0 2 0 1 0 2 0 2 0 
1 0 2 0 2 0 1 0 2 0 2 0 1 0 2 0 
2 0 1 0 2 0 2 0 1 0 2 0 2 0 1 0 
2 0 1 0 2 0 2 0 1 0 2 0 2 0 1 0 
2 0 2 0 1 0 2 0 2 0 1 0 2 0 2 0 
1 0 2 0 2 0 1 0 2 0 2 0 1 0 2 0 
1 0 2 0 2 0 1 0 2 0 2 0 1 0 2 0 
2 0 1 0 2 0 2 0 1 0 2 0 2 0 1 0 
2 0 2 0 1 0 2297 1791 100 MP stroke
2 0 1 0 2 0 2 0 1 0 2 0 2 0 1 0 
2 0 2 0 1 0 2 0 2 0 1 0 2 0 2 0 
1 0 2 0 2 0 1 0 2 0 1 0 2 0 2 111 
1 0 2 0 2 0 1 0 2 0 2 0 1 0 2 0 
2 0 1 0 2 0 2 0 1 0 2 0 2 0 1 0 
2 0 1 0 2 0 2 0 1 0 2 0 2 0 1 0 
2 0 2 0 1 0 2 0 2 0 1 0 2 0 2 0 
1 0 2 0 2 0 1 0 2 0 2 0 1 0 2 0 
1 0 2 0 2 0 1 0 2 0 2 0 1 0 2 0 
2 0 1 0 2 0 2 0 1 0 2 0 2 0 1 0 
2 0 2 0 1 0 2 0 1 0 2 0 2 0 1 0 
2 0 2 0 1 0 2 0 2 0 1 0 2 0 2 0 
1 0 2 0 2 0 2133 1680 100 MP stroke
1 0 2 0 2 0 1 0 2 0 1 0 2 0 2 0 
1 0 2 0 2 0 1 0 2 0 2 0 1 0 2 0 
2 0 1 0 2 0 2 0 1 0 2 0 2 0 1 0 
2 134 1 0 2 0 2 0 1 0 2 0 2 0 1 0 
2 0 2 0 1 0 2 0 2 0 1 0 2 0 2 0 
1 0 2 0 2 0 1 0 2 0 2 0 1 0 2 0 
1 0 2 0 2 0 1 0 2 0 2 0 1 0 2 0 
2 0 1 0 2 0 2 0 1 0 2 0 2 0 1 0 
2 0 2 0 1 0 2 0 1 0 2 0 2 0 1 0 
2 0 2 0 1 0 2 0 2 0 1 0 2 0 2 0 
1 0 2 0 2 0 1 0 2 0 2 0 1 0 2 0 
1 0 2 0 2 0 1 0 2 0 2 0 1 0 2 0 
2 0 1 0 2 0 1970 1546 100 MP stroke
2 0 1 0 2 0 2 0 1 0 2 0 2 0 1 0 
2 0 1 0 2 0 2 0 1 0 2 0 2 0 1 0 
2 0 2 0 1 0 2 0 2 0 1 0 2 0 2 0 
1 0 2 111 2 0 1 0 2 0 1 0 2 0 2 0 
1 0 2 0 2 0 1 0 2 0 2 0 1 0 2 0 
2 0 1 0 2 0 2 0 1 0 2 0 2 0 1 0 
2 0 2 0 1 0 2 0 1 0 2 0 2 0 1 0 
2 0 2 0 1 0 2 0 2 0 1 0 2 0 2 0 
1 0 2 0 2 0 1 0 2 0 2 0 1 0 2 0 
1 0 2 0 2 0 1 0 2 0 2 0 1 0 2 0 
2 0 1 0 2 0 2 0 1 0 2 0 2 0 1 0 
2 0 2 0 1 0 2 0 1 0 2 0 2 0 1 0 
2 0 2 0 1 0 1807 1435 100 MP stroke
2 0 2 0 1 0 2 0 2 0 1 0 2 0 2 0 
1 0 2 0 2 0 1 0 2 0 1 0 2 0 2 0 
1 0 2 0 2 0 1 0 2 0 2 0 1 0 2 0 
2 0 1 0 2 156 2 0 1 0 2 0 2 0 1 0 
2 0 2 0 1 0 2 0 1 0 2 0 2 0 1 0 
2 0 2 0 1 0 2 0 2 0 1 0 2 0 2 0 
1 0 2 0 2 0 1 0 2 0 2 0 1 0 2 0 
1 0 2 0 2 0 1 0 2 0 2 0 1 0 2 0 
2 0 1 0 2 0 2 0 1 0 2 0 2 0 1 0 
2 0 2 0 1 0 2 0 1 0 2 0 2 0 1 0 
2 0 2 0 1 0 2 0 2 0 1 0 2 0 2 0 
1 0 2 0 2 0 1 0 2 0 2 0 1 0 2 0 
1 0 2 0 2 0 1643 1279 100 MP stroke
1 0 2 0 2 0 1 0 2 0 2 0 1 0 2 0 
2 0 1 0 2 0 2 0 1 0 2 0 2 0 1 0 
2 0 2 0 1 0 2 0 1 0 2 0 2 0 1 0 
2 0 2 0 1 0 2 156 2 0 1 0 2 0 2 0 
1 0 2 0 2 0 1 0 2 0 2 0 1 0 2 0 
1 0 2 0 2 0 1 0 2 0 2 0 1 0 2 0 
2 0 1 0 2 0 2 0 1 0 2 0 2 0 1 0 
2 0 2 0 1 0 2 0 1 0 2 0 2 0 1 0 
2 0 2 0 1 0 2 0 2 0 1 0 2 0 2 0 
1 0 2 0 2 0 1 0 2 0 2 0 1 0 2 0 
1 0 2 0 2 0 1 0 2 0 2 0 1 0 2 0 
2 0 1 0 2 0 2 0 1 0 2 0 2 0 1 0 
2 0 2 0 1 0 1480 1123 100 MP stroke
2 0 2 0 1 0 2 0 1 0 2 0 2 0 1 0 
2 0 2 0 1 0 2 0 2 0 1 0 2 0 2 0 
1 0 2 0 2 0 1 0 2 0 2 0 1 0 2 0 
1 0 2 0 2 0 1 0 2 178 2 0 1 0 2 0 
2 0 1 0 2 0 2 0 1 0 2 0 2 0 1 0 
2 0 2 0 1 0 2 0 1 0 2 0 2 0 1 0 
2 0 2 0 1 0 2 0 2 0 1 0 2 0 2 0 
1 0 2 0 2 0 1 0 2 0 2 0 1 0 2 0 
1 0 2 0 2 0 1 0 2 0 2 0 1 0 2 0 
2 0 1 0 2 0 2 0 1 0 2 0 2 0 1 0 
2 0 2 0 1 0 2 0 2 0 1 0 2 0 1 0 
2 0 2 0 1 0 2 0 2 0 1 0 2 0 2 0 
1 0 2 0 2 0 1316 945 100 MP stroke
1 0 2 0 2 0 1 0 2 0 2 0 1 0 2 0 
1 0 2 0 2 0 1 0 2 0 2 0 1 0 2 0 
2 0 1 0 2 0 2 0 1 0 2 0 2 0 1 0 
2 0 2 0 1 0 2 0 1 0 2 178 2 0 1 0 
2 0 2 0 1 0 2 0 2 0 1 0 2 0 2 0 
1 0 2 0 2 0 1 0 2 0 2 0 1 0 2 0 
1 0 2 0 2 0 1 0 2 0 2 0 1 0 2 0 
2 0 1 0 2 0 2 0 1 0 2 0 2 0 1 0 
2 0 2 0 1 0 2 0 1 0 2 0 2 0 1 0 
2 0 2 0 1 0 2 0 2 0 1 0 2 0 2 0 
1 0 2 0 2 0 1 0 2 0 2 0 1 0 2 0 
2 0 1 0 2 0 1 0 2 0 2 0 1 0 2 0 
2 0 1 0 2 0 1153 767 100 MP stroke
2 0 1 0 2 0 2 0 1 0 2 0 2 0 1 0 
2 0 2 0 1 0 2 0 1 0 2 0 2 0 1 0 
2 0 2 0 1 0 2 0 2 0 1 0 2 0 2 0 
1 0 2 0 2 0 1 0 2 0 2 0 1 179 2 0 
1 0 2 0 2 0 1 0 2 0 2 0 1 0 2 0 
2 0 1 0 2 0 2 0 1 0 2 0 2 0 1 0 
2 0 2 0 1 0 2 0 1 0 2 0 2 0 1 0 
2 0 2 0 1 0 2 0 2 0 1 0 2 0 2 0 
1 0 2 0 2 0 1 0 2 0 2 0 1 0 2 0 
2 0 1 0 2 0 1 0 2 0 2 0 1 0 2 0 
2 0 1 0 2 0 2 0 1 0 2 0 2 0 1 0 
2 0 2 0 1 0 2 0 2 0 1 0 2 0 1 0 
2 0 2 0 1 0 990 588 100 MP stroke
2 0 2 0 1 0 2 0 2 0 1 0 2 0 2 0 
1 0 2 0 2 0 1 0 2 0 2 0 1 0 2 0 
1 0 2 0 2 0 1 0 2 0 2 0 1 0 2 0 
2 0 1 0 2 0 2 0 1 0 2 0 2 0 938 588 32 MP stroke
DO
2 -2 2 -2 1 -2 2 -2 2 -2 1 -2 2 -2 2 -2 
1 -2 2 -2 2 -2 1 -2 2 -2 2 -2 1 -2 2 -2 
1 -2 2 -2 2 -2 1 -2 2 -2 2 -2 1 -2 2 -2 
2 -2 1 -2 2 -2 2 -2 1 -2 2 -2 2 -2 1 -2 
2 -1 2 -2 1 -2 2 -2 1 -2 2 -2 2 -2 1 -2 
2 -2 2 -2 1 -2 2 -2 2 -2 1 -2 2 -2 2 -2 
1 -2 2 -2 2 -2 1 -2 2 -1 2 -2 1 -2 2 -2 
1 -2 2 -2 2 -2 1 -2 2 -2 2 -2 1 -2 2 -2 
2 -2 1 -2 2 -2 2 -1 1 -2 2 -2 2 -2 1 -2 
2 -2 2 -2 1 -2 2 -2 2 -2 1 -2 2 -2 1 -1 
2 -2 2 -2 1 -2 2 -2 2 -2 1 -2 2 -2 2 -2 
1 -2 2 -1 2 -2 1 -2 2 -2 2 -2 1 -2 2 -2 
2 -2 1 -2 2 -2 6055 681 100 MP stroke
1 -1 2 -2 2 -2 1 -2 2 -2 2 -2 1 -2 2 -2 
2 -2 1 -1 2 -2 2 -2 1 -2 2 -2 2 -2 1 -2 
2 -2 2 -1 1 -2 2 -2 1 -2 2 -2 2 -2 1 -2 
2 -2 2 -1 1 -2 2 -2 2 -2 1 -2 2 -2 2 -2 
1 -1 2 -2 2 -2 1 -2 2 -2 2 -2 1 -2 2 -1 
1 -2 2 -2 2 -2 1 -2 2 -2 2 -1 1 -2 2 -2 
2 -2 1 -2 2 -2 2 -1 1 -2 2 -2 2 -2 1 -2 
2 -2 2 -2 1 -1 2 -2 2 -2 1 -2 2 -2 1 -1 
2 -2 2 -2 1 -2 2 -2 2 -2 1 -1 2 -2 2 -2 
1 -2 2 -2 2 -1 1 -2 2 -2 2 -2 1 -2 2 -2 
2 -1 1 -2 2 -2 1 -2 2 -2 2 -1 1 -2 2 -2 
2 -2 1 -2 2 -1 2 -2 1 -2 2 -2 2 -2 1 -1 
2 -2 2 -2 1 -2 5892 863 100 MP stroke
2 -1 2 -2 1 -2 2 -2 1 -2 2 -1 2 -2 1 -2 
2 -2 2 -1 1 -2 2 -2 2 -2 1 -2 2 -1 2 -2 
1 -2 2 -2 2 -1 1 -2 2 -2 2 -2 1 -1 2 -2 
1 -2 2 -2 2 -2 1 -1 2 -2 2 -2 1 -2 2 -1 
2 -2 1 -2 2 -2 2 -1 1 -2 2 -2 2 -2 1 -1 
2 -2 2 -2 1 -2 2 -1 1 -2 2 -2 2 -1 1 -2 
2 -2 2 -2 1 -1 2 -2 2 -2 1 -2 2 -1 2 -2 
1 -2 2 -2 2 -1 1 -2 2 -2 2 -1 1 -2 2 -2 
2 -2 1 -1 2 -2 1 -2 2 -1 2 -2 1 -2 2 -2 
2 -1 1 -2 2 -2 2 -1 1 -2 2 -2 2 -1 1 -2 
2 -2 2 -2 1 -1 2 -2 2 -2 1 -1 2 -2 1 -2 
2 -1 2 -2 1 -2 2 -2 2 -1 1 -2 2 -2 2 -1 
1 -2 2 -2 2 -1 5728 1034 100 MP stroke
1 -2 2 -2 2 -1 1 -2 2 -2 2 -1 1 -2 2 -2 
1 -1 2 -2 2 -2 1 -1 2 -2 2 -2 1 -1 2 -2 
2 -2 1 -1 2 -2 2 -2 1 -1 2 -2 2 -2 1 -1 
2 -2 2 -2 1 -1 2 -2 1 -2 2 -1 2 -2 1 -1 
2 -2 2 -2 1 -1 2 -2 2 -2 1 -1 2 -2 2 -2 
1 -1 2 -2 2 -2 1 -1 2 -2 2 -1 1 -2 2 -2 
2 -1 1 -2 2 -2 1 -1 2 -2 2 -1 1 -2 2 -2 
2 -1 1 -2 2 -1 2 -2 1 -2 2 -1 2 -2 1 -2 
2 -1 2 -2 1 -1 2 -2 2 -2 1 -1 2 -2 1 -1 
2 -2 2 -2 1 -1 2 -2 2 -1 1 -2 2 -2 2 -1 
1 -2 2 -1 2 -2 1 -1 2 -2 2 -2 1 -1 2 -2 
2 -1 1 -2 2 -2 1 -1 2 -2 2 -1 1 -2 2 -1 
2 -2 1 -2 2 -1 5565 1195 100 MP stroke
2 -2 1 -1 2 -2 2 -1 1 -2 2 -1 2 -2 1 -2 
2 -1 2 -2 1 -1 2 -2 1 -1 2 -2 2 -1 1 -2 
2 -2 2 -1 1 -2 2 -1 2 -2 1 -1 2 -2 2 -1 
1 -2 2 -1 2 -2 1 -2 2 -1 2 -2 1 -1 2 -2 
2 -1 1 -2 2 -1 1 -2 2 -1 2 -2 1 -1 2 -2 
2 -1 1 -2 2 -1 2 -2 1 -2 2 -1 2 -2 1 -1 
2 -2 2 -1 1 -2 2 -1 2 -2 1 -1 2 -2 1 -1 
2 -2 2 -1 1 -2 2 -1 2 -2 1 -1 2 -2 2 -1 
1 -2 2 -1 2 -2 1 -1 2 -2 2 -1 1 -2 2 -1 
2 -2 1 -1 2 -1 1 -2 2 -1 2 -2 1 -1 2 -2 
2 -1 1 -2 2 -1 2 -2 1 -1 2 -2 2 -1 1 -2 
2 -1 2 -2 1 -1 2 -2 2 -1 1 -1 2 -2 1 -1 
2 -2 2 -1 1 -2 5402 1345 100 MP stroke
2 -1 2 -2 1 -1 2 -2 2 -1 1 -1 2 -2 2 -1 
1 -2 2 -1 2 -2 1 -1 2 -2 2 -1 1 -1 2 -2 
2 -1 1 -2 2 -1 1 -2 2 -1 2 -1 1 -2 2 -1 
2 -2 1 -1 2 -2 2 -1 1 -1 2 -2 2 -1 1 -2 
2 -1 2 -1 1 -2 2 -1 2 -2 1 -1 2 -1 1 -2 
2 -1 2 -2 1 -1 2 -2 2 -1 1 -1 2 -2 2 -1 
1 -2 2 -1 2 -1 1 -2 2 -1 2 -1 1 -2 2 -1 
2 -2 1 -1 2 -1 1 -2 2 -1 2 -2 1 -1 2 -1 
2 -2 1 -1 2 -1 2 -2 1 -1 2 -2 2 -1 1 -1 
2 -2 2 -1 1 -1 2 -2 2 -1 1 -1 2 -2 1 -1 
2 -2 2 -1 1 -1 2 -2 2 -1 1 -1 2 -2 2 -1 
1 -1 2 -2 2 -1 1 -1 2 -2 2 -1 1 -1 2 -2 
2 -1 1 -1 2 -2 5238 1483 100 MP stroke
2 -1 1 -1 2 -2 1 -1 2 -1 2 -2 1 -1 2 -1 
2 -2 1 -1 2 -1 2 -2 1 -1 2 -1 2 -2 1 -1 
2 -1 2 -2 1 -1 2 -1 2 -2 1 -1 2 -1 1 -1 
2 -2 2 -1 1 -1 2 -2 2 -1 1 -1 2 -2 2 -1 
1 -1 2 -1 2 -2 1 -1 2 -1 2 -2 1 -1 2 -1 
2 -2 1 -1 2 -1 1 -1 2 -2 2 -1 1 -1 2 -1 
2 -2 1 -1 2 -1 2 -2 1 -1 2 -1 2 -1 1 -2 
2 -1 2 -1 1 -1 2 -2 2 -1 1 -1 2 -2 1 -1 
2 -1 2 -1 1 -2 2 -1 2 -1 1 -1 2 -2 2 -1 
1 -1 2 -1 2 -2 1 -1 2 -1 2 -1 1 -1 2 -2 
2 -1 1 -1 2 -1 1 -2 2 -1 2 -1 1 -1 2 -2 
2 -1 1 -1 2 -1 2 -1 1 -2 2 -1 2 -1 1 -1 
2 -2 2 -1 1 -1 5075 1609 100 MP stroke
2 -1 2 -1 1 -2 2 -1 2 -1 1 -1 2 -1 1 -2 
2 -1 2 -1 1 -1 2 -2 2 -1 1 -1 2 -1 2 -1 
1 -1 2 -2 2 -1 1 -1 2 -1 2 -1 1 -2 2 -1 
2 -1 1 -1 2 -1 1 -2 2 -1 2 -1 1 -1 2 -1 
2 -1 1 -2 2 -1 2 -1 1 -1 2 -1 2 -1 1 -2 
2 -1 2 -1 1 -1 2 -1 2 -1 1 -2 2 -1 1 -1 
2 -1 2 -1 1 -1 2 -1 2 -2 1 -1 2 -1 2 -1 
1 -1 2 -1 2 -1 1 -2 2 -1 2 -1 1 -1 2 -1 
2 -1 1 -1 2 -2 1 -1 2 -1 2 -1 1 -1 2 -1 
2 -1 1 -1 2 -2 2 -1 1 -1 2 -1 2 -1 1 -1 
2 -1 2 -1 1 -2 2 -1 2 -1 1 -1 2 -1 2 -1 
1 -1 2 -1 1 -1 2 -1 2 -2 1 -1 2 -1 2 -1 
1 -1 2 -1 2 -1 4911 1723 100 MP stroke
1 -1 2 -1 2 -1 1 -1 2 -2 2 -1 1 -1 2 -1 
2 -1 1 -1 2 -1 1 -1 2 -1 2 -1 1 -1 2 -1 
2 -1 1 -2 2 -1 2 -1 1 -1 2 -1 2 -1 1 -1 
2 -1 2 -1 1 -1 2 -1 2 -1 1 -1 2 -1 1 -1 
2 -1 2 -1 1 -1 2 -2 2 -1 1 -1 2 -1 2 -1 
1 -1 2 -1 2 -1 1 -1 2 -1 2 -1 1 -1 2 -1 
2 -1 1 -1 2 -1 1 -1 2 -1 2 -1 1 -1 2 -1 
2 -1 1 -1 2 -1 2 -1 1 -1 2 -1 2 -1 1 -1 
2 -1 2 -1 1 -1 2 -1 2 -1 1 -1 2 -1 2 -1 
1 -1 2 -1 1 -1 2 -1 2 -1 1 -1 2 -1 2 -1 
1 -1 2 -1 2 -1 1 -1 2 -1 2 -1 1 -1 2 -1 
2 -1 1 -1 2 -1 2 -1 1 -1 2 -1 1 -1 2 -1 
2 -1 1 -1 2 -1 4748 1825 100 MP stroke
2 -1 1 -1 2 -1 2 -1 1 -1 2 -1 2 0 1 -1 
2 -1 2 -1 1 -1 2 -1 2 -1 1 -1 2 -1 1 -1 
2 -1 2 -1 1 -1 2 -1 2 -1 1 -1 2 -1 2 -1 
1 0 2 -1 2 -1 1 -1 2 -1 2 -1 1 -1 2 -1 
2 -1 1 -1 2 -1 1 -1 2 -1 2 0 1 -1 2 -1 
2 -1 1 -1 2 -1 2 -1 1 -1 2 -1 2 -1 1 0 
2 -1 2 -1 1 -1 2 -1 2 -1 1 -1 2 -1 2 -1 
1 -1 2 0 1 -1 2 -1 2 -1 1 -1 2 -1 2 -1 
1 -1 2 0 2 -1 1 -1 2 -1 2 -1 1 -1 2 -1 
2 -1 1 0 2 -1 2 -1 1 -1 2 -1 1 -1 2 -1 
2 0 1 -1 2 -1 2 -1 1 -1 2 -1 2 -1 1 0 
2 -1 2 -1 1 -1 2 -1 2 -1 1 -1 2 0 2 -1 
1 -1 2 -1 1 -1 4585 1914 100 MP stroke
2 -1 2 0 1 -1 2 -1 2 -1 1 -1 2 -1 2 0 
1 -1 2 -1 2 -1 1 -1 2 0 2 -1 1 -1 2 -1 
2 -1 1 -1 2 0 1 -1 2 -1 2 -1 1 -1 2 0 
2 -1 1 -1 2 -1 2 -1 1 0 2 -1 2 -1 1 -1 
2 0 2 -1 1 -1 2 -1 2 -1 1 0 2 -1 1 -1 
2 -1 2 -1 1 0 2 -1 2 -1 1 -1 2 0 2 -1 
1 -1 2 -1 2 -1 1 0 2 -1 2 -1 1 -1 2 0 
2 -1 1 -1 2 -1 2 0 1 -1 2 -1 1 -1 2 0 
2 -1 1 -1 2 -1 2 0 1 -1 2 -1 2 -1 1 0 
2 -1 2 -1 1 -1 2 0 2 -1 1 -1 2 0 2 -1 
1 -1 2 -1 1 0 2 -1 2 -1 1 0 2 -1 2 -1 
1 -1 2 0 2 -1 1 -1 2 0 2 -1 1 -1 2 -1 
2 0 1 -1 2 -1 4421 1990 100 MP stroke
2 0 1 -1 2 -1 1 -1 2 0 2 -1 1 -1 2 0 
2 -1 1 -1 2 0 2 -1 1 -1 2 0 2 -1 1 -1 
2 0 2 -1 1 -1 2 0 2 -1 1 -1 2 -1 1 0 
2 -1 2 -1 1 0 2 -1 2 -1 1 0 2 -1 2 -1 
1 0 2 -1 2 0 1 -1 2 -1 2 0 1 -1 2 -1 
2 0 1 -1 2 -1 2 0 1 -1 2 -1 1 0 2 -1 
2 -1 1 0 2 -1 2 0 1 -1 2 -1 2 0 1 -1 
2 -1 2 0 1 -1 2 0 2 -1 1 -1 2 0 2 -1 
1 -1 2 0 1 -1 2 0 2 -1 1 -1 2 0 2 -1 
1 0 2 -1 2 -1 1 0 2 -1 2 0 1 -1 2 -1 
2 0 1 -1 2 0 2 -1 1 -1 2 0 1 -1 2 0 
2 -1 1 0 2 -1 2 -1 1 0 2 -1 2 0 1 -1 
2 0 2 -1 1 -1 4258 2053 100 MP stroke
2 0 2 -1 1 0 2 -1 2 0 1 -1 2 -1 1 0 
2 -1 2 0 1 -1 2 0 2 -1 1 0 2 -1 2 -1 
1 0 2 -1 2 0 1 -1 2 0 2 -1 1 0 2 -1 
2 0 1 -1 2 0 2 -1 1 -1 2 0 1 -1 2 0 
2 -1 1 0 2 -1 2 0 1 -1 2 0 2 -1 1 0 
2 -1 2 0 1 -1 2 0 2 -1 1 0 2 -1 2 0 
1 -1 2 0 1 -1 2 0 2 -1 1 0 2 -1 2 0 
1 -1 2 0 2 -1 1 0 2 -1 2 0 1 -1 2 0 
2 -1 1 0 2 -1 2 0 1 -1 2 0 1 -1 2 0 
2 0 1 -1 2 0 2 -1 1 0 2 -1 2 0 1 -1 
2 0 2 -1 1 0 2 -1 2 0 1 0 2 -1 2 0 
1 -1 2 0 1 -1 2 0 2 -1 1 0 2 0 2 -1 
1 0 2 -1 2 0 4094 2102 100 MP stroke
1 -1 2 0 2 0 1 -1 2 0 2 -1 1 0 2 -1 
2 0 1 0 2 -1 2 0 1 -1 2 0 1 -1 2 0 
2 0 1 -1 2 0 2 -1 1 0 2 0 2 -1 1 0 
2 -1 2 0 1 0 2 -1 2 0 1 -1 2 0 2 0 
1 -1 2 0 1 0 2 -1 2 0 1 -1 2 0 2 0 
1 -1 2 0 2 -1 1 0 2 0 2 -1 1 0 2 0 
2 -1 1 0 2 0 2 -1 1 0 2 -1 1 0 2 0 
2 -1 1 0 2 0 2 -1 1 0 2 0 2 -1 1 0 
2 0 2 -1 1 0 2 0 2 -1 1 0 2 0 2 -1 
1 0 2 0 1 -1 2 0 2 0 1 -1 2 0 2 0 
1 -1 2 0 2 0 1 -1 2 0 2 0 1 -1 2 0 
2 0 1 -1 2 0 2 0 1 -1 2 0 2 0 1 0 
2 -1 1 0 2 0 3931 2138 100 MP stroke
2 -1 1 0 2 0 2 0 1 -1 2 0 2 0 1 -1 
2 0 2 0 1 0 2 -1 2 0 1 0 2 -1 2 0 
1 0 2 0 1 -1 2 0 2 0 1 0 2 -1 2 0 
1 0 2 -1 2 0 1 0 2 0 2 -1 1 0 2 0 
2 0 1 -1 2 0 2 0 1 0 2 -1 1 0 2 0 
2 0 1 -1 2 0 2 0 1 0 2 0 2 -1 1 0 
2 0 2 0 1 -1 2 0 2 0 1 0 2 -1 2 0 
1 0 2 0 1 0 2 -1 2 0 1 0 2 0 2 0 
1 -1 2 0 2 0 1 0 2 0 2 -1 1 0 2 0 
2 0 1 0 2 -1 2 0 1 0 2 0 1 0 2 -1 
2 0 1 0 2 0 2 0 1 -1 2 0 2 0 1 0 
2 0 2 0 1 -1 2 0 2 0 1 0 2 0 2 0 
1 -1 2 0 2 0 3767 2161 100 MP stroke
1 0 2 0 1 0 2 -1 2 0 1 0 2 0 2 0 
1 0 2 0 2 -1 1 0 2 0 2 0 1 0 2 0 
2 0 1 -1 2 0 2 0 1 0 2 0 1 0 2 0 
2 0 1 -1 2 0 2 0 1 0 2 0 2 0 1 0 
2 0 2 0 1 -1 2 0 2 0 1 0 2 0 2 0 
1 0 2 0 1 0 2 -1 2 0 1 0 2 0 2 0 
1 0 2 0 2 0 1 0 2 0 2 0 1 -1 2 0 
2 0 1 0 2 0 2 0 1 0 2 0 1 0 2 0 
2 0 1 0 2 0 2 0 1 -1 2 0 2 0 1 0 
2 0 2 0 1 0 2 0 2 0 1 0 2 0 2 0 
1 0 2 0 2 0 1 0 2 0 1 0 2 0 2 -1 
1 0 2 0 2 0 1 0 2 0 2 0 1 0 2 0 
2 0 1 0 2 0 3604 2170 100 MP stroke
2 0 1 0 2 0 2 0 1 0 2 0 1 0 2 0 
2 0 1 0 2 0 2 0 1 0 2 0 2 0 1 0 
2 0 2 0 1 0 2 0 2 0 1 0 2 0 2 0 
1 0 2 0 1 0 2 0 2 0 1 0 2 0 2 0 
1 0 2 0 2 0 1 0 2 0 2 0 1 0 2 0 
2 0 1 0 2 1 2 0 1 0 2 0 1 0 2 0 
2 0 1 0 2 0 2 0 1 0 2 0 2 0 1 0 
2 0 2 0 1 0 2 0 2 0 1 1 2 0 2 0 
1 0 2 0 2 0 1 0 2 0 1 0 2 0 2 0 
1 0 2 0 2 0 1 1 2 0 2 0 1 0 2 0 
2 0 1 0 2 0 2 0 1 0 2 0 2 1 1 0 
2 0 1 0 2 0 2 0 1 0 2 0 2 0 1 1 
2 0 2 0 1 0 3441 2165 100 MP stroke
2 0 2 0 1 0 2 0 2 0 1 1 2 0 2 0 
1 0 2 0 1 0 2 0 2 0 1 1 2 0 2 0 
1 0 2 0 2 0 1 0 2 1 2 0 1 0 2 0 
2 0 1 0 2 0 2 1 1 0 2 0 1 0 2 0 
2 0 1 1 2 0 2 0 1 0 2 0 2 0 1 1 
2 0 2 0 1 0 2 0 2 0 1 1 2 0 2 0 
1 0 2 0 2 1 1 0 2 0 1 0 2 0 2 1 
1 0 2 0 2 0 1 0 2 1 2 0 1 0 2 0 
2 0 1 1 2 0 2 0 1 0 2 0 2 1 1 0 
2 0 1 0 2 0 2 1 1 0 2 0 2 0 1 1 
2 0 2 0 1 0 2 1 2 0 1 0 2 0 2 0 
1 1 2 0 2 0 1 0 2 1 1 0 2 0 2 0 
1 1 2 0 2 0 3277 2147 100 MP stroke
1 0 2 1 2 0 1 0 2 0 2 1 1 0 2 0 
2 1 1 0 2 0 2 0 1 1 2 0 1 0 2 0 
2 1 1 0 2 0 2 1 1 0 2 0 2 0 1 1 
2 0 2 0 1 1 2 0 2 0 1 0 2 1 2 0 
1 0 2 1 1 0 2 0 2 0 1 1 2 0 2 0 
1 1 2 0 2 0 1 1 2 0 2 0 1 1 2 0 
2 0 1 1 2 0 2 0 1 1 2 0 2 0 1 1 
2 0 1 0 2 1 2 0 1 0 2 1 2 0 1 0 
2 1 2 0 1 0 2 1 2 0 1 0 2 1 2 0 
1 0 2 1 2 0 1 0 2 1 1 0 2 1 2 0 
1 0 2 1 2 0 1 0 2 1 2 0 1 0 2 1 
2 0 1 1 2 0 2 0 1 1 2 0 2 1 1 0 
2 0 1 1 2 0 3114 2115 100 MP stroke
2 0 1 1 2 0 2 1 1 0 2 0 2 1 1 0 
2 1 2 0 1 0 2 1 2 0 1 1 2 0 2 0 
1 1 2 0 1 1 2 0 2 1 1 0 2 0 2 1 
1 0 2 1 2 0 1 1 2 0 2 0 1 1 2 0 
2 1 1 0 2 1 2 0 1 0 2 1 2 0 1 1 
2 0 1 1 2 0 2 1 1 0 2 0 2 1 1 0 
2 1 2 0 1 1 2 0 2 1 1 0 2 1 2 0 
1 1 2 0 2 0 1 1 2 0 1 1 2 0 2 1 
1 0 2 1 2 0 1 1 2 0 2 1 1 0 2 1 
2 0 1 1 2 0 2 1 1 0 2 1 2 0 1 1 
2 0 1 1 2 0 2 1 1 0 2 1 2 0 1 1 
2 0 2 1 1 0 2 1 2 0 1 1 2 0 2 1 
1 0 2 1 2 0 2950 2070 100 MP stroke
1 1 2 0 1 1 2 1 2 0 1 1 2 0 2 1 
1 0 2 1 2 0 1 1 2 0 2 1 1 0 2 1 
2 1 1 0 2 1 2 0 1 1 2 0 2 1 1 0 
2 1 1 1 2 0 2 1 1 0 2 1 2 0 1 1 
2 1 2 0 1 1 2 0 2 1 1 0 2 1 2 1 
1 0 2 1 2 0 1 1 2 0 1 1 2 1 2 0 
1 1 2 0 2 1 1 1 2 0 2 1 1 0 2 1 
2 1 1 0 2 1 2 0 1 1 2 1 2 0 1 1 
2 0 1 1 2 1 2 0 1 1 2 1 2 0 1 1 
2 0 2 1 1 1 2 0 2 1 1 1 2 0 2 1 
1 0 2 1 2 1 1 0 2 1 1 1 2 0 2 1 
1 1 2 0 2 1 1 1 2 0 2 1 1 1 2 0 
2 1 1 0 2 1 2787 2011 100 MP stroke
2 1 1 0 2 1 2 1 1 0 2 1 2 1 1 0 
2 1 1 1 2 1 2 0 1 1 2 1 2 0 1 1 
2 1 2 0 1 1 2 1 2 0 1 1 2 1 2 0 
1 1 2 1 2 0 1 1 2 1 1 1 2 0 2 1 
1 1 2 0 2 1 1 1 2 1 2 0 1 1 2 1 
2 0 1 1 2 1 2 1 1 0 2 1 2 1 1 0 
2 1 1 1 2 1 2 0 1 1 2 1 2 0 1 1 
2 1 2 1 1 0 2 1 2 1 1 1 2 0 2 1 
1 1 2 1 2 0 1 1 2 1 1 1 2 0 2 1 
1 1 2 1 2 0 1 1 2 1 2 1 1 0 2 1 
2 1 1 1 2 1 2 0 1 1 2 1 2 1 1 0 
2 1 2 1 1 1 2 1 1 0 2 1 2 1 1 1 
2 1 2 0 1 1 2624 1939 100 MP stroke
2 1 2 1 1 0 2 1 2 1 1 1 2 1 2 0 
1 1 2 1 2 1 1 1 2 0 1 1 2 1 2 1 
1 1 2 1 2 0 1 1 2 1 2 1 1 1 2 0 
2 1 1 1 2 1 2 1 1 1 2 0 2 1 1 1 
2 1 1 1 2 1 2 0 1 1 2 1 2 1 1 1 
2 1 2 1 1 0 2 1 2 1 1 1 2 1 2 1 
1 1 2 0 2 1 1 1 2 1 1 1 2 1 2 1 
1 0 2 1 2 1 1 1 2 1 2 1 1 1 2 1 
2 0 1 1 2 1 2 1 1 1 2 1 2 1 1 1 
2 0 1 1 2 1 2 1 1 1 2 1 2 1 1 1 
2 1 2 1 1 0 2 1 2 1 1 1 2 1 2 1 
1 1 2 1 2 1 1 1 2 0 2 1 1 1 2 1 
1 1 2 1 2 1 2460 1854 100 MP stroke
1 1 2 1 2 1 1 1 2 1 2 1 1 0 2 1 
2 1 1 1 2 1 2 1 1 1 2 1 2 1 1 1 
2 1 1 1 2 1 2 1 1 1 2 1 2 1 1 1 
2 0 2 1 1 1 2 1 2 1 1 1 2 1 2 1 
1 1 2 1 2 1 1 1 2 1 1 1 2 1 2 1 
1 1 2 1 2 1 1 1 2 1 2 1 1 1 2 1 
2 1 1 1 2 1 2 1 1 1 2 1 2 1 1 1 
2 1 1 1 2 1 2 1 1 1 2 1 2 1 1 1 
2 1 2 1 1 1 2 1 2 1 1 1 2 1 2 1 
1 1 2 1 2 1 1 1 2 1 2 1 1 1 2 1 
1 1 2 1 2 1 1 1 2 1 2 1 1 1 2 1 
2 1 1 1 2 1 2 1 1 1 2 1 2 2 1 1 
2 1 2 1 1 1 2297 1756 100 MP stroke
2 1 1 1 2 1 2 1 1 1 2 1 2 1 1 1 
2 1 2 1 1 1 2 1 2 1 1 2 2 1 2 1 
1 1 2 1 2 1 1 1 2 1 1 1 2 1 2 1 
1 1 2 1 2 2 1 1 2 1 2 1 1 1 2 1 
2 1 1 1 2 1 2 1 1 1 2 2 2 1 1 1 
2 1 1 1 2 1 2 1 1 1 2 1 2 1 1 2 
2 1 2 1 1 1 2 1 2 1 1 1 2 1 2 2 
1 1 2 1 2 1 1 1 2 1 2 1 1 1 2 2 
1 1 2 1 2 1 1 1 2 1 2 1 1 2 2 1 
2 1 1 1 2 1 2 1 1 1 2 2 2 1 1 1 
2 1 2 1 1 1 2 1 1 2 2 1 2 1 1 1 
2 1 2 1 1 2 2 1 2 1 1 1 2 1 2 1 
1 2 2 1 2 1 2133 1646 100 MP stroke
1 1 2 1 2 1 1 2 2 1 1 1 2 1 2 1 
1 2 2 1 2 1 1 1 2 1 2 2 1 1 2 1 
2 1 1 1 2 1 2 2 1 1 2 1 2 1 1 2 
2 1 1 1 2 1 2 1 1 2 2 1 2 1 1 1 
2 1 2 2 1 1 2 1 2 1 1 2 2 1 2 1 
1 1 2 1 2 2 1 1 2 1 2 1 1 2 2 1 
1 1 2 1 2 2 1 1 2 1 2 1 1 1 2 2 
2 1 1 1 2 1 2 2 1 1 2 1 2 1 1 2 
2 1 2 1 1 1 2 2 1 1 2 1 2 2 1 1 
2 1 2 1 1 2 2 1 2 1 1 1 2 2 2 1 
1 1 2 2 2 1 1 1 2 1 2 2 1 1 2 1 
1 1 2 2 2 1 1 1 2 2 2 1 1 1 2 2 
2 1 1 1 2 1 1970 1524 100 MP stroke
2 2 1 1 2 1 2 2 1 1 2 1 2 2 1 1 
2 1 1 1 2 2 2 1 1 1 2 2 2 1 1 1 
2 2 2 1 1 1 2 2 2 1 1 1 2 2 2 1 
1 1 2 2 2 1 1 1 2 2 1 1 2 1 2 2 
1 1 2 1 2 2 1 1 2 1 2 2 1 1 2 1 
2 2 1 1 2 1 2 2 1 1 2 1 2 2 1 1 
2 1 2 2 1 1 2 2 1 1 2 1 2 2 1 1 
2 1 2 2 1 1 2 1 2 2 1 1 2 2 2 1 
1 1 2 2 2 1 1 1 2 2 2 1 1 2 2 1 
1 1 2 2 2 1 1 2 2 1 2 1 1 2 2 1 
2 1 1 2 2 1 2 2 1 1 2 1 2 2 1 1 
2 2 2 1 1 2 2 1 1 1 2 2 2 1 1 2 
2 1 2 1 1 2 1807 1389 100 MP stroke
2 1 2 2 1 1 2 1 2 2 1 1 2 2 2 1 
1 2 2 1 2 1 1 2 2 1 1 2 2 1 2 2 
1 1 2 1 2 2 1 1 2 2 2 1 1 2 2 1 
2 2 1 1 2 1 2 2 1 1 2 2 2 1 1 2 
2 1 2 2 1 1 2 2 1 1 2 1 2 2 1 1 
2 2 2 1 1 2 2 1 2 2 1 1 2 2 2 1 
1 2 2 1 2 2 1 1 2 2 2 1 1 2 2 1 
1 1 2 2 2 1 1 2 2 1 2 2 1 1 2 2 
2 1 1 2 2 1 2 2 1 1 2 2 2 1 1 2 
2 1 2 2 1 1 2 2 1 1 2 2 2 1 1 2 
2 1 2 2 1 1 2 2 2 1 1 2 2 2 2 1 
1 2 2 1 2 2 1 1 2 2 2 1 1 2 2 1 
1 2 2 1 2 2 1643 1243 100 MP stroke
1 1 2 2 2 1 1 2 2 2 2 1 1 2 2 1 
2 2 1 1 2 2 2 1 1 2 2 1 2 2 1 2 
2 1 2 2 1 1 2 2 1 1 2 2 2 1 1 2 
2 2 2 1 1 2 2 1 2 2 1 1 2 2 2 1 
1 2 2 2 2 1 1 2 2 1 2 2 1 1 2 2 
1 2 2 1 2 2 1 1 2 2 2 2 1 1 2 2 
2 1 1 2 2 1 2 2 1 2 2 1 2 2 1 1 
2 2 2 2 1 1 2 2 1 1 2 2 2 2 1 1 
2 2 2 1 1 2 2 2 2 1 1 2 2 2 2 1 
1 2 2 1 2 2 1 2 2 1 2 2 1 1 2 2 
1 2 2 1 2 2 1 2 2 1 2 2 1 1 2 2 
2 2 1 1 2 2 2 2 1 1 2 2 2 2 1 1 
2 2 2 2 1 1 1480 1086 100 MP stroke
2 2 2 1 1 2 2 2 1 1 2 2 2 2 1 1 
2 2 2 2 1 1 2 2 2 2 1 1 2 2 2 2 
1 1 2 2 2 2 1 1 2 2 2 2 1 1 2 2 
1 2 2 1 2 2 1 2 2 1 2 2 1 2 2 1 
2 2 1 2 2 1 2 2 1 2 2 1 2 2 1 2 
2 2 2 1 1 2 2 2 1 1 2 2 2 2 1 1 
2 2 2 2 1 2 2 1 2 2 1 2 2 1 2 2 
1 2 2 1 2 2 1 2 2 2 2 1 1 2 2 2 
1 1 2 2 2 2 1 2 2 1 2 2 1 2 2 1 
2 2 1 2 2 2 2 1 1 2 2 2 2 2 1 1 
2 2 2 2 1 2 2 1 2 2 1 2 2 1 1 2 
2 2 2 2 1 1 2 2 2 2 1 2 2 1 2 2 
1 2 2 2 2 1 1316 918 100 MP stroke
1 2 2 2 2 2 1 1 2 2 2 2 1 2 2 2 
1 1 2 2 2 2 1 2 2 1 2 2 1 2 2 2 
2 1 1 2 2 2 2 2 1 2 2 1 2 2 1 2 
2 2 2 1 1 2 2 2 1 2 2 2 2 1 1 2 
2 2 2 2 1 1 2 2 2 2 1 2 2 2 2 1 
1 2 2 2 2 2 1 2 2 1 2 2 1 2 2 2 
1 2 2 1 2 2 1 2 2 2 2 2 1 2 2 1 
2 2 1 2 2 2 2 2 1 1 2 2 2 2 1 2 
2 2 2 2 1 1 2 2 1 2 2 2 2 2 1 1 
2 2 2 2 1 2 2 2 2 2 1 2 2 1 2 2 
1 2 2 2 2 2 1 2 2 1 2 2 1 2 2 2 
2 2 1 2 2 1 1 2 2 2 2 2 1 2 2 2 
2 2 1 1 2 2 1153 739 100 MP stroke
2 2 1 2 2 2 2 2 1 2 2 1 2 2 1 2 
2 2 2 2 1 2 2 2 1 2 2 1 2 2 1 2 
2 2 2 2 1 2 2 2 2 2 1 1 2 2 2 2 
1 2 2 2 2 2 1 2 2 2 2 2 1 1 2 2 
1 2 2 2 2 2 1 2 2 2 2 2 1 2 2 2 
2 1 1 2 2 2 2 2 1 2 2 2 2 2 1 2 
2 2 2 2 1 1 2 2 1 2 2 2 2 2 1 2 
2 2 2 2 1 2 2 2 2 2 1 2 2 1 2 2 
1 2 2 2 2 2 1 2 2 2 2 2 1 2 2 2 
2 2 1 2 2 2 1 2 2 2 2 1 1 2 2 2 
2 2 1 2 2 2 2 2 1 2 2 2 2 2 1 2 
2 2 2 2 1 2 2 2 2 2 1 2 2 2 1 2 
2 2 2 1 1 2 990 550 100 MP stroke
2 2 2 2 1 2 2 2 2 2 1 2 2 2 2 2 
1 2 2 2 2 2 1 2 2 2 2 2 1 2 2 2 
1 2 2 2 2 2 1 2 2 2 2 2 1 2 2 2 
2 2 1 2 2 2 2 2 1 2 2 2 2 2 938 488 32 MP stroke

gr 
DO
%%IncludeResource: font Times-Roman
/Times-Roman /ISOLatin1Encoding 192 FMSR

2739 2539 mt 
(Lateral position [mm]) s
 599 1688 mt  -90 rotate
(Delay [) s
90 rotate
%%IncludeResource: font Symbol
/Symbol /ISOLatin1Encoding 192 FMSR

 599 1118 mt  -90 rotate
(m) s
90 rotate
%%IncludeResource: font Times-Roman
/Times-Roman /ISOLatin1Encoding 192 FMSR

 599 1008 mt  -90 rotate
(s]) s
90 rotate
SO
1 sg
0 1782 5359 0 0 -1782 899 4612 4 MP
PP
-5359 0 0 1782 5359 0 0 -1782 899 4612 5 MP stroke
4 w
DO
SO
6 w
0 sg
 899 4612 mt 6258 4612 L
 899 2830 mt 6258 2830 L
 899 4612 mt  899 2830 L
6258 4612 mt 6258 2830 L
 899 4612 mt 6258 4612 L
 899 4612 mt  899 2830 L
 899 4612 mt  899 4558 L
 899 2830 mt  899 2884 L
%%IncludeResource: font Times-Roman
/Times-Roman /ISOLatin1Encoding 168 FMSR

 763 4797 mt 
(-5) s
1435 4612 mt 1435 4558 L
1435 2830 mt 1435 2884 L
1299 4797 mt 
(-4) s
1971 4612 mt 1971 4558 L
1971 2830 mt 1971 2884 L
1835 4797 mt 
(-3) s
2507 4612 mt 2507 4558 L
2507 2830 mt 2507 2884 L
2371 4797 mt 
(-2) s
3043 4612 mt 3043 4558 L
3043 2830 mt 3043 2884 L
2907 4797 mt 
(-1) s
3579 4612 mt 3579 4558 L
3579 2830 mt 3579 2884 L
3537 4797 mt 
(0) s
4114 4612 mt 4114 4558 L
4114 2830 mt 4114 2884 L
4072 4797 mt 
(1) s
4650 4612 mt 4650 4558 L
4650 2830 mt 4650 2884 L
4608 4797 mt 
(2) s
5186 4612 mt 5186 4558 L
5186 2830 mt 5186 2884 L
5144 4797 mt 
(3) s
5722 4612 mt 5722 4558 L
5722 2830 mt 5722 2884 L
5680 4797 mt 
(4) s
6258 4612 mt 6258 4558 L
6258 2830 mt 6258 2884 L
6216 4797 mt 
(5) s
 899 4612 mt  953 4612 L
6258 4612 mt 6204 4612 L
 602 4672 mt 
(-50) s
 899 3721 mt  953 3721 L
6258 3721 mt 6204 3721 L
 780 3781 mt 
(0) s
 899 2830 mt  953 2830 L
6258 2830 mt 6204 2830 L
 696 2890 mt 
(50) s
 899 4612 mt 6258 4612 L
 899 2830 mt 6258 2830 L
 899 4612 mt  899 2830 L
6258 4612 mt 6258 2830 L
gs 899 2830 5360 1783 MR c np
2 -16 2 -15 1 -16 2 -16 2 -16 1 -16 2 -16 2 -16 
1 -16 2 -16 2 -15 1 -16 2 -16 2 -16 1 -16 2 -16 
1 -15 2 -16 2 -16 1 -16 2 -15 2 -16 1 -16 2 -16 
2 -15 1 -16 2 -16 2 -16 1 -15 2 -16 2 -16 1 -15 
2 -16 2 -16 1 -15 2 -16 1 -16 2 -15 2 -16 1 -16 
2 -15 2 -16 1 -15 2 -16 2 -16 1 -15 2 -16 2 -15 
1 -16 2 -15 2 -16 1 -15 2 -16 2 -15 1 -16 2 -15 
1 -16 2 -15 2 -16 1 -15 2 -16 2 -15 1 -16 2 -15 
2 -15 1 -16 2 -15 2 -16 1 -15 2 -15 2 -16 1 -15 
2 -15 2 -16 1 -15 2 -15 2 -16 1 -15 2 -15 1 -16 
2 -15 2 -15 1 -15 2 -16 2 -15 1 -15 2 -15 2 -16 
1 -15 2 -15 2 -15 1 -16 2 -15 2 -15 1 -15 2 -15 
2 -15 1 -15 2 -16 6055 4458 100 MP stroke
1 1411 2 -15 2 -15 1 -15 2 -16 2 -15 1 -15 2 -15 
2 -15 1 -15 2 -15 2 -15 1 -15 2 -15 2 -15 1 -15 
2 -15 2 -15 1 -15 2 -15 1 -15 2 -15 2 -15 1 -15 
2 -15 2 -15 1 -15 2 -14 2 -15 1 -15 2 -15 2 -15 
1 -15 2 -15 2 -15 1 -14 2 -15 2 -15 1 -15 2 -15 
1 -14 2 -15 2 -15 1 -15 2 -14 2 -15 1 -15 2 -15 
2 -14 1 -15 2 -15 2 -15 1 -14 2 -15 2 -15 1 -14 
2 -15 2 -15 1 -14 2 -15 2 -15 1 -14 2 -15 1 -14 
2 -15 2 -15 1 -14 2 -15 2 -14 1 -15 2 -14 2 -15 
1 -14 2 -15 2 -14 1 -15 2 -14 2 -15 1 -14 2 -15 
2 -14 1 -15 2 -14 1 -15 2 -14 2 -14 1 -15 2 -14 
2 -15 1 -14 2 -14 2 -15 1 -14 2 -14 2 -15 1 -14 
2 -14 2 -15 1 -14 5892 4489 100 MP stroke
2 -14 2 1411 1 -14 2 -15 1 -14 2 -14 2 -14 1 -15 
2 -14 2 -14 1 -14 2 -14 2 -15 1 -14 2 -14 2 -14 
1 -14 2 -14 2 -15 1 -14 2 -14 2 -14 1 -14 2 -14 
1 -14 2 -14 2 -14 1 -14 2 -14 2 -14 1 -15 2 -14 
2 -14 1 -14 2 -14 2 -14 1 -14 2 -14 2 -13 1 -14 
2 -14 2 -14 1 -14 2 -14 1 -14 2 -14 2 -14 1 -14 
2 -14 2 -14 1 -13 2 -14 2 -14 1 -14 2 -14 2 -14 
1 -13 2 -14 2 -14 1 -14 2 -14 2 -13 1 -14 2 -14 
2 -14 1 -13 2 -14 1 -14 2 -13 2 -14 1 -14 2 -13 
2 -14 1 -14 2 -13 2 -14 1 -14 2 -13 2 -14 1 -14 
2 -13 2 -14 1 -13 2 -14 2 -14 1 -13 2 -14 1 -13 
2 -14 2 -13 1 -14 2 -13 2 -14 1 -13 2 -14 2 -13 
1 -14 2 -13 2 -13 5728 4436 100 MP stroke
1 -14 2 -13 2 1412 1 -14 2 -13 2 -13 1 -14 2 -13 
1 -13 2 -14 2 -13 1 -13 2 -14 2 -13 1 -13 2 -14 
2 -13 1 -13 2 -14 2 -13 1 -13 2 -13 2 -14 1 -13 
2 -13 2 -13 1 -13 2 -14 1 -13 2 -13 2 -13 1 -13 
2 -13 2 -14 1 -13 2 -13 2 -13 1 -13 2 -13 2 -13 
1 -13 2 -13 2 -13 1 -13 2 -14 2 -13 1 -13 2 -13 
2 -13 1 -13 2 -13 1 -13 2 -12 2 -13 1 -13 2 -13 
2 -13 1 -13 2 -13 2 -13 1 -13 2 -13 2 -13 1 -13 
2 -12 2 -13 1 -13 2 -13 2 -13 1 -13 2 -12 1 -13 
2 -13 2 -13 1 -13 2 -12 2 -13 1 -13 2 -12 2 -13 
1 -13 2 -13 2 -12 1 -13 2 -13 2 -12 1 -13 2 -13 
2 -12 1 -13 2 -13 1 -12 2 -13 2 -12 1 -13 2 -13 
2 -12 1 -13 2 -12 5565 4297 100 MP stroke
2 -13 1 -12 2 -13 2 1235 1 -12 2 -13 2 -12 1 -13 
2 -12 2 -13 1 -12 2 -13 1 -12 2 -13 2 -12 1 -12 
2 -13 2 -12 1 -13 2 -12 2 -12 1 -13 2 -12 2 -12 
1 -13 2 -12 2 -12 1 -13 2 -12 2 -12 1 -12 2 -13 
2 -12 1 -12 2 -12 1 -13 2 -12 2 -12 1 -12 2 -12 
2 -13 1 -12 2 -12 2 -12 1 -12 2 -12 2 -12 1 -12 
2 -13 2 -12 1 -12 2 -12 2 -12 1 -12 2 -12 1 -12 
2 -12 2 -12 1 -12 2 -12 2 -12 1 -12 2 -12 2 -12 
1 -12 2 -12 2 -12 1 -12 2 -12 2 -12 1 -11 2 -12 
2 -12 1 -12 2 -12 1 -12 2 -12 2 -11 1 -12 2 -12 
2 -12 1 -12 2 -11 2 -12 1 -12 2 -12 2 -11 1 -12 
2 -12 2 -12 1 -11 2 -12 2 -12 1 -11 2 -12 1 -12 
2 -11 2 -12 1 -12 5402 4247 100 MP stroke
2 -11 2 -12 1 -12 2 -11 2 1236 1 -12 2 -11 2 -12 
1 -12 2 -11 2 -12 1 -11 2 -12 2 -11 1 -12 2 -11 
2 -12 1 -11 2 -12 1 -11 2 -11 2 -12 1 -11 2 -12 
2 -11 1 -11 2 -12 2 -11 1 -12 2 -11 2 -11 1 -12 
2 -11 2 -11 1 -11 2 -12 2 -11 1 -11 2 -12 1 -11 
2 -11 2 -11 1 -12 2 -11 2 -11 1 -11 2 -11 2 -12 
1 -11 2 -11 2 -11 1 -11 2 -11 2 -11 1 -12 2 -11 
2 -11 1 -11 2 -11 1 -11 2 -11 2 -11 1 -11 2 -11 
2 -11 1 -11 2 -11 2 -11 1 -11 2 -11 2 -11 1 -11 
2 -11 2 -11 1 -11 2 -11 2 -11 1 -10 2 -11 1 -11 
2 -11 2 -11 1 -11 2 -11 2 -10 1 -11 2 -11 2 -11 
1 -11 2 -10 2 -11 1 -11 2 -11 2 -10 1 -11 2 -11 
2 -11 1 -10 2 -11 5238 4104 100 MP stroke
2 -11 1 -10 2 -11 1 -11 2 -10 2 880 1 -10 2 -11 
2 -11 1 -10 2 -11 2 -10 1 -11 2 -11 2 -10 1 -11 
2 -10 2 -11 1 -10 2 -11 2 -10 1 -11 2 -10 1 -11 
2 -10 2 -10 1 -11 2 -10 2 -11 1 -10 2 -10 2 -11 
1 -10 2 -11 2 -10 1 -10 2 -11 2 -10 1 -10 2 -11 
2 -10 1 -10 2 -10 1 -11 2 -10 2 -10 1 -10 2 -11 
2 -10 1 -10 2 -10 2 -10 1 -11 2 -10 2 -10 1 -10 
2 -10 2 -10 1 -10 2 -10 2 -11 1 -10 2 -10 1 -10 
2 -10 2 -10 1 -10 2 -10 2 -10 1 -10 2 -10 2 -10 
1 -10 2 -10 2 -10 1 -10 2 -10 2 -10 1 -10 2 -9 
2 -10 1 -10 2 -10 1 -10 2 -10 2 -10 1 -10 2 -9 
2 -10 1 -10 2 -10 2 -10 1 -9 2 -10 2 -10 1 -10 
2 -9 2 -10 1 -10 5075 4223 100 MP stroke
2 -10 2 -9 1 -10 2 -10 2 -9 1 -10 2 1060 1 -10 
2 -10 2 -9 1 -10 2 -9 2 -10 1 -10 2 -9 2 -10 
1 -9 2 -10 2 -9 1 -10 2 -9 2 -10 1 -9 2 -10 
2 -9 1 -10 2 -9 1 -10 2 -9 2 -10 1 -9 2 -9 
2 -10 1 -9 2 -10 2 -9 1 -9 2 -10 2 -9 1 -9 
2 -10 2 -9 1 -9 2 -9 2 -10 1 -9 2 -9 1 -9 
2 -10 2 -9 1 -9 2 -9 2 -9 1 -10 2 -9 2 -9 
1 -9 2 -9 2 -9 1 -10 2 -9 2 -9 1 -9 2 -9 
2 -9 1 -9 2 -9 1 -9 2 -9 2 -9 1 -9 2 -9 
2 -9 1 -9 2 -9 2 -9 1 -9 2 -9 2 -9 1 -9 
2 -9 2 -9 1 -8 2 -9 2 -9 1 -9 2 -9 2 -9 
1 -9 2 -8 1 -9 2 -9 2 -9 1 -9 2 -8 2 -9 
1 -9 2 -9 2 -8 4911 4066 100 MP stroke
1 -9 2 -9 2 -8 1 -9 2 -9 2 -8 1 -9 2 882 
2 -8 1 -9 2 -9 1 -8 2 -9 2 -8 1 -9 2 -9 
2 -8 1 -9 2 -8 2 -9 1 -8 2 -9 2 -8 1 -9 
2 -8 2 -9 1 -8 2 -8 2 -9 1 -8 2 -9 1 -8 
2 -9 2 -8 1 -8 2 -9 2 -8 1 -8 2 -9 2 -8 
1 -8 2 -9 2 -8 1 -8 2 -8 2 -9 1 -8 2 -8 
2 -8 1 -9 2 -8 1 -8 2 -8 2 -8 1 -8 2 -9 
2 -8 1 -8 2 -8 2 -8 1 -8 2 -8 2 -8 1 -8 
2 -9 2 -8 1 -8 2 -8 2 -8 1 -8 2 -8 2 -8 
1 -8 2 -8 1 -8 2 -8 2 -7 1 -8 2 -8 2 -8 
1 -8 2 -8 2 -8 1 -8 2 -8 2 -7 1 -8 2 -8 
2 -8 1 -8 2 -8 2 -7 1 -8 2 -8 1 -8 2 -7 
2 -8 1 -8 2 -7 4748 3988 100 MP stroke
2 -8 1 -8 2 -8 2 -7 1 -8 2 -8 2 -7 1 -8 
2 705 2 -7 1 -8 2 -7 2 -8 1 -8 2 -7 1 -8 
2 -7 2 -8 1 -7 2 -8 2 -7 1 -8 2 -7 2 -8 
1 -7 2 -7 2 -8 1 -7 2 -8 2 -7 1 -8 2 -7 
2 -7 1 -8 2 -7 1 -7 2 -8 2 -7 1 -7 2 -8 
2 -7 1 -7 2 -7 2 -8 1 -7 2 -7 2 -7 1 -8 
2 -7 2 -7 1 -7 2 -7 2 -7 1 -8 2 -7 2 -7 
1 -7 2 -7 1 -7 2 -7 2 -7 1 -7 2 -7 2 -7 
1 -7 2 -7 2 -8 1 -7 2 -6 2 -7 1 -7 2 -7 
2 -7 1 -7 2 -7 2 -7 1 -7 2 -7 1 -7 2 -7 
2 -7 1 -6 2 -7 2 -7 1 -7 2 -7 2 -7 1 -6 
2 -7 2 -7 1 -7 2 -6 2 -7 1 -7 2 -7 2 -6 
1 -7 2 -7 1 -6 4585 3987 100 MP stroke
2 -7 2 -7 1 -6 2 -7 2 -7 1 -6 2 -7 2 -6 
1 -7 2 706 2 -6 1 -7 2 -6 2 -7 1 -6 2 -7 
2 -6 1 -7 2 -6 1 -7 2 -6 2 -7 1 -6 2 -6 
2 -7 1 -6 2 -7 2 -6 1 -6 2 -7 2 -6 1 -6 
2 -7 2 -6 1 -6 2 -7 2 -6 1 -6 2 -7 1 -6 
2 -6 2 -6 1 -6 2 -7 2 -6 1 -6 2 -6 2 -6 
1 -7 2 -6 2 -6 1 -6 2 -6 2 -6 1 -6 2 -6 
2 -6 1 -6 2 -6 2 -7 1 -6 2 -6 1 -6 2 -6 
2 -6 1 -6 2 -5 2 -6 1 -6 2 -6 2 -6 1 -6 
2 -6 2 -6 1 -6 2 -6 2 -6 1 -5 2 -6 2 -6 
1 -6 2 -6 1 -5 2 -6 2 -6 1 -6 2 -5 2 -6 
1 -6 2 -6 2 -5 1 -6 2 -6 2 -5 1 -6 2 -6 
2 -5 1 -6 2 -6 4421 3883 100 MP stroke
2 -5 1 -6 2 -5 1 -6 2 -6 2 -5 1 -6 2 -5 
2 -6 1 -5 2 529 2 -6 1 -5 2 -6 2 -5 1 -6 
2 -5 2 -5 1 -6 2 -5 2 -6 1 -5 2 -5 1 -6 
2 -5 2 -5 1 -6 2 -5 2 -5 1 -6 2 -5 2 -5 
1 -5 2 -6 2 -5 1 -5 2 -5 2 -6 1 -5 2 -5 
2 -5 1 -5 2 -6 2 -5 1 -5 2 -5 1 -5 2 -5 
2 -5 1 -5 2 -5 2 -5 1 -6 2 -5 2 -5 1 -5 
2 -5 2 -5 1 -5 2 -5 2 -5 1 -4 2 -5 2 -5 
1 -5 2 -5 1 -5 2 -5 2 -5 1 -5 2 -5 2 -4 
1 -5 2 -5 2 -5 1 -5 2 -4 2 -5 1 -5 2 -5 
2 -5 1 -4 2 -5 2 -5 1 -4 2 -5 1 -5 2 -4 
2 -5 1 -5 2 -4 2 -5 1 -5 2 -4 2 -5 1 -4 
2 -5 2 -5 1 -4 4258 3851 100 MP stroke
2 -5 2 -4 1 -5 2 -4 2 -5 1 -4 2 -5 1 -4 
2 -5 2 -4 1 -4 2 352 2 -5 1 -4 2 -5 2 -4 
1 -4 2 -5 2 -4 1 -4 2 -5 2 -4 1 -4 2 -5 
2 -4 1 -4 2 -4 2 -5 1 -4 2 -4 1 -4 2 -5 
2 -4 1 -4 2 -4 2 -4 1 -4 2 -5 2 -4 1 -4 
2 -4 2 -4 1 -4 2 -4 2 -4 1 -4 2 -4 2 -4 
1 -4 2 -4 1 -4 2 -4 2 -4 1 -4 2 -4 2 -4 
1 -4 2 -4 2 -4 1 -4 2 -4 2 -4 1 -3 2 -4 
2 -4 1 -4 2 -4 2 -4 1 -3 2 -4 1 -4 2 -4 
2 -3 1 -4 2 -4 2 -4 1 -3 2 -4 2 -4 1 -3 
2 -4 2 -4 1 -3 2 -4 2 -4 1 -3 2 -4 2 -4 
1 -3 2 -4 1 -3 2 -4 2 -3 1 -4 2 -3 2 -4 
1 -3 2 -4 2 -3 4094 3891 100 MP stroke
1 -4 2 -3 2 -4 1 -3 2 -3 2 -4 1 -3 2 -4 
2 -3 1 -3 2 -4 2 -3 1 353 2 -3 1 -4 2 -3 
2 -3 1 -3 2 -4 2 -3 1 -3 2 -3 2 -4 1 -3 
2 -3 2 -3 1 -3 2 -4 2 -3 1 -3 2 -3 2 -3 
1 -3 2 -3 1 -3 2 -3 2 -4 1 -3 2 -3 2 -3 
1 -3 2 -3 2 -3 1 -3 2 -3 2 -3 1 -3 2 -2 
2 -3 1 -3 2 -3 2 -3 1 -3 2 -3 1 -3 2 -3 
2 -2 1 -3 2 -3 2 -3 1 -3 2 -2 2 -3 1 -3 
2 -3 2 -3 1 -2 2 -3 2 -3 1 -2 2 -3 2 -3 
1 -2 2 -3 1 -3 2 -2 2 -3 1 -3 2 -2 2 -3 
1 -2 2 -3 2 -2 1 -3 2 -3 2 -2 1 -3 2 -2 
2 -3 1 -2 2 -3 2 -2 1 -2 2 -3 2 -2 1 -3 
2 -2 1 -2 2 -3 3931 3824 100 MP stroke
2 -2 1 -3 2 -2 2 -2 1 -3 2 -2 2 -2 1 -2 
2 -3 2 -2 1 -2 2 -3 2 -2 1 176 2 -2 2 -2 
1 -2 2 -3 1 -2 2 -2 2 -2 1 -2 2 -2 2 -2 
1 -3 2 -2 2 -2 1 -2 2 -2 2 -2 1 -2 2 -2 
2 -2 1 -2 2 -2 2 -2 1 -2 2 -2 1 -2 2 -2 
2 -2 1 -2 2 -1 2 -2 1 -2 2 -2 2 -2 1 -2 
2 -2 2 -1 1 -2 2 -2 2 -2 1 -2 2 -1 2 -2 
1 -2 2 -2 1 -1 2 -2 2 -2 1 -1 2 -2 2 -2 
1 -1 2 -2 2 -2 1 -1 2 -2 2 -2 1 -1 2 -2 
2 -1 1 -2 2 -1 2 -2 1 -1 2 -2 1 -2 2 -1 
2 -1 1 -2 2 -1 2 -2 1 -1 2 -2 2 -1 1 -2 
2 -1 2 -1 1 -2 2 -1 2 -1 1 -2 2 -1 2 -1 
1 -2 2 -1 2 -1 3767 3826 100 MP stroke
1 -1 2 -2 1 -1 2 -1 2 -1 1 -2 2 -1 2 -1 
1 -1 2 -1 2 -2 1 -1 2 -1 2 -1 1 177 2 -1 
2 -1 1 -1 2 -1 2 -1 1 -1 2 -1 1 -1 2 -1 
2 -1 1 -1 2 -1 2 -1 1 -1 2 -1 2 -1 1 -1 
2 -1 2 -1 1 -1 2 -1 2 -1 1 0 2 -1 2 -1 
1 -1 2 -1 1 -1 2 0 2 -1 1 -1 2 -1 2 0 
1 -1 2 -1 2 -1 1 0 2 -1 2 -1 1 0 2 -1 
2 -1 1 0 2 -1 2 0 1 -1 2 -1 1 0 2 -1 
2 0 1 -1 2 0 2 -1 1 0 2 -1 2 0 1 -1 
2 0 2 -1 1 0 2 -1 2 0 1 -1 2 0 2 0 
1 -1 2 0 2 0 1 -1 2 0 1 0 2 -1 2 0 
1 0 2 -1 2 0 1 0 2 0 2 -1 1 0 2 0 
2 0 1 0 2 -1 3604 3720 100 MP stroke
2 0 1 0 2 0 2 0 1 0 2 0 1 -1 2 0 
2 0 1 0 2 0 2 0 1 0 2 0 2 0 1 0 
2 0 2 0 1 0 2 0 2 0 1 0 2 0 2 0 
1 1 2 0 1 0 2 0 2 0 1 0 2 0 2 1 
1 0 2 0 2 0 1 0 2 1 2 0 1 0 2 0 
2 1 1 0 2 0 2 1 1 0 2 0 1 1 2 0 
2 0 1 1 2 0 2 0 1 1 2 0 2 1 1 0 
2 1 2 0 1 1 2 0 2 1 1 0 2 1 2 0 
1 1 2 0 2 1 1 0 2 1 1 1 2 0 2 1 
1 0 2 1 2 1 1 0 2 1 2 1 1 0 2 1 
2 1 1 1 2 0 2 1 1 1 2 1 2 0 1 1 
2 1 1 1 2 1 2 1 1 0 2 1 2 1 1 1 
2 1 2 1 1 1 3441 3682 100 MP stroke
2 1 2 1 1 1 2 1 2 1 1 1 2 1 2 1 
1 1 2 1 1 1 2 1 2 1 1 1 2 1 2 1 
1 -177 2 1 2 1 1 1 2 2 2 1 1 1 2 1 
2 1 1 2 2 1 2 1 1 1 2 2 1 1 2 1 
2 1 1 2 2 1 2 1 1 2 2 1 2 1 1 2 
2 1 2 1 1 2 2 1 2 2 1 1 2 2 2 1 
1 2 2 1 2 1 1 2 2 2 1 1 2 2 2 1 
1 2 2 1 2 2 1 1 2 2 2 2 1 1 2 2 
2 2 1 1 2 2 2 2 1 1 2 2 2 2 1 1 
2 2 1 2 2 2 2 1 1 2 2 2 2 2 1 2 
2 1 2 2 1 2 2 2 2 2 1 2 2 2 2 1 
1 2 2 2 2 2 1 2 2 2 1 2 2 2 2 2 
1 2 2 2 2 2 3277 3714 100 MP stroke
1 2 2 2 2 2 1 2 2 2 2 2 1 3 2 2 
2 2 1 2 2 2 2 2 1 2 2 3 1 2 2 2 
2 2 1 -176 2 2 2 3 1 2 2 2 2 3 1 2 
2 2 2 2 1 3 2 2 2 2 1 3 2 2 2 3 
1 2 2 2 1 3 2 2 2 3 1 2 2 2 2 3 
1 2 2 3 2 2 1 3 2 2 2 3 1 3 2 2 
2 3 1 2 2 3 2 2 1 3 2 3 2 2 1 3 
2 3 1 2 2 3 2 3 1 2 2 3 2 3 1 2 
2 3 2 3 1 3 2 3 2 2 1 3 2 3 2 3 
1 3 2 2 2 3 1 3 2 3 1 3 2 3 2 3 
1 3 2 3 2 2 1 3 2 3 2 3 1 3 2 3 
2 3 1 3 2 3 2 3 1 3 2 4 2 3 1 3 
2 3 1 3 2 3 3114 3637 100 MP stroke
2 3 1 3 2 3 2 4 1 3 2 3 2 3 1 3 
2 4 2 3 1 3 2 3 2 4 1 3 2 3 2 3 
1 4 2 3 1 -353 2 3 2 4 1 3 2 3 2 4 
1 3 2 4 2 3 1 3 2 4 2 3 1 4 2 3 
2 4 1 3 2 4 2 3 1 4 2 3 2 4 1 3 
2 4 1 3 2 4 2 4 1 3 2 4 2 4 1 3 
2 4 2 4 1 3 2 4 2 4 1 3 2 4 2 4 
1 4 2 3 2 4 1 4 2 4 1 3 2 4 2 4 
1 4 2 4 2 4 1 3 2 4 2 4 1 4 2 4 
2 4 1 4 2 4 2 4 1 4 2 4 2 4 1 4 
2 4 1 4 2 4 2 4 1 4 2 4 2 4 1 4 
2 4 2 4 1 4 2 4 2 5 1 4 2 4 2 4 
1 4 2 4 2 5 2950 3630 100 MP stroke
1 4 2 4 1 4 2 5 2 4 1 4 2 4 2 5 
1 4 2 4 2 5 1 4 2 4 2 5 1 4 2 4 
2 5 1 4 2 5 2 -352 1 4 2 4 2 5 1 4 
2 5 1 4 2 5 2 4 1 5 2 4 2 5 1 4 
2 5 2 5 1 4 2 5 2 4 1 5 2 5 2 4 
1 5 2 5 2 4 1 5 2 5 1 4 2 5 2 5 
1 4 2 5 2 5 1 5 2 5 2 4 1 5 2 5 
2 5 1 5 2 4 2 5 1 5 2 5 2 5 1 5 
2 5 1 5 2 5 2 5 1 4 2 5 2 5 1 5 
2 5 2 5 1 5 2 5 2 5 1 6 2 5 2 5 
1 5 2 5 2 5 1 5 2 5 1 5 2 5 2 6 
1 5 2 5 2 5 1 5 2 6 2 5 1 5 2 5 
2 6 1 5 2 5 2787 3517 100 MP stroke
2 5 1 6 2 5 2 5 1 6 2 5 2 5 1 6 
2 5 1 5 2 6 2 5 1 6 2 5 2 5 1 6 
2 5 2 6 1 5 2 6 2 -529 1 5 2 6 2 5 
1 6 2 5 2 6 1 6 2 5 1 6 2 5 2 6 
1 6 2 5 2 6 1 6 2 5 2 6 1 6 2 5 
2 6 1 6 2 6 2 5 1 6 2 6 2 6 1 5 
2 6 1 6 2 6 2 6 1 5 2 6 2 6 1 6 
2 6 2 6 1 6 2 6 2 6 1 6 2 6 2 5 
1 6 2 6 2 6 1 6 2 6 1 6 2 7 2 6 
1 6 2 6 2 6 1 6 2 6 2 6 1 6 2 6 
2 6 1 7 2 6 2 6 1 6 2 6 2 7 1 6 
2 6 2 6 1 6 2 7 1 6 2 6 2 7 1 6 
2 6 2 7 1 6 2624 3476 100 MP stroke
2 6 2 7 1 6 2 6 2 7 1 6 2 7 2 6 
1 6 2 7 2 6 1 7 2 6 1 7 2 6 2 7 
1 6 2 7 2 6 1 7 2 6 2 -706 1 7 2 6 
2 7 1 6 2 7 2 7 1 6 2 7 2 7 1 6 
2 7 1 7 2 6 2 7 1 7 2 7 2 6 1 7 
2 7 2 7 1 6 2 7 2 7 1 7 2 7 2 7 
1 6 2 7 2 7 1 7 2 7 1 7 2 7 2 7 
1 7 2 7 2 7 1 7 2 7 2 6 1 7 2 8 
2 7 1 7 2 7 2 7 1 7 2 7 2 7 1 7 
2 7 1 7 2 7 2 7 1 8 2 7 2 7 1 7 
2 7 2 7 1 8 2 7 2 7 1 7 2 8 2 7 
1 7 2 7 2 8 1 7 2 7 2 8 1 7 2 7 
1 8 2 7 2 7 2460 3510 100 MP stroke
1 8 2 7 2 8 1 7 2 8 2 7 1 7 2 8 
2 7 1 8 2 7 2 8 1 7 2 8 2 7 1 8 
2 7 1 8 2 8 2 7 1 8 2 7 2 -705 1 8 
2 7 2 8 1 8 2 7 2 8 1 8 2 8 2 7 
1 8 2 8 2 7 1 8 2 8 1 8 2 7 2 8 
1 8 2 8 2 8 1 8 2 7 2 8 1 8 2 8 
2 8 1 8 2 8 2 8 1 8 2 7 2 8 1 8 
2 8 1 8 2 8 2 8 1 8 2 8 2 8 1 8 
2 8 2 9 1 8 2 8 2 8 1 8 2 8 2 8 
1 8 2 8 2 9 1 8 2 8 2 8 1 8 2 8 
1 9 2 8 2 8 1 8 2 9 2 8 1 8 2 8 
2 9 1 8 2 8 2 9 1 8 2 8 2 9 1 8 
2 8 2 9 1 8 2297 3441 100 MP stroke
2 9 1 8 2 9 2 8 1 8 2 9 2 8 1 9 
2 8 2 9 1 8 2 9 2 8 1 9 2 8 2 9 
1 9 2 8 2 9 1 8 2 9 1 9 2 8 2 -882 
1 9 2 8 2 9 1 9 2 8 2 9 1 9 2 8 
2 9 1 9 2 9 2 8 1 9 2 9 2 9 1 9 
2 8 1 9 2 9 2 9 1 9 2 9 2 9 1 8 
2 9 2 9 1 9 2 9 2 9 1 9 2 9 2 9 
1 9 2 9 2 9 1 9 2 9 2 9 1 9 2 9 
1 9 2 9 2 9 1 9 2 9 2 9 1 10 2 9 
2 9 1 9 2 9 2 9 1 10 2 9 2 9 1 9 
2 9 2 10 1 9 2 9 1 9 2 10 2 9 1 9 
2 9 2 10 1 9 2 9 2 10 1 9 2 9 2 10 
1 9 2 10 2 9 2133 3450 100 MP stroke
1 9 2 10 2 9 1 10 2 9 1 10 2 9 2 10 
1 9 2 10 2 9 1 10 2 9 2 10 1 9 2 10 
2 9 1 10 2 10 2 9 1 10 2 9 2 10 1 10 
2 -1060 1 10 2 9 2 10 1 10 2 9 2 10 1 10 
2 10 2 9 1 10 2 10 2 10 1 9 2 10 2 10 
1 10 2 10 2 9 1 10 2 10 2 10 1 10 2 10 
1 10 2 10 2 9 1 10 2 10 2 10 1 10 2 10 
2 10 1 10 2 10 2 10 1 10 2 10 2 10 1 10 
2 10 2 10 1 10 2 10 1 10 2 11 2 10 1 10 
2 10 2 10 1 10 2 10 2 10 1 11 2 10 2 10 
1 10 2 10 2 11 1 10 2 10 2 10 1 11 2 10 
1 10 2 10 2 11 1 10 2 10 2 11 1 10 2 10 
2 11 1 10 2 11 1970 3539 100 MP stroke
2 10 1 10 2 11 2 10 1 11 2 10 2 10 1 11 
2 10 1 11 2 10 2 11 1 10 2 11 2 10 1 11 
2 10 2 11 1 11 2 10 2 11 1 10 2 11 2 11 
1 10 2 -880 2 10 1 11 2 11 1 10 2 11 2 11 
1 10 2 11 2 11 1 11 2 10 2 11 1 11 2 11 
2 10 1 11 2 11 2 11 1 11 2 10 2 11 1 11 
2 11 2 11 1 11 2 11 1 10 2 11 2 11 1 11 
2 11 2 11 1 11 2 11 2 11 1 11 2 11 2 11 
1 11 2 11 2 11 1 11 2 11 2 11 1 11 2 11 
1 11 2 11 2 11 1 12 2 11 2 11 1 11 2 11 
2 11 1 11 2 12 2 11 1 11 2 11 2 11 1 12 
2 11 2 11 1 11 2 12 1 11 2 11 2 12 1 11 
2 11 2 11 1 12 1807 3355 100 MP stroke
2 11 2 11 1 12 2 11 2 12 1 11 2 11 2 12 
1 11 2 12 2 11 1 11 2 12 1 11 2 12 2 11 
1 12 2 11 2 12 1 11 2 12 2 11 1 12 2 12 
2 11 1 12 2 -1236 2 11 1 12 2 12 2 11 1 12 
2 12 2 11 1 12 2 12 1 11 2 12 2 12 1 11 
2 12 2 12 1 12 2 11 2 12 1 12 2 12 2 11 
1 12 2 12 2 12 1 12 2 11 2 12 1 12 2 12 
1 12 2 12 2 12 1 11 2 12 2 12 1 12 2 12 
2 12 1 12 2 12 2 12 1 12 2 12 2 12 1 12 
2 12 2 12 1 12 2 12 1 12 2 12 2 12 1 12 
2 12 2 13 1 12 2 12 2 12 1 12 2 12 2 12 
1 12 2 13 2 12 1 12 2 12 2 12 1 13 2 12 
1 12 2 12 2 13 1643 3434 100 MP stroke
1 12 2 12 2 12 1 13 2 12 2 12 1 13 2 12 
2 12 1 13 2 12 2 12 1 13 2 12 2 13 1 12 
2 12 2 13 1 12 2 13 1 12 2 13 2 12 1 13 
2 12 2 13 1 12 2 -1235 2 13 1 12 2 13 2 12 
1 13 2 12 2 13 1 13 2 12 2 13 1 12 2 13 
1 13 2 12 2 13 1 13 2 12 2 13 1 13 2 12 
2 13 1 13 2 13 2 12 1 13 2 13 2 12 1 13 
2 13 2 13 1 13 2 12 1 13 2 13 2 13 1 13 
2 13 2 12 1 13 2 13 2 13 1 13 2 13 2 13 
1 13 2 13 2 13 1 13 2 13 2 12 1 13 2 13 
1 13 2 13 2 13 1 13 2 13 2 14 1 13 2 13 
2 13 1 13 2 13 2 13 1 13 2 13 2 13 1 13 
2 14 2 13 1 13 1480 3423 100 MP stroke
2 13 2 13 1 13 2 14 1 13 2 13 2 13 1 13 
2 14 2 13 1 13 2 13 2 14 1 13 2 13 2 14 
1 13 2 13 2 14 1 13 2 13 2 14 1 13 2 13 
1 14 2 13 2 13 1 14 2 -1412 2 13 1 14 2 13 
2 13 1 14 2 13 2 14 1 13 2 14 2 13 1 14 
2 13 2 14 1 13 2 14 1 13 2 14 2 14 1 13 
2 14 2 13 1 14 2 14 2 13 1 14 2 14 2 13 
1 14 2 14 2 13 1 14 2 14 2 13 1 14 2 14 
1 13 2 14 2 14 1 14 2 13 2 14 1 14 2 14 
2 14 1 13 2 14 2 14 1 14 2 14 2 14 1 13 
2 14 2 14 1 14 2 14 2 14 1 14 2 14 1 14 
2 14 2 14 1 14 2 13 2 14 1 14 2 14 2 14 
1 14 2 14 2 14 1316 3503 100 MP stroke
1 15 2 14 2 14 1 14 2 14 2 14 1 14 2 14 
1 14 2 14 2 14 1 14 2 15 2 14 1 14 2 14 
2 14 1 14 2 15 2 14 1 14 2 14 2 14 1 15 
2 14 2 14 1 14 2 15 1 14 2 -1411 2 14 1 14 
2 15 2 14 1 14 2 15 2 14 1 14 2 15 2 14 
1 14 2 15 2 14 1 15 2 14 2 14 1 15 2 14 
1 15 2 14 2 15 1 14 2 15 2 14 1 15 2 14 
2 15 1 14 2 15 2 14 1 15 2 14 2 15 1 14 
2 15 2 15 1 14 2 15 1 14 2 15 2 15 1 14 
2 15 2 15 1 14 2 15 2 15 1 14 2 15 2 15 
1 15 2 14 2 15 1 15 2 15 2 14 1 15 2 15 
2 15 1 14 2 15 1 15 2 15 2 15 1 14 2 15 
2 15 1 15 2 15 1153 3497 100 MP stroke
2 15 1 15 2 15 2 14 1 15 2 15 2 15 1 15 
2 15 2 15 1 15 2 15 1 15 2 15 2 15 1 15 
2 15 2 15 1 15 2 15 2 15 1 15 2 15 2 15 
1 15 2 15 2 16 1 15 2 15 2 15 1 -1411 2 16 
1 15 2 15 2 15 1 15 2 15 2 15 1 16 2 15 
2 15 1 15 2 16 2 15 1 15 2 15 2 16 1 15 
2 15 2 15 1 16 2 15 1 15 2 16 2 15 1 15 
2 16 2 15 1 15 2 16 2 15 1 15 2 16 2 15 
1 16 2 15 2 15 1 16 2 15 2 16 1 15 2 16 
2 15 1 16 2 15 1 16 2 15 2 16 1 15 2 16 
2 15 1 16 2 15 2 16 1 15 2 16 2 16 1 15 
2 16 2 15 1 16 2 16 2 15 1 16 2 16 1 15 
2 16 2 16 1 15 990 3410 100 MP stroke
2 16 2 16 1 15 2 16 2 16 1 16 2 15 2 16 
1 16 2 16 2 15 1 16 2 16 2 16 1 15 2 16 
1 16 2 16 2 16 1 16 2 15 2 16 1 16 2 16 
2 16 1 16 2 16 2 16 1 16 2 15 2 16 938 2920 32 MP stroke

gr 
%%IncludeResource: font Times-Roman
/Times-Roman /ISOLatin1Encoding 192 FMSR

2739 4981 mt 
(Lateral position [mm]) s
 547 4095 mt  -90 rotate
(Error [ns]) s
90 rotate

end

eplot
%%EndObject graph 1

epage
end

showpage

%%Trailer
%%EOF
