%!PS-Adobe-2.0 EPSF-2.0
%%Title: rect_aper.eps
%%Creator: fig2dev Version 3.2 Patchlevel 1
%%CreationDate: Mon Jun 14 15:42:20 1999
%%For: mea1@abo.egr.duke.edu ()
%%Orientation: Portrait
%%BoundingBox: 0 0 1272 654
%%Pages: 0
%%BeginSetup
%%EndSetup
%%Magnification: 1.0000
%%EndComments
/$F2psDict 200 dict def
$F2psDict begin
$F2psDict /mtrx matrix put
/col-1 {0 setgray} bind def
/col0 {0.000 0.000 0.000 srgb} bind def
/col1 {0.000 0.000 1.000 srgb} bind def
/col2 {0.000 1.000 0.000 srgb} bind def
/col3 {0.000 1.000 1.000 srgb} bind def
/col4 {1.000 0.000 0.000 srgb} bind def
/col5 {1.000 0.000 1.000 srgb} bind def
/col6 {1.000 1.000 0.000 srgb} bind def
/col7 {1.000 1.000 1.000 srgb} bind def
/col8 {0.000 0.000 0.560 srgb} bind def
/col9 {0.000 0.000 0.690 srgb} bind def
/col10 {0.000 0.000 0.820 srgb} bind def
/col11 {0.530 0.810 1.000 srgb} bind def
/col12 {0.000 0.560 0.000 srgb} bind def
/col13 {0.000 0.690 0.000 srgb} bind def
/col14 {0.000 0.820 0.000 srgb} bind def
/col15 {0.000 0.560 0.560 srgb} bind def
/col16 {0.000 0.690 0.690 srgb} bind def
/col17 {0.000 0.820 0.820 srgb} bind def
/col18 {0.560 0.000 0.000 srgb} bind def
/col19 {0.690 0.000 0.000 srgb} bind def
/col20 {0.820 0.000 0.000 srgb} bind def
/col21 {0.560 0.000 0.560 srgb} bind def
/col22 {0.690 0.000 0.690 srgb} bind def
/col23 {0.820 0.000 0.820 srgb} bind def
/col24 {0.500 0.190 0.000 srgb} bind def
/col25 {0.630 0.250 0.000 srgb} bind def
/col26 {0.750 0.380 0.000 srgb} bind def
/col27 {1.000 0.500 0.500 srgb} bind def
/col28 {1.000 0.630 0.630 srgb} bind def
/col29 {1.000 0.750 0.750 srgb} bind def
/col30 {1.000 0.880 0.880 srgb} bind def
/col31 {1.000 0.840 0.000 srgb} bind def

end
save
-83.0 692.0 translate
1 -1 scale

/cp {closepath} bind def
/ef {eofill} bind def
/gr {grestore} bind def
/gs {gsave} bind def
/sa {save} bind def
/rs {restore} bind def
/l {lineto} bind def
/m {moveto} bind def
/rm {rmoveto} bind def
/n {newpath} bind def
/s {stroke} bind def
/sh {show} bind def
/slc {setlinecap} bind def
/slj {setlinejoin} bind def
/slw {setlinewidth} bind def
/srgb {setrgbcolor} bind def
/rot {rotate} bind def
/sc {scale} bind def
/sd {setdash} bind def
/ff {findfont} bind def
/sf {setfont} bind def
/scf {scalefont} bind def
/sw {stringwidth} bind def
/tr {translate} bind def
/tnt {dup dup currentrgbcolor
  4 -2 roll dup 1 exch sub 3 -1 roll mul add
  4 -2 roll dup 1 exch sub 3 -1 roll mul add
  4 -2 roll dup 1 exch sub 3 -1 roll mul add srgb}
  bind def
/shd {dup dup currentrgbcolor 4 -2 roll mul 4 -2 roll mul
  4 -2 roll mul srgb} bind def
/reencdict 12 dict def /ReEncode { reencdict begin
/newcodesandnames exch def /newfontname exch def /basefontname exch def
/basefontdict basefontname findfont def /newfont basefontdict maxlength dict def
basefontdict { exch dup /FID ne { dup /Encoding eq
{ exch dup length array copy newfont 3 1 roll put }
{ exch newfont 3 1 roll put } ifelse } { pop pop } ifelse } forall
newfont /FontName newfontname put newcodesandnames aload pop
128 1 255 { newfont /Encoding get exch /.notdef put } for
newcodesandnames length 2 idiv { newfont /Encoding get 3 1 roll put } repeat
newfontname newfont definefont pop end } def
/isovec [
8#200 /grave 8#201 /acute 8#202 /circumflex 8#203 /tilde
8#204 /macron 8#205 /breve 8#206 /dotaccent 8#207 /dieresis
8#210 /ring 8#211 /cedilla 8#212 /hungarumlaut 8#213 /ogonek 8#214 /caron
8#220 /dotlessi 8#230 /oe 8#231 /OE
8#240 /space 8#241 /exclamdown 8#242 /cent 8#243 /sterling
8#244 /currency 8#245 /yen 8#246 /brokenbar 8#247 /section 8#250 /dieresis
8#251 /copyright 8#252 /ordfeminine 8#253 /guillemotleft 8#254 /logicalnot
8#255 /endash 8#256 /registered 8#257 /macron 8#260 /degree 8#261 /plusminus
8#262 /twosuperior 8#263 /threesuperior 8#264 /acute 8#265 /mu 8#266 /paragraph
8#267 /periodcentered 8#270 /cedilla 8#271 /onesuperior 8#272 /ordmasculine
8#273 /guillemotright 8#274 /onequarter 8#275 /onehalf
8#276 /threequarters 8#277 /questiondown 8#300 /Agrave 8#301 /Aacute
8#302 /Acircumflex 8#303 /Atilde 8#304 /Adieresis 8#305 /Aring
8#306 /AE 8#307 /Ccedilla 8#310 /Egrave 8#311 /Eacute
8#312 /Ecircumflex 8#313 /Edieresis 8#314 /Igrave 8#315 /Iacute
8#316 /Icircumflex 8#317 /Idieresis 8#320 /Eth 8#321 /Ntilde 8#322 /Ograve
8#323 /Oacute 8#324 /Ocircumflex 8#325 /Otilde 8#326 /Odieresis 8#327 /multiply
8#330 /Oslash 8#331 /Ugrave 8#332 /Uacute 8#333 /Ucircumflex
8#334 /Udieresis 8#335 /Yacute 8#336 /Thorn 8#337 /germandbls 8#340 /agrave
8#341 /aacute 8#342 /acircumflex 8#343 /atilde 8#344 /adieresis 8#345 /aring
8#346 /ae 8#347 /ccedilla 8#350 /egrave 8#351 /eacute
8#352 /ecircumflex 8#353 /edieresis 8#354 /igrave 8#355 /iacute
8#356 /icircumflex 8#357 /idieresis 8#360 /eth 8#361 /ntilde 8#362 /ograve
8#363 /oacute 8#364 /ocircumflex 8#365 /otilde 8#366 /odieresis 8#367 /divide
8#370 /oslash 8#371 /ugrave 8#372 /uacute 8#373 /ucircumflex
8#374 /udieresis 8#375 /yacute 8#376 /thorn 8#377 /ydieresis] def
/Times-Roman /Times-Roman-iso isovec ReEncode
/$F2psBegin {$F2psDict begin /$F2psEnteredState save def} def
/$F2psEnd {$F2psEnteredState restore end} def
%%EndProlog

$F2psBegin
10 setmiterlimit
n -1000 12530 m -1000 -1000 l 23583 -1000 l 23583 12530 l cp clip
 0.06000 0.06000 sc
/Times-Roman-iso ff 480.00 scf sf
8625 10650 m
gs 1 -1 sc (x) dup sw pop 2 div neg 0 rm  col0 sh gr
/Times-Roman-iso ff 570.00 scf sf
8400 10500 m
gs 1 -1 sc (f) dup sw pop 2 div neg 0 rm  col0 sh gr
/Times-Roman-iso ff 480.00 scf sf
21225 10575 m
gs 1 -1 sc (x) dup sw pop 2 div neg 0 rm  col0 sh gr
/Times-Roman-iso ff 570.00 scf sf
20775 10425 m
gs 1 -1 sc (2 f) dup sw pop 2 div neg 0 rm  col0 sh gr
/Times-Roman-iso ff 480.00 scf sf
11625 10350 m
gs 1 -1 sc (x) dup sw pop 2 div neg 0 rm  col0 sh gr
/Times-Roman-iso ff 570.00 scf sf
11400 10200 m
gs 1 -1 sc (k) dup sw pop 2 div neg 0 rm  col0 sh gr
/Times-Roman-iso ff 480.00 scf sf
22425 10350 m
gs 1 -1 sc (x) dup sw pop 2 div neg 0 rm  col0 sh gr
/Times-Roman-iso ff 570.00 scf sf
22200 10200 m
gs 1 -1 sc (k) dup sw pop 2 div neg 0 rm  col0 sh gr
% Polyline
30.000 slw
gs  clippath
11484 9570 m 11627 9600 l 11484 9630 l 11820 9630 l 11820 9570 l cp
1716 9630 m 1572 9600 l 1716 9570 l 1380 9570 l 1380 9630 l cp
clip
n 1425 9600 m 11775 9600 l gs col0 s gr gr

% arrowhead
60.000 slw
n 1716 9630 m 1572 9600 l 1716 9570 l 1692 9600 l 1716 9630 l  cp gs 0.00 setgray ef gr  col0 s
% arrowhead
n 11484 9570 m 11627 9600 l 11484 9630 l 11508 9600 l 11484 9570 l  cp gs 0.00 setgray ef gr  col0 s
% Polyline
30.000 slw
gs  clippath
6570 7491 m 6600 7347 l 6630 7491 l 6630 7155 l 6570 7155 l cp
clip
n 6600 7200 m 6600 9600 l gs col0 s gr gr

% arrowhead
60.000 slw
n 6570 7491 m 6600 7347 l 6630 7491 l 6600 7467 l 6570 7491 l  cp gs 0.00 setgray ef gr  col0 s
% Polyline
n 17400 8400 m 13800 9600 l gs col0 s gr 
% Polyline
n 17400 8400 m 21075 9600 l gs col0 s gr 
% Polyline
30.000 slw
gs  clippath
17370 7491 m 17400 7347 l 17430 7491 l 17430 7155 l 17370 7155 l cp
clip
n 17400 7200 m 17400 9600 l gs col0 s gr gr

% arrowhead
60.000 slw
n 17370 7491 m 17400 7347 l 17430 7491 l 17400 7467 l 17370 7491 l  cp gs 0.00 setgray ef gr  col0 s
% Polyline
30.000 slw
gs  clippath
22259 9570 m 22402 9600 l 22259 9630 l 22595 9630 l 22595 9570 l cp
12516 9630 m 12372 9600 l 12516 9570 l 12180 9570 l 12180 9630 l cp
clip
n 12225 9600 m 22550 9600 l gs col0 s gr gr

% arrowhead
60.000 slw
n 12516 9630 m 12372 9600 l 12516 9570 l 12492 9600 l 12516 9630 l  cp gs 0.00 setgray ef gr  col0 s
% arrowhead
n 22259 9570 m 22402 9600 l 22259 9630 l 22283 9600 l 22259 9570 l  cp gs 0.00 setgray ef gr  col0 s
% Polyline
n 4800 9600 m 4800 8400 l 8400 8400 l 8400 9600 l gs col0 s gr 
/Times-Roman-iso ff 480.00 scf sf
14100 10500 m
gs 1 -1 sc (x) dup sw pop 2 div neg 0 rm  col0 sh gr
/Times-Roman-iso ff 570.00 scf sf
13500 10350 m
gs 1 -1 sc (-2 f) dup sw pop 2 div neg 0 rm  col0 sh gr
/Times-Roman-iso ff 480.00 scf sf
5025 10575 m
gs 1 -1 sc (x) dup sw pop 2 div neg 0 rm  col0 sh gr
/Times-Roman-iso ff 570.00 scf sf
4650 10425 m
gs 1 -1 sc (-f) dup sw pop 2 div neg 0 rm  col0 sh gr
/Times-Roman-iso ff 480.00 scf sf
6600 11400 m
gs 1 -1 sc (Tx or Rx only) dup sw pop 2 div neg 0 rm  col0 sh gr
/Times-Roman-iso ff 480.00 scf sf
17400 11400 m
gs 1 -1 sc (Tx-Rx) dup sw pop 2 div neg 0 rm  col0 sh gr
% Polyline
30.000 slw
gs  clippath
11484 4770 m 11627 4800 l 11484 4830 l 11820 4830 l 11820 4770 l cp
1716 4830 m 1572 4800 l 1716 4770 l 1380 4770 l 1380 4830 l cp
clip
n 1425 4800 m 11775 4800 l gs col0 s gr gr

% arrowhead
60.000 slw
n 1716 4830 m 1572 4800 l 1716 4770 l 1692 4800 l 1716 4830 l  cp gs 0.00 setgray ef gr  col0 s
% arrowhead
n 11484 4770 m 11627 4800 l 11484 4830 l 11508 4800 l 11484 4770 l  cp gs 0.00 setgray ef gr  col0 s
% Polyline
30.000 slw
gs  clippath
6570 991 m 6600 847 l 6630 991 l 6630 655 l 6570 655 l cp
clip
n 6600 700 m 6600 4800 l gs col0 s gr gr

% arrowhead
60.000 slw
n 6570 991 m 6600 847 l 6630 991 l 6600 967 l 6570 991 l  cp gs 0.00 setgray ef gr  col0 s
% Polyline
30.000 slw
gs  clippath
17370 991 m 17400 847 l 17430 991 l 17430 655 l 17370 655 l cp
clip
n 17400 700 m 17400 4800 l gs col0 s gr gr

% arrowhead
60.000 slw
n 17370 991 m 17400 847 l 17430 991 l 17400 967 l 17370 991 l  cp gs 0.00 setgray ef gr  col0 s
% Polyline
30.000 slw
gs  clippath
22259 4770 m 22402 4800 l 22259 4830 l 22595 4830 l 22595 4770 l cp
12516 4830 m 12372 4800 l 12516 4770 l 12180 4770 l 12180 4830 l cp
clip
n 12225 4800 m 22550 4800 l gs col0 s gr gr

% arrowhead
60.000 slw
n 12516 4830 m 12372 4800 l 12516 4770 l 12492 4800 l 12516 4830 l  cp gs 0.00 setgray ef gr  col0 s
% arrowhead
n 22259 4770 m 22402 4800 l 22259 4830 l 22283 4800 l 22259 4770 l  cp gs 0.00 setgray ef gr  col0 s
% Polyline
n 17400 2475 m 17399 2476 l 17397 2479 l 17394 2485 l 17389 2493 l 17381 2504 l
 17372 2519 l 17362 2537 l 17349 2558 l 17336 2582 l 17321 2608 l
 17306 2635 l 17292 2664 l 17277 2694 l 17263 2726 l 17249 2758 l
 17235 2792 l 17223 2828 l 17210 2866 l 17199 2907 l 17187 2951 l
 17175 3000 l 17168 3029 l 17162 3059 l 17155 3092 l 17148 3126 l
 17141 3162 l 17134 3201 l 17127 3241 l 17119 3283 l 17112 3328 l
 17104 3374 l 17097 3422 l 17089 3471 l 17081 3522 l 17073 3574 l
 17065 3628 l 17057 3682 l 17049 3737 l 17041 3793 l 17033 3849 l
 17025 3905 l 17017 3961 l 17009 4016 l 17001 4071 l 16993 4125 l
 16985 4178 l 16977 4230 l 16969 4280 l 16961 4329 l 16953 4375 l
 16946 4420 l 16938 4462 l 16931 4502 l 16923 4540 l 16916 4574 l
 16909 4606 l 16902 4636 l 16895 4662 l 16888 4686 l 16882 4707 l
 16875 4725 l 16863 4751 l 16852 4769 l 16840 4778 l 16829 4779 l
 16818 4773 l 16808 4760 l 16797 4741 l 16787 4717 l 16776 4689 l
 16766 4658 l 16755 4625 l 16745 4592 l 16735 4558 l 16725 4525 l
 16715 4493 l 16705 4464 l 16696 4438 l 16686 4414 l 16677 4394 l
 16668 4377 l 16659 4363 l 16650 4350 l 16637 4332 l 16625 4316 l
 16613 4302 l 16602 4288 l 16592 4275 l 16581 4262 l 16571 4250 l
 16562 4239 l 16552 4229 l 16542 4220 l 16532 4212 l 16521 4205 l
 16511 4201 l 16500 4200 l 16489 4201 l 16479 4205 l 16468 4211 l
 16457 4218 l 16446 4227 l 16436 4237 l 16425 4247 l 16414 4258 l
 16404 4270 l 16393 4283 l 16382 4297 l 16371 4312 l 16361 4330 l
 16350 4350 l 16342 4366 l 16335 4384 l 16327 4404 l 16318 4428 l
 16309 4454 l 16299 4483 l 16288 4515 l 16277 4549 l 16266 4584 l
 16255 4620 l 16244 4655 l 16234 4689 l 16225 4719 l 16217 4745 l
 16210 4766 l 16206 4781 l 16203 4792 l 16201 4797 l 16200 4800 l gs col0 s gr 
% Polyline
n 16200 4800 m 16198 4797 l 16195 4792 l 16190 4783 l 16181 4769 l 16171 4752 l
 16159 4732 l 16145 4710 l 16131 4688 l 16117 4666 l 16104 4645 l
 16091 4627 l 16080 4611 l 16069 4597 l 16059 4585 l 16050 4575 l
 16037 4563 l 16025 4554 l 16013 4545 l 16000 4537 l 15987 4530 l
 15975 4523 l 15963 4517 l 15950 4512 l 15938 4507 l 15925 4504 l
 15913 4501 l 15900 4500 l 15887 4501 l 15875 4504 l 15863 4507 l
 15850 4512 l 15837 4517 l 15825 4523 l 15813 4530 l 15800 4537 l
 15788 4545 l 15775 4554 l 15763 4563 l 15750 4575 l 15741 4585 l
 15731 4597 l 15720 4611 l 15709 4627 l 15696 4645 l 15683 4666 l
 15669 4688 l 15655 4710 l 15641 4732 l 15629 4752 l 15619 4769 l
 15610 4783 l 15605 4792 l 15602 4797 l 15600 4800 l gs col0 s gr 
% Polyline
n 18600 4800 m 18602 4797 l 18605 4792 l 18610 4783 l 18619 4769 l 18629 4752 l
 18641 4732 l 18655 4710 l 18669 4688 l 18683 4666 l 18696 4645 l
 18709 4627 l 18720 4611 l 18731 4597 l 18741 4585 l 18750 4575 l
 18763 4563 l 18775 4554 l 18788 4545 l 18800 4537 l 18813 4530 l
 18825 4523 l 18837 4517 l 18850 4512 l 18862 4507 l 18875 4504 l
 18887 4501 l 18900 4500 l 18913 4501 l 18925 4504 l 18938 4507 l
 18950 4512 l 18963 4517 l 18975 4523 l 18987 4530 l 19000 4537 l
 19012 4545 l 19025 4554 l 19037 4563 l 19050 4575 l 19059 4585 l
 19069 4597 l 19080 4611 l 19091 4627 l 19104 4645 l 19117 4666 l
 19131 4688 l 19145 4710 l 19159 4732 l 19171 4752 l 19181 4769 l
 19190 4783 l 19195 4792 l 19198 4797 l 19200 4800 l gs col0 s gr 
% Polyline
n 15600 4800 m 15598 4798 l 15593 4793 l 15585 4784 l 15574 4772 l 15560 4758 l
 15545 4741 l 15529 4724 l 15513 4708 l 15498 4693 l 15485 4680 l
 15472 4668 l 15461 4659 l 15450 4650 l 15437 4641 l 15425 4633 l
 15413 4625 l 15400 4617 l 15387 4609 l 15375 4602 l 15363 4595 l
 15350 4589 l 15338 4583 l 15325 4579 l 15313 4576 l 15300 4575 l
 15287 4576 l 15275 4579 l 15263 4583 l 15250 4589 l 15237 4595 l
 15225 4602 l 15213 4609 l 15200 4617 l 15188 4625 l 15175 4633 l
 15163 4641 l 15150 4650 l 15139 4659 l 15128 4668 l 15115 4680 l
 15102 4693 l 15087 4708 l 15071 4724 l 15055 4741 l 15040 4758 l
 15026 4772 l 15015 4784 l 15007 4793 l 15002 4798 l 15000 4800 l gs col0 s gr 
% Polyline
n 17400 2475 m 17401 2476 l 17403 2479 l 17406 2485 l 17411 2493 l 17419 2504 l
 17428 2519 l 17438 2537 l 17451 2558 l 17464 2582 l 17479 2608 l
 17494 2635 l 17508 2664 l 17523 2694 l 17537 2726 l 17551 2758 l
 17565 2792 l 17577 2828 l 17590 2866 l 17601 2907 l 17613 2951 l
 17625 3000 l 17632 3029 l 17638 3059 l 17645 3092 l 17652 3126 l
 17659 3162 l 17666 3201 l 17673 3241 l 17681 3283 l 17688 3328 l
 17696 3374 l 17703 3422 l 17711 3471 l 17719 3522 l 17727 3574 l
 17735 3628 l 17743 3682 l 17751 3737 l 17759 3793 l 17767 3849 l
 17775 3905 l 17783 3961 l 17791 4016 l 17799 4071 l 17807 4125 l
 17815 4178 l 17823 4230 l 17831 4280 l 17839 4329 l 17847 4375 l
 17854 4420 l 17862 4462 l 17869 4502 l 17877 4540 l 17884 4574 l
 17891 4606 l 17898 4636 l 17905 4662 l 17912 4686 l 17918 4707 l
 17925 4725 l 17937 4751 l 17948 4769 l 17960 4778 l 17971 4779 l
 17982 4773 l 17992 4760 l 18003 4741 l 18013 4717 l 18024 4689 l
 18034 4658 l 18045 4625 l 18055 4592 l 18065 4558 l 18075 4525 l
 18085 4493 l 18095 4464 l 18104 4438 l 18114 4414 l 18123 4394 l
 18132 4377 l 18141 4363 l 18150 4350 l 18163 4332 l 18175 4316 l
 18187 4302 l 18198 4288 l 18208 4275 l 18219 4262 l 18229 4250 l
 18238 4239 l 18248 4229 l 18258 4220 l 18268 4212 l 18279 4205 l
 18289 4201 l 18300 4200 l 18311 4201 l 18321 4205 l 18332 4211 l
 18343 4218 l 18354 4227 l 18364 4237 l 18375 4247 l 18386 4258 l
 18396 4270 l 18407 4283 l 18418 4297 l 18429 4312 l 18439 4330 l
 18450 4350 l 18458 4366 l 18465 4384 l 18473 4404 l 18482 4428 l
 18491 4454 l 18501 4483 l 18512 4515 l 18523 4549 l 18534 4584 l
 18545 4620 l 18556 4655 l 18566 4689 l 18575 4719 l 18583 4745 l
 18590 4766 l 18594 4781 l 18597 4792 l 18599 4797 l 18600 4800 l gs col0 s gr 
% Polyline
n 19172 4786 m 19174 4784 l 19179 4779 l 19187 4770 l 19198 4758 l 19212 4744 l
 19227 4727 l 19243 4710 l 19259 4694 l 19274 4679 l 19287 4666 l
 19300 4654 l 19311 4645 l 19322 4636 l 19335 4627 l 19347 4619 l
 19360 4611 l 19372 4603 l 19385 4595 l 19397 4588 l 19409 4581 l
 19422 4575 l 19434 4569 l 19447 4565 l 19459 4562 l 19472 4561 l
 19485 4562 l 19497 4565 l 19510 4569 l 19522 4575 l 19535 4581 l
 19547 4588 l 19559 4595 l 19572 4603 l 19584 4611 l 19597 4619 l
 19609 4627 l 19622 4636 l 19633 4645 l 19644 4654 l 19657 4666 l
 19670 4679 l 19685 4694 l 19701 4710 l 19717 4727 l 19732 4744 l
 19746 4758 l 19757 4770 l 19765 4779 l 19770 4784 l 19772 4786 l gs col0 s gr 
% Polyline
n 6600 2475 m 6599 2476 l 6597 2478 l 6593 2482 l 6587 2489 l 6579 2497 l
 6569 2509 l 6556 2523 l 6542 2540 l 6526 2559 l 6508 2581 l
 6490 2604 l 6471 2628 l 6453 2654 l 6434 2682 l 6416 2710 l
 6399 2739 l 6383 2770 l 6367 2802 l 6352 2836 l 6339 2872 l
 6325 2911 l 6313 2954 l 6300 3000 l 6293 3028 l 6286 3058 l
 6279 3090 l 6271 3123 l 6264 3158 l 6257 3195 l 6249 3233 l
 6242 3273 l 6235 3315 l 6227 3358 l 6220 3402 l 6212 3448 l
 6205 3495 l 6197 3544 l 6189 3593 l 6182 3644 l 6174 3695 l
 6166 3746 l 6158 3798 l 6151 3851 l 6143 3904 l 6135 3956 l
 6128 4009 l 6120 4061 l 6112 4112 l 6105 4163 l 6097 4213 l
 6090 4263 l 6083 4311 l 6076 4358 l 6069 4404 l 6062 4448 l
 6055 4491 l 6048 4532 l 6042 4571 l 6035 4609 l 6029 4645 l
 6023 4680 l 6017 4712 l 6011 4743 l 6005 4772 l 6000 4800 l
 5989 4853 l 5979 4899 l 5970 4940 l 5961 4975 l 5953 5005 l
 5945 5030 l 5938 5052 l 5931 5071 l 5924 5087 l 5918 5102 l
 5912 5116 l 5905 5130 l 5899 5143 l 5893 5157 l 5886 5171 l
 5879 5186 l 5872 5202 l 5865 5218 l 5857 5234 l 5850 5250 l
 5839 5270 l 5829 5288 l 5818 5303 l 5807 5317 l 5796 5330 l
 5786 5342 l 5775 5353 l 5764 5363 l 5754 5373 l 5743 5382 l
 5732 5389 l 5721 5395 l 5711 5399 l 5700 5400 l 5689 5399 l
 5679 5395 l 5668 5389 l 5657 5382 l 5646 5373 l 5636 5363 l
 5625 5353 l 5614 5342 l 5604 5330 l 5593 5317 l 5582 5303 l
 5571 5288 l 5561 5270 l 5550 5250 l 5542 5234 l 5535 5216 l
 5527 5196 l 5518 5172 l 5509 5146 l 5499 5117 l 5488 5085 l
 5477 5051 l 5466 5016 l 5455 4980 l 5444 4945 l 5434 4911 l
 5425 4881 l 5417 4855 l 5410 4834 l 5406 4819 l 5403 4808 l
 5401 4803 l 5400 4800 l gs col0 s gr 
% Polyline
n 5400 4800 m 5398 4797 l 5395 4792 l 5390 4783 l 5381 4769 l 5371 4752 l
 5359 4732 l 5345 4710 l 5331 4688 l 5317 4666 l 5304 4645 l
 5291 4627 l 5280 4611 l 5269 4597 l 5259 4585 l 5250 4575 l
 5237 4563 l 5225 4554 l 5213 4545 l 5200 4537 l 5187 4530 l
 5175 4523 l 5163 4517 l 5150 4512 l 5138 4507 l 5125 4504 l
 5113 4501 l 5100 4500 l 5087 4501 l 5075 4504 l 5063 4507 l
 5050 4512 l 5037 4517 l 5025 4523 l 5013 4530 l 5000 4537 l
 4988 4545 l 4975 4554 l 4963 4563 l 4950 4575 l 4941 4585 l
 4931 4597 l 4920 4611 l 4909 4627 l 4896 4645 l 4883 4666 l
 4869 4688 l 4855 4710 l 4841 4732 l 4829 4752 l 4819 4769 l
 4810 4783 l 4805 4792 l 4802 4797 l 4800 4800 l gs col0 s gr 
% Polyline
n 4800 4800 m 4798 4802 l 4793 4807 l 4785 4816 l 4774 4828 l 4760 4842 l
 4745 4859 l 4729 4876 l 4713 4892 l 4698 4907 l 4685 4920 l
 4672 4932 l 4661 4941 l 4650 4950 l 4637 4959 l 4625 4967 l
 4613 4975 l 4600 4983 l 4587 4991 l 4575 4998 l 4563 5005 l
 4550 5011 l 4538 5017 l 4525 5021 l 4513 5024 l 4500 5025 l
 4487 5024 l 4475 5021 l 4463 5017 l 4450 5011 l 4437 5005 l
 4425 4998 l 4413 4991 l 4400 4983 l 4388 4975 l 4375 4967 l
 4363 4959 l 4350 4950 l 4339 4941 l 4328 4932 l 4315 4920 l
 4302 4907 l 4287 4892 l 4271 4876 l 4255 4859 l 4240 4842 l
 4226 4828 l 4215 4816 l 4207 4807 l 4202 4802 l 4200 4800 l gs col0 s gr 
% Polyline
n 6600 2475 m 6601 2476 l 6603 2478 l 6607 2482 l 6613 2489 l 6621 2497 l
 6631 2509 l 6644 2523 l 6658 2540 l 6674 2559 l 6692 2581 l
 6710 2604 l 6729 2628 l 6747 2654 l 6766 2682 l 6784 2710 l
 6801 2739 l 6817 2770 l 6833 2802 l 6848 2836 l 6861 2872 l
 6875 2911 l 6887 2954 l 6900 3000 l 6907 3028 l 6914 3058 l
 6921 3090 l 6929 3123 l 6936 3158 l 6943 3195 l 6951 3233 l
 6958 3273 l 6965 3315 l 6973 3358 l 6980 3402 l 6988 3448 l
 6995 3495 l 7003 3544 l 7011 3593 l 7018 3644 l 7026 3695 l
 7034 3746 l 7042 3798 l 7049 3851 l 7057 3904 l 7065 3956 l
 7072 4009 l 7080 4061 l 7088 4112 l 7095 4163 l 7103 4213 l
 7110 4263 l 7117 4311 l 7124 4358 l 7131 4404 l 7138 4448 l
 7145 4491 l 7152 4532 l 7158 4571 l 7165 4609 l 7171 4645 l
 7177 4680 l 7183 4712 l 7189 4743 l 7195 4772 l 7200 4800 l
 7211 4853 l 7221 4899 l 7230 4940 l 7239 4975 l 7247 5005 l
 7255 5030 l 7262 5052 l 7269 5071 l 7276 5087 l 7282 5102 l
 7288 5116 l 7295 5130 l 7301 5143 l 7307 5157 l 7314 5171 l
 7321 5186 l 7328 5202 l 7335 5218 l 7343 5234 l 7350 5250 l
 7361 5270 l 7371 5288 l 7382 5303 l 7393 5317 l 7404 5330 l
 7414 5342 l 7425 5353 l 7436 5363 l 7446 5373 l 7457 5382 l
 7468 5389 l 7479 5395 l 7489 5399 l 7500 5400 l 7511 5399 l
 7521 5395 l 7532 5389 l 7543 5382 l 7554 5373 l 7564 5363 l
 7575 5353 l 7586 5342 l 7596 5330 l 7607 5317 l 7618 5303 l
 7629 5288 l 7639 5270 l 7650 5250 l 7658 5234 l 7665 5216 l
 7673 5196 l 7682 5172 l 7691 5146 l 7701 5117 l 7712 5085 l
 7723 5051 l 7734 5016 l 7745 4980 l 7756 4945 l 7766 4911 l
 7775 4881 l 7783 4855 l 7790 4834 l 7794 4819 l 7797 4808 l
 7799 4803 l 7800 4800 l gs col0 s gr 
% Polyline
n 7800 4800 m 7802 4797 l 7805 4792 l 7810 4783 l 7819 4769 l 7829 4752 l
 7841 4732 l 7855 4710 l 7869 4688 l 7883 4666 l 7896 4645 l
 7909 4627 l 7920 4611 l 7931 4597 l 7941 4585 l 7950 4575 l
 7963 4563 l 7975 4554 l 7988 4545 l 8000 4537 l 8013 4530 l
 8025 4523 l 8037 4517 l 8050 4512 l 8062 4507 l 8075 4504 l
 8087 4501 l 8100 4500 l 8113 4501 l 8125 4504 l 8138 4507 l
 8150 4512 l 8163 4517 l 8175 4523 l 8187 4530 l 8200 4537 l
 8212 4545 l 8225 4554 l 8237 4563 l 8250 4575 l 8259 4585 l
 8269 4597 l 8280 4611 l 8291 4627 l 8304 4645 l 8317 4666 l
 8331 4688 l 8345 4710 l 8359 4732 l 8371 4752 l 8381 4769 l
 8390 4783 l 8395 4792 l 8398 4797 l 8400 4800 l gs col0 s gr 
% Polyline
n 8400 4800 m 8402 4802 l 8407 4807 l 8415 4816 l 8426 4828 l 8440 4842 l
 8455 4859 l 8471 4876 l 8487 4892 l 8502 4907 l 8515 4920 l
 8528 4932 l 8539 4941 l 8550 4950 l 8563 4959 l 8575 4967 l
 8588 4975 l 8600 4983 l 8613 4991 l 8625 4998 l 8637 5005 l
 8650 5011 l 8662 5017 l 8675 5021 l 8687 5024 l 8700 5025 l
 8713 5024 l 8725 5021 l 8738 5017 l 8750 5011 l 8763 5005 l
 8775 4998 l 8787 4991 l 8800 4983 l 8812 4975 l 8825 4967 l
 8837 4959 l 8850 4950 l 8861 4941 l 8872 4932 l 8885 4920 l
 8898 4907 l 8913 4892 l 8929 4876 l 8945 4859 l 8960 4842 l
 8974 4828 l 8985 4816 l 8993 4807 l 8998 4802 l 9000 4800 l gs col0 s gr 
/Times-Roman-iso ff 480.00 scf sf
6600 6600 m
gs 1 -1 sc (Tx or Rx only) dup sw pop 2 div neg 0 rm  col0 sh gr
/Times-Roman-iso ff 480.00 scf sf
17400 6600 m
gs 1 -1 sc (Tx-Rx) dup sw pop 2 div neg 0 rm  col0 sh gr
/Times-Roman-iso ff 480.00 scf sf
11550 5400 m
gs 1 -1 sc (x) dup sw pop 2 div neg 0 rm  col0 sh gr
/Times-Roman-iso ff 480.00 scf sf
22350 5400 m
gs 1 -1 sc (x) dup sw pop 2 div neg 0 rm  col0 sh gr
/Times-Roman-iso ff 480.00 scf sf
7200 975 m
gs 1 -1 sc (|A|) dup sw pop 2 div neg 0 rm  col0 sh gr
/Times-Roman-iso ff 480.00 scf sf
18000 975 m
gs 1 -1 sc (|A|) dup sw pop 2 div neg 0 rm  col0 sh gr
$F2psEnd
rs
