%!PS-Adobe-2.0 EPSF-2.0
%%Title: source_square.eps
%%Creator: fig2dev Version 3.2 Patchlevel 3c
%%CreationDate: Sun Sep 23 15:19:10 2001
%%For: mea1@node6 (Martin Anderson)
%%BoundingBox: 0 0 1490 679
%%Magnification: 1.0000
%%EndComments
/$F2psDict 200 dict def
$F2psDict begin
$F2psDict /mtrx matrix put
/col-1 {0 setgray} bind def
/col0 {0.000 0.000 0.000 srgb} bind def
/col1 {0.000 0.000 1.000 srgb} bind def
/col2 {0.000 1.000 0.000 srgb} bind def
/col3 {0.000 1.000 1.000 srgb} bind def
/col4 {1.000 0.000 0.000 srgb} bind def
/col5 {1.000 0.000 1.000 srgb} bind def
/col6 {1.000 1.000 0.000 srgb} bind def
/col7 {1.000 1.000 1.000 srgb} bind def
/col8 {0.000 0.000 0.560 srgb} bind def
/col9 {0.000 0.000 0.690 srgb} bind def
/col10 {0.000 0.000 0.820 srgb} bind def
/col11 {0.530 0.810 1.000 srgb} bind def
/col12 {0.000 0.560 0.000 srgb} bind def
/col13 {0.000 0.690 0.000 srgb} bind def
/col14 {0.000 0.820 0.000 srgb} bind def
/col15 {0.000 0.560 0.560 srgb} bind def
/col16 {0.000 0.690 0.690 srgb} bind def
/col17 {0.000 0.820 0.820 srgb} bind def
/col18 {0.560 0.000 0.000 srgb} bind def
/col19 {0.690 0.000 0.000 srgb} bind def
/col20 {0.820 0.000 0.000 srgb} bind def
/col21 {0.560 0.000 0.560 srgb} bind def
/col22 {0.690 0.000 0.690 srgb} bind def
/col23 {0.820 0.000 0.820 srgb} bind def
/col24 {0.500 0.190 0.000 srgb} bind def
/col25 {0.630 0.250 0.000 srgb} bind def
/col26 {0.750 0.380 0.000 srgb} bind def
/col27 {1.000 0.500 0.500 srgb} bind def
/col28 {1.000 0.630 0.630 srgb} bind def
/col29 {1.000 0.750 0.750 srgb} bind def
/col30 {1.000 0.880 0.880 srgb} bind def
/col31 {1.000 0.840 0.000 srgb} bind def

end
save
newpath 0 679 moveto 0 0 lineto 1490 0 lineto 1490 679 lineto closepath clip newpath
-149.0 696.0 translate
1 -1 scale

/cp {closepath} bind def
/ef {eofill} bind def
/gr {grestore} bind def
/gs {gsave} bind def
/sa {save} bind def
/rs {restore} bind def
/l {lineto} bind def
/m {moveto} bind def
/rm {rmoveto} bind def
/n {newpath} bind def
/s {stroke} bind def
/sh {show} bind def
/slc {setlinecap} bind def
/slj {setlinejoin} bind def
/slw {setlinewidth} bind def
/srgb {setrgbcolor} bind def
/rot {rotate} bind def
/sc {scale} bind def
/sd {setdash} bind def
/ff {findfont} bind def
/sf {setfont} bind def
/scf {scalefont} bind def
/sw {stringwidth} bind def
/tr {translate} bind def
/tnt {dup dup currentrgbcolor
  4 -2 roll dup 1 exch sub 3 -1 roll mul add
  4 -2 roll dup 1 exch sub 3 -1 roll mul add
  4 -2 roll dup 1 exch sub 3 -1 roll mul add srgb}
  bind def
/shd {dup dup currentrgbcolor 4 -2 roll mul 4 -2 roll mul
  4 -2 roll mul srgb} bind def
/reencdict 12 dict def /ReEncode { reencdict begin
/newcodesandnames exch def /newfontname exch def /basefontname exch def
/basefontdict basefontname findfont def /newfont basefontdict maxlength dict def
basefontdict { exch dup /FID ne { dup /Encoding eq
{ exch dup length array copy newfont 3 1 roll put }
{ exch newfont 3 1 roll put } ifelse } { pop pop } ifelse } forall
newfont /FontName newfontname put newcodesandnames aload pop
128 1 255 { newfont /Encoding get exch /.notdef put } for
newcodesandnames length 2 idiv { newfont /Encoding get 3 1 roll put } repeat
newfontname newfont definefont pop end } def
/isovec [
8#055 /minus 8#200 /grave 8#201 /acute 8#202 /circumflex 8#203 /tilde
8#204 /macron 8#205 /breve 8#206 /dotaccent 8#207 /dieresis
8#210 /ring 8#211 /cedilla 8#212 /hungarumlaut 8#213 /ogonek 8#214 /caron
8#220 /dotlessi 8#230 /oe 8#231 /OE
8#240 /space 8#241 /exclamdown 8#242 /cent 8#243 /sterling
8#244 /currency 8#245 /yen 8#246 /brokenbar 8#247 /section 8#250 /dieresis
8#251 /copyright 8#252 /ordfeminine 8#253 /guillemotleft 8#254 /logicalnot
8#255 /hyphen 8#256 /registered 8#257 /macron 8#260 /degree 8#261 /plusminus
8#262 /twosuperior 8#263 /threesuperior 8#264 /acute 8#265 /mu 8#266 /paragraph
8#267 /periodcentered 8#270 /cedilla 8#271 /onesuperior 8#272 /ordmasculine
8#273 /guillemotright 8#274 /onequarter 8#275 /onehalf
8#276 /threequarters 8#277 /questiondown 8#300 /Agrave 8#301 /Aacute
8#302 /Acircumflex 8#303 /Atilde 8#304 /Adieresis 8#305 /Aring
8#306 /AE 8#307 /Ccedilla 8#310 /Egrave 8#311 /Eacute
8#312 /Ecircumflex 8#313 /Edieresis 8#314 /Igrave 8#315 /Iacute
8#316 /Icircumflex 8#317 /Idieresis 8#320 /Eth 8#321 /Ntilde 8#322 /Ograve
8#323 /Oacute 8#324 /Ocircumflex 8#325 /Otilde 8#326 /Odieresis 8#327 /multiply
8#330 /Oslash 8#331 /Ugrave 8#332 /Uacute 8#333 /Ucircumflex
8#334 /Udieresis 8#335 /Yacute 8#336 /Thorn 8#337 /germandbls 8#340 /agrave
8#341 /aacute 8#342 /acircumflex 8#343 /atilde 8#344 /adieresis 8#345 /aring
8#346 /ae 8#347 /ccedilla 8#350 /egrave 8#351 /eacute
8#352 /ecircumflex 8#353 /edieresis 8#354 /igrave 8#355 /iacute
8#356 /icircumflex 8#357 /idieresis 8#360 /eth 8#361 /ntilde 8#362 /ograve
8#363 /oacute 8#364 /ocircumflex 8#365 /otilde 8#366 /odieresis 8#367 /divide
8#370 /oslash 8#371 /ugrave 8#372 /uacute 8#373 /ucircumflex
8#374 /udieresis 8#375 /yacute 8#376 /thorn 8#377 /ydieresis] def
/Times-Roman /Times-Roman-iso isovec ReEncode
 /DrawEllipse {
	/endangle exch def
	/startangle exch def
	/yrad exch def
	/xrad exch def
	/y exch def
	/x exch def
	/savematrix mtrx currentmatrix def
	x y tr xrad yrad sc 0 0 1 startangle endangle arc
	closepath
	savematrix setmatrix
	} def

% japanese.ps for fig2dev 3.2
%
% This file will inserted into PostScript output by fig2dev
% when Japanese text is included in the file.
% This code try to use HeiseiMin-W3-EUC-H and HeiseiKakuGo-W5-EUC-H
% if Ryumin-Light-EUC-H is not supported.  --- T.Sato, 1999/3/27

/has_morisawa_font true def
FontDirectory /Ryumin-Light-EUC-H known not {
  systemdict /resourcestatus known {
    /Ryumin-Light-EUC-H /Font resourcestatus {
      pop pop
    } {
      /has_morisawa_font false def
    } ifelse
  } if
} if

16 dict begin
  /FontName /CompositeRoman def  /FontType 0 def
  /WMode 0 def    /FMapType 3 def  /FontMatrix matrix def
  /Encoding [0 1] def
  has_morisawa_font {
    /FDepVector [ /Times-Roman findfont
        /Ryumin-Light-EUC-H findfont ] def
  } {
    /FDepVector [ /Times-Roman findfont
        /HeiseiMin-W3-EUC-H findfont ] def
  } ifelse
  FontName currentdict
  end
definefont pop

16 dict begin
  /FontName /CompositeBold def  /FontType 0 def
  /WMode 0 def    /FMapType 3 def  /FontMatrix matrix def
  /Encoding [0 1] def
  has_morisawa_font {
    /FDepVector [ /Times-Bold findfont
        /GothicBBB-Medium-EUC-H findfont ] def
  } {
    /FDepVector [ /Times-Bold findfont
        /HeiseiKakuGo-W5-EUC-H findfont ] def
  } ifelse
  FontName currentdict
  end
definefont pop

% end of japanese.ps
/$F2psBegin {$F2psDict begin /$F2psEnteredState save def} def
/$F2psEnd {$F2psEnteredState restore end} def

$F2psBegin
%%Page: 1 1
10 setmiterlimit
 0.06000 0.06000 sc
%
% Fig objects follow
%
/CompositeRoman ff 720.00 scf sf
4200 3825 m
gs 1 -1 sc (Source pair) dup sw pop 2 div neg 0 rm  col0 sh gr
/CompositeRoman ff 720.00 scf sf
16200 3900 m
gs 1 -1 sc (Source pair) dup sw pop 2 div neg 0 rm  col0 sh gr
/CompositeRoman ff 720.00 scf sf
12600 11400 m
gs 1 -1 sc (Tx only) dup sw pop 2 div neg 0 rm  col0 sh gr
/CompositeRoman ff 720.00 scf sf
24600 11400 m
gs 1 -1 sc (Tx-Rx) dup sw pop 2 div neg 0 rm  col0 sh gr
% Polyline
2 slj
15.000 slw
n 23700 5175 m 23698 5175 l 23695 5175 l 23689 5175 l 23679 5176 l 23666 5176 l
 23649 5177 l 23629 5178 l 23606 5179 l 23580 5180 l 23552 5181 l
 23523 5183 l 23492 5185 l 23460 5187 l 23428 5190 l 23395 5193 l
 23361 5196 l 23327 5200 l 23291 5204 l 23255 5210 l 23217 5216 l
 23179 5223 l 23140 5230 l 23102 5239 l 23059 5250 l 23020 5261 l
 22987 5271 l 22960 5279 l 22938 5286 l 22920 5292 l 22906 5297 l
 22894 5301 l 22885 5304 l 22877 5307 l 22870 5310 l 22863 5313 l
 22855 5317 l 22847 5323 l 22838 5329 l 22829 5338 l 22820 5348 l
 22811 5360 l 22805 5374 l 22802 5389 l 22805 5404 l 22811 5418 l
 22820 5430 l 22829 5440 l 22838 5448 l 22847 5455 l 22855 5460 l
 22863 5464 l 22870 5467 l 22877 5469 l 22885 5472 l 22894 5475 l
 22906 5478 l 22920 5483 l 22938 5489 l 22960 5496 l 22987 5505 l
 23020 5516 l 23059 5527 l 23102 5539 l 23140 5549 l 23179 5557 l
 23217 5565 l 23255 5573 l 23291 5579 l 23327 5585 l 23361 5590 l
 23395 5595 l 23428 5599 l 23460 5603 l 23492 5606 l 23523 5610 l
 23552 5612 l 23580 5615 l 23606 5617 l 23629 5619 l 23649 5621 l
 23666 5622 l 23679 5623 l 23689 5624 l 23695 5625 l 23698 5625 l

 23700 5625 l gs col0 s gr 
% Polyline
n 23700 5625 m 23702 5625 l 23705 5625 l 23711 5625 l 23721 5626 l 23734 5626 l
 23751 5627 l 23771 5628 l 23794 5629 l 23820 5630 l 23848 5631 l
 23877 5633 l 23908 5635 l 23940 5637 l 23972 5640 l 24005 5643 l
 24039 5646 l 24073 5650 l 24109 5654 l 24145 5660 l 24183 5666 l
 24221 5673 l 24260 5680 l 24298 5689 l 24341 5700 l 24380 5711 l
 24413 5721 l 24440 5729 l 24462 5736 l 24480 5742 l 24494 5747 l
 24506 5751 l 24515 5754 l 24523 5757 l 24530 5760 l 24537 5763 l
 24545 5767 l 24553 5773 l 24562 5779 l 24571 5788 l 24580 5798 l
 24589 5810 l 24595 5824 l 24598 5839 l 24595 5854 l 24589 5868 l
 24580 5880 l 24571 5890 l 24562 5898 l 24553 5905 l 24545 5910 l
 24537 5914 l 24530 5917 l 24523 5919 l 24515 5922 l 24506 5925 l
 24494 5928 l 24480 5933 l 24462 5939 l 24440 5946 l 24413 5955 l
 24380 5966 l 24341 5977 l 24298 5989 l 24260 5999 l 24221 6007 l
 24183 6015 l 24145 6023 l 24109 6029 l 24073 6035 l 24039 6040 l
 24005 6045 l 23972 6049 l 23940 6053 l 23908 6056 l 23877 6060 l
 23848 6062 l 23820 6065 l 23794 6067 l 23771 6069 l 23751 6071 l
 23734 6072 l 23721 6073 l 23711 6074 l 23705 6075 l 23702 6075 l

 23700 6075 l gs col0 s gr 
% Polyline
n 23700 4275 m 23698 4275 l 23695 4275 l 23689 4275 l 23679 4276 l 23666 4276 l
 23649 4277 l 23629 4278 l 23606 4279 l 23580 4280 l 23552 4281 l
 23523 4283 l 23492 4285 l 23460 4287 l 23428 4290 l 23395 4293 l
 23361 4296 l 23327 4300 l 23291 4304 l 23255 4310 l 23217 4316 l
 23179 4323 l 23140 4330 l 23102 4339 l 23059 4350 l 23020 4361 l
 22987 4371 l 22960 4379 l 22938 4386 l 22920 4392 l 22906 4397 l
 22894 4401 l 22885 4404 l 22877 4407 l 22870 4410 l 22863 4413 l
 22855 4417 l 22847 4423 l 22838 4429 l 22829 4438 l 22820 4448 l
 22811 4460 l 22805 4474 l 22802 4489 l 22805 4504 l 22811 4518 l
 22820 4530 l 22829 4540 l 22838 4548 l 22847 4555 l 22855 4560 l
 22863 4564 l 22870 4567 l 22877 4569 l 22885 4572 l 22894 4575 l
 22906 4578 l 22920 4583 l 22938 4589 l 22960 4596 l 22987 4605 l
 23020 4616 l 23059 4627 l 23102 4639 l 23140 4649 l 23179 4657 l
 23217 4665 l 23255 4673 l 23291 4679 l 23327 4685 l 23361 4690 l
 23395 4695 l 23428 4699 l 23460 4703 l 23492 4706 l 23523 4710 l
 23552 4712 l 23580 4715 l 23606 4717 l 23629 4719 l 23649 4721 l
 23666 4722 l 23679 4723 l 23689 4724 l 23695 4725 l 23698 4725 l

 23700 4725 l gs col0 s gr 
% Polyline
n 23700 4725 m 23702 4725 l 23705 4725 l 23711 4725 l 23721 4726 l 23734 4726 l
 23751 4727 l 23771 4728 l 23794 4729 l 23820 4730 l 23848 4731 l
 23877 4733 l 23908 4735 l 23940 4737 l 23972 4740 l 24005 4743 l
 24039 4746 l 24073 4750 l 24109 4754 l 24145 4760 l 24183 4766 l
 24221 4773 l 24260 4780 l 24298 4789 l 24341 4800 l 24380 4811 l
 24413 4821 l 24440 4829 l 24462 4836 l 24480 4842 l 24494 4847 l
 24506 4851 l 24515 4854 l 24523 4857 l 24530 4860 l 24537 4863 l
 24545 4867 l 24553 4873 l 24562 4879 l 24571 4888 l 24580 4898 l
 24589 4910 l 24595 4924 l 24598 4939 l 24595 4954 l 24589 4968 l
 24580 4980 l 24571 4990 l 24562 4998 l 24553 5005 l 24545 5010 l
 24537 5014 l 24530 5017 l 24523 5019 l 24515 5022 l 24506 5025 l
 24494 5028 l 24480 5033 l 24462 5039 l 24440 5046 l 24413 5055 l
 24380 5066 l 24341 5077 l 24298 5089 l 24260 5099 l 24221 5107 l
 24183 5115 l 24145 5123 l 24109 5129 l 24073 5135 l 24039 5140 l
 24005 5145 l 23972 5149 l 23940 5153 l 23908 5156 l 23877 5160 l
 23848 5162 l 23820 5165 l 23794 5167 l 23771 5169 l 23751 5171 l
 23734 5172 l 23721 5173 l 23711 5174 l 23705 5175 l 23702 5175 l

 23700 5175 l gs col0 s gr 
% Polyline
n 23700 3375 m 23698 3375 l 23695 3375 l 23689 3375 l 23679 3376 l 23666 3376 l
 23649 3377 l 23629 3378 l 23606 3379 l 23580 3380 l 23552 3381 l
 23523 3383 l 23492 3385 l 23460 3387 l 23428 3390 l 23395 3393 l
 23361 3396 l 23327 3400 l 23291 3404 l 23255 3410 l 23217 3416 l
 23179 3423 l 23140 3430 l 23102 3439 l 23059 3450 l 23020 3461 l
 22987 3471 l 22960 3479 l 22938 3486 l 22920 3492 l 22906 3497 l
 22894 3501 l 22885 3504 l 22877 3507 l 22870 3510 l 22863 3513 l
 22855 3517 l 22847 3523 l 22838 3529 l 22829 3538 l 22820 3548 l
 22811 3560 l 22805 3574 l 22802 3589 l 22805 3604 l 22811 3618 l
 22820 3630 l 22829 3640 l 22838 3648 l 22847 3655 l 22855 3660 l
 22863 3664 l 22870 3667 l 22877 3669 l 22885 3672 l 22894 3675 l
 22906 3678 l 22920 3683 l 22938 3689 l 22960 3696 l 22987 3705 l
 23020 3716 l 23059 3727 l 23102 3739 l 23140 3749 l 23179 3757 l
 23217 3765 l 23255 3773 l 23291 3779 l 23327 3785 l 23361 3790 l
 23395 3795 l 23428 3799 l 23460 3803 l 23492 3806 l 23523 3810 l
 23552 3812 l 23580 3815 l 23606 3817 l 23629 3819 l 23649 3821 l
 23666 3822 l 23679 3823 l 23689 3824 l 23695 3825 l 23698 3825 l

 23700 3825 l gs col0 s gr 
% Polyline
n 23700 3825 m 23702 3825 l 23705 3825 l 23711 3825 l 23721 3826 l 23734 3826 l
 23751 3827 l 23771 3828 l 23794 3829 l 23820 3830 l 23848 3831 l
 23877 3833 l 23908 3835 l 23940 3837 l 23972 3840 l 24005 3843 l
 24039 3846 l 24073 3850 l 24109 3854 l 24145 3860 l 24183 3866 l
 24221 3873 l 24260 3880 l 24298 3889 l 24341 3900 l 24380 3911 l
 24413 3921 l 24440 3929 l 24462 3936 l 24480 3942 l 24494 3947 l
 24506 3951 l 24515 3954 l 24523 3957 l 24530 3960 l 24537 3963 l
 24545 3967 l 24553 3973 l 24562 3979 l 24571 3988 l 24580 3998 l
 24589 4010 l 24595 4024 l 24598 4039 l 24595 4054 l 24589 4068 l
 24580 4080 l 24571 4090 l 24562 4098 l 24553 4105 l 24545 4110 l
 24537 4114 l 24530 4117 l 24523 4119 l 24515 4122 l 24506 4125 l
 24494 4128 l 24480 4133 l 24462 4139 l 24440 4146 l 24413 4155 l
 24380 4166 l 24341 4177 l 24298 4189 l 24260 4199 l 24221 4207 l
 24183 4215 l 24145 4223 l 24109 4229 l 24073 4235 l 24039 4240 l
 24005 4245 l 23972 4249 l 23940 4253 l 23908 4256 l 23877 4260 l
 23848 4262 l 23820 4265 l 23794 4267 l 23771 4269 l 23751 4271 l
 23734 4272 l 23721 4273 l 23711 4274 l 23705 4275 l 23702 4275 l

 23700 4275 l gs col0 s gr 
% Polyline
n 23700 2475 m 23698 2475 l 23695 2475 l 23689 2475 l 23679 2476 l 23666 2476 l
 23649 2477 l 23629 2478 l 23606 2479 l 23580 2480 l 23552 2481 l
 23523 2483 l 23492 2485 l 23460 2487 l 23428 2490 l 23395 2493 l
 23361 2496 l 23327 2500 l 23291 2504 l 23255 2510 l 23217 2516 l
 23179 2523 l 23140 2530 l 23102 2539 l 23059 2550 l 23020 2561 l
 22987 2571 l 22960 2579 l 22938 2586 l 22920 2592 l 22906 2597 l
 22894 2601 l 22885 2604 l 22877 2607 l 22870 2610 l 22863 2613 l
 22855 2617 l 22847 2623 l 22838 2629 l 22829 2638 l 22820 2648 l
 22811 2660 l 22805 2674 l 22802 2689 l 22805 2704 l 22811 2718 l
 22820 2730 l 22829 2740 l 22838 2748 l 22847 2755 l 22855 2760 l
 22863 2764 l 22870 2767 l 22877 2769 l 22885 2772 l 22894 2775 l
 22906 2778 l 22920 2783 l 22938 2789 l 22960 2796 l 22987 2805 l
 23020 2816 l 23059 2827 l 23102 2839 l 23140 2849 l 23179 2857 l
 23217 2865 l 23255 2873 l 23291 2879 l 23327 2885 l 23361 2890 l
 23395 2895 l 23428 2899 l 23460 2903 l 23492 2906 l 23523 2910 l
 23552 2912 l 23580 2915 l 23606 2917 l 23629 2919 l 23649 2921 l
 23666 2922 l 23679 2923 l 23689 2924 l 23695 2925 l 23698 2925 l

 23700 2925 l gs col0 s gr 
% Polyline
n 23700 2925 m 23702 2925 l 23705 2925 l 23711 2925 l 23721 2926 l 23734 2926 l
 23751 2927 l 23771 2928 l 23794 2929 l 23820 2930 l 23848 2931 l
 23877 2933 l 23908 2935 l 23940 2937 l 23972 2940 l 24005 2943 l
 24039 2946 l 24073 2950 l 24109 2954 l 24145 2960 l 24183 2966 l
 24221 2973 l 24260 2980 l 24298 2989 l 24341 3000 l 24380 3011 l
 24413 3021 l 24440 3029 l 24462 3036 l 24480 3042 l 24494 3047 l
 24506 3051 l 24515 3054 l 24523 3057 l 24530 3060 l 24537 3063 l
 24545 3067 l 24553 3073 l 24562 3079 l 24571 3088 l 24580 3098 l
 24589 3110 l 24595 3124 l 24598 3139 l 24595 3154 l 24589 3168 l
 24580 3180 l 24571 3190 l 24562 3198 l 24553 3205 l 24545 3210 l
 24537 3214 l 24530 3217 l 24523 3219 l 24515 3222 l 24506 3225 l
 24494 3228 l 24480 3233 l 24462 3239 l 24440 3246 l 24413 3255 l
 24380 3266 l 24341 3277 l 24298 3289 l 24260 3299 l 24221 3307 l
 24183 3315 l 24145 3323 l 24109 3329 l 24073 3335 l 24039 3340 l
 24005 3345 l 23972 3349 l 23940 3353 l 23908 3356 l 23877 3360 l
 23848 3362 l 23820 3365 l 23794 3367 l 23771 3369 l 23751 3371 l
 23734 3372 l 23721 3373 l 23711 3374 l 23705 3375 l 23702 3375 l

 23700 3375 l gs col0 s gr 
% Polyline
n 23700 6075 m 23698 6075 l 23695 6075 l 23689 6075 l 23679 6076 l 23666 6076 l
 23649 6077 l 23629 6078 l 23606 6079 l 23580 6080 l 23552 6081 l
 23523 6083 l 23492 6085 l 23460 6087 l 23428 6090 l 23395 6093 l
 23361 6096 l 23327 6100 l 23291 6104 l 23255 6110 l 23217 6116 l
 23179 6123 l 23140 6130 l 23102 6139 l 23059 6150 l 23020 6161 l
 22987 6171 l 22960 6179 l 22938 6186 l 22920 6192 l 22906 6197 l
 22894 6201 l 22885 6204 l 22877 6207 l 22870 6210 l 22863 6213 l
 22855 6217 l 22847 6223 l 22838 6229 l 22829 6238 l 22820 6248 l
 22811 6260 l 22805 6274 l 22802 6289 l 22805 6304 l 22811 6318 l
 22820 6330 l 22829 6340 l 22838 6348 l 22847 6355 l 22855 6360 l
 22863 6364 l 22870 6367 l 22877 6369 l 22885 6372 l 22894 6375 l
 22906 6378 l 22920 6383 l 22938 6389 l 22960 6396 l 22987 6405 l
 23020 6416 l 23059 6427 l 23102 6439 l 23140 6449 l 23179 6457 l
 23217 6465 l 23255 6473 l 23291 6479 l 23327 6485 l 23361 6490 l
 23395 6495 l 23428 6499 l 23460 6503 l 23492 6506 l 23523 6510 l
 23552 6512 l 23580 6515 l 23606 6517 l 23629 6519 l 23649 6521 l
 23666 6522 l 23679 6523 l 23689 6524 l 23695 6525 l 23698 6525 l

 23700 6525 l gs col0 s gr 
% Polyline
n 23700 6525 m 23702 6525 l 23705 6525 l 23711 6525 l 23721 6526 l 23734 6526 l
 23751 6527 l 23771 6528 l 23794 6529 l 23820 6530 l 23848 6531 l
 23877 6533 l 23908 6535 l 23940 6537 l 23972 6540 l 24005 6543 l
 24039 6546 l 24073 6550 l 24109 6554 l 24145 6560 l 24183 6566 l
 24221 6573 l 24260 6580 l 24298 6589 l 24341 6600 l 24380 6611 l
 24413 6621 l 24440 6629 l 24462 6636 l 24480 6642 l 24494 6647 l
 24506 6651 l 24515 6654 l 24523 6657 l 24530 6660 l 24537 6663 l
 24545 6667 l 24553 6673 l 24562 6679 l 24571 6688 l 24580 6698 l
 24589 6710 l 24595 6724 l 24598 6739 l 24595 6754 l 24589 6768 l
 24580 6780 l 24571 6790 l 24562 6798 l 24553 6805 l 24545 6810 l
 24537 6814 l 24530 6817 l 24523 6819 l 24515 6822 l 24506 6825 l
 24494 6828 l 24480 6833 l 24462 6839 l 24440 6846 l 24413 6855 l
 24380 6866 l 24341 6877 l 24298 6889 l 24260 6899 l 24221 6907 l
 24183 6915 l 24145 6923 l 24109 6929 l 24073 6935 l 24039 6940 l
 24005 6945 l 23972 6949 l 23940 6953 l 23908 6956 l 23877 6960 l
 23848 6962 l 23820 6965 l 23794 6967 l 23771 6969 l 23751 6971 l
 23734 6972 l 23721 6973 l 23711 6974 l 23705 6975 l 23702 6975 l

 23700 6975 l gs col0 s gr 
% Polyline
n 23700 6975 m 23698 6975 l 23695 6975 l 23689 6975 l 23679 6976 l 23666 6976 l
 23649 6977 l 23629 6978 l 23606 6979 l 23580 6980 l 23552 6981 l
 23523 6983 l 23492 6985 l 23460 6987 l 23428 6990 l 23395 6993 l
 23361 6996 l 23327 7000 l 23291 7004 l 23255 7010 l 23217 7016 l
 23179 7023 l 23140 7030 l 23102 7039 l 23059 7050 l 23020 7061 l
 22987 7071 l 22960 7079 l 22938 7086 l 22920 7092 l 22906 7097 l
 22894 7101 l 22885 7104 l 22877 7107 l 22870 7110 l 22863 7113 l
 22855 7117 l 22847 7123 l 22838 7129 l 22829 7138 l 22820 7148 l
 22811 7160 l 22805 7174 l 22802 7189 l 22805 7204 l 22811 7218 l
 22820 7230 l 22829 7240 l 22838 7248 l 22847 7255 l 22855 7260 l
 22863 7264 l 22870 7267 l 22877 7269 l 22885 7272 l 22894 7275 l
 22906 7278 l 22920 7283 l 22938 7289 l 22960 7296 l 22987 7305 l
 23020 7316 l 23059 7327 l 23102 7339 l 23140 7349 l 23179 7357 l
 23217 7365 l 23255 7373 l 23291 7379 l 23327 7385 l 23361 7390 l
 23395 7395 l 23428 7399 l 23460 7403 l 23492 7406 l 23523 7410 l
 23552 7412 l 23580 7415 l 23606 7417 l 23629 7419 l 23649 7421 l
 23666 7422 l 23679 7423 l 23689 7424 l 23695 7425 l 23698 7425 l

 23700 7425 l gs col0 s gr 
% Polyline
n 23700 7425 m 23702 7425 l 23705 7425 l 23711 7425 l 23721 7426 l 23734 7426 l
 23751 7427 l 23771 7428 l 23794 7429 l 23820 7430 l 23848 7431 l
 23877 7433 l 23908 7435 l 23940 7437 l 23972 7440 l 24005 7443 l
 24039 7446 l 24073 7450 l 24109 7454 l 24145 7460 l 24183 7466 l
 24221 7473 l 24260 7480 l 24298 7489 l 24341 7500 l 24380 7511 l
 24413 7521 l 24440 7529 l 24462 7536 l 24480 7542 l 24494 7547 l
 24506 7551 l 24515 7554 l 24523 7557 l 24530 7560 l 24537 7563 l
 24545 7567 l 24553 7573 l 24562 7579 l 24571 7588 l 24580 7598 l
 24589 7610 l 24595 7624 l 24598 7639 l 24595 7654 l 24589 7668 l
 24580 7680 l 24571 7690 l 24562 7698 l 24553 7705 l 24545 7710 l
 24537 7714 l 24530 7717 l 24523 7719 l 24515 7722 l 24506 7725 l
 24494 7728 l 24480 7733 l 24462 7739 l 24440 7746 l 24413 7755 l
 24380 7766 l 24341 7777 l 24298 7789 l 24260 7799 l 24221 7807 l
 24183 7815 l 24145 7823 l 24109 7829 l 24073 7835 l 24039 7840 l
 24005 7845 l 23972 7849 l 23940 7853 l 23908 7856 l 23877 7860 l
 23848 7862 l 23820 7865 l 23794 7867 l 23771 7869 l 23751 7871 l
 23734 7872 l 23721 7873 l 23711 7874 l 23705 7875 l 23702 7875 l

 23700 7875 l gs col0 s gr 
% Polyline
n 23700 1575 m 23698 1575 l 23695 1575 l 23689 1575 l 23679 1576 l 23666 1576 l
 23649 1577 l 23629 1578 l 23606 1579 l 23580 1580 l 23552 1581 l
 23523 1583 l 23492 1585 l 23460 1587 l 23428 1590 l 23395 1593 l
 23361 1596 l 23327 1600 l 23291 1604 l 23255 1610 l 23217 1616 l
 23179 1623 l 23140 1630 l 23102 1639 l 23059 1650 l 23020 1661 l
 22987 1671 l 22960 1679 l 22938 1686 l 22920 1692 l 22906 1697 l
 22894 1701 l 22885 1704 l 22877 1707 l 22870 1710 l 22863 1713 l
 22855 1717 l 22847 1723 l 22838 1729 l 22829 1738 l 22820 1748 l
 22811 1760 l 22805 1774 l 22802 1789 l 22805 1804 l 22811 1818 l
 22820 1830 l 22829 1840 l 22838 1848 l 22847 1855 l 22855 1860 l
 22863 1864 l 22870 1867 l 22877 1869 l 22885 1872 l 22894 1875 l
 22906 1878 l 22920 1883 l 22938 1889 l 22960 1896 l 22987 1905 l
 23020 1916 l 23059 1927 l 23102 1939 l 23140 1949 l 23179 1957 l
 23217 1965 l 23255 1973 l 23291 1979 l 23327 1985 l 23361 1990 l
 23395 1995 l 23428 1999 l 23460 2003 l 23492 2006 l 23523 2010 l
 23552 2012 l 23580 2015 l 23606 2017 l 23629 2019 l 23649 2021 l
 23666 2022 l 23679 2023 l 23689 2024 l 23695 2025 l 23698 2025 l

 23700 2025 l gs col0 s gr 
% Polyline
n 23700 2025 m 23702 2025 l 23705 2025 l 23711 2025 l 23721 2026 l 23734 2026 l
 23751 2027 l 23771 2028 l 23794 2029 l 23820 2030 l 23848 2031 l
 23877 2033 l 23908 2035 l 23940 2037 l 23972 2040 l 24005 2043 l
 24039 2046 l 24073 2050 l 24109 2054 l 24145 2060 l 24183 2066 l
 24221 2073 l 24260 2080 l 24298 2089 l 24341 2100 l 24380 2111 l
 24413 2121 l 24440 2129 l 24462 2136 l 24480 2142 l 24494 2147 l
 24506 2151 l 24515 2154 l 24523 2157 l 24530 2160 l 24537 2163 l
 24545 2167 l 24553 2173 l 24562 2179 l 24571 2188 l 24580 2198 l
 24589 2210 l 24595 2224 l 24598 2239 l 24595 2254 l 24589 2268 l
 24580 2280 l 24571 2290 l 24562 2298 l 24553 2305 l 24545 2310 l
 24537 2314 l 24530 2317 l 24523 2319 l 24515 2322 l 24506 2325 l
 24494 2328 l 24480 2333 l 24462 2339 l 24440 2346 l 24413 2355 l
 24380 2366 l 24341 2377 l 24298 2389 l 24260 2399 l 24221 2407 l
 24183 2415 l 24145 2423 l 24109 2429 l 24073 2435 l 24039 2440 l
 24005 2445 l 23972 2449 l 23940 2453 l 23908 2456 l 23877 2460 l
 23848 2462 l 23820 2465 l 23794 2467 l 23771 2469 l 23751 2471 l
 23734 2472 l 23721 2473 l 23711 2474 l 23705 2475 l 23702 2475 l

 23700 2475 l gs col0 s gr 
% Polyline
n 23700 675 m 23698 675 l 23695 675 l 23689 675 l 23679 676 l 23666 676 l
 23649 677 l 23629 678 l 23606 679 l 23580 680 l 23552 681 l
 23523 683 l 23492 685 l 23460 687 l 23428 690 l 23395 693 l
 23361 696 l 23327 700 l 23291 704 l 23255 710 l 23217 716 l
 23179 723 l 23140 730 l 23102 739 l 23059 750 l 23020 761 l
 22987 771 l 22960 779 l 22938 786 l 22920 792 l 22906 797 l
 22894 801 l 22885 804 l 22877 807 l 22870 810 l 22863 813 l
 22855 817 l 22847 823 l 22838 829 l 22829 838 l 22820 848 l
 22811 860 l 22805 874 l 22802 889 l 22805 904 l 22811 918 l
 22820 930 l 22829 940 l 22838 948 l 22847 955 l 22855 960 l
 22863 964 l 22870 967 l 22877 969 l 22885 972 l 22894 975 l
 22906 978 l 22920 983 l 22938 989 l 22960 996 l 22987 1005 l
 23020 1016 l 23059 1027 l 23102 1039 l 23140 1049 l 23179 1057 l
 23217 1065 l 23255 1073 l 23291 1079 l 23327 1085 l 23361 1090 l
 23395 1095 l 23428 1099 l 23460 1103 l 23492 1106 l 23523 1110 l
 23552 1112 l 23580 1115 l 23606 1117 l 23629 1119 l 23649 1121 l
 23666 1122 l 23679 1123 l 23689 1124 l 23695 1125 l 23698 1125 l

 23700 1125 l gs col0 s gr 
% Polyline
n 23700 1125 m 23702 1125 l 23705 1125 l 23711 1125 l 23721 1126 l 23734 1126 l
 23751 1127 l 23771 1128 l 23794 1129 l 23820 1130 l 23848 1131 l
 23877 1133 l 23908 1135 l 23940 1137 l 23972 1140 l 24005 1143 l
 24039 1146 l 24073 1150 l 24109 1154 l 24145 1160 l 24183 1166 l
 24221 1173 l 24260 1180 l 24298 1189 l 24341 1200 l 24380 1211 l
 24413 1221 l 24440 1229 l 24462 1236 l 24480 1242 l 24494 1247 l
 24506 1251 l 24515 1254 l 24523 1257 l 24530 1260 l 24537 1263 l
 24545 1267 l 24553 1273 l 24562 1279 l 24571 1288 l 24580 1298 l
 24589 1310 l 24595 1324 l 24598 1339 l 24595 1354 l 24589 1368 l
 24580 1380 l 24571 1390 l 24562 1398 l 24553 1405 l 24545 1410 l
 24537 1414 l 24530 1417 l 24523 1419 l 24515 1422 l 24506 1425 l
 24494 1428 l 24480 1433 l 24462 1439 l 24440 1446 l 24413 1455 l
 24380 1466 l 24341 1477 l 24298 1489 l 24260 1499 l 24221 1507 l
 24183 1515 l 24145 1523 l 24109 1529 l 24073 1535 l 24039 1540 l
 24005 1545 l 23972 1549 l 23940 1553 l 23908 1556 l 23877 1560 l
 23848 1562 l 23820 1565 l 23794 1567 l 23771 1569 l 23751 1571 l
 23734 1572 l 23721 1573 l 23711 1574 l 23705 1575 l 23702 1575 l

 23700 1575 l gs col0 s gr 
% Polyline
n 23700 7875 m 23698 7875 l 23695 7875 l 23689 7875 l 23679 7876 l 23666 7876 l
 23649 7877 l 23629 7878 l 23606 7879 l 23580 7880 l 23552 7881 l
 23523 7883 l 23492 7885 l 23460 7887 l 23428 7890 l 23395 7893 l
 23361 7896 l 23327 7900 l 23291 7904 l 23255 7910 l 23217 7916 l
 23179 7923 l 23140 7930 l 23102 7939 l 23059 7950 l 23020 7961 l
 22987 7971 l 22960 7979 l 22938 7986 l 22920 7992 l 22906 7997 l
 22894 8001 l 22885 8004 l 22877 8007 l 22870 8010 l 22863 8013 l
 22855 8017 l 22847 8023 l 22838 8029 l 22829 8038 l 22820 8048 l
 22811 8060 l 22805 8074 l 22802 8089 l 22805 8104 l 22811 8118 l
 22820 8130 l 22829 8140 l 22838 8148 l 22847 8155 l 22855 8160 l
 22863 8164 l 22870 8167 l 22877 8169 l 22885 8172 l 22894 8175 l
 22906 8178 l 22920 8183 l 22938 8189 l 22960 8196 l 22987 8205 l
 23020 8216 l 23059 8227 l 23102 8239 l 23140 8249 l 23179 8257 l
 23217 8265 l 23255 8273 l 23291 8279 l 23327 8285 l 23361 8290 l
 23395 8295 l 23428 8299 l 23460 8303 l 23492 8306 l 23523 8310 l
 23552 8312 l 23580 8315 l 23606 8317 l 23629 8319 l 23649 8321 l
 23666 8322 l 23679 8323 l 23689 8324 l 23695 8325 l 23698 8325 l

 23700 8325 l gs col0 s gr 
% Polyline
n 23700 8325 m 23702 8325 l 23705 8325 l 23711 8325 l 23721 8326 l 23734 8326 l
 23751 8327 l 23771 8328 l 23794 8329 l 23820 8330 l 23848 8331 l
 23877 8333 l 23908 8335 l 23940 8337 l 23972 8340 l 24005 8343 l
 24039 8346 l 24073 8350 l 24109 8354 l 24145 8360 l 24183 8366 l
 24221 8373 l 24260 8380 l 24298 8389 l 24341 8400 l 24380 8411 l
 24413 8421 l 24440 8429 l 24462 8436 l 24480 8442 l 24494 8447 l
 24506 8451 l 24515 8454 l 24523 8457 l 24530 8460 l 24537 8463 l
 24545 8467 l 24553 8473 l 24562 8479 l 24571 8488 l 24580 8498 l
 24589 8510 l 24595 8524 l 24598 8539 l 24595 8554 l 24589 8568 l
 24580 8580 l 24571 8590 l 24562 8598 l 24553 8605 l 24545 8610 l
 24537 8614 l 24530 8617 l 24523 8619 l 24515 8622 l 24506 8625 l
 24494 8628 l 24480 8633 l 24462 8639 l 24440 8646 l 24413 8655 l
 24380 8666 l 24341 8677 l 24298 8689 l 24260 8699 l 24221 8707 l
 24183 8715 l 24145 8723 l 24109 8729 l 24073 8735 l 24039 8740 l
 24005 8745 l 23972 8749 l 23940 8753 l 23908 8756 l 23877 8760 l
 23848 8762 l 23820 8765 l 23794 8767 l 23771 8769 l 23751 8771 l
 23734 8772 l 23721 8773 l 23711 8774 l 23705 8775 l 23702 8775 l

 23700 8775 l gs col0 s gr 
% Polyline
n 23700 8775 m 23698 8775 l 23695 8775 l 23689 8775 l 23679 8776 l 23666 8776 l
 23649 8777 l 23629 8778 l 23606 8779 l 23580 8780 l 23552 8781 l
 23523 8783 l 23492 8785 l 23460 8787 l 23428 8790 l 23395 8793 l
 23361 8796 l 23327 8800 l 23291 8804 l 23255 8810 l 23217 8816 l
 23179 8823 l 23140 8830 l 23102 8839 l 23059 8850 l 23020 8861 l
 22987 8871 l 22960 8879 l 22938 8886 l 22920 8892 l 22906 8897 l
 22894 8901 l 22885 8904 l 22877 8907 l 22870 8910 l 22863 8913 l
 22855 8917 l 22847 8923 l 22838 8929 l 22829 8938 l 22820 8948 l
 22811 8960 l 22805 8974 l 22802 8989 l 22805 9004 l 22811 9018 l
 22820 9030 l 22829 9040 l 22838 9048 l 22847 9055 l 22855 9060 l
 22863 9064 l 22870 9067 l 22877 9069 l 22885 9072 l 22894 9075 l
 22906 9078 l 22920 9083 l 22938 9089 l 22960 9096 l 22987 9105 l
 23020 9116 l 23059 9127 l 23102 9139 l 23140 9149 l 23179 9157 l
 23217 9165 l 23255 9173 l 23291 9179 l 23327 9185 l 23361 9190 l
 23395 9195 l 23428 9199 l 23460 9203 l 23492 9206 l 23523 9210 l
 23552 9212 l 23580 9215 l 23606 9217 l 23629 9219 l 23649 9221 l
 23666 9222 l 23679 9223 l 23689 9224 l 23695 9225 l 23698 9225 l

 23700 9225 l gs col0 s gr 
% Polyline
n 23700 9225 m 23702 9225 l 23705 9225 l 23711 9225 l 23721 9226 l 23734 9226 l
 23751 9227 l 23771 9228 l 23794 9229 l 23820 9230 l 23848 9231 l
 23877 9233 l 23908 9235 l 23940 9237 l 23972 9240 l 24005 9243 l
 24039 9246 l 24073 9250 l 24109 9254 l 24145 9260 l 24183 9266 l
 24221 9273 l 24260 9280 l 24298 9289 l 24341 9300 l 24380 9311 l
 24413 9321 l 24440 9329 l 24462 9336 l 24480 9342 l 24494 9347 l
 24506 9351 l 24515 9354 l 24523 9357 l 24530 9360 l 24537 9363 l
 24545 9367 l 24553 9373 l 24562 9379 l 24571 9388 l 24580 9398 l
 24589 9410 l 24595 9424 l 24598 9439 l 24595 9454 l 24589 9468 l
 24580 9480 l 24571 9490 l 24562 9498 l 24553 9505 l 24545 9510 l
 24537 9514 l 24530 9517 l 24523 9519 l 24515 9522 l 24506 9525 l
 24494 9528 l 24480 9533 l 24462 9539 l 24440 9546 l 24413 9555 l
 24380 9566 l 24341 9577 l 24298 9589 l 24260 9599 l 24221 9607 l
 24183 9615 l 24145 9623 l 24109 9629 l 24073 9635 l 24039 9640 l
 24005 9645 l 23972 9649 l 23940 9653 l 23908 9656 l 23877 9660 l
 23848 9662 l 23820 9665 l 23794 9667 l 23771 9669 l 23751 9671 l
 23734 9672 l 23721 9673 l 23711 9674 l 23705 9675 l 23702 9675 l

 23700 9675 l gs col0 s gr 
% Polyline
n 23700 9675 m 23698 9675 l 23695 9675 l 23689 9675 l 23679 9676 l 23666 9676 l
 23649 9677 l 23629 9678 l 23606 9679 l 23580 9680 l 23552 9681 l
 23523 9683 l 23492 9685 l 23460 9687 l 23428 9690 l 23395 9693 l
 23361 9696 l 23327 9700 l 23291 9704 l 23255 9710 l 23217 9716 l
 23179 9723 l 23140 9730 l 23102 9739 l 23059 9750 l 23020 9761 l
 22987 9771 l 22960 9779 l 22938 9786 l 22920 9792 l 22906 9797 l
 22894 9801 l 22885 9804 l 22877 9807 l 22870 9810 l 22863 9813 l
 22855 9817 l 22847 9823 l 22838 9829 l 22829 9838 l 22820 9848 l
 22811 9860 l 22805 9874 l 22802 9889 l 22805 9904 l 22811 9918 l
 22820 9930 l 22829 9940 l 22838 9948 l 22847 9955 l 22855 9960 l
 22863 9964 l 22870 9967 l 22877 9969 l 22885 9972 l 22894 9975 l
 22906 9978 l 22920 9983 l 22938 9989 l 22960 9996 l 22987 10005 l
 23020 10016 l 23059 10027 l 23102 10039 l 23140 10049 l 23179 10057 l
 23217 10065 l 23255 10073 l 23291 10079 l 23327 10085 l 23361 10090 l
 23395 10095 l 23428 10099 l 23460 10103 l 23492 10106 l 23523 10110 l
 23552 10112 l 23580 10115 l 23606 10117 l 23629 10119 l 23649 10121 l
 23666 10122 l 23679 10123 l 23689 10124 l 23695 10125 l 23698 10125 l

 23700 10125 l gs col0 s gr 
7.500 slw
% Ellipse
n 16200 4500 106 106 0 360 DrawEllipse gs 0.00 setgray ef gr gs col0 s gr

% Ellipse
n 16169 6300 106 106 0 360 DrawEllipse gs 0.00 setgray ef gr gs col0 s gr

% Ellipse
n 4200 4500 106 106 0 360 DrawEllipse gs 0.00 setgray ef gr gs col0 s gr

% Ellipse
n 4169 6300 106 106 0 360 DrawEllipse gs 0.00 setgray ef gr gs col0 s gr

% Polyline
0 slj
n 16200 5400 m
 27300 5400 l gs col0 s gr 
% Polyline
n 4200 5400 m
 15300 5400 l gs col0 s gr 
% Polyline
n 12600 300 m
 12600 10500 l gs col0 s gr 
% Polyline
n 24600 300 m
 24600 10500 l gs col0 s gr 
% Polyline
2 slj
15.000 slw
n 12600 8550 m 12598 8550 l 12595 8551 l 12589 8551 l 12579 8552 l 12566 8554 l
 12549 8556 l 12529 8558 l 12505 8561 l 12479 8565 l 12451 8569 l
 12422 8573 l 12391 8579 l 12360 8584 l 12327 8591 l 12294 8598 l
 12260 8606 l 12226 8615 l 12190 8625 l 12153 8637 l 12116 8650 l
 12077 8665 l 12038 8682 l 12000 8700 l 11961 8721 l 11925 8741 l
 11894 8760 l 11867 8777 l 11845 8791 l 11827 8803 l 11812 8813 l
 11800 8821 l 11790 8827 l 11782 8833 l 11775 8838 l 11768 8843 l
 11762 8848 l 11755 8855 l 11748 8864 l 11740 8875 l 11732 8888 l
 11724 8905 l 11715 8925 l 11708 8948 l 11702 8973 l 11700 9000 l
 11702 9027 l 11708 9052 l 11715 9075 l 11724 9095 l 11732 9112 l
 11740 9125 l 11748 9136 l 11755 9145 l 11762 9152 l 11768 9157 l
 11775 9163 l 11782 9167 l 11790 9173 l 11800 9179 l 11812 9187 l
 11827 9197 l 11845 9209 l 11867 9223 l 11894 9240 l 11925 9259 l
 11961 9279 l 12000 9300 l 12038 9318 l 12077 9335 l 12116 9350 l
 12153 9363 l 12190 9375 l 12226 9385 l 12260 9394 l 12294 9402 l
 12327 9409 l 12360 9416 l 12391 9421 l 12422 9427 l 12451 9431 l
 12479 9435 l 12505 9439 l 12529 9442 l 12549 9444 l 12566 9446 l
 12579 9448 l 12589 9449 l 12595 9449 l 12598 9450 l
 12600 9450 l gs col0 s gr 
% Polyline
n 12600 7650 m 12602 7650 l 12605 7651 l 12611 7651 l 12621 7652 l 12634 7654 l
 12651 7656 l 12671 7658 l 12695 7661 l 12721 7665 l 12749 7669 l
 12778 7673 l 12809 7679 l 12840 7684 l 12873 7691 l 12906 7698 l
 12940 7706 l 12974 7715 l 13010 7725 l 13047 7737 l 13084 7750 l
 13123 7765 l 13162 7782 l 13200 7800 l 13239 7821 l 13275 7841 l
 13306 7860 l 13333 7877 l 13355 7891 l 13373 7903 l 13388 7913 l
 13400 7921 l 13410 7927 l 13418 7933 l 13425 7938 l 13432 7943 l
 13438 7948 l 13445 7955 l 13452 7964 l 13460 7975 l 13468 7988 l
 13476 8005 l 13485 8025 l 13492 8048 l 13498 8073 l 13500 8100 l
 13498 8127 l 13492 8152 l 13485 8175 l 13476 8195 l 13468 8212 l
 13460 8225 l 13452 8236 l 13445 8245 l 13438 8252 l 13432 8257 l
 13425 8263 l 13418 8267 l 13410 8273 l 13400 8279 l 13388 8287 l
 13373 8297 l 13355 8309 l 13333 8323 l 13306 8340 l 13275 8359 l
 13239 8379 l 13200 8400 l 13162 8418 l 13123 8435 l 13084 8450 l
 13047 8463 l 13010 8475 l 12974 8485 l 12940 8494 l 12906 8502 l
 12873 8509 l 12840 8516 l 12809 8521 l 12778 8527 l 12749 8531 l
 12721 8535 l 12695 8539 l 12671 8542 l 12651 8544 l 12634 8546 l
 12621 8548 l 12611 8549 l 12605 8549 l 12602 8550 l
 12600 8550 l gs col0 s gr 
% Polyline
n 12600 6750 m 12598 6750 l 12595 6751 l 12589 6751 l 12579 6752 l 12566 6754 l
 12549 6756 l 12529 6758 l 12505 6761 l 12479 6765 l 12451 6769 l
 12422 6773 l 12391 6779 l 12360 6784 l 12327 6791 l 12294 6798 l
 12260 6806 l 12226 6815 l 12190 6825 l 12153 6837 l 12116 6850 l
 12077 6865 l 12038 6882 l 12000 6900 l 11961 6921 l 11925 6941 l
 11894 6960 l 11867 6977 l 11845 6991 l 11827 7003 l 11812 7013 l
 11800 7021 l 11790 7027 l 11782 7033 l 11775 7038 l 11768 7043 l
 11762 7048 l 11755 7055 l 11748 7064 l 11740 7075 l 11732 7088 l
 11724 7105 l 11715 7125 l 11708 7148 l 11702 7173 l 11700 7200 l
 11702 7227 l 11708 7252 l 11715 7275 l 11724 7295 l 11732 7312 l
 11740 7325 l 11748 7336 l 11755 7345 l 11762 7352 l 11768 7357 l
 11775 7363 l 11782 7367 l 11790 7373 l 11800 7379 l 11812 7387 l
 11827 7397 l 11845 7409 l 11867 7423 l 11894 7440 l 11925 7459 l
 11961 7479 l 12000 7500 l 12038 7518 l 12077 7535 l 12116 7550 l
 12153 7563 l 12190 7575 l 12226 7585 l 12260 7594 l 12294 7602 l
 12327 7609 l 12360 7616 l 12391 7621 l 12422 7627 l 12451 7631 l
 12479 7635 l 12505 7639 l 12529 7642 l 12549 7644 l 12566 7646 l
 12579 7648 l 12589 7649 l 12595 7649 l 12598 7650 l
 12600 7650 l gs col0 s gr 
% Polyline
n 12600 5850 m 12602 5850 l 12605 5851 l 12611 5851 l 12621 5852 l 12634 5854 l
 12651 5856 l 12671 5858 l 12695 5861 l 12721 5865 l 12749 5869 l
 12778 5873 l 12809 5879 l 12840 5884 l 12873 5891 l 12906 5898 l
 12940 5906 l 12974 5915 l 13010 5925 l 13047 5937 l 13084 5950 l
 13123 5965 l 13162 5982 l 13200 6000 l 13239 6021 l 13275 6041 l
 13306 6060 l 13333 6077 l 13355 6091 l 13373 6103 l 13388 6113 l
 13400 6121 l 13410 6127 l 13418 6133 l 13425 6138 l 13432 6143 l
 13438 6148 l 13445 6155 l 13452 6164 l 13460 6175 l 13468 6188 l
 13476 6205 l 13485 6225 l 13492 6248 l 13498 6273 l 13500 6300 l
 13498 6327 l 13492 6352 l 13485 6375 l 13476 6395 l 13468 6412 l
 13460 6425 l 13452 6436 l 13445 6445 l 13438 6452 l 13432 6457 l
 13425 6463 l 13418 6467 l 13410 6473 l 13400 6479 l 13388 6487 l
 13373 6497 l 13355 6509 l 13333 6523 l 13306 6540 l 13275 6559 l
 13239 6579 l 13200 6600 l 13162 6618 l 13123 6635 l 13084 6650 l
 13047 6663 l 13010 6675 l 12974 6685 l 12940 6694 l 12906 6702 l
 12873 6709 l 12840 6716 l 12809 6721 l 12778 6727 l 12749 6731 l
 12721 6735 l 12695 6739 l 12671 6742 l 12651 6744 l 12634 6746 l
 12621 6748 l 12611 6749 l 12605 6749 l 12602 6750 l
 12600 6750 l gs col0 s gr 
% Polyline
n 12600 4950 m 12598 4950 l 12595 4951 l 12589 4951 l 12579 4952 l 12566 4954 l
 12549 4956 l 12529 4958 l 12505 4961 l 12479 4965 l 12451 4969 l
 12422 4973 l 12391 4979 l 12360 4984 l 12327 4991 l 12294 4998 l
 12260 5006 l 12226 5015 l 12190 5025 l 12153 5037 l 12116 5050 l
 12077 5065 l 12038 5082 l 12000 5100 l 11961 5121 l 11925 5141 l
 11894 5160 l 11867 5177 l 11845 5191 l 11827 5203 l 11812 5213 l
 11800 5221 l 11790 5227 l 11782 5233 l 11775 5238 l 11768 5243 l
 11762 5248 l 11755 5255 l 11748 5264 l 11740 5275 l 11732 5288 l
 11724 5305 l 11715 5325 l 11708 5348 l 11702 5373 l 11700 5400 l
 11702 5427 l 11708 5452 l 11715 5475 l 11724 5495 l 11732 5512 l
 11740 5525 l 11748 5536 l 11755 5545 l 11762 5552 l 11768 5557 l
 11775 5563 l 11782 5567 l 11790 5573 l 11800 5579 l 11812 5587 l
 11827 5597 l 11845 5609 l 11867 5623 l 11894 5640 l 11925 5659 l
 11961 5679 l 12000 5700 l 12038 5718 l 12077 5735 l 12116 5750 l
 12153 5763 l 12190 5775 l 12226 5785 l 12260 5794 l 12294 5802 l
 12327 5809 l 12360 5816 l 12391 5821 l 12422 5827 l 12451 5831 l
 12479 5835 l 12505 5839 l 12529 5842 l 12549 5844 l 12566 5846 l
 12579 5848 l 12589 5849 l 12595 5849 l 12598 5850 l
 12600 5850 l gs col0 s gr 
% Polyline
n 12600 4050 m 12602 4050 l 12605 4051 l 12611 4051 l 12621 4052 l 12634 4054 l
 12651 4056 l 12671 4058 l 12695 4061 l 12721 4065 l 12749 4069 l
 12778 4073 l 12809 4079 l 12840 4084 l 12873 4091 l 12906 4098 l
 12940 4106 l 12974 4115 l 13010 4125 l 13047 4137 l 13084 4150 l
 13123 4165 l 13162 4182 l 13200 4200 l 13239 4221 l 13275 4241 l
 13306 4260 l 13333 4277 l 13355 4291 l 13373 4303 l 13388 4313 l
 13400 4321 l 13410 4327 l 13418 4333 l 13425 4338 l 13432 4343 l
 13438 4348 l 13445 4355 l 13452 4364 l 13460 4375 l 13468 4388 l
 13476 4405 l 13485 4425 l 13492 4448 l 13498 4473 l 13500 4500 l
 13498 4527 l 13492 4552 l 13485 4575 l 13476 4595 l 13468 4612 l
 13460 4625 l 13452 4636 l 13445 4645 l 13438 4652 l 13432 4657 l
 13425 4663 l 13418 4667 l 13410 4673 l 13400 4679 l 13388 4687 l
 13373 4697 l 13355 4709 l 13333 4723 l 13306 4740 l 13275 4759 l
 13239 4779 l 13200 4800 l 13162 4818 l 13123 4835 l 13084 4850 l
 13047 4863 l 13010 4875 l 12974 4885 l 12940 4894 l 12906 4902 l
 12873 4909 l 12840 4916 l 12809 4921 l 12778 4927 l 12749 4931 l
 12721 4935 l 12695 4939 l 12671 4942 l 12651 4944 l 12634 4946 l
 12621 4948 l 12611 4949 l 12605 4949 l 12602 4950 l
 12600 4950 l gs col0 s gr 
% Polyline
n 12600 3150 m 12598 3150 l 12595 3151 l 12589 3151 l 12579 3152 l 12566 3154 l
 12549 3156 l 12529 3158 l 12505 3161 l 12479 3165 l 12451 3169 l
 12422 3173 l 12391 3179 l 12360 3184 l 12327 3191 l 12294 3198 l
 12260 3206 l 12226 3215 l 12190 3225 l 12153 3237 l 12116 3250 l
 12077 3265 l 12038 3282 l 12000 3300 l 11961 3321 l 11925 3341 l
 11894 3360 l 11867 3377 l 11845 3391 l 11827 3403 l 11812 3413 l
 11800 3421 l 11790 3427 l 11782 3433 l 11775 3438 l 11768 3443 l
 11762 3448 l 11755 3455 l 11748 3464 l 11740 3475 l 11732 3488 l
 11724 3505 l 11715 3525 l 11708 3548 l 11702 3573 l 11700 3600 l
 11702 3627 l 11708 3652 l 11715 3675 l 11724 3695 l 11732 3712 l
 11740 3725 l 11748 3736 l 11755 3745 l 11762 3752 l 11768 3757 l
 11775 3763 l 11782 3767 l 11790 3773 l 11800 3779 l 11812 3787 l
 11827 3797 l 11845 3809 l 11867 3823 l 11894 3840 l 11925 3859 l
 11961 3879 l 12000 3900 l 12038 3918 l 12077 3935 l 12116 3950 l
 12153 3963 l 12190 3975 l 12226 3985 l 12260 3994 l 12294 4002 l
 12327 4009 l 12360 4016 l 12391 4021 l 12422 4027 l 12451 4031 l
 12479 4035 l 12505 4039 l 12529 4042 l 12549 4044 l 12566 4046 l
 12579 4048 l 12589 4049 l 12595 4049 l 12598 4050 l
 12600 4050 l gs col0 s gr 
% Polyline
n 12600 2250 m 12602 2250 l 12605 2251 l 12611 2251 l 12621 2252 l 12634 2254 l
 12651 2256 l 12671 2258 l 12695 2261 l 12721 2265 l 12749 2269 l
 12778 2273 l 12809 2279 l 12840 2284 l 12873 2291 l 12906 2298 l
 12940 2306 l 12974 2315 l 13010 2325 l 13047 2337 l 13084 2350 l
 13123 2365 l 13162 2382 l 13200 2400 l 13239 2421 l 13275 2441 l
 13306 2460 l 13333 2477 l 13355 2491 l 13373 2503 l 13388 2513 l
 13400 2521 l 13410 2527 l 13418 2533 l 13425 2538 l 13432 2543 l
 13438 2548 l 13445 2555 l 13452 2564 l 13460 2575 l 13468 2588 l
 13476 2605 l 13485 2625 l 13492 2648 l 13498 2673 l 13500 2700 l
 13498 2727 l 13492 2752 l 13485 2775 l 13476 2795 l 13468 2812 l
 13460 2825 l 13452 2836 l 13445 2845 l 13438 2852 l 13432 2857 l
 13425 2863 l 13418 2867 l 13410 2873 l 13400 2879 l 13388 2887 l
 13373 2897 l 13355 2909 l 13333 2923 l 13306 2940 l 13275 2959 l
 13239 2979 l 13200 3000 l 13162 3018 l 13123 3035 l 13084 3050 l
 13047 3063 l 13010 3075 l 12974 3085 l 12940 3094 l 12906 3102 l
 12873 3109 l 12840 3116 l 12809 3121 l 12778 3127 l 12749 3131 l
 12721 3135 l 12695 3139 l 12671 3142 l 12651 3144 l 12634 3146 l
 12621 3148 l 12611 3149 l 12605 3149 l 12602 3150 l
 12600 3150 l gs col0 s gr 
% Polyline
n 12600 1350 m 12598 1350 l 12595 1351 l 12589 1351 l 12579 1352 l 12566 1354 l
 12549 1356 l 12529 1358 l 12505 1361 l 12479 1365 l 12451 1369 l
 12422 1373 l 12391 1379 l 12360 1384 l 12327 1391 l 12294 1398 l
 12260 1406 l 12226 1415 l 12190 1425 l 12153 1437 l 12116 1450 l
 12077 1465 l 12038 1482 l 12000 1500 l 11961 1521 l 11925 1541 l
 11894 1560 l 11867 1577 l 11845 1591 l 11827 1603 l 11812 1613 l
 11800 1621 l 11790 1627 l 11782 1633 l 11775 1638 l 11768 1643 l
 11762 1648 l 11755 1655 l 11748 1664 l 11740 1675 l 11732 1688 l
 11724 1705 l 11715 1725 l 11708 1748 l 11702 1773 l 11700 1800 l
 11702 1827 l 11708 1852 l 11715 1875 l 11724 1895 l 11732 1912 l
 11740 1925 l 11748 1936 l 11755 1945 l 11762 1952 l 11768 1957 l
 11775 1963 l 11782 1967 l 11790 1973 l 11800 1979 l 11812 1987 l
 11827 1997 l 11845 2009 l 11867 2023 l 11894 2040 l 11925 2059 l
 11961 2079 l 12000 2100 l 12038 2118 l 12077 2135 l 12116 2150 l
 12153 2163 l 12190 2175 l 12226 2185 l 12260 2194 l 12294 2202 l
 12327 2209 l 12360 2216 l 12391 2221 l 12422 2227 l 12451 2231 l
 12479 2235 l 12505 2239 l 12529 2242 l 12549 2244 l 12566 2246 l
 12579 2248 l 12589 2249 l 12595 2249 l 12598 2250 l
 12600 2250 l gs col0 s gr 
% Polyline
n 12600 450 m 12602 450 l 12605 451 l 12611 451 l 12621 452 l 12634 454 l
 12651 456 l 12671 458 l 12695 461 l 12721 465 l 12749 469 l
 12778 473 l 12809 479 l 12840 484 l 12873 491 l 12906 498 l
 12940 506 l 12974 515 l 13010 525 l 13047 537 l 13084 550 l
 13123 565 l 13162 582 l 13200 600 l 13239 621 l 13275 641 l
 13306 660 l 13333 677 l 13355 691 l 13373 703 l 13388 713 l
 13400 721 l 13410 727 l 13418 733 l 13425 738 l 13432 743 l
 13438 748 l 13445 755 l 13452 764 l 13460 775 l 13468 788 l
 13476 805 l 13485 825 l 13492 848 l 13498 873 l 13500 900 l
 13498 927 l 13492 952 l 13485 975 l 13476 995 l 13468 1012 l
 13460 1025 l 13452 1036 l 13445 1045 l 13438 1052 l 13432 1057 l
 13425 1063 l 13418 1067 l 13410 1073 l 13400 1079 l 13388 1087 l
 13373 1097 l 13355 1109 l 13333 1123 l 13306 1140 l 13275 1159 l
 13239 1179 l 13200 1200 l 13162 1218 l 13123 1235 l 13084 1250 l
 13047 1263 l 13010 1275 l 12974 1285 l 12940 1294 l 12906 1302 l
 12873 1309 l 12840 1316 l 12809 1321 l 12778 1327 l 12749 1331 l
 12721 1335 l 12695 1339 l 12671 1342 l 12651 1344 l 12634 1346 l
 12621 1348 l 12611 1349 l 12605 1349 l 12602 1350 l
 12600 1350 l gs col0 s gr 
% Polyline
n 12600 9450 m 12602 9450 l 12605 9451 l 12611 9451 l 12621 9452 l 12634 9454 l
 12651 9456 l 12671 9458 l 12695 9461 l 12721 9465 l 12749 9469 l
 12778 9473 l 12809 9479 l 12840 9484 l 12873 9491 l 12906 9498 l
 12940 9506 l 12974 9515 l 13010 9525 l 13047 9537 l 13084 9550 l
 13123 9565 l 13162 9582 l 13200 9600 l 13239 9621 l 13275 9641 l
 13306 9660 l 13333 9677 l 13355 9691 l 13373 9703 l 13388 9713 l
 13400 9721 l 13410 9727 l 13418 9733 l 13425 9738 l 13432 9743 l
 13438 9748 l 13445 9755 l 13452 9764 l 13460 9775 l 13468 9788 l
 13476 9805 l 13485 9825 l 13492 9848 l 13498 9873 l 13500 9900 l
 13498 9927 l 13492 9952 l 13485 9975 l 13476 9995 l 13468 10012 l
 13460 10025 l 13452 10036 l 13445 10045 l 13438 10052 l 13432 10057 l
 13425 10063 l 13418 10067 l 13410 10073 l 13400 10079 l 13388 10087 l
 13373 10097 l 13355 10109 l 13333 10123 l 13306 10140 l 13275 10159 l
 13239 10179 l 13200 10200 l 13162 10218 l 13123 10235 l 13084 10250 l
 13047 10263 l 13010 10275 l 12974 10285 l 12940 10294 l 12906 10302 l
 12873 10309 l 12840 10316 l 12809 10321 l 12778 10327 l 12749 10331 l
 12721 10335 l 12695 10339 l 12671 10342 l 12651 10344 l 12634 10346 l
 12621 10348 l 12611 10349 l 12605 10349 l 12602 10350 l
 12600 10350 l gs col0 s gr 
$F2psEnd
rs
