%!PS-Adobe-2.0 EPSF-2.0
%%Title: source_pair.eps
%%Creator: fig2dev Version 3.2 Patchlevel 3c
%%CreationDate: Sun Sep 23 15:13:46 2001
%%For: mea1@node6 (Martin Anderson)
%%BoundingBox: 0 0 752 614
%%Magnification: 1.0000
%%EndComments
/$F2psDict 200 dict def
$F2psDict begin
$F2psDict /mtrx matrix put
/col-1 {0 setgray} bind def
/col0 {0.000 0.000 0.000 srgb} bind def
/col1 {0.000 0.000 1.000 srgb} bind def
/col2 {0.000 1.000 0.000 srgb} bind def
/col3 {0.000 1.000 1.000 srgb} bind def
/col4 {1.000 0.000 0.000 srgb} bind def
/col5 {1.000 0.000 1.000 srgb} bind def
/col6 {1.000 1.000 0.000 srgb} bind def
/col7 {1.000 1.000 1.000 srgb} bind def
/col8 {0.000 0.000 0.560 srgb} bind def
/col9 {0.000 0.000 0.690 srgb} bind def
/col10 {0.000 0.000 0.820 srgb} bind def
/col11 {0.530 0.810 1.000 srgb} bind def
/col12 {0.000 0.560 0.000 srgb} bind def
/col13 {0.000 0.690 0.000 srgb} bind def
/col14 {0.000 0.820 0.000 srgb} bind def
/col15 {0.000 0.560 0.560 srgb} bind def
/col16 {0.000 0.690 0.690 srgb} bind def
/col17 {0.000 0.820 0.820 srgb} bind def
/col18 {0.560 0.000 0.000 srgb} bind def
/col19 {0.690 0.000 0.000 srgb} bind def
/col20 {0.820 0.000 0.000 srgb} bind def
/col21 {0.560 0.000 0.560 srgb} bind def
/col22 {0.690 0.000 0.690 srgb} bind def
/col23 {0.820 0.000 0.820 srgb} bind def
/col24 {0.500 0.190 0.000 srgb} bind def
/col25 {0.630 0.250 0.000 srgb} bind def
/col26 {0.750 0.380 0.000 srgb} bind def
/col27 {1.000 0.500 0.500 srgb} bind def
/col28 {1.000 0.630 0.630 srgb} bind def
/col29 {1.000 0.750 0.750 srgb} bind def
/col30 {1.000 0.880 0.880 srgb} bind def
/col31 {1.000 0.840 0.000 srgb} bind def

end
save
newpath 0 614 moveto 0 0 lineto 752 0 lineto 752 614 lineto closepath clip newpath
-167.0 631.0 translate
1 -1 scale

/cp {closepath} bind def
/ef {eofill} bind def
/gr {grestore} bind def
/gs {gsave} bind def
/sa {save} bind def
/rs {restore} bind def
/l {lineto} bind def
/m {moveto} bind def
/rm {rmoveto} bind def
/n {newpath} bind def
/s {stroke} bind def
/sh {show} bind def
/slc {setlinecap} bind def
/slj {setlinejoin} bind def
/slw {setlinewidth} bind def
/srgb {setrgbcolor} bind def
/rot {rotate} bind def
/sc {scale} bind def
/sd {setdash} bind def
/ff {findfont} bind def
/sf {setfont} bind def
/scf {scalefont} bind def
/sw {stringwidth} bind def
/tr {translate} bind def
/tnt {dup dup currentrgbcolor
  4 -2 roll dup 1 exch sub 3 -1 roll mul add
  4 -2 roll dup 1 exch sub 3 -1 roll mul add
  4 -2 roll dup 1 exch sub 3 -1 roll mul add srgb}
  bind def
/shd {dup dup currentrgbcolor 4 -2 roll mul 4 -2 roll mul
  4 -2 roll mul srgb} bind def
 /DrawEllipse {
	/endangle exch def
	/startangle exch def
	/yrad exch def
	/xrad exch def
	/y exch def
	/x exch def
	/savematrix mtrx currentmatrix def
	x y tr xrad yrad sc 0 0 1 startangle endangle arc
	closepath
	savematrix setmatrix
	} def

/$F2psBegin {$F2psDict begin /$F2psEnteredState save def} def
/$F2psEnd {$F2psEnteredState restore end} def

$F2psBegin
%%Page: 1 1
10 setmiterlimit
 0.06000 0.06000 sc
%
% Fig objects follow
%
/Times-Roman ff 600.00 scf sf
9300 8025 m
gs 1 -1 sc (C) dup sw pop 2 div neg 0 rm  col0 sh gr
/Times-Roman ff 600.00 scf sf
9300 7275 m
gs 1 -1 sc (B) dup sw pop 2 div neg 0 rm  col0 sh gr
/Times-Roman ff 600.00 scf sf
9300 6450 m
gs 1 -1 sc (A) dup sw pop 2 div neg 0 rm  col0 sh gr
7.500 slw
% Ellipse
n 4200 4500 106 106 0 360 DrawEllipse gs 0.00 setgray ef gr gs col0 s gr

% Ellipse
n 4169 6300 106 106 0 360 DrawEllipse gs 0.00 setgray ef gr gs col0 s gr

% Polyline
n 4200 5400 m
 15300 5400 l gs col0 s gr 
% Polyline
n 12600 300 m
 12600 10500 l gs col0 s gr 
% Polyline
15.000 slw
gs  clippath
12631 5453 m 12597 5338 l 12257 5439 l 12562 5411 l 12291 5554 l cp
eoclip
n 12600 5400 m
 9600 6300 l gs 0.00 setgray ef gr gs col0 s gr gr

% arrowhead
n 12291 5554 m 12562 5411 l 12257 5439 l 12332 5479 l 12291 5554 l 
 cp gs 0.00 setgray ef gr  col0 s
% Polyline
gs  clippath
12636 5900 m 12591 5788 l 12262 5920 l 12563 5865 l 12306 6032 l cp
eoclip
n 12600 5850 m
 9600 7050 l gs 0.00 setgray ef gr gs col0 s gr gr

% arrowhead
n 12306 6032 m 12563 5865 l 12262 5920 l 12340 5954 l 12306 6032 l 
 cp gs 0.00 setgray ef gr  col0 s
% Polyline
gs  clippath
12640 6346 m 12586 6239 l 12268 6398 l 12564 6318 l 12322 6505 l cp
eoclip
n 12600 6300 m
 9600 7800 l gs 0.00 setgray ef gr gs col0 s gr gr

% arrowhead
n 12322 6505 m 12564 6318 l 12268 6398 l 12349 6425 l 12322 6505 l 
 cp gs 0.00 setgray ef gr  col0 s
% Polyline
2 slj
n 12600 8550 m 12598 8550 l 12595 8551 l 12589 8551 l 12579 8552 l 12566 8554 l
 12549 8556 l 12529 8558 l 12505 8561 l 12479 8565 l 12451 8569 l
 12422 8573 l 12391 8579 l 12360 8584 l 12327 8591 l 12294 8598 l
 12260 8606 l 12226 8615 l 12190 8625 l 12153 8637 l 12116 8650 l
 12077 8665 l 12038 8682 l 12000 8700 l 11961 8721 l 11925 8741 l
 11894 8760 l 11867 8777 l 11845 8791 l 11827 8803 l 11812 8813 l
 11800 8821 l 11790 8827 l 11782 8833 l 11775 8838 l 11768 8843 l
 11762 8848 l 11755 8855 l 11748 8864 l 11740 8875 l 11732 8888 l
 11724 8905 l 11715 8925 l 11708 8948 l 11702 8973 l 11700 9000 l
 11702 9027 l 11708 9052 l 11715 9075 l 11724 9095 l 11732 9112 l
 11740 9125 l 11748 9136 l 11755 9145 l 11762 9152 l 11768 9157 l
 11775 9163 l 11782 9167 l 11790 9173 l 11800 9179 l 11812 9187 l
 11827 9197 l 11845 9209 l 11867 9223 l 11894 9240 l 11925 9259 l
 11961 9279 l 12000 9300 l 12038 9318 l 12077 9335 l 12116 9350 l
 12153 9363 l 12190 9375 l 12226 9385 l 12260 9394 l 12294 9402 l
 12327 9409 l 12360 9416 l 12391 9421 l 12422 9427 l 12451 9431 l
 12479 9435 l 12505 9439 l 12529 9442 l 12549 9444 l 12566 9446 l
 12579 9448 l 12589 9449 l 12595 9449 l 12598 9450 l
 12600 9450 l gs col0 s gr 
% Polyline
n 12600 7650 m 12602 7650 l 12605 7651 l 12611 7651 l 12621 7652 l 12634 7654 l
 12651 7656 l 12671 7658 l 12695 7661 l 12721 7665 l 12749 7669 l
 12778 7673 l 12809 7679 l 12840 7684 l 12873 7691 l 12906 7698 l
 12940 7706 l 12974 7715 l 13010 7725 l 13047 7737 l 13084 7750 l
 13123 7765 l 13162 7782 l 13200 7800 l 13239 7821 l 13275 7841 l
 13306 7860 l 13333 7877 l 13355 7891 l 13373 7903 l 13388 7913 l
 13400 7921 l 13410 7927 l 13418 7933 l 13425 7938 l 13432 7943 l
 13438 7948 l 13445 7955 l 13452 7964 l 13460 7975 l 13468 7988 l
 13476 8005 l 13485 8025 l 13492 8048 l 13498 8073 l 13500 8100 l
 13498 8127 l 13492 8152 l 13485 8175 l 13476 8195 l 13468 8212 l
 13460 8225 l 13452 8236 l 13445 8245 l 13438 8252 l 13432 8257 l
 13425 8263 l 13418 8267 l 13410 8273 l 13400 8279 l 13388 8287 l
 13373 8297 l 13355 8309 l 13333 8323 l 13306 8340 l 13275 8359 l
 13239 8379 l 13200 8400 l 13162 8418 l 13123 8435 l 13084 8450 l
 13047 8463 l 13010 8475 l 12974 8485 l 12940 8494 l 12906 8502 l
 12873 8509 l 12840 8516 l 12809 8521 l 12778 8527 l 12749 8531 l
 12721 8535 l 12695 8539 l 12671 8542 l 12651 8544 l 12634 8546 l
 12621 8548 l 12611 8549 l 12605 8549 l 12602 8550 l
 12600 8550 l gs col0 s gr 
% Polyline
n 12600 6750 m 12598 6750 l 12595 6751 l 12589 6751 l 12579 6752 l 12566 6754 l
 12549 6756 l 12529 6758 l 12505 6761 l 12479 6765 l 12451 6769 l
 12422 6773 l 12391 6779 l 12360 6784 l 12327 6791 l 12294 6798 l
 12260 6806 l 12226 6815 l 12190 6825 l 12153 6837 l 12116 6850 l
 12077 6865 l 12038 6882 l 12000 6900 l 11961 6921 l 11925 6941 l
 11894 6960 l 11867 6977 l 11845 6991 l 11827 7003 l 11812 7013 l
 11800 7021 l 11790 7027 l 11782 7033 l 11775 7038 l 11768 7043 l
 11762 7048 l 11755 7055 l 11748 7064 l 11740 7075 l 11732 7088 l
 11724 7105 l 11715 7125 l 11708 7148 l 11702 7173 l 11700 7200 l
 11702 7227 l 11708 7252 l 11715 7275 l 11724 7295 l 11732 7312 l
 11740 7325 l 11748 7336 l 11755 7345 l 11762 7352 l 11768 7357 l
 11775 7363 l 11782 7367 l 11790 7373 l 11800 7379 l 11812 7387 l
 11827 7397 l 11845 7409 l 11867 7423 l 11894 7440 l 11925 7459 l
 11961 7479 l 12000 7500 l 12038 7518 l 12077 7535 l 12116 7550 l
 12153 7563 l 12190 7575 l 12226 7585 l 12260 7594 l 12294 7602 l
 12327 7609 l 12360 7616 l 12391 7621 l 12422 7627 l 12451 7631 l
 12479 7635 l 12505 7639 l 12529 7642 l 12549 7644 l 12566 7646 l
 12579 7648 l 12589 7649 l 12595 7649 l 12598 7650 l
 12600 7650 l gs col0 s gr 
% Polyline
n 12600 5850 m 12602 5850 l 12605 5851 l 12611 5851 l 12621 5852 l 12634 5854 l
 12651 5856 l 12671 5858 l 12695 5861 l 12721 5865 l 12749 5869 l
 12778 5873 l 12809 5879 l 12840 5884 l 12873 5891 l 12906 5898 l
 12940 5906 l 12974 5915 l 13010 5925 l 13047 5937 l 13084 5950 l
 13123 5965 l 13162 5982 l 13200 6000 l 13239 6021 l 13275 6041 l
 13306 6060 l 13333 6077 l 13355 6091 l 13373 6103 l 13388 6113 l
 13400 6121 l 13410 6127 l 13418 6133 l 13425 6138 l 13432 6143 l
 13438 6148 l 13445 6155 l 13452 6164 l 13460 6175 l 13468 6188 l
 13476 6205 l 13485 6225 l 13492 6248 l 13498 6273 l 13500 6300 l
 13498 6327 l 13492 6352 l 13485 6375 l 13476 6395 l 13468 6412 l
 13460 6425 l 13452 6436 l 13445 6445 l 13438 6452 l 13432 6457 l
 13425 6463 l 13418 6467 l 13410 6473 l 13400 6479 l 13388 6487 l
 13373 6497 l 13355 6509 l 13333 6523 l 13306 6540 l 13275 6559 l
 13239 6579 l 13200 6600 l 13162 6618 l 13123 6635 l 13084 6650 l
 13047 6663 l 13010 6675 l 12974 6685 l 12940 6694 l 12906 6702 l
 12873 6709 l 12840 6716 l 12809 6721 l 12778 6727 l 12749 6731 l
 12721 6735 l 12695 6739 l 12671 6742 l 12651 6744 l 12634 6746 l
 12621 6748 l 12611 6749 l 12605 6749 l 12602 6750 l
 12600 6750 l gs col0 s gr 
% Polyline
n 12600 4950 m 12598 4950 l 12595 4951 l 12589 4951 l 12579 4952 l 12566 4954 l
 12549 4956 l 12529 4958 l 12505 4961 l 12479 4965 l 12451 4969 l
 12422 4973 l 12391 4979 l 12360 4984 l 12327 4991 l 12294 4998 l
 12260 5006 l 12226 5015 l 12190 5025 l 12153 5037 l 12116 5050 l
 12077 5065 l 12038 5082 l 12000 5100 l 11961 5121 l 11925 5141 l
 11894 5160 l 11867 5177 l 11845 5191 l 11827 5203 l 11812 5213 l
 11800 5221 l 11790 5227 l 11782 5233 l 11775 5238 l 11768 5243 l
 11762 5248 l 11755 5255 l 11748 5264 l 11740 5275 l 11732 5288 l
 11724 5305 l 11715 5325 l 11708 5348 l 11702 5373 l 11700 5400 l
 11702 5427 l 11708 5452 l 11715 5475 l 11724 5495 l 11732 5512 l
 11740 5525 l 11748 5536 l 11755 5545 l 11762 5552 l 11768 5557 l
 11775 5563 l 11782 5567 l 11790 5573 l 11800 5579 l 11812 5587 l
 11827 5597 l 11845 5609 l 11867 5623 l 11894 5640 l 11925 5659 l
 11961 5679 l 12000 5700 l 12038 5718 l 12077 5735 l 12116 5750 l
 12153 5763 l 12190 5775 l 12226 5785 l 12260 5794 l 12294 5802 l
 12327 5809 l 12360 5816 l 12391 5821 l 12422 5827 l 12451 5831 l
 12479 5835 l 12505 5839 l 12529 5842 l 12549 5844 l 12566 5846 l
 12579 5848 l 12589 5849 l 12595 5849 l 12598 5850 l
 12600 5850 l gs col0 s gr 
% Polyline
n 12600 4050 m 12602 4050 l 12605 4051 l 12611 4051 l 12621 4052 l 12634 4054 l
 12651 4056 l 12671 4058 l 12695 4061 l 12721 4065 l 12749 4069 l
 12778 4073 l 12809 4079 l 12840 4084 l 12873 4091 l 12906 4098 l
 12940 4106 l 12974 4115 l 13010 4125 l 13047 4137 l 13084 4150 l
 13123 4165 l 13162 4182 l 13200 4200 l 13239 4221 l 13275 4241 l
 13306 4260 l 13333 4277 l 13355 4291 l 13373 4303 l 13388 4313 l
 13400 4321 l 13410 4327 l 13418 4333 l 13425 4338 l 13432 4343 l
 13438 4348 l 13445 4355 l 13452 4364 l 13460 4375 l 13468 4388 l
 13476 4405 l 13485 4425 l 13492 4448 l 13498 4473 l 13500 4500 l
 13498 4527 l 13492 4552 l 13485 4575 l 13476 4595 l 13468 4612 l
 13460 4625 l 13452 4636 l 13445 4645 l 13438 4652 l 13432 4657 l
 13425 4663 l 13418 4667 l 13410 4673 l 13400 4679 l 13388 4687 l
 13373 4697 l 13355 4709 l 13333 4723 l 13306 4740 l 13275 4759 l
 13239 4779 l 13200 4800 l 13162 4818 l 13123 4835 l 13084 4850 l
 13047 4863 l 13010 4875 l 12974 4885 l 12940 4894 l 12906 4902 l
 12873 4909 l 12840 4916 l 12809 4921 l 12778 4927 l 12749 4931 l
 12721 4935 l 12695 4939 l 12671 4942 l 12651 4944 l 12634 4946 l
 12621 4948 l 12611 4949 l 12605 4949 l 12602 4950 l
 12600 4950 l gs col0 s gr 
% Polyline
n 12600 3150 m 12598 3150 l 12595 3151 l 12589 3151 l 12579 3152 l 12566 3154 l
 12549 3156 l 12529 3158 l 12505 3161 l 12479 3165 l 12451 3169 l
 12422 3173 l 12391 3179 l 12360 3184 l 12327 3191 l 12294 3198 l
 12260 3206 l 12226 3215 l 12190 3225 l 12153 3237 l 12116 3250 l
 12077 3265 l 12038 3282 l 12000 3300 l 11961 3321 l 11925 3341 l
 11894 3360 l 11867 3377 l 11845 3391 l 11827 3403 l 11812 3413 l
 11800 3421 l 11790 3427 l 11782 3433 l 11775 3438 l 11768 3443 l
 11762 3448 l 11755 3455 l 11748 3464 l 11740 3475 l 11732 3488 l
 11724 3505 l 11715 3525 l 11708 3548 l 11702 3573 l 11700 3600 l
 11702 3627 l 11708 3652 l 11715 3675 l 11724 3695 l 11732 3712 l
 11740 3725 l 11748 3736 l 11755 3745 l 11762 3752 l 11768 3757 l
 11775 3763 l 11782 3767 l 11790 3773 l 11800 3779 l 11812 3787 l
 11827 3797 l 11845 3809 l 11867 3823 l 11894 3840 l 11925 3859 l
 11961 3879 l 12000 3900 l 12038 3918 l 12077 3935 l 12116 3950 l
 12153 3963 l 12190 3975 l 12226 3985 l 12260 3994 l 12294 4002 l
 12327 4009 l 12360 4016 l 12391 4021 l 12422 4027 l 12451 4031 l
 12479 4035 l 12505 4039 l 12529 4042 l 12549 4044 l 12566 4046 l
 12579 4048 l 12589 4049 l 12595 4049 l 12598 4050 l
 12600 4050 l gs col0 s gr 
% Polyline
n 12600 2250 m 12602 2250 l 12605 2251 l 12611 2251 l 12621 2252 l 12634 2254 l
 12651 2256 l 12671 2258 l 12695 2261 l 12721 2265 l 12749 2269 l
 12778 2273 l 12809 2279 l 12840 2284 l 12873 2291 l 12906 2298 l
 12940 2306 l 12974 2315 l 13010 2325 l 13047 2337 l 13084 2350 l
 13123 2365 l 13162 2382 l 13200 2400 l 13239 2421 l 13275 2441 l
 13306 2460 l 13333 2477 l 13355 2491 l 13373 2503 l 13388 2513 l
 13400 2521 l 13410 2527 l 13418 2533 l 13425 2538 l 13432 2543 l
 13438 2548 l 13445 2555 l 13452 2564 l 13460 2575 l 13468 2588 l
 13476 2605 l 13485 2625 l 13492 2648 l 13498 2673 l 13500 2700 l
 13498 2727 l 13492 2752 l 13485 2775 l 13476 2795 l 13468 2812 l
 13460 2825 l 13452 2836 l 13445 2845 l 13438 2852 l 13432 2857 l
 13425 2863 l 13418 2867 l 13410 2873 l 13400 2879 l 13388 2887 l
 13373 2897 l 13355 2909 l 13333 2923 l 13306 2940 l 13275 2959 l
 13239 2979 l 13200 3000 l 13162 3018 l 13123 3035 l 13084 3050 l
 13047 3063 l 13010 3075 l 12974 3085 l 12940 3094 l 12906 3102 l
 12873 3109 l 12840 3116 l 12809 3121 l 12778 3127 l 12749 3131 l
 12721 3135 l 12695 3139 l 12671 3142 l 12651 3144 l 12634 3146 l
 12621 3148 l 12611 3149 l 12605 3149 l 12602 3150 l
 12600 3150 l gs col0 s gr 
% Polyline
n 12600 1350 m 12598 1350 l 12595 1351 l 12589 1351 l 12579 1352 l 12566 1354 l
 12549 1356 l 12529 1358 l 12505 1361 l 12479 1365 l 12451 1369 l
 12422 1373 l 12391 1379 l 12360 1384 l 12327 1391 l 12294 1398 l
 12260 1406 l 12226 1415 l 12190 1425 l 12153 1437 l 12116 1450 l
 12077 1465 l 12038 1482 l 12000 1500 l 11961 1521 l 11925 1541 l
 11894 1560 l 11867 1577 l 11845 1591 l 11827 1603 l 11812 1613 l
 11800 1621 l 11790 1627 l 11782 1633 l 11775 1638 l 11768 1643 l
 11762 1648 l 11755 1655 l 11748 1664 l 11740 1675 l 11732 1688 l
 11724 1705 l 11715 1725 l 11708 1748 l 11702 1773 l 11700 1800 l
 11702 1827 l 11708 1852 l 11715 1875 l 11724 1895 l 11732 1912 l
 11740 1925 l 11748 1936 l 11755 1945 l 11762 1952 l 11768 1957 l
 11775 1963 l 11782 1967 l 11790 1973 l 11800 1979 l 11812 1987 l
 11827 1997 l 11845 2009 l 11867 2023 l 11894 2040 l 11925 2059 l
 11961 2079 l 12000 2100 l 12038 2118 l 12077 2135 l 12116 2150 l
 12153 2163 l 12190 2175 l 12226 2185 l 12260 2194 l 12294 2202 l
 12327 2209 l 12360 2216 l 12391 2221 l 12422 2227 l 12451 2231 l
 12479 2235 l 12505 2239 l 12529 2242 l 12549 2244 l 12566 2246 l
 12579 2248 l 12589 2249 l 12595 2249 l 12598 2250 l
 12600 2250 l gs col0 s gr 
% Polyline
n 12600 450 m 12602 450 l 12605 451 l 12611 451 l 12621 452 l 12634 454 l
 12651 456 l 12671 458 l 12695 461 l 12721 465 l 12749 469 l
 12778 473 l 12809 479 l 12840 484 l 12873 491 l 12906 498 l
 12940 506 l 12974 515 l 13010 525 l 13047 537 l 13084 550 l
 13123 565 l 13162 582 l 13200 600 l 13239 621 l 13275 641 l
 13306 660 l 13333 677 l 13355 691 l 13373 703 l 13388 713 l
 13400 721 l 13410 727 l 13418 733 l 13425 738 l 13432 743 l
 13438 748 l 13445 755 l 13452 764 l 13460 775 l 13468 788 l
 13476 805 l 13485 825 l 13492 848 l 13498 873 l 13500 900 l
 13498 927 l 13492 952 l 13485 975 l 13476 995 l 13468 1012 l
 13460 1025 l 13452 1036 l 13445 1045 l 13438 1052 l 13432 1057 l
 13425 1063 l 13418 1067 l 13410 1073 l 13400 1079 l 13388 1087 l
 13373 1097 l 13355 1109 l 13333 1123 l 13306 1140 l 13275 1159 l
 13239 1179 l 13200 1200 l 13162 1218 l 13123 1235 l 13084 1250 l
 13047 1263 l 13010 1275 l 12974 1285 l 12940 1294 l 12906 1302 l
 12873 1309 l 12840 1316 l 12809 1321 l 12778 1327 l 12749 1331 l
 12721 1335 l 12695 1339 l 12671 1342 l 12651 1344 l 12634 1346 l
 12621 1348 l 12611 1349 l 12605 1349 l 12602 1350 l
 12600 1350 l gs col0 s gr 
% Polyline
n 12600 9450 m 12602 9450 l 12605 9451 l 12611 9451 l 12621 9452 l 12634 9454 l
 12651 9456 l 12671 9458 l 12695 9461 l 12721 9465 l 12749 9469 l
 12778 9473 l 12809 9479 l 12840 9484 l 12873 9491 l 12906 9498 l
 12940 9506 l 12974 9515 l 13010 9525 l 13047 9537 l 13084 9550 l
 13123 9565 l 13162 9582 l 13200 9600 l 13239 9621 l 13275 9641 l
 13306 9660 l 13333 9677 l 13355 9691 l 13373 9703 l 13388 9713 l
 13400 9721 l 13410 9727 l 13418 9733 l 13425 9738 l 13432 9743 l
 13438 9748 l 13445 9755 l 13452 9764 l 13460 9775 l 13468 9788 l
 13476 9805 l 13485 9825 l 13492 9848 l 13498 9873 l 13500 9900 l
 13498 9927 l 13492 9952 l 13485 9975 l 13476 9995 l 13468 10012 l
 13460 10025 l 13452 10036 l 13445 10045 l 13438 10052 l 13432 10057 l
 13425 10063 l 13418 10067 l 13410 10073 l 13400 10079 l 13388 10087 l
 13373 10097 l 13355 10109 l 13333 10123 l 13306 10140 l 13275 10159 l
 13239 10179 l 13200 10200 l 13162 10218 l 13123 10235 l 13084 10250 l
 13047 10263 l 13010 10275 l 12974 10285 l 12940 10294 l 12906 10302 l
 12873 10309 l 12840 10316 l 12809 10321 l 12778 10327 l 12749 10331 l
 12721 10335 l 12695 10339 l 12671 10342 l 12651 10344 l 12634 10346 l
 12621 10348 l 12611 10349 l 12605 10349 l 12602 10350 l
 12600 10350 l gs col0 s gr 
/Times-Roman ff 600.00 scf sf
4200 3900 m
gs 1 -1 sc (Source pair) dup sw pop 2 div neg 0 rm  col0 sh gr
$F2psEnd
rs
