%!PS-Adobe-2.0 EPSF-2.0
%%Title: teardrop.eps
%%Creator: fig2dev Version 3.2 Patchlevel 1
%%CreationDate: Fri Jun 18 13:46:44 1999
%%For: mea1@abo.egr.duke.edu ()
%%Orientation: Portrait
%%BoundingBox: 0 0 193 218
%%Pages: 0
%%BeginSetup
%%EndSetup
%%Magnification: 1.0000
%%EndComments
/$F2psDict 200 dict def
$F2psDict begin
$F2psDict /mtrx matrix put
/col-1 {0 setgray} bind def
/col0 {0.000 0.000 0.000 srgb} bind def
/col1 {0.000 0.000 1.000 srgb} bind def
/col2 {0.000 1.000 0.000 srgb} bind def
/col3 {0.000 1.000 1.000 srgb} bind def
/col4 {1.000 0.000 0.000 srgb} bind def
/col5 {1.000 0.000 1.000 srgb} bind def
/col6 {1.000 1.000 0.000 srgb} bind def
/col7 {1.000 1.000 1.000 srgb} bind def
/col8 {0.000 0.000 0.560 srgb} bind def
/col9 {0.000 0.000 0.690 srgb} bind def
/col10 {0.000 0.000 0.820 srgb} bind def
/col11 {0.530 0.810 1.000 srgb} bind def
/col12 {0.000 0.560 0.000 srgb} bind def
/col13 {0.000 0.690 0.000 srgb} bind def
/col14 {0.000 0.820 0.000 srgb} bind def
/col15 {0.000 0.560 0.560 srgb} bind def
/col16 {0.000 0.690 0.690 srgb} bind def
/col17 {0.000 0.820 0.820 srgb} bind def
/col18 {0.560 0.000 0.000 srgb} bind def
/col19 {0.690 0.000 0.000 srgb} bind def
/col20 {0.820 0.000 0.000 srgb} bind def
/col21 {0.560 0.000 0.560 srgb} bind def
/col22 {0.690 0.000 0.690 srgb} bind def
/col23 {0.820 0.000 0.820 srgb} bind def
/col24 {0.500 0.190 0.000 srgb} bind def
/col25 {0.630 0.250 0.000 srgb} bind def
/col26 {0.750 0.380 0.000 srgb} bind def
/col27 {1.000 0.500 0.500 srgb} bind def
/col28 {1.000 0.630 0.630 srgb} bind def
/col29 {1.000 0.750 0.750 srgb} bind def
/col30 {1.000 0.880 0.880 srgb} bind def
/col31 {1.000 0.840 0.000 srgb} bind def

end
save
-88.0 288.0 translate
1 -1 scale

/cp {closepath} bind def
/ef {eofill} bind def
/gr {grestore} bind def
/gs {gsave} bind def
/sa {save} bind def
/rs {restore} bind def
/l {lineto} bind def
/m {moveto} bind def
/rm {rmoveto} bind def
/n {newpath} bind def
/s {stroke} bind def
/sh {show} bind def
/slc {setlinecap} bind def
/slj {setlinejoin} bind def
/slw {setlinewidth} bind def
/srgb {setrgbcolor} bind def
/rot {rotate} bind def
/sc {scale} bind def
/sd {setdash} bind def
/ff {findfont} bind def
/sf {setfont} bind def
/scf {scalefont} bind def
/sw {stringwidth} bind def
/tr {translate} bind def
/tnt {dup dup currentrgbcolor
  4 -2 roll dup 1 exch sub 3 -1 roll mul add
  4 -2 roll dup 1 exch sub 3 -1 roll mul add
  4 -2 roll dup 1 exch sub 3 -1 roll mul add srgb}
  bind def
/shd {dup dup currentrgbcolor 4 -2 roll mul 4 -2 roll mul
  4 -2 roll mul srgb} bind def
/$F2psBegin {$F2psDict begin /$F2psEnteredState save def} def
/$F2psEnd {$F2psEnteredState restore end} def
%%EndProlog

$F2psBegin
10 setmiterlimit
n -1000 5800 m -1000 -1000 l 5675 -1000 l 5675 5800 l cp clip
 0.06000 0.06000 sc
% Polyline
15.000 slw
gs  clippath
2940 1525 m 3000 1236 l 3060 1525 l 3060 1170 l 2940 1170 l cp
clip
n 3000 4200 m 3000 1200 l gs 0.00 setgray ef gr gs col0 s gr gr

% arrowhead
n 2940 1525 m 3000 1236 l 3060 1525 l 3000 1477 l 2940 1525 l  cp gs 0.00 setgray ef gr  col0 s
/Times-Roman ff 360.00 scf sf
3600 1650 m
gs 1 -1 sc (z) dup sw pop 2 div neg 0 rm  col0 sh gr
/Times-Roman ff 360.00 scf sf
3375 1575 m
gs 1 -1 sc (k) dup sw pop 2 div neg 0 rm  col0 sh gr
/Times-Roman ff 360.00 scf sf
4575 4800 m
gs 1 -1 sc (x) dup sw pop 2 div neg 0 rm  col0 sh gr
/Times-Roman ff 360.00 scf sf
4350 4725 m
gs 1 -1 sc (k) dup sw pop 2 div neg 0 rm  col0 sh gr
% Polyline
gs  clippath
1825 4260 m 1536 4200 l 1825 4140 l 1470 4140 l 1470 4260 l cp
clip
n 3000 4200 m 1500 4200 l gs 0.00 setgray ef gr gs col0 s gr gr

% arrowhead
n 1825 4260 m 1536 4200 l 1825 4140 l 1777 4200 l 1825 4260 l  cp gs 0.00 setgray ef gr  col0 s
% Polyline
gs  clippath
4175 4140 m 4463 4200 l 4175 4260 l 4530 4260 l 4530 4140 l cp
clip
n 3000 4200 m 4500 4200 l gs 0.00 setgray ef gr gs col0 s gr gr

% arrowhead
n 4175 4140 m 4463 4200 l 4175 4260 l 4223 4200 l 4175 4140 l  cp gs 0.00 setgray ef gr  col0 s
% Polyline
n 2775 2975 m 2759 2965 l 2742 2956 l 2724 2945 l 2705 2934 l 2685 2923 l
 2665 2911 l 2643 2898 l 2621 2885 l 2599 2872 l 2576 2858 l
 2553 2843 l 2531 2828 l 2509 2813 l 2487 2798 l 2466 2783 l
 2446 2767 l 2427 2752 l 2409 2736 l 2393 2721 l 2377 2706 l
 2363 2691 l 2350 2675 l 2339 2661 l 2329 2646 l 2320 2631 l
 2311 2615 l 2304 2599 l 2297 2582 l 2292 2566 l 2287 2548 l
 2284 2531 l 2282 2513 l 2281 2495 l 2281 2477 l 2283 2459 l
 2285 2441 l 2289 2423 l 2294 2406 l 2301 2390 l 2308 2373 l
 2317 2358 l 2326 2343 l 2337 2328 l 2349 2314 l 2361 2301 l
 2375 2288 l 2390 2275 l 2406 2262 l 2424 2250 l 2443 2238 l
 2463 2226 l 2485 2215 l 2508 2204 l 2532 2193 l 2558 2182 l
 2585 2172 l 2613 2162 l 2642 2153 l 2672 2145 l 2702 2137 l
 2732 2130 l 2763 2123 l 2794 2118 l 2824 2113 l 2854 2109 l
 2884 2106 l 2913 2103 l 2942 2101 l 2971 2100 l 3000 2100 l
 3029 2100 l 3058 2101 l 3087 2103 l 3116 2106 l 3146 2109 l
 3176 2113 l 3206 2118 l 3237 2123 l 3268 2130 l 3298 2137 l
 3328 2145 l 3358 2153 l 3387 2162 l 3415 2172 l 3442 2182 l
 3468 2193 l 3492 2204 l 3515 2215 l 3537 2226 l 3557 2238 l
 3576 2250 l 3594 2262 l 3610 2275 l 3625 2288 l 3639 2301 l
 3651 2314 l 3663 2328 l 3674 2343 l 3683 2358 l 3692 2373 l
 3699 2390 l 3706 2406 l 3711 2423 l 3715 2441 l 3717 2459 l
 3719 2477 l 3719 2495 l 3718 2513 l 3716 2531 l 3713 2548 l
 3708 2566 l 3703 2582 l 3696 2599 l 3689 2615 l 3680 2631 l
 3671 2646 l 3661 2661 l 3650 2675 l 3637 2691 l 3623 2706 l
 3607 2721 l 3591 2736 l 3573 2752 l 3554 2767 l 3534 2783 l
 3513 2798 l 3491 2813 l 3469 2828 l 3447 2843 l 3424 2858 l
 3401 2872 l 3379 2885 l 3357 2898 l 3335 2911 l 3315 2923 l
 3295 2934 l 3276 2945 l 3258 2956 l 3241 2965 l 3225 2975 l
 3201 2989 l 3179 3003 l 3159 3017 l 3139 3031 l 3121 3044 l
 3104 3056 l 3089 3068 l 3075 3079 l 3063 3089 l 3053 3098 l
 3044 3107 l 3037 3114 l 3030 3120 l 3025 3125 l 3021 3129 l
 3018 3132 l 3015 3135 l 3012 3137 l 3010 3139 l 3007 3141 l
 3005 3142 l 3002 3143 l 3000 3143 l 2998 3143 l 2995 3142 l
 2993 3141 l 2990 3139 l 2988 3137 l 2985 3135 l 2982 3132 l
 2979 3129 l 2975 3125 l 2970 3120 l 2963 3114 l 2956 3107 l
 2947 3098 l 2937 3089 l 2925 3079 l 2911 3068 l 2896 3056 l
 2879 3044 l 2861 3031 l 2841 3017 l 2821 3003 l 2799 2989 l
 cp gs col0 s gr 
$F2psEnd
rs
