%!PS-Adobe-2.0 EPSF-2.0
%%Title: two_el.eps
%%Creator: fig2dev Version 3.2 Patchlevel 0-beta3
%%CreationDate: Wed Oct 28 22:30:53 1998
%%For: mea1@moomin.valley (Red Hat Linux User,,,,)
%%Orientation: Portrait
%%BoundingBox: 0 0 739 1211
%%Pages: 0
%%BeginSetup
%%EndSetup
%%Magnification: 1.0000
%%EndComments
/$F2psDict 200 dict def
$F2psDict begin
$F2psDict /mtrx matrix put
/col-1 {0 setgray} bind def
/col0 {0.000 0.000 0.000 srgb} bind def
/col1 {0.000 0.000 1.000 srgb} bind def
/col2 {0.000 1.000 0.000 srgb} bind def
/col3 {0.000 1.000 1.000 srgb} bind def
/col4 {1.000 0.000 0.000 srgb} bind def
/col5 {1.000 0.000 1.000 srgb} bind def
/col6 {1.000 1.000 0.000 srgb} bind def
/col7 {1.000 1.000 1.000 srgb} bind def
/col8 {0.000 0.000 0.560 srgb} bind def
/col9 {0.000 0.000 0.690 srgb} bind def
/col10 {0.000 0.000 0.820 srgb} bind def
/col11 {0.530 0.810 1.000 srgb} bind def
/col12 {0.000 0.560 0.000 srgb} bind def
/col13 {0.000 0.690 0.000 srgb} bind def
/col14 {0.000 0.820 0.000 srgb} bind def
/col15 {0.000 0.560 0.560 srgb} bind def
/col16 {0.000 0.690 0.690 srgb} bind def
/col17 {0.000 0.820 0.820 srgb} bind def
/col18 {0.560 0.000 0.000 srgb} bind def
/col19 {0.690 0.000 0.000 srgb} bind def
/col20 {0.820 0.000 0.000 srgb} bind def
/col21 {0.560 0.000 0.560 srgb} bind def
/col22 {0.690 0.000 0.690 srgb} bind def
/col23 {0.820 0.000 0.820 srgb} bind def
/col24 {0.500 0.190 0.000 srgb} bind def
/col25 {0.630 0.250 0.000 srgb} bind def
/col26 {0.750 0.380 0.000 srgb} bind def
/col27 {1.000 0.500 0.500 srgb} bind def
/col28 {1.000 0.630 0.630 srgb} bind def
/col29 {1.000 0.750 0.750 srgb} bind def
/col30 {1.000 0.880 0.880 srgb} bind def
/col31 {1.000 0.840 0.000 srgb} bind def

end
save
-287.0 1318.0 translate
1 -1 scale

/cp {closepath} bind def
/ef {eofill} bind def
/gr {grestore} bind def
/gs {gsave} bind def
/sa {save} bind def
/rs {restore} bind def
/l {lineto} bind def
/m {moveto} bind def
/rm {rmoveto} bind def
/n {newpath} bind def
/s {stroke} bind def
/sh {show} bind def
/slc {setlinecap} bind def
/slj {setlinejoin} bind def
/slw {setlinewidth} bind def
/srgb {setrgbcolor} bind def
/rot {rotate} bind def
/sc {scale} bind def
/sd {setdash} bind def
/ff {findfont} bind def
/sf {setfont} bind def
/scf {scalefont} bind def
/sw {stringwidth} bind def
/tr {translate} bind def
/tnt {dup dup currentrgbcolor
  4 -2 roll dup 1 exch sub 3 -1 roll mul add
  4 -2 roll dup 1 exch sub 3 -1 roll mul add
  4 -2 roll dup 1 exch sub 3 -1 roll mul add srgb}
  bind def
/shd {dup dup currentrgbcolor 4 -2 roll mul 4 -2 roll mul
  4 -2 roll mul srgb} bind def
/reencdict 12 dict def /ReEncode { reencdict begin
/newcodesandnames exch def /newfontname exch def /basefontname exch def
/basefontdict basefontname findfont def /newfont basefontdict maxlength dict def
basefontdict { exch dup /FID ne { dup /Encoding eq
{ exch dup length array copy newfont 3 1 roll put }
{ exch newfont 3 1 roll put } ifelse } { pop pop } ifelse } forall
newfont /FontName newfontname put newcodesandnames aload pop
128 1 255 { newfont /Encoding get exch /.notdef put } for
newcodesandnames length 2 idiv { newfont /Encoding get 3 1 roll put } repeat
newfontname newfont definefont pop end } def
/isovec [
8#200 /grave 8#201 /acute 8#202 /circumflex 8#203 /tilde
8#204 /macron 8#205 /breve 8#206 /dotaccent 8#207 /dieresis
8#210 /ring 8#211 /cedilla 8#212 /hungarumlaut 8#213 /ogonek 8#214 /caron
8#220 /dotlessi 8#230 /oe 8#231 /OE
8#240 /space 8#241 /exclamdown 8#242 /cent 8#243 /sterling
8#244 /currency 8#245 /yen 8#246 /brokenbar 8#247 /section 8#250 /dieresis
8#251 /copyright 8#252 /ordfeminine 8#253 /guillemotleft 8#254 /logicalnot
8#255 /endash 8#256 /registered 8#257 /macron 8#260 /degree 8#261 /plusminus
8#262 /twosuperior 8#263 /threesuperior 8#264 /acute 8#265 /mu 8#266 /paragraph
8#267 /periodcentered 8#270 /cedilla 8#271 /onesuperior 8#272 /ordmasculine
8#273 /guillemotright 8#274 /onequarter 8#275 /onehalf
8#276 /threequarters 8#277 /questiondown 8#300 /Agrave 8#301 /Aacute
8#302 /Acircumflex 8#303 /Atilde 8#304 /Adieresis 8#305 /Aring
8#306 /AE 8#307 /Ccedilla 8#310 /Egrave 8#311 /Eacute
8#312 /Ecircumflex 8#313 /Edieresis 8#314 /Igrave 8#315 /Iacute
8#316 /Icircumflex 8#317 /Idieresis 8#320 /Eth 8#321 /Ntilde 8#322 /Ograve
8#323 /Oacute 8#324 /Ocircumflex 8#325 /Otilde 8#326 /Odieresis 8#327 /multiply
8#330 /Oslash 8#331 /Ugrave 8#332 /Uacute 8#333 /Ucircumflex
8#334 /Udieresis 8#335 /Yacute 8#336 /Thorn 8#337 /germandbls 8#340 /agrave
8#341 /aacute 8#342 /acircumflex 8#343 /atilde 8#344 /adieresis 8#345 /aring
8#346 /ae 8#347 /ccedilla 8#350 /egrave 8#351 /eacute
8#352 /ecircumflex 8#353 /edieresis 8#354 /igrave 8#355 /iacute
8#356 /icircumflex 8#357 /idieresis 8#360 /eth 8#361 /ntilde 8#362 /ograve
8#363 /oacute 8#364 /ocircumflex 8#365 /otilde 8#366 /odieresis 8#367 /divide
8#370 /oslash 8#371 /ugrave 8#372 /uacute 8#373 /ucircumflex
8#374 /udieresis 8#375 /yacute 8#376 /thorn 8#377 /ydieresis] def
/Times-Roman /Times-Roman-iso isovec ReEncode
/Times-BoldItalic /Times-BoldItalic-iso isovec ReEncode
 /DrawEllipse {
	/endangle exch def
	/startangle exch def
	/yrad exch def
	/xrad exch def
	/y exch def
	/x exch def
	/savematrix mtrx currentmatrix def
	x y tr xrad yrad sc 0 0 1 startangle endangle arc
	closepath
	savematrix setmatrix
	} def

/$F2psBegin {$F2psDict begin /$F2psEnteredState save def} def
/$F2psEnd {$F2psEnteredState restore end} def
%%EndProlog

$F2psBegin
10 setmiterlimit
n -1000 22952 m -1000 -1000 l 18091 -1000 l 18091 22952 l cp clip
 0.06000 0.06000 sc
% Polyline
7.500 slw
n 5325 3000 m 5625 3000 l 5625 3300 l 5325 3300 l gs col0 s gr 
% Polyline
n 5325 4500 m 5625 4500 l 5625 4800 l 5325 4800 l gs col0 s gr 
% Polyline
gs  clippath
9483 3840 m 9771 3900 l 9483 3960 l 9840 3960 l 9840 3840 l cp
clip
n 5025 3900 m 9825 3900 l gs col0 s gr gr

% arrowhead
15.000 slw
n 9483 3840 m 9771 3900 l 9483 3960 l 9531 3900 l 9483 3840 l  cp gs 0.00 setgray ef gr  col0 s
% Polyline
7.500 slw
gs  clippath
9011 3383 m 9448 3326 l 9070 3553 l 9569 3380 l 9510 3210 l cp
clip
n 5625 4650 m 9525 3300 l gs col0 s gr gr

% arrowhead
30.000 slw
n 9011 3383 m 9448 3326 l 9070 3553 l 9108 3444 l 9011 3383 l  cp gs 0.00 setgray ef gr  col0 s
% Polyline
7.500 slw
gs  clippath
9070 4247 m 9448 4473 l 9011 4417 l 9510 4590 l 9569 4420 l cp
clip
n 5625 3150 m 9525 4500 l gs col0 s gr gr

% arrowhead
30.000 slw
n 9070 4247 m 9448 4473 l 9011 4417 l 9108 4356 l 9070 4247 l  cp gs 0.00 setgray ef gr  col0 s
% Polyline
7.500 slw
n 8475 2925 m 8925 2925 l 8850 2850 l gs col0 s gr 
% Polyline
n 8400 4500 m 8850 4500 l 8775 4425 l gs col0 s gr 
/Times-BoldItalic-iso ff 420.00 scf sf
8625 3300 m
gs 1 -1 sc (i) dup sw pop 2 div neg 0 rm  col0 sh gr
/Times-BoldItalic-iso ff 420.00 scf sf
8625 4800 m
gs 1 -1 sc (o) dup sw pop 2 div neg 0 rm  col0 sh gr
/Times-BoldItalic-iso ff 420.00 scf sf
5025 4800 m
gs 1 -1 sc (2) dup sw pop 2 div neg 0 rm  col0 sh gr
/Times-BoldItalic-iso ff 420.00 scf sf
5025 3300 m
gs 1 -1 sc (1) dup sw pop 2 div neg 0 rm  col0 sh gr
/Times-Roman-iso ff 360.00 scf sf
10575 4275 m
gs 1 -1 sc (k) dup sw pop 2 div neg 0 rm  col0 sh gr
/Times-Roman-iso ff 270.00 scf sf
10725 4350 m
gs 1 -1 sc (axial) col0 sh gr
% Ellipse
n 12375 3300 75 75 0 360 DrawEllipse gs 0.00 setgray ef gr gs col0 s gr

% Ellipse
n 12375 4500 75 75 0 360 DrawEllipse gs 0.00 setgray ef gr gs col0 s gr

% Ellipse
n 13275 4800 75 75 0 360 DrawEllipse gs 0.00 setgray ef gr gs col0 s gr

% Ellipse
n 13275 3000 75 75 0 360 DrawEllipse gs 0.00 setgray ef gr gs col0 s gr

% Ellipse
n 12300 3900 150 150 0 360 DrawEllipse gs 0.00 setgray ef gr gs col0 s gr

% Ellipse
n 13200 3900 150 150 0 360 DrawEllipse gs 0.00 setgray ef gr gs col0 s gr

% Polyline
gs  clippath
11460 5658 m 11400 5946 l 11340 5658 l 11340 6015 l 11460 6015 l cp
11340 2142 m 11400 1854 l 11460 2142 l 11460 1785 l 11340 1785 l cp
clip
n 11400 1800 m 11400 6000 l gs col0 s gr gr

% arrowhead
15.000 slw
n 11340 2142 m 11400 1854 l 11460 2142 l 11400 2094 l 11340 2142 l  cp gs 0.00 setgray ef gr  col0 s
% arrowhead
n 11460 5658 m 11400 5946 l 11340 5658 l 11400 5706 l 11460 5658 l  cp gs 0.00 setgray ef gr  col0 s
% Polyline
7.500 slw
 [60] 0 sd
n 11100 3900 m 10200 3900 l gs col0 s gr  [] 0 sd
% Polyline
gs  clippath
14358 3840 m 14646 3900 l 14358 3960 l 14715 3960 l 14715 3840 l cp
clip
n 11100 3900 m 14700 3900 l gs col0 s gr gr

% arrowhead
15.000 slw
n 14358 3840 m 14646 3900 l 14358 3960 l 14406 3900 l 14358 3840 l  cp gs 0.00 setgray ef gr  col0 s
/Times-Roman-iso ff 360.00 scf sf
11625 2250 m
gs 1 -1 sc (k) col0 sh gr
/Times-Roman-iso ff 270.00 scf sf
11850 2325 m
gs 1 -1 sc (lateral) col0 sh gr
/Times-Roman-iso ff 360.00 scf sf
9150 9525 m
gs 1 -1 sc (k) dup sw pop 2 div neg 0 rm  col0 sh gr
/Times-Roman-iso ff 270.00 scf sf
9300 9600 m
gs 1 -1 sc (axial) col0 sh gr
/Times-Roman-iso ff 360.00 scf sf
13950 9525 m
gs 1 -1 sc (k) dup sw pop 2 div neg 0 rm  col0 sh gr
/Times-Roman-iso ff 270.00 scf sf
14100 9600 m
gs 1 -1 sc (axial) col0 sh gr
/Times-Roman-iso ff 240.00 scf sf
6600 10800 m
gs 1 -1 sc (These two components result) col0 sh gr
/Times-Roman-iso ff 240.00 scf sf
6600 11085 m
gs 1 -1 sc (from Tx on 2, Rx on 2.) col0 sh gr
/Times-Roman-iso ff 360.00 scf sf
11850 14925 m
gs 1 -1 sc (k) dup sw pop 2 div neg 0 rm  col0 sh gr
/Times-Roman-iso ff 270.00 scf sf
12000 15000 m
gs 1 -1 sc (axial) col0 sh gr
/Times-Roman-iso ff 360.00 scf sf
13950 20325 m
gs 1 -1 sc (k) dup sw pop 2 div neg 0 rm  col0 sh gr
/Times-Roman-iso ff 270.00 scf sf
14100 20400 m
gs 1 -1 sc (axial) col0 sh gr
/Times-Roman-iso ff 360.00 scf sf
9150 20325 m
gs 1 -1 sc (k) dup sw pop 2 div neg 0 rm  col0 sh gr
/Times-Roman-iso ff 270.00 scf sf
9300 20400 m
gs 1 -1 sc (axial) col0 sh gr
/Times-Roman-iso ff 240.00 scf sf
11400 21600 m
gs 1 -1 sc (These three components are at the) col0 sh gr
/Times-Roman-iso ff 240.00 scf sf
11400 21885 m
gs 1 -1 sc (higher of two temporal frequencies.) col0 sh gr
/Times-Roman-iso ff 240.00 scf sf
6600 21600 m
gs 1 -1 sc (These three components are at the) col0 sh gr
/Times-Roman-iso ff 240.00 scf sf
6600 21885 m
gs 1 -1 sc (lower of two temporal frequencies.) col0 sh gr
7.500 slw
% Ellipse
n 6975 8400 75 75 0 360 DrawEllipse gs 0.00 setgray ef gr gs col0 s gr

% Ellipse
n 6975 9600 75 75 0 360 DrawEllipse gs col0 s gr

% Ellipse
n 7875 9900 75 75 0 360 DrawEllipse gs col0 s gr

% Ellipse
n 7875 8100 75 75 0 360 DrawEllipse gs 0.00 setgray ef gr gs col0 s gr

% Ellipse
n 11775 8400 75 75 0 360 DrawEllipse gs col0 s gr

% Ellipse
n 11775 9600 75 75 0 360 DrawEllipse gs 0.00 setgray ef gr gs col0 s gr

% Ellipse
n 12675 9900 75 75 0 360 DrawEllipse gs 0.00 setgray ef gr gs col0 s gr

% Ellipse
n 12675 8100 75 75 0 360 DrawEllipse gs col0 s gr

% Ellipse
n 11700 9000 150 150 0 360 DrawEllipse gs col0 s gr

% Ellipse
n 12600 9000 150 150 0 360 DrawEllipse gs col0 s gr

% Ellipse
n 6900 9000 150 150 0 360 DrawEllipse gs col0 s gr

% Ellipse
n 7800 9000 150 150 0 360 DrawEllipse gs col0 s gr

% Ellipse
n 9675 13800 75 75 0 360 DrawEllipse gs col0 s gr

% Ellipse
n 9675 15000 75 75 0 360 DrawEllipse gs col0 s gr

% Ellipse
n 10575 15300 75 75 0 360 DrawEllipse gs col0 s gr

% Ellipse
n 10575 13500 75 75 0 360 DrawEllipse gs col0 s gr

% Ellipse
n 9600 14400 150 150 0 360 DrawEllipse gs 0.00 setgray ef gr gs col0 s gr

% Ellipse
n 10500 14400 150 150 0 360 DrawEllipse gs 0.00 setgray ef gr gs col0 s gr

% Ellipse
n 11775 19200 75 75 0 360 DrawEllipse gs col0 s gr

% Ellipse
n 11775 20400 75 75 0 360 DrawEllipse gs col0 s gr

% Ellipse
n 12675 20700 75 75 0 360 DrawEllipse gs 0.00 setgray ef gr gs col0 s gr

% Ellipse
n 12675 18900 75 75 0 360 DrawEllipse gs 0.00 setgray ef gr gs col0 s gr

% Ellipse
n 11700 19800 150 150 0 360 DrawEllipse gs col0 s gr

% Ellipse
n 12600 19800 150 150 0 360 DrawEllipse gs 0.00 setgray ef gr gs col0 s gr

% Ellipse
n 6975 19200 75 75 0 360 DrawEllipse gs 0.00 setgray ef gr gs col0 s gr

% Ellipse
n 6975 20400 75 75 0 360 DrawEllipse gs 0.00 setgray ef gr gs col0 s gr

% Ellipse
n 7875 20700 75 75 0 360 DrawEllipse gs col0 s gr

% Ellipse
n 7875 18900 75 75 0 360 DrawEllipse gs col0 s gr

% Ellipse
n 6900 19800 150 150 0 360 DrawEllipse gs 0.00 setgray ef gr gs col0 s gr

% Ellipse
n 7800 19800 150 150 0 360 DrawEllipse gs col0 s gr

% Polyline
gs  clippath
6060 10758 m 6000 11046 l 5940 10758 l 5940 11115 l 6060 11115 l cp
5940 7242 m 6000 6954 l 6060 7242 l 6060 6885 l 5940 6885 l cp
clip
n 6000 6900 m 6000 11100 l gs col0 s gr gr

% arrowhead
15.000 slw
n 5940 7242 m 6000 6954 l 6060 7242 l 6000 7194 l 5940 7242 l  cp gs 0.00 setgray ef gr  col0 s
% arrowhead
n 6060 10758 m 6000 11046 l 5940 10758 l 6000 10806 l 6060 10758 l  cp gs 0.00 setgray ef gr  col0 s
% Polyline
7.500 slw
 [60] 0 sd
n 5700 9000 m 5400 9000 l gs col0 s gr  [] 0 sd
% Polyline
gs  clippath
8958 8940 m 9246 9000 l 8958 9060 l 9315 9060 l 9315 8940 l cp
clip
n 5700 9000 m 9300 9000 l gs col0 s gr gr

% arrowhead
15.000 slw
n 8958 8940 m 9246 9000 l 8958 9060 l 9006 9000 l 8958 8940 l  cp gs 0.00 setgray ef gr  col0 s
% Polyline
7.500 slw
gs  clippath
10860 10758 m 10800 11046 l 10740 10758 l 10740 11115 l 10860 11115 l cp
10740 7242 m 10800 6954 l 10860 7242 l 10860 6885 l 10740 6885 l cp
clip
n 10800 6900 m 10800 11100 l gs col0 s gr gr

% arrowhead
15.000 slw
n 10740 7242 m 10800 6954 l 10860 7242 l 10800 7194 l 10740 7242 l  cp gs 0.00 setgray ef gr  col0 s
% arrowhead
n 10860 10758 m 10800 11046 l 10740 10758 l 10800 10806 l 10860 10758 l  cp gs 0.00 setgray ef gr  col0 s
% Polyline
7.500 slw
 [60] 0 sd
n 10500 9000 m 10200 9000 l gs col0 s gr  [] 0 sd
% Polyline
gs  clippath
13758 8940 m 14046 9000 l 13758 9060 l 14115 9060 l 14115 8940 l cp
clip
n 10500 9000 m 14100 9000 l gs col0 s gr gr

% arrowhead
15.000 slw
n 13758 8940 m 14046 9000 l 13758 9060 l 13806 9000 l 13758 8940 l  cp gs 0.00 setgray ef gr  col0 s
% Polyline
7.500 slw
gs  clippath
8760 16158 m 8700 16446 l 8640 16158 l 8640 16515 l 8760 16515 l cp
8640 12642 m 8700 12354 l 8760 12642 l 8760 12285 l 8640 12285 l cp
clip
n 8700 12300 m 8700 16500 l gs col0 s gr gr

% arrowhead
15.000 slw
n 8640 12642 m 8700 12354 l 8760 12642 l 8700 12594 l 8640 12642 l  cp gs 0.00 setgray ef gr  col0 s
% arrowhead
n 8760 16158 m 8700 16446 l 8640 16158 l 8700 16206 l 8760 16158 l  cp gs 0.00 setgray ef gr  col0 s
% Polyline
7.500 slw
 [60] 0 sd
n 8400 14400 m 8100 14400 l gs col0 s gr  [] 0 sd
% Polyline
gs  clippath
11658 14340 m 11946 14400 l 11658 14460 l 12015 14460 l 12015 14340 l cp
clip
n 8400 14400 m 12000 14400 l gs col0 s gr gr

% arrowhead
15.000 slw
n 11658 14340 m 11946 14400 l 11658 14460 l 11706 14400 l 11658 14340 l  cp gs 0.00 setgray ef gr  col0 s
% Polyline
7.500 slw
gs  clippath
10860 21558 m 10800 21846 l 10740 21558 l 10740 21915 l 10860 21915 l cp
10740 18042 m 10800 17754 l 10860 18042 l 10860 17685 l 10740 17685 l cp
clip
n 10800 17700 m 10800 21900 l gs col0 s gr gr

% arrowhead
15.000 slw
n 10740 18042 m 10800 17754 l 10860 18042 l 10800 17994 l 10740 18042 l  cp gs 0.00 setgray ef gr  col0 s
% arrowhead
n 10860 21558 m 10800 21846 l 10740 21558 l 10800 21606 l 10860 21558 l  cp gs 0.00 setgray ef gr  col0 s
% Polyline
7.500 slw
 [60] 0 sd
n 10500 19800 m 10200 19800 l gs col0 s gr  [] 0 sd
% Polyline
gs  clippath
13758 19740 m 14046 19800 l 13758 19860 l 14115 19860 l 14115 19740 l cp
clip
n 10500 19800 m 14100 19800 l gs col0 s gr gr

% arrowhead
15.000 slw
n 13758 19740 m 14046 19800 l 13758 19860 l 13806 19800 l 13758 19740 l  cp gs 0.00 setgray ef gr  col0 s
% Polyline
7.500 slw
gs  clippath
6060 21558 m 6000 21846 l 5940 21558 l 5940 21915 l 6060 21915 l cp
5940 18042 m 6000 17754 l 6060 18042 l 6060 17685 l 5940 17685 l cp
clip
n 6000 17700 m 6000 21900 l gs col0 s gr gr

% arrowhead
15.000 slw
n 5940 18042 m 6000 17754 l 6060 18042 l 6000 17994 l 5940 18042 l  cp gs 0.00 setgray ef gr  col0 s
% arrowhead
n 6060 21558 m 6000 21846 l 5940 21558 l 6000 21606 l 6060 21558 l  cp gs 0.00 setgray ef gr  col0 s
% Polyline
7.500 slw
 [60] 0 sd
n 5700 19800 m 5400 19800 l gs col0 s gr  [] 0 sd
% Polyline
gs  clippath
8958 19740 m 9246 19800 l 8958 19860 l 9315 19860 l 9315 19740 l cp
clip
n 5700 19800 m 9300 19800 l gs col0 s gr gr

% arrowhead
15.000 slw
n 8958 19740 m 9246 19800 l 8958 19860 l 9006 19800 l 8958 19740 l  cp gs 0.00 setgray ef gr  col0 s
/Times-Roman-iso ff 360.00 scf sf
6225 7350 m
gs 1 -1 sc (k) col0 sh gr
/Times-Roman-iso ff 270.00 scf sf
6450 7425 m
gs 1 -1 sc (lateral) col0 sh gr
/Times-Roman-iso ff 360.00 scf sf
11025 7350 m
gs 1 -1 sc (k) col0 sh gr
/Times-Roman-iso ff 270.00 scf sf
11250 7425 m
gs 1 -1 sc (lateral) col0 sh gr
/Times-Roman-iso ff 240.00 scf sf
11400 10800 m
gs 1 -1 sc (These two components result) col0 sh gr
/Times-Roman-iso ff 240.00 scf sf
11400 11085 m
gs 1 -1 sc (from Tx on 1, Rx on 1.) col0 sh gr
/Times-Roman-iso ff 360.00 scf sf
8925 12750 m
gs 1 -1 sc (k) col0 sh gr
/Times-Roman-iso ff 270.00 scf sf
9150 12825 m
gs 1 -1 sc (lateral) col0 sh gr
/Times-Roman-iso ff 240.00 scf sf
9300 17100 m
gs 1 -1 sc (that of the others.) col0 sh gr
/Times-Roman-iso ff 240.00 scf sf
9300 16800 m
gs 1 -1 sc (Their amplitude is twice) col0 sh gr
/Times-Roman-iso ff 240.00 scf sf
9300 16500 m
gs 1 -1 sc (and from Tx on 1, Rx on 2.) col0 sh gr
/Times-Roman-iso ff 240.00 scf sf
9300 16200 m
gs 1 -1 sc (from Tx on 2, Rx on 1,) col0 sh gr
/Times-Roman-iso ff 240.00 scf sf
9300 15900 m
gs 1 -1 sc (These components result) col0 sh gr
/Times-Roman-iso ff 360.00 scf sf
11025 18150 m
gs 1 -1 sc (k) col0 sh gr
/Times-Roman-iso ff 270.00 scf sf
11250 18225 m
gs 1 -1 sc (lateral) col0 sh gr
/Times-Roman-iso ff 360.00 scf sf
6225 18150 m
gs 1 -1 sc (k) col0 sh gr
/Times-Roman-iso ff 270.00 scf sf
6450 18225 m
gs 1 -1 sc (lateral) col0 sh gr
/Times-Roman-iso ff 330.00 scf sf
4800 6375 m
gs 1 -1 sc (The two-element system on the left transmitting and receiving at two temporal frequencies ) col0 sh gr
/Times-Roman-iso ff 330.00 scf sf
4800 6690 m
gs 1 -1 sc (has the k-space representation shown on the right.) col0 sh gr
$F2psEnd
rs
