%!PS-Adobe-2.0 EPSF-1.2
%%Creator: MATLAB, The Mathworks, Inc.
%%Title: aper_sep.eps
%%CreationDate: 11/08/98  17:03:12
%%DocumentNeededFonts: Times-Roman
%%+ Helvetica
%%DocumentProcessColors: Cyan Magenta Yellow Black
%%Pages: 1
%%BoundingBox:    53   191   547   583
%%EndComments

%%BeginProlog

% MathWorks dictionary
/MathWorks 160 dict begin

% definition operators
/bdef {bind def} bind def
/ldef {load def} bind def
/xdef {exch def} bdef
/xstore {exch store} bdef

% operator abbreviations
/c  /clip ldef
/cc /concat ldef
/cp /closepath ldef
/gr /grestore ldef
/gs /gsave ldef
/mt /moveto ldef
/np /newpath ldef
/cm /currentmatrix ldef
/sm /setmatrix ldef
/rc {rectclip} bdef
/rf {rectfill} bdef
/rm /rmoveto ldef
/rl /rlineto ldef
/s /show ldef
/sc {setcmykcolor} bdef
/sr /setrgbcolor ldef
/sg /setgray ldef
/w /setlinewidth ldef
/j /setlinejoin ldef
/cap /setlinecap ldef

% page state control
/pgsv () def
/bpage {/pgsv save def} bdef
/epage {pgsv restore} bdef
/bplot /gsave ldef
/eplot {stroke grestore} bdef

% orientation switch
/portraitMode 	0 def
/landscapeMode 	1 def

% coordinate system mappings
/dpi2point 0 def

% font control
/FontSize 0 def
/FMS {
	/FontSize xstore		%save size off stack
	findfont
	[FontSize 0 0 FontSize neg 0 0]
	makefont
	setfont
	}bdef

/reencode {
exch dup where
{pop load} {pop StandardEncoding} ifelse
exch
dup 3 1 roll
findfont dup length dict begin
  { 1 index /FID ne {def}{pop pop} ifelse } forall
  /Encoding exch def
  currentdict
end
definefont pop
} bdef

/isroman {
findfont /CharStrings get
/Agrave known
} bdef

/FMSR {
3 1 roll 1 index
dup isroman
{reencode} {pop pop} ifelse
exch FMS
} bdef

/csm {
	1 dpi2point div -1 dpi2point div scale
	neg translate
	landscapeMode eq {90 rotate} if
	} bdef

% line types: solid, dotted, dashed, dotdash
/SO { [] 0 setdash } bdef
/DO { [.5 dpi2point mul 4 dpi2point mul] 0 setdash } bdef
/DA { [6 dpi2point mul] 0 setdash } bdef
/DD { [.5 dpi2point mul 4 dpi2point mul 6 dpi2point mul 4 dpi2point mul] 0 setdash } bdef

% macros for lines and objects
/L {
	lineto
	stroke
	} bdef
/MP {
	3 1 roll moveto
	1 sub {rlineto} repeat
	} bdef
/AP {
	{rlineto} repeat
	} bdef
/PP {
	closepath eofill
	} bdef
/DP {
	closepath stroke
	} bdef
/MR {
	4 -2 roll moveto
	dup  0 exch rlineto
	exch 0 rlineto
	neg  0 exch rlineto
	closepath
	} bdef
/FR {
	MR stroke
	} bdef
/PR {
	MR fill
	} bdef
/L1i {
	{ currentfile picstr readhexstring pop } image
	} bdef

/tMatrix matrix def
/MakeOval {
	newpath
	tMatrix currentmatrix pop
	translate scale
	0 0 1 0 360 arc
	tMatrix setmatrix
	} bdef
/FO {
	MakeOval
	stroke
	} bdef
/PO {
	MakeOval
	fill
	} bdef

/PD {
	currentlinecap 1 setlinecap 3 1 roll 2 copy moveto lineto stroke setlinecap
	} bdef

/FA {
	newpath
	tMatrix currentmatrix pop
	translate scale
	0 0 1 5 -2 roll arc
	tMatrix setmatrix
	stroke
	} bdef
/PA {
	newpath
	tMatrix currentmatrix pop
	translate 0 0 moveto scale
	0 0 1 5 -2 roll arc
	closepath
	tMatrix setmatrix
	fill
	} bdef

/FAn {
	newpath
	tMatrix currentmatrix pop
	translate scale
	0 0 1 5 -2 roll arcn
	tMatrix setmatrix
	stroke
	} bdef
/PAn {
	newpath
	tMatrix currentmatrix pop
	translate 0 0 moveto scale
	0 0 1 5 -2 roll arcn
	closepath
	tMatrix setmatrix
	fill
	} bdef

/MRR {
	/vradius xdef
	/hradius xdef
	/lry xdef
	/lrx xdef
	/uly xdef
	/ulx xdef
	newpath
	tMatrix currentmatrix pop
	ulx hradius add uly vradius add translate
	hradius vradius scale
	0 0 1 180 270 arc 
	tMatrix setmatrix
	lrx hradius sub uly vradius add translate
	hradius vradius scale
	0 0 1 270 360 arc
	tMatrix setmatrix
	lrx hradius sub lry vradius sub translate
	hradius vradius scale
	0 0 1 0 90 arc
	tMatrix setmatrix
	ulx hradius add lry vradius sub translate
	hradius vradius scale
	0 0 1 90 180 arc
	tMatrix setmatrix
	closepath
	} bdef
/FRR {
	MRR stroke } bdef
/PRR {
	MRR fill } bdef

/MlrRR {
	/lry xdef
	/lrx xdef
	/uly xdef
	/ulx xdef
	/rad lry uly sub 2 div def
	newpath
	tMatrix currentmatrix pop
	ulx rad add uly rad add translate
	rad rad scale
	0 0 1 90 270 arc
	tMatrix setmatrix
	lrx rad sub lry rad sub translate
	rad rad scale
	0 0 1 270 90 arc
	tMatrix setmatrix
	closepath
	} bdef
/FlrRR {
	MlrRR stroke } bdef
/PlrRR {
	MlrRR fill } bdef

/MtbRR {
	/lry xdef
	/lrx xdef
	/uly xdef
	/ulx xdef
	/rad lrx ulx sub 2 div def
	newpath
	tMatrix currentmatrix pop
	ulx rad add uly rad add translate
	rad rad scale
	0 0 1 180 360 arc
	tMatrix setmatrix
	lrx rad sub lry rad sub translate
	rad rad scale
	0 0 1 0 180 arc
	tMatrix setmatrix
	closepath
	} bdef
/FtbRR {
	MtbRR stroke } bdef
/PtbRR {
	MtbRR fill } bdef

currentdict end def
%%EndProlog

%%BeginSetup
MathWorks begin

0 cap

end
%%EndSetup

%%Page: 1 1
%%BeginPageSetup
%%PageBoundingBox:    53   191   547   583
MathWorks begin
bpage
%%EndPageSetup

%%BeginObject: graph1 1
bplot

/dpi2point 12 def
portraitMode 0216 7344 csm

  422   340  5927  4702 MR c np
88 dict begin %Colortable dictionary
/c0 { 0 0 0 sr} bdef
/c1 { 1 1 1 sr} bdef
/c2 { 1 0 0 sr} bdef
/c3 { 0 1 0 sr} bdef
/c4 { 0 0 1 sr} bdef
/c5 { 1 1 0 sr} bdef
/c6 { 1 0 1 sr} bdef
/c7 { 0 1 1 sr} bdef
1 j
1 sg
   0    0 6918 5185 PR
6 w
0 4224 5359 0 0 -4224 899 4612 4 MP
PP
-5359 0 0 4224 5359 0 0 -4224 899 4612 5 MP stroke
4 w
DO
SO
6 w
0 sg
 899 4612 mt 6258 4612 L
 899  388 mt 6258  388 L
 899 4612 mt  899  388 L
6258 4612 mt 6258  388 L
 899 4612 mt 6258 4612 L
 899 4612 mt  899  388 L
 899 4612 mt  899 4558 L
 899  388 mt  899  442 L
%%IncludeResource: font Times-Roman
/Times-Roman /ISOLatin1Encoding 168 FMSR

 857 4797 mt 
(0) s
1435 4612 mt 1435 4558 L
1435  388 mt 1435  442 L
1330 4797 mt 
(0.1) s
1971 4612 mt 1971 4558 L
1971  388 mt 1971  442 L
1866 4797 mt 
(0.2) s
2507 4612 mt 2507 4558 L
2507  388 mt 2507  442 L
2402 4797 mt 
(0.3) s
3043 4612 mt 3043 4558 L
3043  388 mt 3043  442 L
2938 4797 mt 
(0.4) s
3579 4612 mt 3579 4558 L
3579  388 mt 3579  442 L
3474 4797 mt 
(0.5) s
4114 4612 mt 4114 4558 L
4114  388 mt 4114  442 L
4009 4797 mt 
(0.6) s
4650 4612 mt 4650 4558 L
4650  388 mt 4650  442 L
4545 4797 mt 
(0.7) s
5186 4612 mt 5186 4558 L
5186  388 mt 5186  442 L
5081 4797 mt 
(0.8) s
5722 4612 mt 5722 4558 L
5722  388 mt 5722  442 L
5617 4797 mt 
(0.9) s
6258 4612 mt 6258 4558 L
6258  388 mt 6258  442 L
6216 4797 mt 
(1) s
 899 4260 mt  953 4260 L
6258 4260 mt 6204 4260 L
 780 4320 mt 
(0) s
 899 3556 mt  953 3556 L
6258 3556 mt 6204 3556 L
 654 3616 mt 
(0.2) s
 899 2852 mt  953 2852 L
6258 2852 mt 6204 2852 L
 654 2912 mt 
(0.4) s
 899 2148 mt  953 2148 L
6258 2148 mt 6204 2148 L
 654 2208 mt 
(0.6) s
 899 1444 mt  953 1444 L
6258 1444 mt 6204 1444 L
 654 1504 mt 
(0.8) s
 899  740 mt  953  740 L
6258  740 mt 6204  740 L
 780  800 mt 
(1) s
 899 4612 mt 6258 4612 L
 899  388 mt 6258  388 L
 899 4612 mt  899  388 L
6258 4612 mt 6258  388 L
gs 899 388 5360 4225 MR c np
27 0 27 0 26 0 27 0 27 0 27 0 27 0 26 0 
27 1 27 0 27 0 27 1 26 0 27 0 27 1 27 1 
27 0 26 1 27 1 27 1 27 1 26 1 27 2 27 1 
27 2 27 1 26 2 27 2 27 2 27 3 27 2 26 3 
27 3 27 3 27 3 27 3 26 4 27 3 27 4 27 4 
27 5 26 4 27 5 27 5 27 5 27 6 26 5 27 6 
27 6 27 7 27 7 26 7 27 7 27 8 27 7 27 8 
26 9 27 9 27 9 27 9 26 10 27 10 27 10 27 11 
27 11 26 11 27 12 27 12 27 12 27 13 26 13 27 13 
27 14 27 15 27 14 26 15 27 16 27 16 27 16 27 16 
26 18 27 17 27 18 27 18 27 19 26 20 27 19 27 21 
27 20 27 21 26 22 27 22 27 23 27 23 27 23 26 24 
27 25 27 25 27 26 3605 3406 100 MP stroke
26 26 27 27 27 27 27 27 27 29 26 28 27 29 27 30 
27 30 27 30 26 31 27 31 27 31 27 32 27 32 26 32 
27 33 27 33 27 33 27 34 26 33 27 34 27 34 27 35 
27 34 26 35 27 34 27 35 27 35 27 35 26 35 27 35 
27 36 27 35 27 35 26 35 27 35 27 35 27 35 27 35 
26 35 27 35 27 35 27 34 26 35 27 34 27 34 27 34 
27 33 26 34 27 33 27 33 27 32 27 33 26 32 27 31 
27 32 27 31 27 30 26 30 27 30 27 29 27 29 27 29 
26 28 27 27 27 27 27 27 27 26 26 25 27 25 27 24 
27 24 27 23 26 22 27 22 27 21 27 21 27 20 26 19 
27 18 27 17 27 17 26 16 27 16 27 14 27 14 27 13 
26 12 27 11 27 10 27 9 27 9 26 7 27 7 27 5 
27 5 27 3 26 3 953 742 100 MP stroke
27 1 27 1 899 740 3 MP stroke
DA
27 0 27 0 26 0 27 0 27 0 27 0 27 0 26 0 
27 0 27 0 27 0 27 0 26 0 27 0 27 0 27 0 
27 0 26 0 27 0 27 0 27 0 26 0 27 0 27 0 
27 0 27 0 26 0 27 0 27 0 27 0 27 0 26 0 
27 0 27 0 27 0 27 0 26 1 27 0 27 0 27 0 
27 0 26 0 27 0 27 1 27 0 27 0 26 0 27 1 
27 0 27 0 27 1 26 0 27 1 27 0 27 1 27 1 
26 1 27 0 27 1 27 1 26 1 27 1 27 2 27 1 
27 2 26 1 27 2 27 2 27 2 27 2 26 2 27 3 
27 2 27 3 27 3 26 3 27 4 27 4 27 3 27 5 
26 4 27 5 27 5 27 5 27 6 26 6 27 6 27 7 
27 7 27 8 26 8 27 8 27 9 27 10 27 10 26 10 
27 11 27 12 27 12 3605 4053 100 MP stroke
26 13 27 13 27 15 27 15 27 15 26 16 27 18 27 17 
27 19 27 19 26 20 27 21 27 22 27 22 27 24 26 24 
27 25 27 25 27 27 27 27 26 29 27 29 27 30 27 30 
27 32 26 32 27 33 27 34 27 35 27 36 26 36 27 37 
27 38 27 38 27 40 26 39 27 41 27 41 27 42 27 43 
26 43 27 43 27 44 27 45 26 45 27 46 27 46 27 46 
27 47 26 47 27 47 27 48 27 48 27 48 26 48 27 48 
27 48 27 48 27 48 26 48 27 48 27 48 27 47 27 47 
26 47 27 47 27 46 27 45 27 45 26 45 27 43 27 44 
27 42 27 41 26 41 27 40 27 39 27 38 27 37 26 35 
27 35 27 33 27 32 26 31 27 30 27 28 27 26 27 25 
26 23 27 22 27 20 27 19 27 16 26 15 27 13 27 11 
27 9 27 8 26 5 953 744 100 MP stroke
27 3 27 1 899 740 3 MP stroke
DO
0 -4224 2834 4612 2 MP stroke
5359 0 899 2500 2 MP stroke

gr 
DO
%%IncludeResource: font Symbol
/Symbol /ISOLatin1Encoding 168 FMSR

2834 2208 mt 
(\254) s
%%IncludeResource: font Times-Roman
/Times-Roman /ISOLatin1Encoding 168 FMSR

2999 2208 mt 
( ) s
%%IncludeResource: font Symbol
/Symbol /ISOLatin1Encoding 168 FMSR

3041 2208 mt 
(r) s
%%IncludeResource: font Times-Roman
/Times-Roman /ISOLatin1Encoding 168 FMSR

3133 2208 mt 
( = 0.5 at ) s
%%IncludeResource: font Symbol
/Symbol /ISOLatin1Encoding 168 FMSR

3727 2208 mt 
(D) s
%%IncludeResource: font Times-Roman
/Times-Roman /ISOLatin1Encoding 168 FMSR

3829 2208 mt 
(x = 0.36) s
%%IncludeResource: font Symbol
/Symbol /ISOLatin1Encoding 192 FMSR

2097 4984 mt 
(D) s
%%IncludeResource: font Times-Roman
/Times-Roman /ISOLatin1Encoding 192 FMSR

2214 4984 mt 
(x [lateral translation as fraction of D]) s
 599 3186 mt  -90 rotate
(C) s
90 rotate
%%IncludeResource: font Times-Roman
/Times-Roman /ISOLatin1Encoding 144 FMSR

 695 3058 mt  -90 rotate
(AA) s
90 rotate
%%IncludeResource: font Times-Roman
/Times-Roman /ISOLatin1Encoding 192 FMSR

 599 2851 mt  -90 rotate
( [normalized]) s
90 rotate
SO

end

eplot
%%EndObject graph 1

epage
end

showpage

%%Trailer
%%EOF
