%!PS-Adobe-2.0 EPSF-2.0
%%Title: fcomp_bands.eps
%%Creator: fig2dev Version 3.2 Patchlevel 0-beta3
%%CreationDate: Sat Nov  7 13:28:42 1998
%%For: mea1@moomin.valley (Red Hat Linux User,,,,)
%%Orientation: Portrait
%%BoundingBox: 0 0 452 308
%%Pages: 0
%%BeginSetup
%%EndSetup
%%Magnification: 1.0000
%%EndComments
/$F2psDict 200 dict def
$F2psDict begin
$F2psDict /mtrx matrix put
/col-1 {0 setgray} bind def
/col0 {0.000 0.000 0.000 srgb} bind def
/col1 {0.000 0.000 1.000 srgb} bind def
/col2 {0.000 1.000 0.000 srgb} bind def
/col3 {0.000 1.000 1.000 srgb} bind def
/col4 {1.000 0.000 0.000 srgb} bind def
/col5 {1.000 0.000 1.000 srgb} bind def
/col6 {1.000 1.000 0.000 srgb} bind def
/col7 {1.000 1.000 1.000 srgb} bind def
/col8 {0.000 0.000 0.560 srgb} bind def
/col9 {0.000 0.000 0.690 srgb} bind def
/col10 {0.000 0.000 0.820 srgb} bind def
/col11 {0.530 0.810 1.000 srgb} bind def
/col12 {0.000 0.560 0.000 srgb} bind def
/col13 {0.000 0.690 0.000 srgb} bind def
/col14 {0.000 0.820 0.000 srgb} bind def
/col15 {0.000 0.560 0.560 srgb} bind def
/col16 {0.000 0.690 0.690 srgb} bind def
/col17 {0.000 0.820 0.820 srgb} bind def
/col18 {0.560 0.000 0.000 srgb} bind def
/col19 {0.690 0.000 0.000 srgb} bind def
/col20 {0.820 0.000 0.000 srgb} bind def
/col21 {0.560 0.000 0.560 srgb} bind def
/col22 {0.690 0.000 0.690 srgb} bind def
/col23 {0.820 0.000 0.820 srgb} bind def
/col24 {0.500 0.190 0.000 srgb} bind def
/col25 {0.630 0.250 0.000 srgb} bind def
/col26 {0.750 0.380 0.000 srgb} bind def
/col27 {1.000 0.500 0.500 srgb} bind def
/col28 {1.000 0.630 0.630 srgb} bind def
/col29 {1.000 0.750 0.750 srgb} bind def
/col30 {1.000 0.880 0.880 srgb} bind def
/col31 {1.000 0.840 0.000 srgb} bind def

end
save
-52.0 414.0 translate
1 -1 scale

/cp {closepath} bind def
/ef {eofill} bind def
/gr {grestore} bind def
/gs {gsave} bind def
/sa {save} bind def
/rs {restore} bind def
/l {lineto} bind def
/m {moveto} bind def
/rm {rmoveto} bind def
/n {newpath} bind def
/s {stroke} bind def
/sh {show} bind def
/slc {setlinecap} bind def
/slj {setlinejoin} bind def
/slw {setlinewidth} bind def
/srgb {setrgbcolor} bind def
/rot {rotate} bind def
/sc {scale} bind def
/sd {setdash} bind def
/ff {findfont} bind def
/sf {setfont} bind def
/scf {scalefont} bind def
/sw {stringwidth} bind def
/tr {translate} bind def
/tnt {dup dup currentrgbcolor
  4 -2 roll dup 1 exch sub 3 -1 roll mul add
  4 -2 roll dup 1 exch sub 3 -1 roll mul add
  4 -2 roll dup 1 exch sub 3 -1 roll mul add srgb}
  bind def
/shd {dup dup currentrgbcolor 4 -2 roll mul 4 -2 roll mul
  4 -2 roll mul srgb} bind def
/reencdict 12 dict def /ReEncode { reencdict begin
/newcodesandnames exch def /newfontname exch def /basefontname exch def
/basefontdict basefontname findfont def /newfont basefontdict maxlength dict def
basefontdict { exch dup /FID ne { dup /Encoding eq
{ exch dup length array copy newfont 3 1 roll put }
{ exch newfont 3 1 roll put } ifelse } { pop pop } ifelse } forall
newfont /FontName newfontname put newcodesandnames aload pop
128 1 255 { newfont /Encoding get exch /.notdef put } for
newcodesandnames length 2 idiv { newfont /Encoding get 3 1 roll put } repeat
newfontname newfont definefont pop end } def
/isovec [
8#200 /grave 8#201 /acute 8#202 /circumflex 8#203 /tilde
8#204 /macron 8#205 /breve 8#206 /dotaccent 8#207 /dieresis
8#210 /ring 8#211 /cedilla 8#212 /hungarumlaut 8#213 /ogonek 8#214 /caron
8#220 /dotlessi 8#230 /oe 8#231 /OE
8#240 /space 8#241 /exclamdown 8#242 /cent 8#243 /sterling
8#244 /currency 8#245 /yen 8#246 /brokenbar 8#247 /section 8#250 /dieresis
8#251 /copyright 8#252 /ordfeminine 8#253 /guillemotleft 8#254 /logicalnot
8#255 /endash 8#256 /registered 8#257 /macron 8#260 /degree 8#261 /plusminus
8#262 /twosuperior 8#263 /threesuperior 8#264 /acute 8#265 /mu 8#266 /paragraph
8#267 /periodcentered 8#270 /cedilla 8#271 /onesuperior 8#272 /ordmasculine
8#273 /guillemotright 8#274 /onequarter 8#275 /onehalf
8#276 /threequarters 8#277 /questiondown 8#300 /Agrave 8#301 /Aacute
8#302 /Acircumflex 8#303 /Atilde 8#304 /Adieresis 8#305 /Aring
8#306 /AE 8#307 /Ccedilla 8#310 /Egrave 8#311 /Eacute
8#312 /Ecircumflex 8#313 /Edieresis 8#314 /Igrave 8#315 /Iacute
8#316 /Icircumflex 8#317 /Idieresis 8#320 /Eth 8#321 /Ntilde 8#322 /Ograve
8#323 /Oacute 8#324 /Ocircumflex 8#325 /Otilde 8#326 /Odieresis 8#327 /multiply
8#330 /Oslash 8#331 /Ugrave 8#332 /Uacute 8#333 /Ucircumflex
8#334 /Udieresis 8#335 /Yacute 8#336 /Thorn 8#337 /germandbls 8#340 /agrave
8#341 /aacute 8#342 /acircumflex 8#343 /atilde 8#344 /adieresis 8#345 /aring
8#346 /ae 8#347 /ccedilla 8#350 /egrave 8#351 /eacute
8#352 /ecircumflex 8#353 /edieresis 8#354 /igrave 8#355 /iacute
8#356 /icircumflex 8#357 /idieresis 8#360 /eth 8#361 /ntilde 8#362 /ograve
8#363 /oacute 8#364 /ocircumflex 8#365 /otilde 8#366 /odieresis 8#367 /divide
8#370 /oslash 8#371 /ugrave 8#372 /uacute 8#373 /ucircumflex
8#374 /udieresis 8#375 /yacute 8#376 /thorn 8#377 /ydieresis] def
/Times-Roman /Times-Roman-iso isovec ReEncode
/$F2psBegin {$F2psDict begin /$F2psEnteredState save def} def
/$F2psEnd {$F2psEnteredState restore end} def
%%EndProlog

$F2psBegin
10 setmiterlimit
n -1000 7900 m -1000 -1000 l 9396 -1000 l 9396 7900 l cp clip
 0.06000 0.06000 sc
% Polyline
30.000 slw
gs  clippath
870 2079 m 900 1935 l 930 2079 l 930 1755 l 870 1755 l cp
clip
n 900 1800 m 900 5100 l gs col0 s gr gr

% arrowhead
60.000 slw
n 870 2079 m 900 1935 l 930 2079 l 900 2055 l 870 2079 l  cp gs 0.00 setgray ef gr  col0 s
% Polyline
30.000 slw
gs  clippath
7821 5070 m 7965 5100 l 7821 5130 l 8145 5130 l 8145 5070 l cp
clip
n 900 5100 m 8100 5100 l gs col0 s gr gr

% arrowhead
60.000 slw
n 7821 5070 m 7965 5100 l 7821 5130 l 7845 5100 l 7821 5070 l  cp gs 0.00 setgray ef gr  col0 s
% Polyline
30.000 slw
 [120] 0 sd
gs  clippath
5721 2890 m 5438 3228 l 5562 2805 l 5299 3297 l 5458 3382 l cp
clip
n 6000 2175 m 5400 3300 l gs col0 s gr gr
 [] 0 sd
% arrowhead
n 5721 2890 m 5438 3228 l 5562 2805 l 5608 2911 l 5721 2890 l  cp gs 0.00 setgray ef gr  col0 s
% Polyline
gs  clippath
4410 5763 m 4500 5331 l 4590 5763 l 4590 5205 l 4410 5205 l cp
clip
n 4500 6600 m 4500 5250 l gs col0 s gr gr

% arrowhead
n 4410 5763 m 4500 5331 l 4590 5763 l 4500 5691 l 4410 5763 l  cp gs 0.00 setgray ef gr  col0 s
% Polyline
gs  clippath
3694 5710 m 3499 5313 l 3836 5600 l 3493 5159 l 3351 5270 l cp
clip
n 4500 6600 m 3450 5250 l gs col0 s gr gr

% arrowhead
n 3694 5710 m 3499 5313 l 3836 5600 l 3721 5598 l 3694 5710 l  cp gs 0.00 setgray ef gr  col0 s
% Polyline
gs  clippath
5164 5600 m 5500 5313 l 5306 5710 l 5649 5270 l 5507 5159 l cp
clip
n 4500 6600 m 5550 5250 l gs col0 s gr gr

% arrowhead
n 5164 5600 m 5500 5313 l 5306 5710 l 5279 5598 l 5164 5600 l  cp gs 0.00 setgray ef gr  col0 s
% Polyline
 [120] 0 sd
n 1500 5100 m 1501 5100 l 1505 5099 l 1511 5097 l 1520 5093 l 1534 5089 l
 1552 5083 l 1574 5075 l 1601 5066 l 1633 5055 l 1669 5042 l
 1708 5027 l 1751 5011 l 1796 4994 l 1843 4975 l 1892 4955 l
 1941 4935 l 1991 4914 l 2040 4892 l 2089 4869 l 2137 4846 l
 2184 4823 l 2229 4799 l 2273 4775 l 2316 4751 l 2358 4726 l
 2398 4700 l 2438 4674 l 2476 4647 l 2513 4619 l 2550 4590 l
 2586 4560 l 2622 4529 l 2657 4496 l 2693 4462 l 2728 4426 l
 2764 4389 l 2800 4350 l 2830 4317 l 2860 4282 l 2891 4246 l
 2922 4209 l 2954 4171 l 2986 4132 l 3019 4092 l 3052 4051 l
 3086 4009 l 3120 3966 l 3155 3923 l 3191 3878 l 3227 3834 l
 3263 3788 l 3301 3742 l 3338 3696 l 3377 3650 l 3415 3603 l
 3454 3557 l 3494 3511 l 3534 3466 l 3574 3421 l 3614 3376 l
 3654 3333 l 3695 3290 l 3735 3249 l 3776 3208 l 3816 3170 l
 3856 3132 l 3897 3096 l 3936 3062 l 3976 3030 l 4016 2999 l
 4055 2971 l 4094 2944 l 4132 2920 l 4170 2897 l 4208 2877 l
 4245 2860 l 4282 2844 l 4319 2831 l 4356 2820 l 4392 2811 l
 4428 2805 l 4464 2801 l 4500 2800 l 4536 2801 l 4572 2805 l
 4608 2811 l 4644 2820 l 4681 2831 l 4718 2844 l 4755 2860 l
 4792 2877 l 4830 2897 l 4868 2920 l 4906 2944 l 4945 2971 l
 4984 2999 l 5024 3030 l 5064 3062 l 5103 3096 l 5144 3132 l
 5184 3170 l 5224 3208 l 5265 3249 l 5305 3290 l 5346 3333 l
 5386 3376 l 5426 3421 l 5466 3466 l 5506 3511 l 5546 3557 l
 5585 3603 l 5623 3650 l 5662 3696 l 5699 3742 l 5737 3788 l
 5773 3834 l 5809 3878 l 5845 3923 l 5880 3966 l 5914 4009 l
 5948 4051 l 5981 4092 l 6014 4132 l 6046 4171 l 6078 4209 l
 6109 4246 l 6140 4282 l 6170 4317 l 6200 4350 l 6236 4389 l
 6272 4426 l 6307 4462 l 6343 4496 l 6378 4529 l 6414 4560 l
 6450 4590 l 6487 4619 l 6524 4647 l 6562 4674 l 6602 4700 l
 6642 4726 l 6684 4751 l 6727 4775 l 6771 4799 l 6816 4823 l
 6863 4846 l 6911 4869 l 6960 4892 l 7009 4914 l 7059 4935 l
 7108 4955 l 7157 4975 l 7204 4994 l 7249 5011 l 7292 5027 l
 7331 5042 l 7367 5055 l 7399 5066 l 7426 5075 l 7448 5083 l
 7466 5089 l 7480 5093 l 7489 5097 l 7495 5099 l 7499 5100 l
 7500 5100 l gs col0 s gr  [] 0 sd
% Polyline
n 1500 5100 m 1502 5099 l 1507 5098 l 1515 5096 l 1528 5093 l 1546 5088 l
 1570 5082 l 1599 5074 l 1633 5064 l 1671 5053 l 1713 5041 l
 1758 5028 l 1805 5014 l 1853 4999 l 1901 4983 l 1949 4967 l
 1996 4951 l 2041 4935 l 2084 4919 l 2126 4902 l 2165 4886 l
 2203 4869 l 2239 4852 l 2272 4835 l 2305 4818 l 2335 4799 l
 2365 4781 l 2393 4761 l 2421 4741 l 2448 4720 l 2474 4698 l
 2500 4675 l 2526 4651 l 2551 4626 l 2577 4599 l 2602 4572 l
 2628 4544 l 2654 4515 l 2680 4485 l 2706 4454 l 2732 4422 l
 2759 4391 l 2786 4358 l 2813 4326 l 2840 4294 l 2867 4262 l
 2894 4230 l 2922 4199 l 2949 4169 l 2976 4139 l 3002 4111 l
 3029 4085 l 3055 4059 l 3081 4036 l 3107 4014 l 3132 3994 l
 3157 3976 l 3182 3961 l 3206 3947 l 3230 3936 l 3254 3926 l
 3278 3919 l 3301 3915 l 3325 3913 l 3349 3913 l 3373 3915 l
 3397 3920 l 3422 3927 l 3447 3936 l 3472 3948 l 3498 3961 l
 3525 3977 l 3552 3995 l 3580 4014 l 3608 4035 l 3636 4059 l
 3665 4083 l 3694 4109 l 3724 4136 l 3753 4165 l 3783 4194 l
 3813 4224 l 3842 4254 l 3872 4285 l 3901 4316 l 3930 4347 l
 3958 4378 l 3987 4408 l 4015 4438 l 4042 4467 l 4069 4495 l
 4096 4523 l 4122 4550 l 4148 4576 l 4174 4601 l 4200 4625 l
 4228 4650 l 4255 4673 l 4283 4696 l 4311 4718 l 4341 4739 l
 4371 4760 l 4402 4780 l 4434 4800 l 4468 4820 l 4504 4839 l
 4541 4859 l 4580 4879 l 4621 4899 l 4664 4919 l 4708 4939 l
 4753 4959 l 4798 4979 l 4842 4997 l 4886 5015 l 4927 5032 l
 4965 5048 l 4999 5061 l 5028 5073 l 5053 5082 l 5071 5089 l
 5085 5094 l 5093 5097 l 5098 5099 l 5100 5100 l gs col0 s gr 
% Polyline
n 2700 5100 m 2701 5099 l 2705 5098 l 2711 5095 l 2720 5091 l 2734 5085 l
 2751 5077 l 2773 5066 l 2799 5054 l 2829 5039 l 2861 5023 l
 2897 5004 l 2934 4984 l 2973 4962 l 3013 4940 l 3053 4916 l
 3092 4892 l 3131 4867 l 3169 4841 l 3205 4815 l 3241 4788 l
 3275 4761 l 3307 4733 l 3338 4705 l 3368 4675 l 3396 4645 l
 3424 4614 l 3451 4581 l 3477 4547 l 3502 4512 l 3527 4474 l
 3551 4435 l 3576 4393 l 3600 4350 l 3620 4313 l 3639 4275 l
 3659 4236 l 3679 4195 l 3699 4153 l 3720 4110 l 3740 4065 l
 3761 4019 l 3782 3973 l 3803 3925 l 3825 3876 l 3846 3827 l
 3868 3777 l 3890 3727 l 3913 3676 l 3935 3625 l 3958 3575 l
 3981 3524 l 4004 3474 l 4027 3425 l 4050 3376 l 4073 3329 l
 4096 3282 l 4119 3237 l 4142 3193 l 4165 3151 l 4187 3111 l
 4210 3073 l 4232 3037 l 4254 3004 l 4275 2972 l 4297 2943 l
 4318 2916 l 4339 2893 l 4360 2871 l 4380 2853 l 4401 2837 l
 4421 2824 l 4441 2813 l 4461 2806 l 4480 2802 l 4500 2800 l
 4520 2802 l 4539 2806 l 4559 2813 l 4579 2824 l 4599 2837 l
 4620 2853 l 4640 2871 l 4661 2893 l 4682 2916 l 4703 2943 l
 4725 2972 l 4746 3004 l 4768 3037 l 4790 3073 l 4813 3111 l
 4835 3151 l 4858 3193 l 4881 3237 l 4904 3282 l 4927 3329 l
 4950 3376 l 4973 3425 l 4996 3474 l 5019 3524 l 5042 3575 l
 5065 3625 l 5087 3676 l 5110 3727 l 5132 3777 l 5154 3827 l
 5175 3876 l 5197 3925 l 5218 3973 l 5239 4019 l 5260 4065 l
 5280 4110 l 5301 4153 l 5321 4195 l 5341 4236 l 5361 4275 l
 5380 4313 l 5400 4350 l 5424 4393 l 5449 4435 l 5473 4474 l
 5498 4512 l 5523 4547 l 5549 4581 l 5576 4614 l 5604 4645 l
 5632 4675 l 5662 4705 l 5693 4733 l 5725 4761 l 5759 4788 l
 5795 4815 l 5831 4841 l 5869 4867 l 5908 4892 l 5947 4916 l
 5987 4940 l 6027 4962 l 6066 4984 l 6103 5004 l 6139 5023 l
 6171 5039 l 6201 5054 l 6227 5066 l 6249 5077 l 6266 5085 l
 6280 5091 l 6289 5095 l 6295 5098 l 6299 5099 l 6300 5100 l gs col0 s gr 
% Polyline
n 3900 5100 m 3902 5099 l 3907 5097 l 3915 5094 l 3929 5089 l 3947 5082 l
 3972 5073 l 4001 5061 l 4035 5048 l 4073 5032 l 4114 5015 l
 4158 4997 l 4202 4979 l 4247 4959 l 4292 4939 l 4336 4919 l
 4379 4899 l 4420 4879 l 4459 4859 l 4496 4839 l 4532 4820 l
 4566 4800 l 4598 4780 l 4629 4760 l 4659 4739 l 4689 4718 l
 4717 4696 l 4745 4673 l 4772 4650 l 4800 4625 l 4826 4601 l
 4852 4576 l 4878 4550 l 4904 4523 l 4931 4495 l 4958 4467 l
 4985 4438 l 5013 4408 l 5042 4378 l 5070 4347 l 5099 4316 l
 5128 4285 l 5158 4254 l 5187 4224 l 5217 4194 l 5247 4165 l
 5276 4136 l 5306 4109 l 5335 4083 l 5364 4059 l 5392 4035 l
 5420 4014 l 5448 3995 l 5475 3977 l 5502 3961 l 5528 3948 l
 5553 3936 l 5578 3927 l 5603 3920 l 5627 3915 l 5651 3913 l
 5675 3913 l 5699 3915 l 5722 3919 l 5746 3926 l 5770 3936 l
 5794 3947 l 5818 3961 l 5843 3976 l 5868 3994 l 5893 4014 l
 5919 4036 l 5945 4059 l 5971 4085 l 5998 4111 l 6024 4139 l
 6051 4169 l 6078 4199 l 6106 4230 l 6133 4262 l 6160 4294 l
 6187 4326 l 6214 4358 l 6241 4391 l 6268 4422 l 6294 4454 l
 6320 4485 l 6346 4515 l 6372 4544 l 6398 4572 l 6423 4599 l
 6449 4626 l 6474 4651 l 6500 4675 l 6526 4698 l 6552 4720 l
 6579 4741 l 6607 4761 l 6635 4781 l 6665 4799 l 6695 4818 l
 6728 4835 l 6761 4852 l 6797 4869 l 6835 4886 l 6874 4902 l
 6916 4919 l 6959 4935 l 7004 4951 l 7051 4967 l 7099 4983 l
 7147 4999 l 7195 5014 l 7242 5028 l 7287 5041 l 7329 5053 l
 7367 5064 l 7401 5074 l 7430 5082 l 7454 5088 l 7472 5093 l
 7485 5096 l 7493 5098 l 7498 5099 l 7500 5100 l gs col0 s gr 
/Times-Roman-iso ff 420.00 scf sf
1500 2100 m
gs 1 -1 sc (|A|) dup sw pop 2 div neg 0 rm  col0 sh gr
/Times-Roman-iso ff 420.00 scf sf
7800 5700 m
gs 1 -1 sc (f) dup sw pop 2 div neg 0 rm  col0 sh gr
/Times-Roman-iso ff 420.00 scf sf
8025 5850 m
gs 1 -1 sc (t) dup sw pop 2 div neg 0 rm  col0 sh gr
/Times-Roman-iso ff 360.00 scf sf
7050 2100 m
gs 1 -1 sc (Transmitted band) dup sw pop 2 div neg 0 rm  col0 sh gr
/Times-Roman-iso ff 360.00 scf sf
4575 6900 m
gs 1 -1 sc (Receive sub-bands) dup sw pop 2 div neg 0 rm  col0 sh gr
$F2psEnd
rs
