%!PS-Adobe-2.0 EPSF-2.0
%%Title: freq_com.eps
%%Creator: fig2dev Version 3.2 Patchlevel 1
%%CreationDate: Fri Jun 18 16:58:55 1999
%%For: mea1@abo.egr.duke.edu ()
%%Orientation: Portrait
%%BoundingBox: 0 0 373 218
%%Pages: 0
%%BeginSetup
%%EndSetup
%%Magnification: 1.0000
%%EndComments
/$F2psDict 200 dict def
$F2psDict begin
$F2psDict /mtrx matrix put
/col-1 {0 setgray} bind def
/col0 {0.000 0.000 0.000 srgb} bind def
/col1 {0.000 0.000 1.000 srgb} bind def
/col2 {0.000 1.000 0.000 srgb} bind def
/col3 {0.000 1.000 1.000 srgb} bind def
/col4 {1.000 0.000 0.000 srgb} bind def
/col5 {1.000 0.000 1.000 srgb} bind def
/col6 {1.000 1.000 0.000 srgb} bind def
/col7 {1.000 1.000 1.000 srgb} bind def
/col8 {0.000 0.000 0.560 srgb} bind def
/col9 {0.000 0.000 0.690 srgb} bind def
/col10 {0.000 0.000 0.820 srgb} bind def
/col11 {0.530 0.810 1.000 srgb} bind def
/col12 {0.000 0.560 0.000 srgb} bind def
/col13 {0.000 0.690 0.000 srgb} bind def
/col14 {0.000 0.820 0.000 srgb} bind def
/col15 {0.000 0.560 0.560 srgb} bind def
/col16 {0.000 0.690 0.690 srgb} bind def
/col17 {0.000 0.820 0.820 srgb} bind def
/col18 {0.560 0.000 0.000 srgb} bind def
/col19 {0.690 0.000 0.000 srgb} bind def
/col20 {0.820 0.000 0.000 srgb} bind def
/col21 {0.560 0.000 0.560 srgb} bind def
/col22 {0.690 0.000 0.690 srgb} bind def
/col23 {0.820 0.000 0.820 srgb} bind def
/col24 {0.500 0.190 0.000 srgb} bind def
/col25 {0.630 0.250 0.000 srgb} bind def
/col26 {0.750 0.380 0.000 srgb} bind def
/col27 {1.000 0.500 0.500 srgb} bind def
/col28 {1.000 0.630 0.630 srgb} bind def
/col29 {1.000 0.750 0.750 srgb} bind def
/col30 {1.000 0.880 0.880 srgb} bind def
/col31 {1.000 0.840 0.000 srgb} bind def

end
save
-88.0 288.0 translate
1 -1 scale

/cp {closepath} bind def
/ef {eofill} bind def
/gr {grestore} bind def
/gs {gsave} bind def
/sa {save} bind def
/rs {restore} bind def
/l {lineto} bind def
/m {moveto} bind def
/rm {rmoveto} bind def
/n {newpath} bind def
/s {stroke} bind def
/sh {show} bind def
/slc {setlinecap} bind def
/slj {setlinejoin} bind def
/slw {setlinewidth} bind def
/srgb {setrgbcolor} bind def
/rot {rotate} bind def
/sc {scale} bind def
/sd {setdash} bind def
/ff {findfont} bind def
/sf {setfont} bind def
/scf {scalefont} bind def
/sw {stringwidth} bind def
/tr {translate} bind def
/tnt {dup dup currentrgbcolor
  4 -2 roll dup 1 exch sub 3 -1 roll mul add
  4 -2 roll dup 1 exch sub 3 -1 roll mul add
  4 -2 roll dup 1 exch sub 3 -1 roll mul add srgb}
  bind def
/shd {dup dup currentrgbcolor 4 -2 roll mul 4 -2 roll mul
  4 -2 roll mul srgb} bind def
/$F2psBegin {$F2psDict begin /$F2psEnteredState save def} def
/$F2psEnd {$F2psEnteredState restore end} def
%%EndProlog

$F2psBegin
10 setmiterlimit
n -1000 5800 m -1000 -1000 l 8675 -1000 l 8675 5800 l cp clip
 0.06000 0.06000 sc
% Polyline
15.000 slw
gs  clippath
1440 3625 m 1500 3336 l 1560 3625 l 1560 3270 l 1440 3270 l cp
clip
n 1500 4200 m 1500 3300 l gs 0.00 setgray ef gr gs col0 s gr gr

% arrowhead
n 1440 3625 m 1500 3336 l 1560 3625 l 1500 3577 l 1440 3625 l  cp gs 0.00 setgray ef gr  col0 s
% Polyline
gs  clippath
3275 4140 m 3563 4200 l 3275 4260 l 3630 4260 l 3630 4140 l cp
clip
n 1500 4200 m 3600 4200 l gs 0.00 setgray ef gr gs col0 s gr gr

% arrowhead
n 3275 4140 m 3563 4200 l 3275 4260 l 3323 4200 l 3275 4140 l  cp gs 0.00 setgray ef gr  col0 s
% Polyline
gs  clippath
3275 2640 m 3563 2700 l 3275 2760 l 3630 2760 l 3630 2640 l cp
clip
n 1500 2700 m 3600 2700 l gs 0.00 setgray ef gr gs col0 s gr gr

% arrowhead
n 3275 2640 m 3563 2700 l 3275 2760 l 3323 2700 l 3275 2640 l  cp gs 0.00 setgray ef gr  col0 s
% Polyline
gs  clippath
1440 2125 m 1500 1836 l 1560 2125 l 1560 1770 l 1440 1770 l cp
clip
n 1500 2700 m 1500 1800 l gs 0.00 setgray ef gr gs col0 s gr gr

% arrowhead
n 1440 2125 m 1500 1836 l 1560 2125 l 1500 2077 l 1440 2125 l  cp gs 0.00 setgray ef gr  col0 s
% Polyline
gs  clippath
5940 1525 m 6000 1236 l 6060 1525 l 6060 1170 l 5940 1170 l cp
clip
n 6000 4200 m 6000 1200 l gs 0.00 setgray ef gr gs col0 s gr gr

% arrowhead
n 5940 1525 m 6000 1236 l 6060 1525 l 6000 1477 l 5940 1525 l  cp gs 0.00 setgray ef gr  col0 s
/Times-Roman ff 360.00 scf sf
6600 1650 m
gs 1 -1 sc (z) dup sw pop 2 div neg 0 rm  col0 sh gr
/Times-Roman ff 360.00 scf sf
6375 1575 m
gs 1 -1 sc (k) dup sw pop 2 div neg 0 rm  col0 sh gr
/Times-Roman ff 360.00 scf sf
7575 4800 m
gs 1 -1 sc (x) dup sw pop 2 div neg 0 rm  col0 sh gr
/Times-Roman ff 360.00 scf sf
7350 4725 m
gs 1 -1 sc (k) dup sw pop 2 div neg 0 rm  col0 sh gr
% Polyline
gs  clippath
4825 4260 m 4536 4200 l 4825 4140 l 4470 4140 l 4470 4260 l cp
clip
n 6000 4200 m 4500 4200 l gs 0.00 setgray ef gr gs col0 s gr gr

% arrowhead
n 4825 4260 m 4536 4200 l 4825 4140 l 4777 4200 l 4825 4260 l  cp gs 0.00 setgray ef gr  col0 s
% Polyline
gs  clippath
7175 4140 m 7463 4200 l 7175 4260 l 7530 4260 l 7530 4140 l cp
clip
n 6000 4200 m 7500 4200 l gs 0.00 setgray ef gr gs col0 s gr gr

% arrowhead
n 7175 4140 m 7463 4200 l 7175 4260 l 7223 4200 l 7175 4140 l  cp gs 0.00 setgray ef gr  col0 s
% Polyline
n 1800 2700 m 1801 2701 l 1805 2704 l 1814 2713 l 1829 2726 l 1847 2741 l
 1865 2757 l 1883 2771 l 1899 2782 l 1914 2790 l 1927 2796 l
 1938 2799 l 1950 2800 l 1958 2800 l 1965 2798 l 1973 2796 l
 1981 2792 l 1990 2787 l 1998 2780 l 2007 2772 l 2016 2762 l
 2025 2751 l 2034 2737 l 2043 2723 l 2052 2706 l 2060 2688 l
 2069 2668 l 2077 2647 l 2085 2625 l 2092 2601 l 2100 2575 l
 2106 2554 l 2112 2533 l 2117 2510 l 2123 2486 l 2130 2462 l
 2136 2437 l 2143 2412 l 2149 2387 l 2156 2363 l 2164 2339 l
 2171 2316 l 2178 2295 l 2186 2276 l 2194 2258 l 2202 2243 l
 2210 2231 l 2218 2221 l 2226 2215 l 2234 2212 l 2242 2212 l
 2250 2216 l 2258 2224 l 2267 2235 l 2275 2250 l 2282 2265 l
 2289 2283 l 2296 2303 l 2304 2326 l 2312 2351 l 2320 2378 l
 2328 2408 l 2336 2440 l 2345 2473 l 2354 2508 l 2363 2545 l
 2372 2583 l 2381 2621 l 2391 2660 l 2400 2700 l 2409 2740 l
 2419 2779 l 2428 2817 l 2437 2855 l 2446 2892 l 2455 2927 l
 2464 2960 l 2472 2992 l 2480 3022 l 2488 3049 l 2496 3074 l
 2504 3097 l 2511 3117 l 2518 3135 l 2525 3150 l 2533 3165 l
 2542 3176 l 2550 3184 l 2558 3188 l 2566 3188 l 2574 3185 l
 2582 3179 l 2590 3169 l 2598 3157 l 2606 3142 l 2614 3124 l
 2622 3105 l 2629 3084 l 2636 3061 l 2644 3037 l 2651 3013 l
 2657 2988 l 2664 2963 l 2670 2938 l 2677 2914 l 2683 2890 l
 2688 2867 l 2694 2846 l 2700 2825 l 2708 2799 l 2715 2775 l
 2723 2753 l 2731 2732 l 2740 2712 l 2748 2694 l 2757 2677 l
 2766 2663 l 2775 2649 l 2784 2638 l 2793 2628 l 2802 2620 l
 2810 2613 l 2819 2608 l 2827 2604 l 2835 2602 l 2842 2600 l
 2850 2600 l 2862 2601 l 2873 2604 l 2886 2610 l 2901 2618 l
 2917 2629 l 2935 2643 l 2953 2659 l 2971 2674 l 2986 2687 l
 2995 2696 l 2999 2699 l 3000 2700 l gs col0 s gr 
% Polyline
 [60] 0 sd
n 1800 4200 m 1801 4201 l 1804 4204 l 1811 4213 l 1822 4226 l 1835 4241 l
 1849 4257 l 1863 4271 l 1875 4282 l 1886 4290 l 1895 4296 l
 1904 4299 l 1913 4300 l 1919 4299 l 1926 4298 l 1933 4294 l
 1940 4290 l 1947 4283 l 1954 4274 l 1961 4264 l 1969 4251 l
 1977 4236 l 1984 4219 l 1991 4199 l 1998 4178 l 2005 4155 l
 2012 4131 l 2019 4104 l 2025 4075 l 2029 4054 l 2034 4033 l
 2038 4010 l 2043 3986 l 2047 3962 l 2052 3937 l 2057 3912 l
 2062 3887 l 2068 3863 l 2073 3839 l 2078 3816 l 2084 3795 l
 2090 3776 l 2096 3758 l 2102 3743 l 2108 3731 l 2114 3721 l
 2120 3715 l 2126 3712 l 2132 3712 l 2138 3716 l 2144 3724 l
 2150 3735 l 2157 3750 l 2162 3765 l 2167 3783 l 2173 3803 l
 2178 3826 l 2184 3851 l 2190 3878 l 2196 3908 l 2203 3940 l
 2209 3973 l 2216 4008 l 2223 4045 l 2230 4083 l 2236 4121 l
 2243 4160 l 2250 4200 l 2258 4240 l 2265 4279 l 2271 4317 l
 2278 4355 l 2285 4392 l 2292 4427 l 2298 4460 l 2305 4492 l
 2311 4522 l 2317 4549 l 2322 4574 l 2328 4597 l 2334 4617 l
 2339 4635 l 2344 4650 l 2351 4665 l 2357 4676 l 2363 4684 l
 2369 4688 l 2375 4688 l 2381 4685 l 2387 4679 l 2393 4669 l
 2399 4657 l 2405 4642 l 2411 4624 l 2416 4605 l 2422 4584 l
 2428 4561 l 2433 4537 l 2438 4513 l 2443 4488 l 2448 4463 l
 2453 4438 l 2458 4414 l 2462 4390 l 2467 4367 l 2471 4346 l
 2475 4325 l 2482 4296 l 2488 4269 l 2495 4245 l 2502 4222 l
 2509 4201 l 2516 4181 l 2524 4164 l 2532 4149 l 2539 4136 l
 2547 4126 l 2554 4117 l 2561 4110 l 2568 4106 l 2575 4102 l
 2581 4101 l 2588 4100 l 2596 4101 l 2605 4104 l 2615 4110 l
 2626 4118 l 2638 4129 l 2651 4143 l 2665 4159 l 2678 4174 l
 2689 4187 l 2696 4196 l 2700 4199 l 2700 4200 l gs col0 s gr  [] 0 sd
% Polyline
 [90] 0 sd
n 5775 2750 m 5759 2740 l 5742 2731 l 5724 2720 l 5705 2709 l 5685 2698 l
 5665 2686 l 5643 2673 l 5621 2660 l 5599 2647 l 5576 2633 l
 5553 2618 l 5531 2603 l 5509 2588 l 5487 2573 l 5466 2558 l
 5446 2542 l 5427 2527 l 5409 2511 l 5393 2496 l 5377 2481 l
 5363 2466 l 5350 2450 l 5339 2436 l 5329 2421 l 5320 2406 l
 5311 2390 l 5304 2374 l 5297 2357 l 5292 2341 l 5287 2323 l
 5284 2306 l 5282 2288 l 5281 2270 l 5281 2252 l 5283 2234 l
 5285 2216 l 5289 2198 l 5294 2181 l 5301 2165 l 5308 2148 l
 5317 2133 l 5326 2118 l 5337 2103 l 5349 2089 l 5361 2076 l
 5375 2063 l 5390 2050 l 5406 2037 l 5424 2025 l 5443 2013 l
 5463 2001 l 5485 1990 l 5508 1979 l 5532 1968 l 5558 1957 l
 5585 1947 l 5613 1937 l 5642 1928 l 5672 1920 l 5702 1912 l
 5732 1905 l 5763 1898 l 5794 1893 l 5824 1888 l 5854 1884 l
 5884 1881 l 5913 1878 l 5942 1876 l 5971 1875 l 6000 1875 l
 6029 1875 l 6058 1876 l 6087 1878 l 6116 1881 l 6146 1884 l
 6176 1888 l 6206 1893 l 6237 1898 l 6268 1905 l 6298 1912 l
 6328 1920 l 6358 1928 l 6387 1937 l 6415 1947 l 6442 1957 l
 6468 1968 l 6492 1979 l 6515 1990 l 6537 2001 l 6557 2013 l
 6576 2025 l 6594 2037 l 6610 2050 l 6625 2063 l 6639 2076 l
 6651 2089 l 6663 2103 l 6674 2118 l 6683 2133 l 6692 2148 l
 6699 2165 l 6706 2181 l 6711 2198 l 6715 2216 l 6717 2234 l
 6719 2252 l 6719 2270 l 6718 2288 l 6716 2306 l 6713 2323 l
 6708 2341 l 6703 2357 l 6696 2374 l 6689 2390 l 6680 2406 l
 6671 2421 l 6661 2436 l 6650 2450 l 6637 2466 l 6623 2481 l
 6607 2496 l 6591 2511 l 6573 2527 l 6554 2542 l 6534 2558 l
 6513 2573 l 6491 2588 l 6469 2603 l 6447 2618 l 6424 2633 l
 6401 2647 l 6379 2660 l 6357 2673 l 6335 2686 l 6315 2698 l
 6295 2709 l 6276 2720 l 6258 2731 l 6241 2740 l 6225 2750 l
 6201 2764 l 6179 2778 l 6159 2792 l 6139 2806 l 6121 2819 l
 6104 2831 l 6089 2843 l 6075 2854 l 6063 2864 l 6053 2873 l
 6044 2882 l 6037 2889 l 6030 2895 l 6025 2900 l 6021 2904 l
 6018 2907 l 6015 2910 l 6012 2912 l 6010 2914 l 6007 2916 l
 6005 2917 l 6002 2918 l 6000 2918 l 5998 2918 l 5995 2917 l
 5993 2916 l 5990 2914 l 5988 2912 l 5985 2910 l 5982 2907 l
 5979 2904 l 5975 2900 l 5970 2895 l 5963 2889 l 5956 2882 l
 5947 2873 l 5937 2864 l 5925 2854 l 5911 2843 l 5896 2831 l
 5879 2819 l 5861 2806 l 5841 2792 l 5821 2778 l 5799 2764 l
 cp gs col0 s gr  [] 0 sd
% Polyline
n 5775 3275 m 5759 3265 l 5742 3256 l 5724 3245 l 5705 3234 l 5685 3223 l
 5665 3211 l 5643 3198 l 5621 3185 l 5599 3172 l 5576 3158 l
 5553 3143 l 5531 3128 l 5509 3113 l 5487 3098 l 5466 3083 l
 5446 3067 l 5427 3052 l 5409 3036 l 5393 3021 l 5377 3006 l
 5363 2991 l 5350 2975 l 5339 2961 l 5329 2946 l 5320 2931 l
 5311 2915 l 5304 2899 l 5297 2882 l 5292 2866 l 5287 2848 l
 5284 2831 l 5282 2813 l 5281 2795 l 5281 2777 l 5283 2759 l
 5285 2741 l 5289 2723 l 5294 2706 l 5301 2690 l 5308 2673 l
 5317 2658 l 5326 2643 l 5337 2628 l 5349 2614 l 5361 2601 l
 5375 2588 l 5390 2575 l 5406 2562 l 5424 2550 l 5443 2538 l
 5463 2526 l 5485 2515 l 5508 2504 l 5532 2493 l 5558 2482 l
 5585 2472 l 5613 2462 l 5642 2453 l 5672 2445 l 5702 2437 l
 5732 2430 l 5763 2423 l 5794 2418 l 5824 2413 l 5854 2409 l
 5884 2406 l 5913 2403 l 5942 2401 l 5971 2400 l 6000 2400 l
 6029 2400 l 6058 2401 l 6087 2403 l 6116 2406 l 6146 2409 l
 6176 2413 l 6206 2418 l 6237 2423 l 6268 2430 l 6298 2437 l
 6328 2445 l 6358 2453 l 6387 2462 l 6415 2472 l 6442 2482 l
 6468 2493 l 6492 2504 l 6515 2515 l 6537 2526 l 6557 2538 l
 6576 2550 l 6594 2562 l 6610 2575 l 6625 2588 l 6639 2601 l
 6651 2614 l 6663 2628 l 6674 2643 l 6683 2658 l 6692 2673 l
 6699 2690 l 6706 2706 l 6711 2723 l 6715 2741 l 6717 2759 l
 6719 2777 l 6719 2795 l 6718 2813 l 6716 2831 l 6713 2848 l
 6708 2866 l 6703 2882 l 6696 2899 l 6689 2915 l 6680 2931 l
 6671 2946 l 6661 2961 l 6650 2975 l 6637 2991 l 6623 3006 l
 6607 3021 l 6591 3036 l 6573 3052 l 6554 3067 l 6534 3083 l
 6513 3098 l 6491 3113 l 6469 3128 l 6447 3143 l 6424 3158 l
 6401 3172 l 6379 3185 l 6357 3198 l 6335 3211 l 6315 3223 l
 6295 3234 l 6276 3245 l 6258 3256 l 6241 3265 l 6225 3275 l
 6201 3289 l 6179 3303 l 6159 3317 l 6139 3331 l 6121 3344 l
 6104 3356 l 6089 3368 l 6075 3379 l 6063 3389 l 6053 3398 l
 6044 3407 l 6037 3414 l 6030 3420 l 6025 3425 l 6021 3429 l
 6018 3432 l 6015 3435 l 6012 3437 l 6010 3439 l 6007 3441 l
 6005 3442 l 6002 3443 l 6000 3443 l 5998 3443 l 5995 3442 l
 5993 3441 l 5990 3439 l 5988 3437 l 5985 3435 l 5982 3432 l
 5979 3429 l 5975 3425 l 5970 3420 l 5963 3414 l 5956 3407 l
 5947 3398 l 5937 3389 l 5925 3379 l 5911 3368 l 5896 3356 l
 5879 3344 l 5861 3331 l 5841 3317 l 5821 3303 l 5799 3289 l
 cp gs col0 s gr 
/Times-Roman ff 360.00 scf sf
3300 4575 m
gs 1 -1 sc (t) dup sw pop 2 div neg 0 rm  col0 sh gr
/Times-Roman ff 360.00 scf sf
3300 3075 m
gs 1 -1 sc (t) dup sw pop 2 div neg 0 rm  col0 sh gr
$F2psEnd
rs
