%!PS-Adobe-2.0 EPSF-1.2
%%Creator: MATLAB, The Mathworks, Inc.
%%Title: gaus_sep.eps
%%CreationDate: 11/07/98  19:31:19
%%DocumentNeededFonts: Times-Roman
%%+ Helvetica
%%DocumentProcessColors: Cyan Magenta Yellow Black
%%Pages: 1
%%BoundingBox:    48   188   547   583
%%EndComments

%%BeginProlog

% MathWorks dictionary
/MathWorks 160 dict begin

% definition operators
/bdef {bind def} bind def
/ldef {load def} bind def
/xdef {exch def} bdef
/xstore {exch store} bdef

% operator abbreviations
/c  /clip ldef
/cc /concat ldef
/cp /closepath ldef
/gr /grestore ldef
/gs /gsave ldef
/mt /moveto ldef
/np /newpath ldef
/cm /currentmatrix ldef
/sm /setmatrix ldef
/rc {rectclip} bdef
/rf {rectfill} bdef
/rm /rmoveto ldef
/rl /rlineto ldef
/s /show ldef
/sc {setcmykcolor} bdef
/sr /setrgbcolor ldef
/sg /setgray ldef
/w /setlinewidth ldef
/j /setlinejoin ldef
/cap /setlinecap ldef

% page state control
/pgsv () def
/bpage {/pgsv save def} bdef
/epage {pgsv restore} bdef
/bplot /gsave ldef
/eplot {stroke grestore} bdef

% orientation switch
/portraitMode 	0 def
/landscapeMode 	1 def

% coordinate system mappings
/dpi2point 0 def

% font control
/FontSize 0 def
/FMS {
	/FontSize xstore		%save size off stack
	findfont
	[FontSize 0 0 FontSize neg 0 0]
	makefont
	setfont
	}bdef

/reencode {
exch dup where
{pop load} {pop StandardEncoding} ifelse
exch
dup 3 1 roll
findfont dup length dict begin
  { 1 index /FID ne {def}{pop pop} ifelse } forall
  /Encoding exch def
  currentdict
end
definefont pop
} bdef

/isroman {
findfont /CharStrings get
/Agrave known
} bdef

/FMSR {
3 1 roll 1 index
dup isroman
{reencode} {pop pop} ifelse
exch FMS
} bdef

/csm {
	1 dpi2point div -1 dpi2point div scale
	neg translate
	landscapeMode eq {90 rotate} if
	} bdef

% line types: solid, dotted, dashed, dotdash
/SO { [] 0 setdash } bdef
/DO { [.5 dpi2point mul 4 dpi2point mul] 0 setdash } bdef
/DA { [6 dpi2point mul] 0 setdash } bdef
/DD { [.5 dpi2point mul 4 dpi2point mul 6 dpi2point mul 4 dpi2point mul] 0 setdash } bdef

% macros for lines and objects
/L {
	lineto
	stroke
	} bdef
/MP {
	3 1 roll moveto
	1 sub {rlineto} repeat
	} bdef
/AP {
	{rlineto} repeat
	} bdef
/PP {
	closepath eofill
	} bdef
/DP {
	closepath stroke
	} bdef
/MR {
	4 -2 roll moveto
	dup  0 exch rlineto
	exch 0 rlineto
	neg  0 exch rlineto
	closepath
	} bdef
/FR {
	MR stroke
	} bdef
/PR {
	MR fill
	} bdef
/L1i {
	{ currentfile picstr readhexstring pop } image
	} bdef

/tMatrix matrix def
/MakeOval {
	newpath
	tMatrix currentmatrix pop
	translate scale
	0 0 1 0 360 arc
	tMatrix setmatrix
	} bdef
/FO {
	MakeOval
	stroke
	} bdef
/PO {
	MakeOval
	fill
	} bdef

/PD {
	currentlinecap 1 setlinecap 3 1 roll 2 copy moveto lineto stroke setlinecap
	} bdef

/FA {
	newpath
	tMatrix currentmatrix pop
	translate scale
	0 0 1 5 -2 roll arc
	tMatrix setmatrix
	stroke
	} bdef
/PA {
	newpath
	tMatrix currentmatrix pop
	translate 0 0 moveto scale
	0 0 1 5 -2 roll arc
	closepath
	tMatrix setmatrix
	fill
	} bdef

/FAn {
	newpath
	tMatrix currentmatrix pop
	translate scale
	0 0 1 5 -2 roll arcn
	tMatrix setmatrix
	stroke
	} bdef
/PAn {
	newpath
	tMatrix currentmatrix pop
	translate 0 0 moveto scale
	0 0 1 5 -2 roll arcn
	closepath
	tMatrix setmatrix
	fill
	} bdef

/MRR {
	/vradius xdef
	/hradius xdef
	/lry xdef
	/lrx xdef
	/uly xdef
	/ulx xdef
	newpath
	tMatrix currentmatrix pop
	ulx hradius add uly vradius add translate
	hradius vradius scale
	0 0 1 180 270 arc 
	tMatrix setmatrix
	lrx hradius sub uly vradius add translate
	hradius vradius scale
	0 0 1 270 360 arc
	tMatrix setmatrix
	lrx hradius sub lry vradius sub translate
	hradius vradius scale
	0 0 1 0 90 arc
	tMatrix setmatrix
	ulx hradius add lry vradius sub translate
	hradius vradius scale
	0 0 1 90 180 arc
	tMatrix setmatrix
	closepath
	} bdef
/FRR {
	MRR stroke } bdef
/PRR {
	MRR fill } bdef

/MlrRR {
	/lry xdef
	/lrx xdef
	/uly xdef
	/ulx xdef
	/rad lry uly sub 2 div def
	newpath
	tMatrix currentmatrix pop
	ulx rad add uly rad add translate
	rad rad scale
	0 0 1 90 270 arc
	tMatrix setmatrix
	lrx rad sub lry rad sub translate
	rad rad scale
	0 0 1 270 90 arc
	tMatrix setmatrix
	closepath
	} bdef
/FlrRR {
	MlrRR stroke } bdef
/PlrRR {
	MlrRR fill } bdef

/MtbRR {
	/lry xdef
	/lrx xdef
	/uly xdef
	/ulx xdef
	/rad lrx ulx sub 2 div def
	newpath
	tMatrix currentmatrix pop
	ulx rad add uly rad add translate
	rad rad scale
	0 0 1 180 360 arc
	tMatrix setmatrix
	lrx rad sub lry rad sub translate
	rad rad scale
	0 0 1 0 180 arc
	tMatrix setmatrix
	closepath
	} bdef
/FtbRR {
	MtbRR stroke } bdef
/PtbRR {
	MtbRR fill } bdef

currentdict end def
%%EndProlog

%%BeginSetup
MathWorks begin

0 cap

end
%%EndSetup

%%Page: 1 1
%%BeginPageSetup
%%PageBoundingBox:    48   188   547   583
MathWorks begin
bpage
%%EndPageSetup

%%BeginObject: graph1 1
bplot

/dpi2point 12 def
portraitMode 0216 7344 csm

  371   340  5984  4747 MR c np
88 dict begin %Colortable dictionary
/c0 { 0 0 0 sr} bdef
/c1 { 1 1 1 sr} bdef
/c2 { 1 0 0 sr} bdef
/c3 { 0 1 0 sr} bdef
/c4 { 0 0 1 sr} bdef
/c5 { 1 1 0 sr} bdef
/c6 { 1 0 1 sr} bdef
/c7 { 0 1 1 sr} bdef
1 j
1 sg
   0    0 6918 5185 PR
6 w
0 1782 5359 0 0 -1782 899 2170 4 MP
PP
-5359 0 0 1782 5359 0 0 -1782 899 2170 5 MP stroke
4 w
DO
SO
6 w
0 sg
 899 2170 mt 6258 2170 L
 899  388 mt 6258  388 L
 899 2170 mt  899  388 L
6258 2170 mt 6258  388 L
 899 2170 mt 6258 2170 L
 899 2170 mt  899  388 L
 899 2170 mt  899 2116 L
 899  388 mt  899  442 L
%%IncludeResource: font Times-Roman
/Times-Roman /ISOLatin1Encoding 192 FMSR

 851 2377 mt 
(0) s
1471 2170 mt 1471 2116 L
1471  388 mt 1471  442 L
1423 2377 mt 
(1) s
2044 2170 mt 2044 2116 L
2044  388 mt 2044  442 L
1996 2377 mt 
(2) s
2616 2170 mt 2616 2116 L
2616  388 mt 2616  442 L
2568 2377 mt 
(3) s
3188 2170 mt 3188 2116 L
3188  388 mt 3188  442 L
3140 2377 mt 
(4) s
3761 2170 mt 3761 2116 L
3761  388 mt 3761  442 L
3713 2377 mt 
(5) s
4333 2170 mt 4333 2116 L
4333  388 mt 4333  442 L
4285 2377 mt 
(6) s
4905 2170 mt 4905 2116 L
4905  388 mt 4905  442 L
4857 2377 mt 
(7) s
5478 2170 mt 5478 2116 L
5478  388 mt 5478  442 L
5430 2377 mt 
(8) s
6050 2170 mt 6050 2116 L
6050  388 mt 6050  442 L
6002 2377 mt 
(9) s
 899 2170 mt  953 2170 L
6258 2170 mt 6204 2170 L
 768 2238 mt 
(0) s
 899 1428 mt  953 1428 L
6258 1428 mt 6204 1428 L
 624 1496 mt 
(0.5) s
 899  685 mt  953  685 L
6258  685 mt 6204  685 L
 768  753 mt 
(1) s
 899 2170 mt 6258 2170 L
 899  388 mt 6258  388 L
 899 2170 mt  899  388 L
6258 2170 mt 6258  388 L
gs 899 388 5360 1783 MR c np
24 w
71 0 72 0 71 0 72 0 71 0 72 0 71 0 72 0 
71 0 72 0 71 0 71 0 72 0 71 0 72 0 71 0 
72 0 71 0 72 0 71 0 72 0 71 0 71 0 72 0 
71 0 72 0 71 0 72 0 71 0 72 0 71 0 72 0 
71 0 71 0 72 1 71 1 72 2 71 6 72 10 71 21 
72 35 71 58 71 88 72 125 71 164 72 198 71 218 72 214 
71 181 72 122 71 41 72 -46 71 -126 71 -185 72 -214 71 -217 
72 -196 71 -162 72 -123 71 -86 72 -57 71 -34 72 -19 71 -11 
71 -5 72 -2 71 -1 72 -1 71 0 72 0 71 0 72 0 
71 0 72 0 970 2170 75 MP stroke
6 w
71 0 72 0 71 0 72 0 71 0 72 0 71 0 72 0 
71 0 72 0 71 0 71 0 72 0 71 0 72 0 71 0 
72 0 71 0 72 0 71 0 72 0 71 0 71 0 72 0 
71 0 72 0 71 0 72 0 71 0 72 0 71 0 72 0 
71 0 71 0 72 1 71 1 72 2 71 6 72 10 71 21 
72 35 71 58 71 88 72 125 71 164 72 198 71 218 72 214 
71 181 72 122 71 41 72 -46 71 -126 71 -185 72 -214 71 -217 
72 -196 71 -162 72 -123 71 -86 72 -57 71 -34 72 -19 71 -11 
71 -5 72 -2 71 -1 72 -1 71 0 72 0 71 0 72 0 
71 0 72 0 970 2170 75 MP stroke

gr 
2616  602 mt 
(1) s
gs 899 388 5360 1783 MR c np
71 0 72 0 71 0 72 0 71 0 72 0 71 0 72 0 
71 0 72 0 71 0 71 0 72 0 71 0 72 0 71 0 
72 0 71 0 72 0 71 0 72 0 71 0 71 0 72 0 
71 0 72 0 71 1 72 1 71 2 72 6 71 11 72 20 
71 35 71 59 72 88 71 126 72 164 71 199 72 217 71 214 
72 181 71 121 71 40 72 -47 71 -127 72 -185 71 -214 72 -217 
71 -196 72 -162 71 -122 72 -86 71 -56 71 -34 72 -20 71 -10 
72 -5 71 -2 72 -1 71 -1 72 0 71 0 72 0 71 0 
71 0 72 0 71 0 72 0 71 0 72 0 71 0 72 0 
71 0 72 0 970 2170 75 MP stroke

gr 
3188  602 mt 
(2) s
gs 899 388 5360 1783 MR c np
71 0 72 0 71 0 72 0 71 0 72 0 71 0 72 0 
71 0 72 0 71 0 71 0 72 0 71 0 72 0 71 0 
72 0 71 0 72 1 71 1 72 2 71 6 71 11 72 20 
71 36 72 58 71 89 72 126 71 165 72 199 71 217 72 214 
71 180 71 121 72 39 71 -48 72 -127 71 -186 72 -215 71 -216 
72 -196 71 -161 71 -122 72 -86 71 -56 72 -33 71 -20 72 -10 
71 -5 72 -2 71 -1 72 -1 71 0 71 0 72 0 71 0 
72 0 71 0 72 0 71 0 72 0 71 0 72 0 71 0 
71 0 72 0 71 0 72 0 71 0 72 0 71 0 72 0 
71 0 72 0 970 2170 75 MP stroke

gr 
3761  602 mt 
(3) s
gs 899 388 5360 1783 MR c np
71 0 72 0 71 0 72 0 71 0 72 0 71 0 72 0 
71 0 72 0 71 1 71 1 72 2 71 6 72 11 71 20 
72 36 71 59 72 89 71 127 72 165 71 199 71 218 72 213 
71 180 72 119 71 39 72 -49 71 -128 72 -186 71 -215 72 -216 
71 -196 71 -161 72 -121 71 -85 72 -56 71 -34 72 -19 71 -10 
72 -5 71 -2 71 -1 72 -1 71 0 72 0 71 0 72 0 
71 0 72 0 71 0 72 0 71 0 71 0 72 0 71 0 
72 0 71 0 72 0 71 0 72 0 71 0 72 0 71 0 
71 0 72 0 71 0 72 0 71 0 72 0 71 0 72 0 
71 0 72 0 970 2170 75 MP stroke

gr 
4333  602 mt 
(4) s
gs 899 388 5360 1783 MR c np
71 0 72 0 71 1 72 1 71 2 72 6 71 11 72 21 
71 36 72 59 71 89 71 127 72 166 71 199 72 218 71 213 
72 180 71 118 72 38 71 -50 72 -128 71 -187 71 -215 72 -216 
71 -196 72 -160 71 -121 72 -85 71 -55 72 -34 71 -19 72 -10 
71 -5 71 -2 72 -1 71 -1 72 0 71 0 72 0 71 0 
72 0 71 0 71 0 72 0 71 0 72 0 71 0 72 0 
71 0 72 0 71 0 72 0 71 0 71 0 72 0 71 0 
72 0 71 0 72 0 71 0 72 0 71 0 72 0 71 0 
71 0 72 0 71 0 72 0 71 0 72 0 71 0 72 0 
71 0 72 0 970 2170 75 MP stroke

gr 
4905  602 mt 
(5) s
%%IncludeResource: font Times-Roman
/Times-Roman /ISOLatin1Encoding 216 FMSR

3223 2578 mt 
(f [MHz]) s
 569 1747 mt  -90 rotate
(Magnitude) s
90 rotate
1 sg
0 1782 5359 0 0 -1782 899 4612 4 MP
PP
-5359 0 0 1782 5359 0 0 -1782 899 4612 5 MP stroke
4 w
DO
SO
6 w
0 sg
 899 4612 mt 6258 4612 L
 899 2830 mt 6258 2830 L
 899 4612 mt  899 2830 L
6258 4612 mt 6258 2830 L
 899 4612 mt 6258 4612 L
 899 4612 mt  899 2830 L
1004 4612 mt 1004 4558 L
1004 2830 mt 1004 2884 L
%%IncludeResource: font Times-Roman
/Times-Roman /ISOLatin1Encoding 192 FMSR

 956 4819 mt 
(0) s
2055 4612 mt 2055 4558 L
2055 2830 mt 2055 2884 L
2007 4819 mt 
(1) s
3106 4612 mt 3106 4558 L
3106 2830 mt 3106 2884 L
3058 4819 mt 
(2) s
4156 4612 mt 4156 4558 L
4156 2830 mt 4156 2884 L
4108 4819 mt 
(3) s
5207 4612 mt 5207 4558 L
5207 2830 mt 5207 2884 L
5159 4819 mt 
(4) s
6258 4612 mt 6258 4558 L
6258 2830 mt 6258 2884 L
6210 4819 mt 
(5) s
 899 4612 mt  953 4612 L
6258 4612 mt 6204 4612 L
 768 4680 mt 
(0) s
 899 3802 mt  953 3802 L
6258 3802 mt 6204 3802 L
 624 3870 mt 
(0.5) s
 899 2992 mt  953 2992 L
6258 2992 mt 6204 2992 L
 768 3060 mt 
(1) s
 899 4612 mt 6258 4612 L
 899 2830 mt 6258 2830 L
 899 4612 mt  899 2830 L
6258 4612 mt 6258 2830 L
gs 899 2830 5360 1783 MR c np
105 0 105 0 105 0 105 0 105 0 105 0 105 0 105 0 
105 0 106 0 105 1 105 0 105 0 105 1 105 2 105 2 
105 4 105 6 105 8 105 11 105 16 106 21 105 29 105 38 
105 48 105 60 105 73 105 87 105 100 105 114 105 124 105 132 
105 135 105 135 106 128 105 114 105 97 105 73 105 46 105 15 
1004 2992 41 MP stroke
DO
0 -1782 1004 4612 2 MP stroke

gr 
DO
%%IncludeResource: font Symbol
/Symbol /ISOLatin1Encoding 192 FMSR

1004 4033 mt 
(\254) s
%%IncludeResource: font Times-Roman
/Times-Roman /ISOLatin1Encoding 192 FMSR

1193 4033 mt 
( 1) s
gs 899 2830 5360 1783 MR c np
0 -1782 2055 4612 2 MP stroke

gr 
%%IncludeResource: font Symbol
/Symbol /ISOLatin1Encoding 192 FMSR

2055 4033 mt 
(\254) s
%%IncludeResource: font Times-Roman
/Times-Roman /ISOLatin1Encoding 192 FMSR

2244 4033 mt 
( 2) s
gs 899 2830 5360 1783 MR c np
0 -1782 3106 4612 2 MP stroke

gr 
%%IncludeResource: font Symbol
/Symbol /ISOLatin1Encoding 192 FMSR

3106 4033 mt 
(\254) s
%%IncludeResource: font Times-Roman
/Times-Roman /ISOLatin1Encoding 192 FMSR

3295 4033 mt 
( 3) s
gs 899 2830 5360 1783 MR c np
0 -1782 4156 4612 2 MP stroke

gr 
%%IncludeResource: font Symbol
/Symbol /ISOLatin1Encoding 192 FMSR

4156 4033 mt 
(\254) s
%%IncludeResource: font Times-Roman
/Times-Roman /ISOLatin1Encoding 192 FMSR

4345 4033 mt 
( 4) s
gs 899 2830 5360 1783 MR c np
0 -1782 5207 4612 2 MP stroke

gr 
%%IncludeResource: font Symbol
/Symbol /ISOLatin1Encoding 192 FMSR

5207 4033 mt 
(\254) s
%%IncludeResource: font Times-Roman
/Times-Roman /ISOLatin1Encoding 192 FMSR

5396 4033 mt 
( 5) s
%%IncludeResource: font Symbol
/Symbol /ISOLatin1Encoding 216 FMSR

3129 5022 mt 
(D) s
%%IncludeResource: font Times-Roman
/Times-Roman /ISOLatin1Encoding 216 FMSR

3261 5022 mt 
( f [MHz]) s
 569 4497 mt  -90 rotate
(C) s
90 rotate
%%IncludeResource: font Times-Roman
/Times-Roman /ISOLatin1Encoding 168 FMSR

 677 4353 mt  -90 rotate
(AA) s
90 rotate
%%IncludeResource: font Times-Roman
/Times-Roman /ISOLatin1Encoding 216 FMSR

 569 4111 mt  -90 rotate
( [normalized]) s
90 rotate
SO

end

eplot
%%EndObject graph 1

epage
end

showpage

%%Trailer
%%EOF
