%!PS-Adobe-2.0 EPSF-2.0
%%Title: mich_int.eps
%%Creator: fig2dev Version 3.2 Patchlevel 3c
%%CreationDate: Thu Nov  1 10:17:24 2001
%%For: mea1@moomin (Martin Anderson)
%%BoundingBox: 0 0 480 448
%%Magnification: 1.0000
%%EndComments
/$F2psDict 200 dict def
$F2psDict begin
$F2psDict /mtrx matrix put
/col-1 {0 setgray} bind def
/col0 {0.000 0.000 0.000 srgb} bind def
/col1 {0.000 0.000 1.000 srgb} bind def
/col2 {0.000 1.000 0.000 srgb} bind def
/col3 {0.000 1.000 1.000 srgb} bind def
/col4 {1.000 0.000 0.000 srgb} bind def
/col5 {1.000 0.000 1.000 srgb} bind def
/col6 {1.000 1.000 0.000 srgb} bind def
/col7 {1.000 1.000 1.000 srgb} bind def
/col8 {0.000 0.000 0.560 srgb} bind def
/col9 {0.000 0.000 0.690 srgb} bind def
/col10 {0.000 0.000 0.820 srgb} bind def
/col11 {0.530 0.810 1.000 srgb} bind def
/col12 {0.000 0.560 0.000 srgb} bind def
/col13 {0.000 0.690 0.000 srgb} bind def
/col14 {0.000 0.820 0.000 srgb} bind def
/col15 {0.000 0.560 0.560 srgb} bind def
/col16 {0.000 0.690 0.690 srgb} bind def
/col17 {0.000 0.820 0.820 srgb} bind def
/col18 {0.560 0.000 0.000 srgb} bind def
/col19 {0.690 0.000 0.000 srgb} bind def
/col20 {0.820 0.000 0.000 srgb} bind def
/col21 {0.560 0.000 0.560 srgb} bind def
/col22 {0.690 0.000 0.690 srgb} bind def
/col23 {0.820 0.000 0.820 srgb} bind def
/col24 {0.500 0.190 0.000 srgb} bind def
/col25 {0.630 0.250 0.000 srgb} bind def
/col26 {0.750 0.380 0.000 srgb} bind def
/col27 {1.000 0.500 0.500 srgb} bind def
/col28 {1.000 0.630 0.630 srgb} bind def
/col29 {1.000 0.750 0.750 srgb} bind def
/col30 {1.000 0.880 0.880 srgb} bind def
/col31 {1.000 0.840 0.000 srgb} bind def

end
save
newpath 0 448 moveto 0 0 lineto 480 0 lineto 480 448 lineto closepath clip newpath
-53.0 473.0 translate
1 -1 scale

/cp {closepath} bind def
/ef {eofill} bind def
/gr {grestore} bind def
/gs {gsave} bind def
/sa {save} bind def
/rs {restore} bind def
/l {lineto} bind def
/m {moveto} bind def
/rm {rmoveto} bind def
/n {newpath} bind def
/s {stroke} bind def
/sh {show} bind def
/slc {setlinecap} bind def
/slj {setlinejoin} bind def
/slw {setlinewidth} bind def
/srgb {setrgbcolor} bind def
/rot {rotate} bind def
/sc {scale} bind def
/sd {setdash} bind def
/ff {findfont} bind def
/sf {setfont} bind def
/scf {scalefont} bind def
/sw {stringwidth} bind def
/tr {translate} bind def
/tnt {dup dup currentrgbcolor
  4 -2 roll dup 1 exch sub 3 -1 roll mul add
  4 -2 roll dup 1 exch sub 3 -1 roll mul add
  4 -2 roll dup 1 exch sub 3 -1 roll mul add srgb}
  bind def
/shd {dup dup currentrgbcolor 4 -2 roll mul 4 -2 roll mul
  4 -2 roll mul srgb} bind def
/$F2psBegin {$F2psDict begin /$F2psEnteredState save def} def
/$F2psEnd {$F2psEnteredState restore end} def

$F2psBegin
%%Page: 1 1
10 setmiterlimit
 0.06000 0.06000 sc
%
% Fig objects follow
%
% Polyline
15.000 slw
n 3300 900 m 5325 900 l 5325 1350 l 3300 1350 l
 cp gs col0 s gr 
% Polyline
n 8550 3225 m 8550 5250 l 8100 5250 l 8100 3225 l
 cp gs col0 s gr 
% Polyline
n 4350 4200 m
 4350 1350 l gs col0 s gr 
% Polyline
n 4350 4200 m
 4350 7050 l gs col0 s gr 
% Polyline
n 3900 7050 m 4800 7050 l 4800 7500 l 3900 7500 l
 cp gs col0 s gr 
% Polyline
gs  clippath
5610 435 m 5490 435 l 5490 790 l 5550 490 l 5610 790 l cp
5490 1815 m 5610 1815 l 5610 1460 l 5550 1760 l 5490 1460 l cp
eoclip
n 5550 1800 m
 5550 450 l gs col0 s gr gr

% arrowhead
n 5490 1460 m 5550 1760 l 5610 1460 l 5550 1520 l 5490 1460 l 
 cp gs 0.00 setgray ef gr  col0 s
% arrowhead
n 5610 790 m 5550 490 l 5490 790 l 5550 730 l 5610 790 l 
 cp gs 0.00 setgray ef gr  col0 s
/Times-Roman ff 420.00 scf sf
8325 3075 m
gs 1 -1 sc (Mirror) dup sw pop 2 div neg 0 rm  col0 sh gr
/Times-Roman ff 420.00 scf sf
4350 750 m
gs 1 -1 sc (Mirror) dup sw pop 2 div neg 0 rm  col0 sh gr
/Times-Roman ff 420.00 scf sf
5625 3225 m
gs 1 -1 sc (Beam splitter) dup sw pop 2 div neg 0 rm  col0 sh gr
/Times-Roman ff 420.00 scf sf
4350 7875 m
gs 1 -1 sc (Detector) dup sw pop 2 div neg 0 rm  col0 sh gr
% Polyline
7.500 slw
n 900 900 m 1050 900 l 1050 4125 l 900 4125 l
 cp gs 0.00 setgray ef gr gs col0 s gr 
% Polyline
15.000 slw
n 4193 4200 m 4208 4200 l gs col0 s gr
% Polyline
n 5175 3375 m 5250 3450 l 3750 4950 l 3675 4875 l
 5175 3375 l  cp gs col0 s gr 
% Polyline
n 975 4200 m
 8100 4200 l gs col0 s gr 
% Polyline
7.500 slw
n 900 4275 m 1050 4275 l 1050 7500 l 900 7500 l
 cp gs 0.00 setgray ef gr gs col0 s gr 
$F2psEnd
rs
