%!PS-Adobe-2.0 EPSF-1.2
%%Creator: MATLAB, The Mathworks, Inc.
%%Title: pri_corr.eps
%%CreationDate: 11/07/98  17:44:41
%%DocumentNeededFonts: Times-Roman
%%+ Helvetica
%%DocumentProcessColors: Cyan Magenta Yellow Black
%%Pages: 1
%%BoundingBox:    39   188   550   585
%%EndComments

%%BeginProlog

% MathWorks dictionary
/MathWorks 160 dict begin

% definition operators
/bdef {bind def} bind def
/ldef {load def} bind def
/xdef {exch def} bdef
/xstore {exch store} bdef

% operator abbreviations
/c  /clip ldef
/cc /concat ldef
/cp /closepath ldef
/gr /grestore ldef
/gs /gsave ldef
/mt /moveto ldef
/np /newpath ldef
/cm /currentmatrix ldef
/sm /setmatrix ldef
/rc {rectclip} bdef
/rf {rectfill} bdef
/rm /rmoveto ldef
/rl /rlineto ldef
/s /show ldef
/sc {setcmykcolor} bdef
/sr /setrgbcolor ldef
/sg /setgray ldef
/w /setlinewidth ldef
/j /setlinejoin ldef
/cap /setlinecap ldef

% page state control
/pgsv () def
/bpage {/pgsv save def} bdef
/epage {pgsv restore} bdef
/bplot /gsave ldef
/eplot {stroke grestore} bdef

% orientation switch
/portraitMode 	0 def
/landscapeMode 	1 def

% coordinate system mappings
/dpi2point 0 def

% font control
/FontSize 0 def
/FMS {
	/FontSize xstore		%save size off stack
	findfont
	[FontSize 0 0 FontSize neg 0 0]
	makefont
	setfont
	}bdef

/reencode {
exch dup where
{pop load} {pop StandardEncoding} ifelse
exch
dup 3 1 roll
findfont dup length dict begin
  { 1 index /FID ne {def}{pop pop} ifelse } forall
  /Encoding exch def
  currentdict
end
definefont pop
} bdef

/isroman {
findfont /CharStrings get
/Agrave known
} bdef

/FMSR {
3 1 roll 1 index
dup isroman
{reencode} {pop pop} ifelse
exch FMS
} bdef

/csm {
	1 dpi2point div -1 dpi2point div scale
	neg translate
	landscapeMode eq {90 rotate} if
	} bdef

% line types: solid, dotted, dashed, dotdash
/SO { [] 0 setdash } bdef
/DO { [.5 dpi2point mul 4 dpi2point mul] 0 setdash } bdef
/DA { [6 dpi2point mul] 0 setdash } bdef
/DD { [.5 dpi2point mul 4 dpi2point mul 6 dpi2point mul 4 dpi2point mul] 0 setdash } bdef

% macros for lines and objects
/L {
	lineto
	stroke
	} bdef
/MP {
	3 1 roll moveto
	1 sub {rlineto} repeat
	} bdef
/AP {
	{rlineto} repeat
	} bdef
/PP {
	closepath eofill
	} bdef
/DP {
	closepath stroke
	} bdef
/MR {
	4 -2 roll moveto
	dup  0 exch rlineto
	exch 0 rlineto
	neg  0 exch rlineto
	closepath
	} bdef
/FR {
	MR stroke
	} bdef
/PR {
	MR fill
	} bdef
/L1i {
	{ currentfile picstr readhexstring pop } image
	} bdef

/tMatrix matrix def
/MakeOval {
	newpath
	tMatrix currentmatrix pop
	translate scale
	0 0 1 0 360 arc
	tMatrix setmatrix
	} bdef
/FO {
	MakeOval
	stroke
	} bdef
/PO {
	MakeOval
	fill
	} bdef

/PD {
	currentlinecap 1 setlinecap 3 1 roll 2 copy moveto lineto stroke setlinecap
	} bdef

/FA {
	newpath
	tMatrix currentmatrix pop
	translate scale
	0 0 1 5 -2 roll arc
	tMatrix setmatrix
	stroke
	} bdef
/PA {
	newpath
	tMatrix currentmatrix pop
	translate 0 0 moveto scale
	0 0 1 5 -2 roll arc
	closepath
	tMatrix setmatrix
	fill
	} bdef

/FAn {
	newpath
	tMatrix currentmatrix pop
	translate scale
	0 0 1 5 -2 roll arcn
	tMatrix setmatrix
	stroke
	} bdef
/PAn {
	newpath
	tMatrix currentmatrix pop
	translate 0 0 moveto scale
	0 0 1 5 -2 roll arcn
	closepath
	tMatrix setmatrix
	fill
	} bdef

/MRR {
	/vradius xdef
	/hradius xdef
	/lry xdef
	/lrx xdef
	/uly xdef
	/ulx xdef
	newpath
	tMatrix currentmatrix pop
	ulx hradius add uly vradius add translate
	hradius vradius scale
	0 0 1 180 270 arc 
	tMatrix setmatrix
	lrx hradius sub uly vradius add translate
	hradius vradius scale
	0 0 1 270 360 arc
	tMatrix setmatrix
	lrx hradius sub lry vradius sub translate
	hradius vradius scale
	0 0 1 0 90 arc
	tMatrix setmatrix
	ulx hradius add lry vradius sub translate
	hradius vradius scale
	0 0 1 90 180 arc
	tMatrix setmatrix
	closepath
	} bdef
/FRR {
	MRR stroke } bdef
/PRR {
	MRR fill } bdef

/MlrRR {
	/lry xdef
	/lrx xdef
	/uly xdef
	/ulx xdef
	/rad lry uly sub 2 div def
	newpath
	tMatrix currentmatrix pop
	ulx rad add uly rad add translate
	rad rad scale
	0 0 1 90 270 arc
	tMatrix setmatrix
	lrx rad sub lry rad sub translate
	rad rad scale
	0 0 1 270 90 arc
	tMatrix setmatrix
	closepath
	} bdef
/FlrRR {
	MlrRR stroke } bdef
/PlrRR {
	MlrRR fill } bdef

/MtbRR {
	/lry xdef
	/lrx xdef
	/uly xdef
	/ulx xdef
	/rad lrx ulx sub 2 div def
	newpath
	tMatrix currentmatrix pop
	ulx rad add uly rad add translate
	rad rad scale
	0 0 1 180 360 arc
	tMatrix setmatrix
	lrx rad sub lry rad sub translate
	rad rad scale
	0 0 1 0 180 arc
	tMatrix setmatrix
	closepath
	} bdef
/FtbRR {
	MtbRR stroke } bdef
/PtbRR {
	MtbRR fill } bdef

currentdict end def
%%EndProlog

%%BeginSetup
MathWorks begin

0 cap

end
%%EndSetup

%%Page: 1 1
%%BeginPageSetup
%%PageBoundingBox:    39   188   550   585
MathWorks begin
bpage
%%EndPageSetup

%%BeginObject: graph1 1
bplot

/dpi2point 12 def
portraitMode 0216 7344 csm

  263   317  6132  4770 MR c np
88 dict begin %Colortable dictionary
/c0 { 0 0 0 sr} bdef
/c1 { 1 1 1 sr} bdef
/c2 { 1 0 0 sr} bdef
/c3 { 0 1 0 sr} bdef
/c4 { 0 0 1 sr} bdef
/c5 { 1 1 0 sr} bdef
/c6 { 1 0 1 sr} bdef
/c7 { 0 1 1 sr} bdef
1 j
1 sg
   0    0 6918 5185 PR
6 w
0 1782 5359 0 0 -1782 899 2170 4 MP
PP
-5359 0 0 1782 5359 0 0 -1782 899 2170 5 MP stroke
4 w
DO
SO
6 w
0 sg
 899 2170 mt 6258 2170 L
 899  388 mt 6258  388 L
 899 2170 mt  899  388 L
6258 2170 mt 6258  388 L
 899 2170 mt 6258 2170 L
 899 2170 mt  899  388 L
 899 2170 mt  899 2116 L
 899  388 mt  899  442 L
%%IncludeResource: font Times-Roman
/Times-Roman /ISOLatin1Encoding 192 FMSR

 851 2377 mt 
(0) s
1663 2170 mt 1663 2116 L
1663  388 mt 1663  442 L
1615 2377 mt 
(2) s
2428 2170 mt 2428 2116 L
2428  388 mt 2428  442 L
2380 2377 mt 
(4) s
3192 2170 mt 3192 2116 L
3192  388 mt 3192  442 L
3144 2377 mt 
(6) s
3957 2170 mt 3957 2116 L
3957  388 mt 3957  442 L
3909 2377 mt 
(8) s
4721 2170 mt 4721 2116 L
4721  388 mt 4721  442 L
4625 2377 mt 
(10) s
5486 2170 mt 5486 2116 L
5486  388 mt 5486  442 L
5390 2377 mt 
(12) s
6250 2170 mt 6250 2116 L
6250  388 mt 6250  442 L
6154 2377 mt 
(14) s
 899 2089 mt  953 2089 L
6258 2089 mt 6204 2089 L
 660 2157 mt 
(-1) s
 899 1684 mt  953 1684 L
6258 1684 mt 6204 1684 L
 516 1752 mt 
(-0.5) s
 899 1279 mt  953 1279 L
6258 1279 mt 6204 1279 L
 768 1347 mt 
(0) s
 899  874 mt  953  874 L
6258  874 mt 6204  874 L
 624  942 mt 
(0.5) s
 899  469 mt  953  469 L
6258  469 mt 6204  469 L
 768  537 mt 
(1) s
 899 2170 mt 6258 2170 L
 899  388 mt 6258  388 L
 899 2170 mt  899  388 L
6258 2170 mt 6258  388 L
gs 899 388 5360 1783 MR c np
4 0 4 0 3 0 4 0 4 0 4 0 4 0 4 0 
3 0 4 0 4 0 4 0 4 0 4 0 3 0 4 0 
4 0 4 0 4 0 3 0 4 0 4 0 4 0 4 0 
4 0 3 0 4 0 4 0 4 0 4 0 3 0 4 0 
4 0 4 0 4 0 4 0 3 0 4 0 4 0 4 0 
4 0 4 0 3 0 4 0 4 0 4 0 4 0 3 0 
4 0 4 0 4 0 4 0 4 0 3 0 4 0 4 0 
4 0 4 0 4 0 3 0 4 0 4 0 4 0 4 0 
3 0 4 0 4 0 4 0 4 0 4 0 3 0 4 0 
4 0 4 0 4 0 4 0 3 0 4 0 4 0 4 0 
4 0 3 0 4 0 4 0 4 0 4 0 4 0 3 0 
4 0 4 0 4 0 4 0 3 0 4 0 4 0 4 0 
4 0 4 0 3 0 5880 1279 100 MP stroke
4 0 4 0 4 0 4 0 4 0 3 0 4 0 4 0 
4 0 4 0 3 0 4 0 4 0 4 0 4 0 4 0 
3 0 4 0 4 0 4 0 4 0 4 0 3 0 4 0 
4 0 4 0 4 0 3 0 4 0 4 0 4 0 4 0 
4 0 3 0 4 0 4 0 4 0 4 0 3 0 4 0 
4 0 4 0 4 0 4 0 3 0 4 0 4 0 4 0 
4 0 4 0 3 0 4 0 4 0 4 0 4 0 3 0 
4 0 4 0 4 0 4 0 4 0 3 0 4 0 4 0 
4 0 4 0 4 0 3 0 4 0 4 0 4 0 4 0 
3 0 4 0 4 0 4 0 4 0 4 0 3 0 4 0 
4 0 4 0 4 0 3 0 4 0 4 0 4 0 4 0 
4 0 3 0 4 0 4 0 4 0 4 0 4 0 3 0 
4 0 4 0 4 0 5501 1279 100 MP stroke
4 0 3 0 4 0 4 0 4 0 4 0 4 0 3 0 
4 0 4 0 4 0 4 0 4 0 3 0 4 0 4 0 
4 0 4 0 3 0 4 0 4 0 4 0 4 0 4 0 
3 0 4 0 4 0 4 0 4 0 4 0 3 0 4 0 
4 0 4 0 4 0 3 0 4 0 4 0 4 0 4 0 
4 0 3 0 4 0 4 0 4 0 4 0 3 0 4 0 
4 0 4 0 4 0 4 0 3 0 4 0 4 0 4 0 
4 0 4 0 3 0 4 0 4 0 4 0 4 0 3 0 
4 0 4 0 4 0 4 0 4 0 3 0 4 0 4 0 
4 0 4 0 4 0 3 0 4 0 4 0 4 0 4 0 
3 0 4 0 4 0 4 0 4 0 4 0 3 0 4 0 
4 0 4 0 4 0 3 0 4 0 4 0 4 0 4 0 
4 0 3 0 4 0 5123 1279 100 MP stroke
4 0 4 0 4 0 4 0 3 0 4 0 4 0 4 0 
4 0 3 0 4 0 4 0 4 0 4 0 4 0 3 0 
4 0 4 0 4 0 4 0 4 0 3 0 4 1 4 0 
4 0 4 0 3 0 4 -1 4 0 4 -1 4 0 4 -1 
3 -1 4 0 4 -1 4 0 4 1 4 1 3 2 4 3 
4 3 4 3 4 3 3 3 4 1 4 -1 4 -2 4 -5 
4 -8 3 -10 4 -11 4 -11 4 -10 4 -8 3 -3 4 3 
4 10 4 16 4 24 4 29 3 31 4 31 4 27 4 18 
4 5 4 -10 3 -28 4 -44 4 -59 4 -69 4 -72 3 -68 
4 -55 4 -33 4 -4 4 28 4 62 3 93 4 118 4 132 
4 132 4 118 4 89 3 47 4 -3 4 -59 4 -111 4 -157 
3 -188 4 -201 4 -193 4 -164 4 -115 4 -51 3 20 4 94 
4 159 4 211 4 240 4744 1279 100 MP stroke
3 246 4 225 4 181 4 117 4 41 4 -41 3 -117 4 -181 
4 -225 4 -246 4 -240 4 -211 3 -159 4 -94 4 -20 4 51 
4 115 3 164 4 193 4 201 4 188 4 157 4 111 3 59 
4 3 4 -47 4 -89 4 -118 4 -132 3 -132 4 -118 4 -93 
4 -62 4 -28 3 4 4 33 4 55 4 68 4 72 4 69 
3 59 4 44 4 28 4 10 4 -5 3 -18 4 -27 4 -31 
4 -31 4 -29 4 -24 3 -16 4 -10 4 -3 4 3 4 8 
4 10 3 11 4 11 4 10 4 8 4 5 3 2 4 1 
4 -1 4 -3 4 -3 4 -3 3 -3 4 -3 4 -2 4 -1 
4 -1 4 0 3 1 4 0 4 1 4 1 4 0 3 1 
4 0 4 1 4 0 4 0 4 0 3 0 4 -1 4 0 
4 0 4 0 4 0 3 0 4 0 4 0 4 0 4 0 
3 0 4 0 4 0 4366 1279 100 MP stroke
4 0 4 0 4 0 3 0 4 0 4 0 4 0 4 0 
3 0 4 0 4 0 4 0 4 0 4 0 3 0 4 0 
4 0 4 0 4 0 4 0 3 0 4 0 4 0 4 0 
4 0 3 0 4 0 4 0 4 0 4 0 4 0 3 0 
4 0 4 0 4 0 4 0 4 0 3 0 4 0 4 0 
4 0 4 0 3 0 4 0 4 0 4 0 4 0 4 0 
3 0 4 0 4 0 4 0 4 0 3 0 4 0 4 0 
4 0 4 0 4 0 3 0 4 0 4 0 4 0 4 0 
4 0 3 0 4 0 4 0 4 0 4 0 3 0 4 0 
4 0 4 0 4 0 4 0 3 0 4 0 4 0 4 0 
4 0 4 0 3 0 4 0 4 0 4 0 4 0 3 0 
4 0 4 0 4 0 4 0 4 0 3 0 4 0 4 0 
4 0 4 0 4 0 3987 1279 100 MP stroke
3 0 4 0 4 0 4 0 4 0 3 0 4 0 4 0 
4 0 4 0 4 0 3 0 4 0 4 0 4 0 4 0 
3 0 4 0 4 0 4 0 4 0 4 0 3 0 4 0 
4 0 4 0 4 0 4 0 3 0 4 0 4 0 4 0 
4 0 3 0 4 0 4 0 4 0 4 0 4 0 3 0 
4 0 4 0 4 0 4 0 4 0 3 0 4 0 4 0 
4 0 4 0 3 0 4 0 4 0 4 0 4 0 4 0 
3 0 4 0 4 0 4 0 4 0 3 0 4 0 4 0 
4 0 4 0 4 0 3 0 4 0 4 0 4 0 4 0 
4 0 3 0 4 0 4 0 4 0 4 0 3 0 4 0 
4 0 4 0 4 0 4 0 3 0 4 0 4 0 4 0 
4 0 4 0 3 0 4 0 4 0 4 0 4 0 3 0 
4 0 4 0 4 0 3609 1279 100 MP stroke
4 0 4 0 3 0 4 0 4 0 4 0 4 0 3 0 
4 0 4 0 4 0 4 0 4 0 3 0 4 0 4 0 
4 0 4 0 4 0 3 0 4 0 4 0 4 0 4 0 
3 0 4 0 4 0 4 0 4 0 4 0 3 0 4 0 
4 0 4 0 4 0 4 0 3 0 4 0 4 0 4 0 
4 0 3 0 4 0 4 0 4 0 4 0 4 0 3 0 
4 0 4 0 4 0 4 0 4 0 3 0 4 0 4 0 
4 0 4 0 3 0 4 0 4 0 4 0 4 0 4 0 
3 0 4 0 4 0 4 0 4 0 3 0 4 0 4 0 
4 0 4 0 4 0 3 0 4 0 4 0 4 0 4 0 
4 0 3 0 4 0 4 0 4 0 4 0 3 0 4 0 
4 0 4 0 4 0 4 0 3 0 4 0 4 0 4 0 
4 0 4 0 3 0 3231 1279 100 MP stroke
4 0 4 0 4 0 4 0 3 0 4 0 4 0 4 0 
4 0 4 0 3 0 4 0 4 0 4 0 4 0 3 0 
4 0 4 0 4 0 4 0 4 0 3 0 4 0 4 0 
4 0 4 0 4 0 3 0 4 0 4 0 4 0 4 0 
3 0 4 0 4 0 4 0 4 0 4 0 3 0 4 0 
4 0 4 0 4 0 4 0 3 0 4 0 4 0 4 0 
4 0 3 0 4 0 4 0 4 0 4 0 4 0 3 0 
4 0 4 0 4 0 4 0 4 0 3 0 4 0 4 0 
4 0 4 0 3 0 4 0 4 0 4 0 4 0 4 0 
3 0 4 0 4 0 4 0 4 0 3 0 4 0 4 0 
4 0 4 0 4 0 3 0 4 0 4 0 4 0 4 0 
4 0 3 0 4 0 4 0 4 0 4 0 3 0 4 0 
4 0 4 0 4 0 2852 1279 100 MP stroke
4 0 3 0 4 0 4 0 4 0 4 0 4 0 3 0 
4 0 4 0 4 0 4 0 3 0 4 0 4 0 4 0 
4 0 4 0 3 0 4 0 4 0 4 0 4 0 3 0 
4 0 4 0 4 0 4 0 4 0 3 0 4 0 4 0 
4 0 4 0 4 0 3 0 4 0 4 0 4 0 4 0 
3 0 4 0 4 0 4 0 4 0 4 0 3 0 4 0 
4 0 4 0 4 0 4 0 3 0 4 0 4 0 4 0 
4 0 3 0 4 0 4 0 4 0 4 0 4 0 3 0 
4 0 4 0 4 0 4 0 4 0 3 0 4 0 4 0 
4 0 4 0 3 0 4 0 4 0 4 0 4 0 4 0 
3 0 4 0 4 0 4 0 4 0 3 0 4 0 4 0 
4 0 4 0 4 0 3 0 4 0 4 0 4 0 4 0 
4 0 3 0 4 0 2474 1279 100 MP stroke
4 0 4 0 4 0 3 0 4 0 4 0 4 0 4 0 
4 0 3 0 4 0 4 0 4 0 4 0 4 0 3 0 
4 0 4 0 4 0 4 0 3 0 4 0 4 0 4 0 
4 0 4 0 3 0 4 0 4 0 4 0 4 0 3 0 
4 0 4 0 4 0 4 0 4 0 3 0 4 0 4 0 
4 0 4 0 4 0 3 0 4 0 4 0 4 0 4 0 
3 0 4 0 4 0 4 0 4 0 4 0 3 0 4 0 
4 0 4 0 4 0 4 0 3 0 4 0 4 0 4 0 
4 0 3 0 4 0 4 0 4 0 4 0 4 0 3 0 
4 0 4 0 4 0 4 0 3 0 4 0 4 0 4 0 
4 0 4 0 3 0 4 0 4 0 4 0 4 0 4 0 
3 0 4 0 4 0 4 0 4 0 3 0 4 0 4 0 
4 0 4 0 4 0 2095 1279 100 MP stroke
3 0 4 0 4 0 4 0 4 0 4 0 3 0 4 0 
4 0 4 0 4 0 3 0 4 0 4 0 4 0 4 0 
4 0 3 0 4 0 4 0 4 0 4 0 4 0 3 0 
4 0 4 0 4 0 4 0 3 0 4 0 4 0 4 0 
4 0 4 0 3 0 4 0 4 0 4 0 4 0 3 0 
4 0 4 0 4 0 4 0 4 0 3 0 4 0 4 0 
4 0 4 0 4 0 3 0 4 0 4 0 4 0 4 0 
3 0 4 0 4 0 4 0 4 0 4 0 3 0 4 0 
4 0 4 0 4 0 4 0 3 0 4 0 4 0 4 0 
4 0 3 0 4 0 4 0 4 0 4 0 4 0 3 0 
4 0 4 0 4 0 4 0 3 0 4 0 4 0 4 0 
4 0 4 0 3 0 4 0 4 0 4 0 4 0 4 0 
3 0 4 0 4 0 1717 1279 100 MP stroke
4 0 4 0 3 0 4 0 4 0 4 0 4 0 4 0 
3 0 4 0 4 0 4 0 4 0 4 0 3 0 4 0 
4 0 4 0 4 0 3 0 4 0 4 0 4 0 4 0 
4 0 3 0 4 0 4 0 4 0 4 0 4 0 3 0 
4 0 4 0 4 0 4 0 3 0 4 0 4 0 4 0 
4 0 4 0 3 0 4 0 4 0 4 0 4 0 3 0 
4 0 4 0 4 0 4 0 4 0 3 0 4 0 4 0 
4 0 4 0 4 0 3 0 4 0 4 0 4 0 4 0 
3 0 4 0 4 0 4 0 4 0 4 0 3 0 4 0 
4 0 4 0 4 0 4 0 3 0 4 0 4 0 4 0 
4 0 3 0 4 0 4 0 4 0 4 0 4 0 3 0 
4 0 4 0 4 0 4 0 3 0 4 0 4 0 4 0 
4 0 4 0 3 0 1339 1279 100 MP stroke
4 0 4 0 4 0 4 0 4 0 3 0 4 0 4 0 
4 0 4 0 3 0 4 0 4 0 4 0 4 0 4 0 
3 0 4 0 4 0 4 0 4 0 4 0 3 0 4 0 
4 0 4 0 4 0 3 0 4 0 4 0 4 0 4 0 
4 0 3 1 4 0 4 0 4 0 4 0 3 -1 4 0 
4 -1 4 0 4 -1 4 -1 3 0 4 -1 4 0 4 1 
4 1 4 2 3 3 4 3 4 3 4 3 4 3 3 1 
4 -1 4 -2 4 -5 4 -8 4 -10 3 -11 4 -11 4 -10 
4 -8 4 -3 4 3 3 10 4 16 4 24 4 29 4 31 
3 31 4 27 4 18 4 5 4 -10 4 -28 3 -44 4 -59 
4 -69 4 -72 4 -68 4 -55 3 -33 4 -4 4 28 4 62 
4 93 3 118 4 132 4 132 4 118 4 89 4 47 3 -3 
4 -59 4 -111 4 -157 960 1091 100 MP stroke
4 -188 3 -201 4 -193 4 -164 4 -115 4 -51 4 20 3 94 
4 159 4 211 4 240 4 246 4 225 3 181 4 117 4 41 
899 469 17 MP stroke

gr 
%%IncludeResource: font Symbol
/Symbol /ISOLatin1Encoding 216 FMSR

3329 2580 mt 
(t) s
%%IncludeResource: font Times-Roman
/Times-Roman /ISOLatin1Encoding 216 FMSR

3423 2580 mt 
( [) s
%%IncludeResource: font Symbol
/Symbol /ISOLatin1Encoding 216 FMSR

3548 2580 mt 
(m) s
%%IncludeResource: font Times-Roman
/Times-Roman /ISOLatin1Encoding 216 FMSR

3672 2580 mt 
(s]) s
 461 2055 mt  -90 rotate
(C) s
90 rotate
%%IncludeResource: font Times-Roman
/Times-Roman /ISOLatin1Encoding 168 FMSR

 569 1911 mt  -90 rotate
(AA) s
90 rotate
%%IncludeResource: font Times-Roman
/Times-Roman /ISOLatin1Encoding 216 FMSR

 461 1669 mt  -90 rotate
( [normalized]) s
90 rotate
1 sg
0 1782 5359 0 0 -1782 899 4612 4 MP
PP
-5359 0 0 1782 5359 0 0 -1782 899 4612 5 MP stroke
4 w
DO
SO
6 w
0 sg
 899 4612 mt 6258 4612 L
 899 2830 mt 6258 2830 L
 899 4612 mt  899 2830 L
6258 4612 mt 6258 2830 L
 899 4612 mt 6258 4612 L
 899 4612 mt  899 2830 L
 899 4612 mt  899 4558 L
 899 2830 mt  899 2884 L
%%IncludeResource: font Times-Roman
/Times-Roman /ISOLatin1Encoding 192 FMSR

 851 4819 mt 
(0) s
1663 4612 mt 1663 4558 L
1663 2830 mt 1663 2884 L
1615 4819 mt 
(2) s
2428 4612 mt 2428 4558 L
2428 2830 mt 2428 2884 L
2380 4819 mt 
(4) s
3192 4612 mt 3192 4558 L
3192 2830 mt 3192 2884 L
3144 4819 mt 
(6) s
3957 4612 mt 3957 4558 L
3957 2830 mt 3957 2884 L
3909 4819 mt 
(8) s
4721 4612 mt 4721 4558 L
4721 2830 mt 4721 2884 L
4625 4819 mt 
(10) s
5486 4612 mt 5486 4558 L
5486 2830 mt 5486 2884 L
5390 4819 mt 
(12) s
6250 4612 mt 6250 4558 L
6250 2830 mt 6250 2884 L
6154 4819 mt 
(14) s
 899 4531 mt  953 4531 L
6258 4531 mt 6204 4531 L
 660 4599 mt 
(-1) s
 899 4126 mt  953 4126 L
6258 4126 mt 6204 4126 L
 516 4194 mt 
(-0.5) s
 899 3721 mt  953 3721 L
6258 3721 mt 6204 3721 L
 768 3789 mt 
(0) s
 899 3316 mt  953 3316 L
6258 3316 mt 6204 3316 L
 624 3384 mt 
(0.5) s
 899 2911 mt  953 2911 L
6258 2911 mt 6204 2911 L
 768 2979 mt 
(1) s
 899 4612 mt 6258 4612 L
 899 2830 mt 6258 2830 L
 899 4612 mt  899 2830 L
6258 4612 mt 6258 2830 L
gs 899 2830 5360 1783 MR c np
4 0 4 0 3 0 4 0 4 0 4 0 4 0 4 0 
3 0 4 0 4 0 4 0 4 0 4 0 3 0 4 0 
4 0 4 0 4 0 3 0 4 0 4 0 4 0 4 0 
4 0 3 0 4 0 4 0 4 0 4 0 3 0 4 0 
4 0 4 0 4 0 4 0 3 0 4 0 4 0 4 0 
4 0 4 0 3 0 4 0 4 0 4 0 4 0 3 0 
4 0 4 0 4 0 4 0 4 0 3 0 4 0 4 0 
4 0 4 0 4 0 3 0 4 0 4 0 4 0 4 0 
3 0 4 0 4 0 4 0 4 0 4 0 3 0 4 0 
4 0 4 0 4 0 4 0 3 0 4 0 4 0 4 0 
4 0 3 0 4 0 4 0 4 0 4 0 4 0 3 0 
4 0 4 0 4 0 4 0 3 0 4 0 4 0 4 0 
4 0 4 0 3 0 5880 3721 100 MP stroke
4 0 4 0 4 0 4 0 4 0 3 0 4 0 4 0 
4 0 4 0 3 0 4 0 4 0 4 0 4 0 4 0 
3 0 4 0 4 0 4 0 4 0 4 0 3 0 4 0 
4 0 4 0 4 0 3 0 4 0 4 0 4 0 4 0 
4 0 3 0 4 0 4 0 4 0 4 0 3 0 4 0 
4 0 4 0 4 0 4 0 3 0 4 0 4 0 4 0 
4 0 4 0 3 0 4 0 4 0 4 0 4 0 3 0 
4 0 4 0 4 0 4 0 4 0 3 0 4 0 4 0 
4 0 4 0 4 0 3 0 4 0 4 0 4 0 4 0 
3 0 4 0 4 0 4 0 4 0 4 0 3 0 4 0 
4 0 4 0 4 0 3 0 4 0 4 0 4 0 4 0 
4 0 3 0 4 0 4 0 4 0 4 0 4 0 3 0 
4 0 4 0 4 0 5501 3721 100 MP stroke
4 0 3 0 4 0 4 0 4 0 4 0 4 0 3 0 
4 0 4 0 4 0 4 0 4 0 3 0 4 0 4 0 
4 0 4 0 3 0 4 0 4 0 4 0 4 0 4 0 
3 0 4 0 4 0 4 0 4 0 4 0 3 0 4 0 
4 0 4 0 4 0 3 0 4 0 4 0 4 0 4 0 
4 0 3 0 4 0 4 0 4 0 4 0 3 0 4 0 
4 0 4 0 4 0 4 0 3 0 4 0 4 0 4 0 
4 0 4 0 3 0 4 0 4 0 4 0 4 0 3 0 
4 0 4 0 4 0 4 0 4 0 3 0 4 0 4 0 
4 0 4 0 4 0 3 0 4 0 4 0 4 0 4 0 
3 0 4 0 4 0 4 0 4 0 4 0 3 0 4 0 
4 0 4 0 4 0 3 0 4 0 4 0 4 0 4 0 
4 0 3 0 4 0 5123 3721 100 MP stroke
4 0 4 0 4 0 4 0 3 0 4 0 4 0 4 0 
4 0 3 0 4 0 4 0 4 0 4 0 4 0 3 0 
4 0 4 0 4 0 4 0 4 0 3 0 4 0 4 0 
4 0 4 0 3 0 4 0 4 0 4 0 4 0 4 0 
3 0 4 0 4 0 4 0 4 0 4 0 3 0 4 0 
4 0 4 0 4 0 3 0 4 0 4 0 4 0 4 0 
4 0 3 0 4 0 4 0 4 0 4 0 3 0 4 0 
4 0 4 0 4 0 4 0 3 0 4 0 4 0 4 0 
4 0 4 0 3 0 4 0 4 0 4 0 4 0 3 0 
4 0 4 0 4 0 4 0 4 0 3 0 4 0 4 0 
4 0 4 0 4 0 3 0 4 0 4 0 4 0 4 0 
3 0 4 0 4 0 4 0 4 0 4 0 3 0 4 0 
4 0 4 0 4 0 4744 3721 100 MP stroke
3 0 4 0 4 0 4 0 4 0 4 0 3 0 4 0 
4 0 4 0 4 0 4 0 3 0 4 0 4 0 4 0 
4 0 3 0 4 0 4 0 4 0 4 0 4 0 3 0 
4 0 4 0 4 0 4 0 4 0 3 0 4 0 4 0 
4 0 4 0 3 0 4 0 4 0 4 0 4 0 4 0 
3 0 4 0 4 0 4 0 4 0 3 0 4 0 4 0 
4 0 4 0 4 0 3 0 4 0 4 0 4 0 4 0 
4 0 3 0 4 0 4 0 4 0 4 0 3 0 4 0 
4 0 4 0 4 0 4 0 3 0 4 0 4 0 4 0 
4 0 4 0 3 0 4 0 4 0 4 0 4 0 3 0 
4 0 4 0 4 0 4 0 4 0 3 0 4 0 4 0 
4 0 4 0 4 0 3 0 4 0 4 0 4 0 4 0 
3 0 4 0 4 0 4366 3721 100 MP stroke
4 0 4 0 4 0 3 0 4 0 4 0 4 0 4 0 
3 0 4 0 4 0 4 0 4 0 4 0 3 0 4 0 
4 0 4 0 4 0 4 0 3 0 4 0 4 0 4 0 
4 0 3 0 4 0 4 0 4 0 4 0 4 0 3 0 
4 0 4 0 4 0 4 0 4 0 3 0 4 0 4 0 
4 0 4 0 3 0 4 0 4 0 4 0 4 0 4 0 
3 0 4 0 4 0 4 0 4 0 3 0 4 0 4 0 
4 0 4 0 4 0 3 0 4 0 4 0 4 0 4 0 
4 0 3 0 4 0 4 0 4 0 4 0 3 0 4 0 
4 0 4 0 4 0 4 0 3 0 4 0 4 0 4 0 
4 0 4 0 3 0 4 0 4 0 4 0 4 0 3 0 
4 0 4 0 4 0 4 0 4 0 3 0 4 0 4 0 
4 0 4 0 4 0 3987 3721 100 MP stroke
3 0 4 0 4 0 4 0 4 0 3 0 4 0 4 0 
4 0 4 0 4 0 3 0 4 0 4 0 4 0 4 0 
3 0 4 0 4 0 4 0 4 0 4 0 3 0 4 0 
4 0 4 0 4 0 4 0 3 0 4 0 4 0 4 0 
4 0 3 0 4 0 4 0 4 0 4 0 4 0 3 0 
4 0 4 0 4 0 4 0 4 0 3 0 4 0 4 0 
4 0 4 0 3 0 4 0 4 0 4 0 4 0 4 0 
3 0 4 0 4 0 4 0 4 0 3 0 4 0 4 0 
4 0 4 0 4 0 3 0 4 0 4 0 4 0 4 0 
4 0 3 0 4 0 4 0 4 0 4 0 3 0 4 0 
4 0 4 0 4 0 4 0 3 0 4 0 4 0 4 0 
4 0 4 0 3 0 4 0 4 0 4 0 4 0 3 0 
4 0 4 0 4 0 3609 3721 100 MP stroke
4 0 4 0 3 0 4 0 4 0 4 0 4 0 3 0 
4 0 4 0 4 0 4 0 4 0 3 0 4 0 4 0 
4 0 4 0 4 0 3 0 4 0 4 0 4 0 4 0 
3 0 4 0 4 0 4 0 4 0 4 0 3 0 4 0 
4 0 4 0 4 0 4 0 3 0 4 0 4 0 4 0 
4 0 3 0 4 0 4 0 4 0 4 0 4 0 3 0 
4 0 4 0 4 0 4 0 4 0 3 0 4 0 4 0 
4 0 4 0 3 0 4 0 4 0 4 0 4 0 4 0 
3 0 4 0 4 0 4 0 4 0 3 0 4 0 4 0 
4 0 4 0 4 0 3 0 4 0 4 0 4 0 4 0 
4 0 3 0 4 0 4 0 4 0 4 0 3 0 4 0 
4 0 4 0 4 0 4 0 3 0 4 0 4 0 4 0 
4 0 4 0 3 0 3231 3721 100 MP stroke
4 0 4 0 4 0 4 0 3 0 4 0 4 0 4 0 
4 0 4 0 3 0 4 0 4 0 4 0 4 0 3 0 
4 0 4 0 4 0 4 0 4 0 3 0 4 0 4 0 
4 0 4 0 4 0 3 0 4 0 4 0 4 0 4 0 
3 0 4 0 4 0 4 0 4 0 4 0 3 0 4 0 
4 0 4 0 4 0 4 0 3 0 4 0 4 0 4 0 
4 0 3 0 4 0 4 0 4 0 4 0 4 0 3 0 
4 0 4 0 4 0 4 0 4 0 3 0 4 0 4 0 
4 0 4 0 3 0 4 0 4 0 4 0 4 0 4 0 
3 0 4 0 4 0 4 0 4 0 3 0 4 0 4 0 
4 0 4 0 4 0 3 0 4 0 4 0 4 0 4 0 
4 0 3 0 4 0 4 0 4 0 4 0 3 0 4 0 
4 0 4 0 4 0 2852 3721 100 MP stroke
4 0 3 0 4 0 4 0 4 0 4 0 4 0 3 0 
4 0 4 0 4 0 4 0 3 0 4 0 4 0 4 0 
4 0 4 0 3 0 4 0 4 0 4 0 4 0 3 0 
4 0 4 0 4 0 4 0 4 0 3 0 4 0 4 0 
4 0 4 0 4 0 3 0 4 0 4 0 4 0 4 0 
3 0 4 0 4 0 4 0 4 0 4 0 3 0 4 0 
4 0 4 0 4 0 4 0 3 0 4 0 4 0 4 0 
4 0 3 0 4 0 4 0 4 0 4 0 4 0 3 0 
4 0 4 0 4 0 4 0 4 0 3 0 4 0 4 0 
4 0 4 0 3 0 4 0 4 0 4 0 4 0 4 0 
3 0 4 0 4 0 4 0 4 0 3 0 4 0 4 0 
4 0 4 0 4 0 3 0 4 0 4 0 4 0 4 0 
4 0 3 0 4 0 2474 3721 100 MP stroke
4 0 4 0 4 0 3 0 4 0 4 0 4 0 4 0 
4 0 3 0 4 0 4 0 4 0 4 0 4 0 3 0 
4 0 4 0 4 0 4 0 3 0 4 0 4 0 4 0 
4 0 4 0 3 0 4 0 4 0 4 0 4 0 3 0 
4 0 4 0 4 0 4 0 4 0 3 0 4 0 4 0 
4 0 4 0 4 0 3 0 4 0 4 0 4 0 4 0 
3 0 4 0 4 0 4 0 4 0 4 0 3 0 4 0 
4 0 4 0 4 0 4 0 3 0 4 0 4 0 4 0 
4 0 3 0 4 0 4 0 4 0 4 0 4 0 3 0 
4 0 4 0 4 0 4 0 3 0 4 0 4 0 4 0 
4 0 4 0 3 0 4 0 4 0 4 0 4 0 4 0 
3 0 4 0 4 0 4 0 4 0 3 0 4 0 4 0 
4 0 4 0 4 0 2095 3721 100 MP stroke
3 0 4 0 4 0 4 0 4 0 4 0 3 0 4 0 
4 0 4 0 4 0 3 0 4 0 4 0 4 0 4 0 
4 0 3 0 4 0 4 0 4 0 4 0 4 0 3 0 
4 0 4 0 4 0 4 0 3 0 4 0 4 0 4 0 
4 0 4 0 3 0 4 0 4 0 4 0 4 0 3 0 
4 0 4 0 4 0 4 0 4 0 3 0 4 0 4 0 
4 0 4 0 4 0 3 0 4 0 4 0 4 0 4 0 
3 0 4 0 4 0 4 0 4 0 4 0 3 0 4 0 
4 0 4 0 4 0 4 0 3 0 4 0 4 0 4 0 
4 0 3 0 4 0 4 0 4 0 4 0 4 0 3 0 
4 0 4 0 4 0 4 0 3 0 4 0 4 0 4 0 
4 0 4 0 3 0 4 0 4 0 4 0 4 0 4 0 
3 0 4 0 4 0 1717 3721 100 MP stroke
4 0 4 0 3 0 4 0 4 0 4 0 4 0 4 0 
3 0 4 0 4 0 4 0 4 0 4 0 3 0 4 0 
4 0 4 0 4 0 3 0 4 0 4 0 4 0 4 0 
4 0 3 0 4 0 4 0 4 0 4 0 4 0 3 0 
4 0 4 0 4 0 4 0 3 0 4 0 4 0 4 0 
4 0 4 0 3 0 4 0 4 0 4 0 4 0 3 0 
4 0 4 0 4 0 4 0 4 0 3 0 4 0 4 0 
4 0 4 0 4 0 3 0 4 0 4 0 4 0 4 0 
3 0 4 0 4 0 4 0 4 0 4 0 3 0 4 0 
4 0 4 0 4 0 4 0 3 0 4 0 4 0 4 0 
4 0 3 0 4 0 4 0 4 0 4 0 4 0 3 0 
4 0 4 0 4 0 4 0 3 0 4 0 4 0 4 0 
4 0 4 0 3 0 1339 3721 100 MP stroke
4 0 4 0 4 0 4 0 4 0 3 0 4 0 4 0 
4 0 4 0 3 0 4 0 4 0 4 0 4 0 4 0 
3 0 4 0 4 0 4 0 4 0 4 0 3 0 4 0 
4 0 4 0 4 0 3 0 4 0 4 0 4 0 4 0 
4 0 3 1 4 0 4 0 4 0 4 0 3 -1 4 0 
4 -1 4 0 4 -1 4 -1 3 0 4 -1 4 0 4 1 
4 1 4 2 3 3 4 3 4 3 4 3 4 3 3 1 
4 -1 4 -2 4 -5 4 -8 4 -10 3 -11 4 -11 4 -10 
4 -8 4 -3 4 3 3 10 4 16 4 24 4 29 4 31 
3 31 4 27 4 18 4 5 4 -10 4 -28 3 -44 4 -59 
4 -69 4 -72 4 -68 4 -55 3 -33 4 -4 4 28 4 62 
4 93 3 118 4 132 4 132 4 118 4 89 4 47 3 -3 
4 -59 4 -111 4 -157 960 3533 100 MP stroke
4 -188 3 -201 4 -193 4 -164 4 -115 4 -51 4 20 3 94 
4 159 4 211 4 240 4 246 4 225 3 181 4 117 4 41 
899 2911 17 MP stroke

gr 
%%IncludeResource: font Symbol
/Symbol /ISOLatin1Encoding 216 FMSR

3329 5022 mt 
(t) s
%%IncludeResource: font Times-Roman
/Times-Roman /ISOLatin1Encoding 216 FMSR

3423 5022 mt 
( [) s
%%IncludeResource: font Symbol
/Symbol /ISOLatin1Encoding 216 FMSR

3548 5022 mt 
(m) s
%%IncludeResource: font Times-Roman
/Times-Roman /ISOLatin1Encoding 216 FMSR

3672 5022 mt 
(s]) s
 461 4497 mt  -90 rotate
(C) s
90 rotate
%%IncludeResource: font Times-Roman
/Times-Roman /ISOLatin1Encoding 168 FMSR

 569 4353 mt  -90 rotate
(AA) s
90 rotate
%%IncludeResource: font Times-Roman
/Times-Roman /ISOLatin1Encoding 216 FMSR

 461 4111 mt  -90 rotate
( [normalized]) s
90 rotate

end

eplot
%%EndObject graph 1

epage
end

showpage

%%Trailer
%%EOF
