%!PS-Adobe-2.0 EPSF-2.0
%%Title: sing_arc.eps
%%Creator: fig2dev Version 3.2 Patchlevel 0-beta3
%%CreationDate: Thu Oct 29 19:57:16 1998
%%For: mea1@moomin.valley (Red Hat Linux User,,,,)
%%Orientation: Portrait
%%BoundingBox: 0 0 301 170
%%Pages: 0
%%BeginSetup
%%EndSetup
%%Magnification: 1.0000
%%EndComments
/$F2psDict 200 dict def
$F2psDict begin
$F2psDict /mtrx matrix put
/col-1 {0 setgray} bind def
/col0 {0.000 0.000 0.000 srgb} bind def
/col1 {0.000 0.000 1.000 srgb} bind def
/col2 {0.000 1.000 0.000 srgb} bind def
/col3 {0.000 1.000 1.000 srgb} bind def
/col4 {1.000 0.000 0.000 srgb} bind def
/col5 {1.000 0.000 1.000 srgb} bind def
/col6 {1.000 1.000 0.000 srgb} bind def
/col7 {1.000 1.000 1.000 srgb} bind def
/col8 {0.000 0.000 0.560 srgb} bind def
/col9 {0.000 0.000 0.690 srgb} bind def
/col10 {0.000 0.000 0.820 srgb} bind def
/col11 {0.530 0.810 1.000 srgb} bind def
/col12 {0.000 0.560 0.000 srgb} bind def
/col13 {0.000 0.690 0.000 srgb} bind def
/col14 {0.000 0.820 0.000 srgb} bind def
/col15 {0.000 0.560 0.560 srgb} bind def
/col16 {0.000 0.690 0.690 srgb} bind def
/col17 {0.000 0.820 0.820 srgb} bind def
/col18 {0.560 0.000 0.000 srgb} bind def
/col19 {0.690 0.000 0.000 srgb} bind def
/col20 {0.820 0.000 0.000 srgb} bind def
/col21 {0.560 0.000 0.560 srgb} bind def
/col22 {0.690 0.000 0.690 srgb} bind def
/col23 {0.820 0.000 0.820 srgb} bind def
/col24 {0.500 0.190 0.000 srgb} bind def
/col25 {0.630 0.250 0.000 srgb} bind def
/col26 {0.750 0.380 0.000 srgb} bind def
/col27 {1.000 0.500 0.500 srgb} bind def
/col28 {1.000 0.630 0.630 srgb} bind def
/col29 {1.000 0.750 0.750 srgb} bind def
/col30 {1.000 0.880 0.880 srgb} bind def
/col31 {1.000 0.840 0.000 srgb} bind def

end
save
-322.0 243.0 translate
1 -1 scale

/cp {closepath} bind def
/ef {eofill} bind def
/gr {grestore} bind def
/gs {gsave} bind def
/sa {save} bind def
/rs {restore} bind def
/l {lineto} bind def
/m {moveto} bind def
/rm {rmoveto} bind def
/n {newpath} bind def
/s {stroke} bind def
/sh {show} bind def
/slc {setlinecap} bind def
/slj {setlinejoin} bind def
/slw {setlinewidth} bind def
/srgb {setrgbcolor} bind def
/rot {rotate} bind def
/sc {scale} bind def
/sd {setdash} bind def
/ff {findfont} bind def
/sf {setfont} bind def
/scf {scalefont} bind def
/sw {stringwidth} bind def
/tr {translate} bind def
/tnt {dup dup currentrgbcolor
  4 -2 roll dup 1 exch sub 3 -1 roll mul add
  4 -2 roll dup 1 exch sub 3 -1 roll mul add
  4 -2 roll dup 1 exch sub 3 -1 roll mul add srgb}
  bind def
/shd {dup dup currentrgbcolor 4 -2 roll mul 4 -2 roll mul
  4 -2 roll mul srgb} bind def
 /DrawEllipse {
	/endangle exch def
	/startangle exch def
	/yrad exch def
	/xrad exch def
	/y exch def
	/x exch def
	/savematrix mtrx currentmatrix def
	x y tr xrad yrad sc 0 0 1 startangle endangle arc
	closepath
	savematrix setmatrix
	} def

/$F2psBegin {$F2psDict begin /$F2psEnteredState save def} def
/$F2psEnd {$F2psEnteredState restore end} def
%%EndProlog

$F2psBegin
10 setmiterlimit
n -1000 5050 m -1000 -1000 l 11375 -1000 l 11375 5050 l cp clip
 0.06000 0.06000 sc
/Times-Roman ff 360.00 scf sf
9450 1575 m
gs 1 -1 sc (z) dup sw pop 2 div neg 0 rm  col0 sh gr
/Times-Roman ff 360.00 scf sf
9225 1500 m
gs 1 -1 sc (k) dup sw pop 2 div neg 0 rm  col0 sh gr
/Times-Roman ff 360.00 scf sf
10275 4050 m
gs 1 -1 sc (x) dup sw pop 2 div neg 0 rm  col0 sh gr
/Times-Roman ff 360.00 scf sf
10050 3975 m
gs 1 -1 sc (k) dup sw pop 2 div neg 0 rm  col0 sh gr
% Arc
15.000 slw
gs n 9000.0 3600.0 1500.0 -126.9 -53.1 arc
gs col0 s gr
 gr

7.500 slw
% Ellipse
n 6300 1500 38 38 0 360 DrawEllipse gs 0.00 setgray ef gr gs col0 s gr

% Ellipse
n 6600 1350 38 38 0 360 DrawEllipse gs 0.00 setgray ef gr gs col0 s gr

% Ellipse
n 6450 1650 38 38 0 360 DrawEllipse gs 0.00 setgray ef gr gs col0 s gr

% Ellipse
n 6150 1650 38 38 0 360 DrawEllipse gs 0.00 setgray ef gr gs col0 s gr

% Ellipse
n 6150 1425 38 38 0 360 DrawEllipse gs 0.00 setgray ef gr gs col0 s gr

% Ellipse
n 6675 1500 38 38 0 360 DrawEllipse gs 0.00 setgray ef gr gs col0 s gr

% Ellipse
n 5925 1500 38 38 0 360 DrawEllipse gs 0.00 setgray ef gr gs col0 s gr

% Ellipse
n 6300 1275 38 38 0 360 DrawEllipse gs 0.00 setgray ef gr gs col0 s gr

% Polyline
n 6150 3600 m 6150 3300 l 6450 3300 l 6450 3600 l gs col0 s gr 
% Polyline
15.000 slw
gs  clippath
6858 3390 m 7146 3450 l 6858 3510 l 7230 3510 l 7230 3390 l cp
clip
n 6600 3450 m 7200 3450 l gs 0.00 setgray ef gr gs col0 s gr gr

% arrowhead
n 6858 3390 m 7146 3450 l 6858 3510 l 6906 3450 l 6858 3390 l  cp gs 0.00 setgray ef gr  col0 s
% Polyline
gs  clippath
5742 3510 m 5454 3450 l 5742 3390 l 5370 3390 l 5370 3510 l cp
clip
n 6000 3450 m 5400 3450 l gs 0.00 setgray ef gr gs col0 s gr gr

% arrowhead
n 5742 3510 m 5454 3450 l 5742 3390 l 5694 3450 l 5742 3510 l  cp gs 0.00 setgray ef gr  col0 s
% Polyline
gs  clippath
8940 1617 m 9000 1329 l 9060 1617 l 9060 1245 l 8940 1245 l cp
clip
n 9000 3600 m 9000 1275 l gs 0.00 setgray ef gr gs col0 s gr gr

% arrowhead
n 8940 1617 m 9000 1329 l 9060 1617 l 9000 1569 l 8940 1617 l  cp gs 0.00 setgray ef gr  col0 s
% Polyline
gs  clippath
8142 3660 m 7854 3600 l 8142 3540 l 7770 3540 l 7770 3660 l cp
clip
n 9000 3600 m 7800 3600 l gs 0.00 setgray ef gr gs col0 s gr gr

% arrowhead
n 8142 3660 m 7854 3600 l 8142 3540 l 8094 3600 l 8142 3660 l  cp gs 0.00 setgray ef gr  col0 s
% Polyline
gs  clippath
9858 3540 m 10146 3600 l 9858 3660 l 10230 3660 l 10230 3540 l cp
clip
n 9000 3600 m 10200 3600 l gs 0.00 setgray ef gr gs col0 s gr gr

% arrowhead
n 9858 3540 m 10146 3600 l 9858 3660 l 9906 3600 l 9858 3540 l  cp gs 0.00 setgray ef gr  col0 s
$F2psEnd
rs
