%!PS-Adobe-2.0 EPSF-2.0
%%Title: spa_com.eps
%%Creator: fig2dev Version 3.2 Patchlevel 1
%%CreationDate: Fri Jun 18 15:37:04 1999
%%For: mea1@abo.egr.duke.edu ()
%%Orientation: Portrait
%%BoundingBox: 0 0 463 218
%%Pages: 0
%%BeginSetup
%%EndSetup
%%Magnification: 1.0000
%%EndComments
/$F2psDict 200 dict def
$F2psDict begin
$F2psDict /mtrx matrix put
/col-1 {0 setgray} bind def
/col0 {0.000 0.000 0.000 srgb} bind def
/col1 {0.000 0.000 1.000 srgb} bind def
/col2 {0.000 1.000 0.000 srgb} bind def
/col3 {0.000 1.000 1.000 srgb} bind def
/col4 {1.000 0.000 0.000 srgb} bind def
/col5 {1.000 0.000 1.000 srgb} bind def
/col6 {1.000 1.000 0.000 srgb} bind def
/col7 {1.000 1.000 1.000 srgb} bind def
/col8 {0.000 0.000 0.560 srgb} bind def
/col9 {0.000 0.000 0.690 srgb} bind def
/col10 {0.000 0.000 0.820 srgb} bind def
/col11 {0.530 0.810 1.000 srgb} bind def
/col12 {0.000 0.560 0.000 srgb} bind def
/col13 {0.000 0.690 0.000 srgb} bind def
/col14 {0.000 0.820 0.000 srgb} bind def
/col15 {0.000 0.560 0.560 srgb} bind def
/col16 {0.000 0.690 0.690 srgb} bind def
/col17 {0.000 0.820 0.820 srgb} bind def
/col18 {0.560 0.000 0.000 srgb} bind def
/col19 {0.690 0.000 0.000 srgb} bind def
/col20 {0.820 0.000 0.000 srgb} bind def
/col21 {0.560 0.000 0.560 srgb} bind def
/col22 {0.690 0.000 0.690 srgb} bind def
/col23 {0.820 0.000 0.820 srgb} bind def
/col24 {0.500 0.190 0.000 srgb} bind def
/col25 {0.630 0.250 0.000 srgb} bind def
/col26 {0.750 0.380 0.000 srgb} bind def
/col27 {1.000 0.500 0.500 srgb} bind def
/col28 {1.000 0.630 0.630 srgb} bind def
/col29 {1.000 0.750 0.750 srgb} bind def
/col30 {1.000 0.880 0.880 srgb} bind def
/col31 {1.000 0.840 0.000 srgb} bind def

end
save
-52.0 288.0 translate
1 -1 scale

/cp {closepath} bind def
/ef {eofill} bind def
/gr {grestore} bind def
/gs {gsave} bind def
/sa {save} bind def
/rs {restore} bind def
/l {lineto} bind def
/m {moveto} bind def
/rm {rmoveto} bind def
/n {newpath} bind def
/s {stroke} bind def
/sh {show} bind def
/slc {setlinecap} bind def
/slj {setlinejoin} bind def
/slw {setlinewidth} bind def
/srgb {setrgbcolor} bind def
/rot {rotate} bind def
/sc {scale} bind def
/sd {setdash} bind def
/ff {findfont} bind def
/sf {setfont} bind def
/scf {scalefont} bind def
/sw {stringwidth} bind def
/tr {translate} bind def
/tnt {dup dup currentrgbcolor
  4 -2 roll dup 1 exch sub 3 -1 roll mul add
  4 -2 roll dup 1 exch sub 3 -1 roll mul add
  4 -2 roll dup 1 exch sub 3 -1 roll mul add srgb}
  bind def
/shd {dup dup currentrgbcolor 4 -2 roll mul 4 -2 roll mul
  4 -2 roll mul srgb} bind def
/$F2psBegin {$F2psDict begin /$F2psEnteredState save def} def
/$F2psEnd {$F2psEnteredState restore end} def
%%EndProlog

$F2psBegin
10 setmiterlimit
n -1000 5800 m -1000 -1000 l 9575 -1000 l 9575 5800 l cp clip
 0.06000 0.06000 sc
% Polyline
15.000 slw
gs  clippath
6840 1525 m 6900 1236 l 6960 1525 l 6960 1170 l 6840 1170 l cp
clip
n 6900 4200 m 6900 1200 l gs 0.00 setgray ef gr gs col0 s gr gr

% arrowhead
n 6840 1525 m 6900 1236 l 6960 1525 l 6900 1477 l 6840 1525 l  cp gs 0.00 setgray ef gr  col0 s
% Polyline
n 900 4200 m 900 3600 l 2700 3600 l 2700 4200 l gs col0 s gr 
% Polyline
 [90] 0 sd
n 1500 4200 m 1500 3600 l 3300 3600 l 3300 4200 l gs col0 s gr  [] 0 sd
/Times-Roman ff 360.00 scf sf
7500 1650 m
gs 1 -1 sc (z) dup sw pop 2 div neg 0 rm  col0 sh gr
/Times-Roman ff 360.00 scf sf
7275 1575 m
gs 1 -1 sc (k) dup sw pop 2 div neg 0 rm  col0 sh gr
/Times-Roman ff 360.00 scf sf
8475 4800 m
gs 1 -1 sc (x) dup sw pop 2 div neg 0 rm  col0 sh gr
/Times-Roman ff 360.00 scf sf
8250 4725 m
gs 1 -1 sc (k) dup sw pop 2 div neg 0 rm  col0 sh gr
% Polyline
gs  clippath
3875 3840 m 4163 3900 l 3875 3960 l 4230 3960 l 4230 3840 l cp
clip
n 3450 3900 m 4200 3900 l gs 0.00 setgray ef gr gs col0 s gr gr

% arrowhead
n 3875 3840 m 4163 3900 l 3875 3960 l 3923 3900 l 3875 3840 l  cp gs 0.00 setgray ef gr  col0 s
% Polyline
gs  clippath
5725 4260 m 5436 4200 l 5725 4140 l 5370 4140 l 5370 4260 l cp
clip
n 6900 4200 m 5400 4200 l gs 0.00 setgray ef gr gs col0 s gr gr

% arrowhead
n 5725 4260 m 5436 4200 l 5725 4140 l 5677 4200 l 5725 4260 l  cp gs 0.00 setgray ef gr  col0 s
% Polyline
gs  clippath
8075 4140 m 8363 4200 l 8075 4260 l 8430 4260 l 8430 4140 l cp
clip
n 6900 4200 m 8400 4200 l gs 0.00 setgray ef gr gs col0 s gr gr

% arrowhead
n 8075 4140 m 8363 4200 l 8075 4260 l 8123 4200 l 8075 4140 l  cp gs 0.00 setgray ef gr  col0 s
% Polyline
n 6675 2963 m 6659 2954 l 6642 2946 l 6624 2937 l 6605 2927 l 6585 2917 l
 6565 2906 l 6543 2894 l 6521 2882 l 6499 2869 l 6476 2855 l
 6453 2841 l 6431 2827 l 6409 2812 l 6387 2797 l 6366 2782 l
 6346 2767 l 6327 2752 l 6309 2736 l 6293 2721 l 6277 2706 l
 6263 2691 l 6250 2675 l 6239 2661 l 6229 2646 l 6220 2631 l
 6211 2615 l 6204 2599 l 6197 2582 l 6192 2566 l 6187 2548 l
 6184 2531 l 6182 2513 l 6181 2495 l 6181 2477 l 6183 2459 l
 6185 2441 l 6189 2423 l 6194 2406 l 6201 2390 l 6208 2373 l
 6217 2358 l 6226 2343 l 6237 2328 l 6249 2314 l 6261 2301 l
 6275 2288 l 6290 2275 l 6306 2262 l 6324 2250 l 6343 2238 l
 6363 2226 l 6385 2215 l 6408 2204 l 6432 2193 l 6458 2182 l
 6485 2172 l 6513 2162 l 6542 2153 l 6572 2145 l 6602 2137 l
 6632 2130 l 6663 2123 l 6694 2118 l 6724 2113 l 6754 2109 l
 6784 2106 l 6813 2103 l 6842 2101 l 6871 2100 l 6900 2100 l
 6929 2100 l 6958 2101 l 6987 2103 l 7016 2106 l 7046 2109 l
 7076 2113 l 7106 2118 l 7137 2123 l 7168 2130 l 7198 2137 l
 7228 2145 l 7258 2153 l 7287 2162 l 7315 2172 l 7342 2182 l
 7368 2193 l 7392 2204 l 7415 2215 l 7437 2226 l 7457 2238 l
 7476 2250 l 7494 2262 l 7510 2275 l 7525 2288 l 7539 2301 l
 7551 2314 l 7563 2328 l 7574 2343 l 7583 2358 l 7592 2373 l
 7599 2390 l 7606 2406 l 7611 2423 l 7615 2441 l 7617 2459 l
 7619 2477 l 7619 2495 l 7618 2513 l 7616 2531 l 7613 2548 l
 7608 2566 l 7603 2582 l 7596 2599 l 7589 2615 l 7580 2631 l
 7571 2646 l 7561 2661 l 7550 2675 l 7537 2691 l 7523 2706 l
 7507 2721 l 7491 2736 l 7473 2752 l 7454 2767 l 7434 2782 l
 7413 2797 l 7391 2812 l 7369 2827 l 7347 2841 l 7324 2855 l
 7301 2869 l 7279 2882 l 7257 2894 l 7235 2906 l 7215 2917 l
 7195 2927 l 7176 2937 l 7158 2946 l 7141 2954 l 7125 2963 l
 7101 2974 l 7079 2985 l 7059 2996 l 7039 3005 l 7021 3015 l
 7004 3023 l 6989 3031 l 6975 3037 l 6963 3043 l 6953 3049 l
 6944 3053 l 6937 3057 l 6930 3060 l 6925 3063 l 6919 3066 l
 6913 3068 l 6909 3070 l 6904 3071 l 6900 3072 l 6896 3071 l
 6891 3070 l 6887 3068 l 6881 3066 l 6875 3063 l 6870 3060 l
 6863 3057 l 6856 3053 l 6847 3049 l 6837 3043 l 6825 3037 l
 6811 3031 l 6796 3023 l 6779 3015 l 6761 3005 l 6741 2996 l
 6721 2985 l 6699 2974 l cp gs col0 s gr 
% Polyline
 [90] 0 sd
n 6350 3088 m 6333 3089 l 6315 3091 l 6296 3093 l 6277 3095 l 6257 3097 l
 6237 3099 l 6216 3101 l 6194 3103 l 6172 3104 l 6150 3106 l
 6128 3106 l 6106 3107 l 6084 3106 l 6063 3106 l 6043 3104 l
 6023 3102 l 6004 3100 l 5985 3096 l 5967 3092 l 5950 3088 l
 5934 3082 l 5919 3077 l 5904 3070 l 5889 3063 l 5874 3054 l
 5860 3045 l 5845 3035 l 5832 3023 l 5818 3011 l 5806 2998 l
 5794 2984 l 5783 2970 l 5773 2955 l 5764 2939 l 5757 2923 l
 5750 2906 l 5745 2889 l 5741 2872 l 5738 2854 l 5737 2837 l
 5737 2819 l 5738 2800 l 5740 2781 l 5743 2761 l 5748 2741 l
 5754 2720 l 5762 2697 l 5770 2675 l 5781 2651 l 5792 2627 l
 5805 2603 l 5820 2578 l 5835 2553 l 5852 2529 l 5869 2505 l
 5887 2481 l 5906 2458 l 5926 2436 l 5945 2415 l 5966 2395 l
 5986 2376 l 6007 2358 l 6028 2341 l 6050 2325 l 6072 2310 l
 6095 2295 l 6119 2281 l 6143 2268 l 6169 2256 l 6195 2244 l
 6222 2232 l 6249 2222 l 6277 2212 l 6306 2204 l 6334 2196 l
 6362 2189 l 6390 2183 l 6417 2178 l 6444 2175 l 6469 2172 l
 6494 2170 l 6517 2169 l 6539 2169 l 6561 2170 l 6581 2172 l
 6600 2175 l 6618 2179 l 6636 2183 l 6653 2188 l 6670 2194 l
 6686 2202 l 6701 2210 l 6716 2219 l 6730 2229 l 6744 2240 l
 6757 2251 l 6768 2264 l 6779 2277 l 6790 2291 l 6799 2305 l
 6807 2319 l 6814 2334 l 6820 2349 l 6825 2364 l 6829 2379 l
 6833 2394 l 6836 2409 l 6838 2425 l 6839 2444 l 6839 2464 l
 6839 2485 l 6837 2507 l 6835 2529 l 6832 2552 l 6828 2575 l
 6823 2599 l 6818 2623 l 6812 2647 l 6806 2671 l 6800 2694 l
 6793 2716 l 6787 2737 l 6781 2757 l 6774 2777 l 6768 2795 l
 6763 2813 l 6755 2834 l 6748 2855 l 6741 2876 l 6735 2896 l
 6728 2915 l 6722 2934 l 6716 2952 l 6710 2969 l 6705 2984 l
 6701 2998 l 6697 3010 l 6693 3020 l 6690 3030 l 6688 3038 l
 6685 3044 l 6684 3049 l 6682 3054 l 6680 3058 l 6678 3062 l
 6675 3065 l 6673 3068 l 6670 3070 l 6666 3072 l 6662 3073 l
 6658 3074 l 6653 3074 l 6647 3075 l 6640 3075 l 6633 3075 l
 6625 3075 l 6616 3075 l 6606 3075 l 6594 3075 l 6581 3075 l
 6566 3075 l 6550 3076 l 6533 3076 l 6515 3077 l 6495 3077 l
 6475 3078 l 6455 3079 l 6434 3081 l 6413 3082 l 6392 3084 l
 6371 3085 l cp gs col0 s gr  [] 0 sd
/Times-Roman ff 360.00 scf sf
3750 4275 m
gs 1 -1 sc (x) dup sw pop 2 div neg 0 rm  col0 sh gr
$F2psEnd
rs
