%!PS-Adobe-2.0 EPSF-2.0
%%Title: mich_int.eps
%%Creator: fig2dev Version 3.2 Patchlevel 3c
%%CreationDate: Thu Nov  1 09:51:31 2001
%%For: mea1@moomin (Martin Anderson)
%%BoundingBox: 0 0 694 447
%%Magnification: 1.0000
%%EndComments
/$F2psDict 200 dict def
$F2psDict begin
$F2psDict /mtrx matrix put
/col-1 {0 setgray} bind def
/col0 {0.000 0.000 0.000 srgb} bind def
/col1 {0.000 0.000 1.000 srgb} bind def
/col2 {0.000 1.000 0.000 srgb} bind def
/col3 {0.000 1.000 1.000 srgb} bind def
/col4 {1.000 0.000 0.000 srgb} bind def
/col5 {1.000 0.000 1.000 srgb} bind def
/col6 {1.000 1.000 0.000 srgb} bind def
/col7 {1.000 1.000 1.000 srgb} bind def
/col8 {0.000 0.000 0.560 srgb} bind def
/col9 {0.000 0.000 0.690 srgb} bind def
/col10 {0.000 0.000 0.820 srgb} bind def
/col11 {0.530 0.810 1.000 srgb} bind def
/col12 {0.000 0.560 0.000 srgb} bind def
/col13 {0.000 0.690 0.000 srgb} bind def
/col14 {0.000 0.820 0.000 srgb} bind def
/col15 {0.000 0.560 0.560 srgb} bind def
/col16 {0.000 0.690 0.690 srgb} bind def
/col17 {0.000 0.820 0.820 srgb} bind def
/col18 {0.560 0.000 0.000 srgb} bind def
/col19 {0.690 0.000 0.000 srgb} bind def
/col20 {0.820 0.000 0.000 srgb} bind def
/col21 {0.560 0.000 0.560 srgb} bind def
/col22 {0.690 0.000 0.690 srgb} bind def
/col23 {0.820 0.000 0.820 srgb} bind def
/col24 {0.500 0.190 0.000 srgb} bind def
/col25 {0.630 0.250 0.000 srgb} bind def
/col26 {0.750 0.380 0.000 srgb} bind def
/col27 {1.000 0.500 0.500 srgb} bind def
/col28 {1.000 0.630 0.630 srgb} bind def
/col29 {1.000 0.750 0.750 srgb} bind def
/col30 {1.000 0.880 0.880 srgb} bind def
/col31 {1.000 0.840 0.000 srgb} bind def

end
save
newpath 0 447 moveto 0 0 lineto 694 0 lineto 694 447 lineto closepath clip newpath
-13.0 495.0 translate
1 -1 scale

/cp {closepath} bind def
/ef {eofill} bind def
/gr {grestore} bind def
/gs {gsave} bind def
/sa {save} bind def
/rs {restore} bind def
/l {lineto} bind def
/m {moveto} bind def
/rm {rmoveto} bind def
/n {newpath} bind def
/s {stroke} bind def
/sh {show} bind def
/slc {setlinecap} bind def
/slj {setlinejoin} bind def
/slw {setlinewidth} bind def
/srgb {setrgbcolor} bind def
/rot {rotate} bind def
/sc {scale} bind def
/sd {setdash} bind def
/ff {findfont} bind def
/sf {setfont} bind def
/scf {scalefont} bind def
/sw {stringwidth} bind def
/tr {translate} bind def
/tnt {dup dup currentrgbcolor
  4 -2 roll dup 1 exch sub 3 -1 roll mul add
  4 -2 roll dup 1 exch sub 3 -1 roll mul add
  4 -2 roll dup 1 exch sub 3 -1 roll mul add srgb}
  bind def
/shd {dup dup currentrgbcolor 4 -2 roll mul 4 -2 roll mul
  4 -2 roll mul srgb} bind def
/$F2psBegin {$F2psDict begin /$F2psEnteredState save def} def
/$F2psEnd {$F2psEnteredState restore end} def

$F2psBegin
%%Page: 1 1
10 setmiterlimit
 0.06000 0.06000 sc
%
% Fig objects follow
%
/Times-Roman ff 270.00 scf sf
450 5400 m
gs 1 -1 sc (2) col0 sh gr
/Times-Roman ff 270.00 scf sf
450 3600 m
gs 1 -1 sc (1) col0 sh gr
% Polyline
2 slj
60.000 slw
n 11100 4200 m 11101 4200 l 11101 4199 l 11102 4198 l 11104 4197 l 11106 4195 l
 11109 4193 l 11112 4191 l 11116 4188 l 11120 4184 l 11125 4180 l
 11129 4176 l 11134 4171 l 11140 4165 l 11145 4159 l 11150 4153 l
 11154 4147 l 11159 4140 l 11163 4132 l 11166 4125 l 11168 4117 l
 11169 4109 l 11170 4101 l 11169 4093 l 11167 4084 l 11163 4075 l
 11157 4066 l 11150 4057 l 11141 4047 l 11130 4037 l 11116 4027 l
 11099 4016 l 11080 4005 l 11058 3993 l 11032 3981 l 11003 3969 l
 10970 3956 l 10933 3942 l 10893 3928 l 10848 3914 l 10800 3900 l
 10749 3886 l 10695 3872 l 10640 3858 l 10585 3845 l 10531 3833 l
 10478 3822 l 10426 3811 l 10376 3801 l 10329 3793 l 10284 3785 l
 10242 3778 l 10201 3771 l 10163 3766 l 10127 3761 l 10093 3756 l
 10060 3752 l 10029 3749 l 9999 3746 l 9970 3743 l 9941 3740 l
 9912 3737 l 9884 3735 l 9855 3732 l 9826 3730 l 9796 3727 l
 9764 3723 l 9731 3720 l 9697 3716 l 9660 3711 l 9621 3706 l
 9580 3701 l 9537 3694 l 9491 3687 l 9442 3680 l 9391 3672 l
 9338 3663 l 9283 3653 l 9227 3643 l 9169 3633 l 9112 3622 l
 9055 3611 l 9000 3600 l 8895 3578 l 8807 3560 l 8739 3544 l
 8688 3532 l 8654 3523 l 8634 3518 l 8624 3514 l 8624 3513 l
 8629 3512 l 8638 3513 l 8647 3513 l 8656 3513 l 8663 3512 l
 8665 3509 l 8661 3505 l 8651 3499 l 8634 3490 l 8610 3478 l
 8581 3465 l 8550 3450 l 8519 3434 l 8492 3419 l 8472 3406 l
 8456 3396 l 8444 3389 l 8436 3383 l 8431 3379 l 8427 3377 l
 8425 3375 l 8423 3373 l 8422 3371 l 8420 3367 l 8417 3361 l
 8414 3354 l 8409 3344 l 8405 3331 l 8402 3316 l 8400 3300 l
 8402 3284 l 8405 3269 l 8409 3256 l 8414 3246 l 8417 3239 l
 8420 3233 l 8422 3229 l 8423 3227 l 8425 3225 l 8427 3223 l
 8431 3221 l 8436 3217 l 8444 3211 l 8456 3204 l 8472 3194 l
 8492 3181 l 8519 3166 l 8550 3150 l 8581 3135 l 8614 3121 l
 8646 3108 l 8678 3095 l 8710 3084 l 8741 3074 l 8771 3064 l
 8801 3054 l 8831 3046 l 8859 3037 l 8887 3030 l 8913 3023 l
 8936 3017 l 8956 3011 l 8973 3007 l 8985 3004 l 8993 3002 l
 8998 3001 l
 9000 3000 l gs col0 s gr 
% Polyline
n 9000 3000 m 9002 2999 l 9006 2997 l 9014 2993 l 9024 2988 l 9038 2980 l
 9053 2972 l 9070 2963 l 9088 2952 l 9107 2941 l 9126 2929 l
 9145 2916 l 9165 2902 l 9185 2886 l 9205 2869 l 9225 2850 l
 9245 2829 l 9260 2811 l 9271 2797 l 9279 2788 l 9283 2781 l
 9286 2778 l 9288 2775 l 9289 2772 l 9290 2769 l 9291 2762 l
 9294 2753 l 9296 2739 l 9299 2721 l 9300 2700 l 9299 2679 l
 9296 2661 l 9294 2647 l 9291 2638 l 9290 2631 l 9289 2628 l
 9287 2625 l 9286 2622 l 9283 2619 l 9279 2612 l 9271 2603 l
 9260 2589 l 9245 2571 l 9225 2550 l 9205 2531 l 9185 2514 l
 9165 2498 l 9145 2484 l 9126 2471 l 9107 2459 l 9088 2448 l
 9070 2438 l 9053 2428 l 9038 2420 l 9024 2412 l 9014 2407 l
 9006 2403 l 9002 2401 l
 9000 2400 l gs col0 s gr 
% Polyline
n 9000 2400 m 8998 2399 l 8994 2395 l 8988 2390 l 8979 2383 l 8968 2373 l
 8955 2362 l 8942 2351 l 8928 2338 l 8914 2324 l 8899 2308 l
 8883 2291 l 8867 2271 l 8850 2250 l 8833 2226 l 8819 2206 l
 8809 2192 l 8802 2183 l 8797 2178 l 8794 2175 l 8791 2172 l
 8788 2167 l 8784 2158 l 8780 2144 l 8777 2124 l 8775 2100 l
 8777 2076 l 8780 2056 l 8784 2042 l 8788 2033 l 8791 2028 l
 8794 2025 l 8797 2022 l 8802 2017 l 8809 2008 l 8819 1994 l
 8833 1974 l 8850 1950 l 8867 1929 l 8883 1909 l 8899 1892 l
 8914 1876 l 8928 1862 l 8942 1849 l 8955 1837 l 8968 1827 l
 8979 1817 l 8988 1810 l 8994 1805 l 8998 1801 l
 9000 1800 l gs col0 s gr 
% Polyline
n 11100 4200 m 11101 4200 l 11101 4201 l 11102 4202 l 11104 4203 l 11106 4205 l
 11109 4207 l 11112 4209 l 11116 4212 l 11120 4216 l 11125 4220 l
 11129 4224 l 11134 4229 l 11140 4235 l 11145 4241 l 11150 4247 l
 11154 4253 l 11159 4260 l 11163 4268 l 11166 4275 l 11168 4283 l
 11169 4291 l 11170 4299 l 11169 4307 l 11167 4316 l 11163 4325 l
 11157 4334 l 11150 4343 l 11141 4353 l 11130 4363 l 11116 4373 l
 11099 4384 l 11080 4395 l 11058 4407 l 11032 4419 l 11003 4431 l
 10970 4444 l 10933 4458 l 10893 4472 l 10848 4486 l 10800 4500 l
 10749 4514 l 10695 4528 l 10640 4542 l 10585 4555 l 10531 4567 l
 10478 4578 l 10426 4589 l 10376 4599 l 10329 4607 l 10284 4615 l
 10242 4622 l 10201 4629 l 10163 4634 l 10127 4639 l 10093 4644 l
 10060 4648 l 10029 4651 l 9999 4654 l 9970 4657 l 9941 4660 l
 9912 4663 l 9884 4665 l 9855 4668 l 9826 4670 l 9796 4673 l
 9764 4677 l 9731 4680 l 9697 4684 l 9660 4689 l 9621 4694 l
 9580 4699 l 9537 4706 l 9491 4713 l 9442 4720 l 9391 4728 l
 9338 4737 l 9283 4747 l 9227 4757 l 9169 4767 l 9112 4778 l
 9055 4789 l 9000 4800 l 8895 4822 l 8807 4840 l 8739 4856 l
 8688 4868 l 8654 4877 l 8634 4882 l 8624 4886 l 8624 4887 l
 8629 4888 l 8638 4887 l 8647 4887 l 8656 4887 l 8663 4888 l
 8665 4891 l 8661 4895 l 8651 4901 l 8634 4910 l 8610 4922 l
 8581 4935 l 8550 4950 l 8519 4966 l 8492 4981 l 8472 4994 l
 8456 5004 l 8444 5011 l 8436 5017 l 8431 5021 l 8427 5023 l
 8425 5025 l 8423 5027 l 8422 5029 l 8420 5033 l 8417 5039 l
 8414 5046 l 8409 5056 l 8405 5069 l 8402 5084 l 8400 5100 l
 8402 5116 l 8405 5131 l 8409 5144 l 8414 5154 l 8417 5161 l
 8420 5167 l 8422 5171 l 8423 5173 l 8425 5175 l 8427 5177 l
 8431 5179 l 8436 5183 l 8444 5189 l 8456 5196 l 8472 5206 l
 8492 5219 l 8519 5234 l 8550 5250 l 8581 5265 l 8614 5279 l
 8646 5292 l 8678 5305 l 8710 5316 l 8741 5326 l 8771 5336 l
 8801 5346 l 8831 5354 l 8859 5363 l 8887 5370 l 8913 5377 l
 8936 5383 l 8956 5389 l 8973 5393 l 8985 5396 l 8993 5398 l
 8998 5399 l
 9000 5400 l gs col0 s gr 
% Polyline
n 9000 5400 m 9002 5401 l 9006 5403 l 9014 5407 l 9024 5412 l 9038 5420 l
 9053 5428 l 9070 5438 l 9088 5448 l 9107 5459 l 9126 5471 l
 9145 5484 l 9165 5498 l 9185 5514 l 9205 5531 l 9225 5550 l
 9245 5571 l 9260 5589 l 9271 5603 l 9279 5612 l 9283 5619 l
 9286 5622 l 9288 5625 l 9289 5628 l 9290 5631 l 9291 5638 l
 9294 5647 l 9296 5661 l 9299 5679 l 9300 5700 l 9299 5721 l
 9296 5739 l 9294 5753 l 9291 5762 l 9290 5769 l 9289 5772 l
 9287 5775 l 9286 5778 l 9283 5781 l 9279 5788 l 9271 5797 l
 9260 5811 l 9245 5829 l 9225 5850 l 9205 5869 l 9185 5886 l
 9165 5902 l 9145 5916 l 9126 5929 l 9107 5941 l 9088 5952 l
 9070 5963 l 9053 5972 l 9038 5980 l 9024 5988 l 9014 5993 l
 9006 5997 l 9002 5999 l
 9000 6000 l gs col0 s gr 
% Polyline
n 9000 6000 m 8998 6001 l 8994 6005 l 8988 6010 l 8979 6017 l 8968 6027 l
 8955 6038 l 8942 6049 l 8928 6062 l 8914 6076 l 8899 6092 l
 8883 6109 l 8867 6129 l 8850 6150 l 8833 6174 l 8819 6194 l
 8809 6208 l 8802 6217 l 8797 6222 l 8794 6225 l 8791 6228 l
 8788 6233 l 8784 6242 l 8780 6256 l 8777 6276 l 8775 6300 l
 8777 6324 l 8780 6344 l 8784 6358 l 8788 6367 l 8791 6372 l
 8794 6375 l 8797 6378 l 8802 6383 l 8809 6392 l 8819 6406 l
 8833 6426 l 8850 6450 l 8867 6471 l 8883 6491 l 8899 6508 l
 8914 6524 l 8928 6538 l 8942 6551 l 8955 6563 l 8968 6573 l
 8979 6583 l 8988 6590 l 8994 6595 l 8998 6599 l
 9000 6600 l gs col0 s gr 
/Times-Roman ff 360.00 scf sf
11400 8250 m
gs 1 -1 sc (0) dup sw pop 2 div neg 0 rm  col0 sh gr
/Times-Roman ff 480.00 scf sf
11025 8100 m
gs 1 -1 sc (4 I) dup sw pop 2 div neg 0 rm  col0 sh gr
/Times-Roman ff 480.00 scf sf
225 5250 m
gs 1 -1 sc (P) col0 sh gr
/Times-Roman ff 480.00 scf sf
225 3450 m
gs 1 -1 sc (P) col0 sh gr
% Arc
15.000 slw
n 1323.2 5019.6 251.8 141.9 1.2 arcn
gs col0 s gr

% Polyline
0 slj
30.000 slw
gs  clippath
11715 4230 m 11715 4170 l 11391 4170 l 11541 4200 l 11391 4230 l cp
eoclip
n 11700 4200 m
 8400 4200 l gs col0 s gr gr

% arrowhead
60.000 slw
n 11391 4230 m 11541 4200 l 11391 4170 l 11421 4200 l 11391 4230 l 
 cp gs 0.00 setgray ef gr  col0 s
% Polyline
7.500 slw
n 900 3375 m 1050 3375 l 1050 5025 l 900 5025 l
 cp gs 0.00 setgray ef gr gs col0 s gr 
% Polyline
n 900 900 m 1050 900 l 1050 3225 l 900 3225 l
 cp gs 0.00 setgray ef gr gs col0 s gr 
% Polyline
n 900 5175 m 1050 5175 l 1050 7425 l 900 7425 l
 cp gs 0.00 setgray ef gr gs col0 s gr 
% Polyline
15.000 slw
n 8100 900 m
 8100 7500 l gs col0 s gr 
% Polyline
n 975 3300 m
 8100 2700 l gs col0 s gr 
% Polyline
n 975 5100 m
 8100 2700 l gs col0 s gr 
% Polyline
n 8093 2700 m 8108 2700 l gs col0 s gr
% Polyline
 [90] 0 sd
n 975 3300 m
 1575 4875 l gs col0 s gr  [] 0 sd
% Polyline
 [120] 0 sd
n 11100 825 m
 11100 7500 l gs col0 s gr  [] 0 sd
% Polyline
 [120] 0 sd
n 9300 825 m
 9300 7500 l gs col0 s gr  [] 0 sd
% Polyline
30.000 slw
gs  clippath
8370 7590 m 8430 7590 l 8430 7266 l 8400 7416 l 8370 7266 l cp
8430 885 m 8370 885 l 8370 1209 l 8400 1059 l 8430 1209 l cp
eoclip
n 8400 900 m
 8400 7575 l gs col0 s gr gr

% arrowhead
60.000 slw
n 8430 1209 m 8400 1059 l 8370 1209 l 8400 1179 l 8430 1209 l 
 cp gs 0.00 setgray ef gr  col0 s
% arrowhead
n 8370 7266 m 8400 7416 l 8430 7266 l 8400 7296 l 8370 7266 l 
 cp gs 0.00 setgray ef gr  col0 s
/Symbol ff 480.00 scf sf
1425 5700 m
gs 1 -1 sc (t) col0 sh gr
/Times-Roman ff 480.00 scf sf
11625 4800 m
gs 1 -1 sc (I) col0 sh gr
/Times-Roman ff 360.00 scf sf
9600 8250 m
gs 1 -1 sc (0) dup sw pop 2 div neg 0 rm  col0 sh gr
/Times-Roman ff 480.00 scf sf
9225 8100 m
gs 1 -1 sc (2 I) dup sw pop 2 div neg 0 rm  col0 sh gr
$F2psEnd
rs
