%!PS-Adobe-2.0 EPSF-1.2
%%Creator: MATLAB, The Mathworks, Inc.
%%Title: fam_rician.eps
%%CreationDate: 10/11/2001  09:51:11
%%DocumentNeededFonts: Times-Roman
%%+ Helvetica
%%DocumentProcessColors: Cyan Magenta Yellow Black
%%Pages: 1
%%BoundingBox:    46   187   552   593
%%EndComments

%%BeginProlog
% MathWorks dictionary
/MathWorks 160 dict begin
% definition operators
/bdef {bind def} bind def
/ldef {load def} bind def
/xdef {exch def} bdef
/xstore {exch store} bdef
% operator abbreviations
/c  /clip ldef
/cc /concat ldef
/cp /closepath ldef
/gr /grestore ldef
/gs /gsave ldef
/mt /moveto ldef
/np /newpath ldef
/cm /currentmatrix ldef
/sm /setmatrix ldef
/rm /rmoveto ldef
/rl /rlineto ldef
/s /show ldef
/sc {setcmykcolor} bdef
/sr /setrgbcolor ldef
/sg /setgray ldef
/w /setlinewidth ldef
/j /setlinejoin ldef
/cap /setlinecap ldef
/rc {rectclip} bdef
/rf {rectfill} bdef
% page state control
/pgsv () def
/bpage {/pgsv save def} bdef
/epage {pgsv restore} bdef
/bplot /gsave ldef
/eplot {stroke grestore} bdef
% orientation switch
/portraitMode 0 def /landscapeMode 1 def /rotateMode 2 def
% coordinate system mappings
/dpi2point 0 def
% font control
/FontSize 0 def
/FMS {/FontSize xstore findfont [FontSize 0 0 FontSize neg 0 0]
  makefont setfont} bdef
/reencode {exch dup where {pop load} {pop StandardEncoding} ifelse
  exch dup 3 1 roll findfont dup length dict begin
  { 1 index /FID ne {def}{pop pop} ifelse } forall
  /Encoding exch def currentdict end definefont pop} bdef
/isroman {findfont /CharStrings get /Agrave known} bdef
/FMSR {3 1 roll 1 index dup isroman {reencode} {pop pop} ifelse
  exch FMS} bdef
/csm {1 dpi2point div -1 dpi2point div scale neg translate
 dup landscapeMode eq {pop -90 rotate}
  {rotateMode eq {90 rotate} if} ifelse} bdef
% line types: solid, dotted, dashed, dotdash
/SO { [] 0 setdash } bdef
/DO { [.5 dpi2point mul 4 dpi2point mul] 0 setdash } bdef
/DA { [6 dpi2point mul] 0 setdash } bdef
/DD { [.5 dpi2point mul 4 dpi2point mul 6 dpi2point mul 4
  dpi2point mul] 0 setdash } bdef
% macros for lines and objects
/L {lineto stroke} bdef
/MP {3 1 roll moveto 1 sub {rlineto} repeat} bdef
/AP {{rlineto} repeat} bdef
/PDlw -1 def
/W {/PDlw currentlinewidth def setlinewidth} def
/PP {closepath eofill} bdef
/DP {closepath stroke} bdef
/MR {4 -2 roll moveto dup  0 exch rlineto exch 0 rlineto
  neg 0 exch rlineto closepath} bdef
/FR {MR stroke} bdef
/PR {MR fill} bdef
/L1i {{currentfile picstr readhexstring pop} image} bdef
/tMatrix matrix def
/MakeOval {newpath tMatrix currentmatrix pop translate scale
0 0 1 0 360 arc tMatrix setmatrix} bdef
/FO {MakeOval stroke} bdef
/PO {MakeOval fill} bdef
/PD {currentlinewidth 2 div 0 360 arc fill
   PDlw -1 eq not {PDlw w /PDlw -1 def} if} def
/FA {newpath tMatrix currentmatrix pop translate scale
  0 0 1 5 -2 roll arc tMatrix setmatrix stroke} bdef
/PA {newpath tMatrix currentmatrix pop	translate 0 0 moveto scale
  0 0 1 5 -2 roll arc closepath tMatrix setmatrix fill} bdef
/FAn {newpath tMatrix currentmatrix pop translate scale
  0 0 1 5 -2 roll arcn tMatrix setmatrix stroke} bdef
/PAn {newpath tMatrix currentmatrix pop translate 0 0 moveto scale
  0 0 1 5 -2 roll arcn closepath tMatrix setmatrix fill} bdef
/vradius 0 def /hradius 0 def /lry 0 def
/lrx 0 def /uly 0 def /ulx 0 def /rad 0 def
/MRR {/vradius xdef /hradius xdef /lry xdef /lrx xdef /uly xdef
  /ulx xdef newpath tMatrix currentmatrix pop ulx hradius add uly
  vradius add translate hradius vradius scale 0 0 1 180 270 arc 
  tMatrix setmatrix lrx hradius sub uly vradius add translate
  hradius vradius scale 0 0 1 270 360 arc tMatrix setmatrix
  lrx hradius sub lry vradius sub translate hradius vradius scale
  0 0 1 0 90 arc tMatrix setmatrix ulx hradius add lry vradius sub
  translate hradius vradius scale 0 0 1 90 180 arc tMatrix setmatrix
  closepath} bdef
/FRR {MRR stroke } bdef
/PRR {MRR fill } bdef
/MlrRR {/lry xdef /lrx xdef /uly xdef /ulx xdef /rad lry uly sub 2 div def
  newpath tMatrix currentmatrix pop ulx rad add uly rad add translate
  rad rad scale 0 0 1 90 270 arc tMatrix setmatrix lrx rad sub lry rad
  sub translate rad rad scale 0 0 1 270 90 arc tMatrix setmatrix
  closepath} bdef
/FlrRR {MlrRR stroke } bdef
/PlrRR {MlrRR fill } bdef
/MtbRR {/lry xdef /lrx xdef /uly xdef /ulx xdef /rad lrx ulx sub 2 div def
  newpath tMatrix currentmatrix pop ulx rad add uly rad add translate
  rad rad scale 0 0 1 180 360 arc tMatrix setmatrix lrx rad sub lry rad
  sub translate rad rad scale 0 0 1 0 180 arc tMatrix setmatrix
  closepath} bdef
/FtbRR {MtbRR stroke } bdef
/PtbRR {MtbRR fill } bdef
/stri 6 array def /dtri 6 array def
/smat 6 array def /dmat 6 array def
/tmat1 6 array def /tmat2 6 array def /dif 3 array def
/asub {/ind2 exch def /ind1 exch def dup dup
  ind1 get exch ind2 get sub exch } bdef
/tri_to_matrix {
  2 0 asub 3 1 asub 4 0 asub 5 1 asub
  dup 0 get exch 1 get 7 -1 roll astore } bdef
/compute_transform {
  dmat dtri tri_to_matrix tmat1 invertmatrix 
  smat stri tri_to_matrix tmat2 concatmatrix } bdef
/ds {stri astore pop} bdef
/dt {dtri astore pop} bdef
/db {2 copy /cols xdef /rows xdef mul dup string
  currentfile exch readhexstring pop
  /bmap xdef pop pop} bdef
/it {gs np dtri aload pop moveto lineto lineto cp c
  cols rows 8 compute_transform 
  {bmap} image gr}bdef
/il {newpath moveto lineto stroke}bdef
currentdict end def
%%EndProlog

%%BeginSetup
MathWorks begin

0 cap

end
%%EndSetup

%%Page: 1 1
%%BeginPageSetup
%%PageBoundingBox:    46   187   552   593
MathWorks begin
bpage
%%EndPageSetup

%%BeginObject: obj1
bplot

/dpi2point 12 def
portraitMode 0216 7344 csm

  341   225  6078  4870 MR c np
92 dict begin %Colortable dictionary
/c0 { 0 0 0 sr} bdef
/c1 { 1 1 1 sr} bdef
/c2 { 1 0 0 sr} bdef
/c3 { 0 1 0 sr} bdef
/c4 { 0 0 1 sr} bdef
/c5 { 1 1 0 sr} bdef
/c6 { 1 0 1 sr} bdef
/c7 { 0 1 1 sr} bdef
c0
1 j
1 sg
   0    0 6920 5190 PR
6 w
0 4229 5363 0 0 -4229 899 4618 4 MP
PP
-5363 0 0 4229 5363 0 0 -4229 899 4618 5 MP stroke
4 w
DO
SO
6 w
0 sg
 899 4618 mt 6262 4618 L
 899  389 mt 6262  389 L
 899 4618 mt  899  389 L
6262 4618 mt 6262  389 L
 899 4618 mt 6262 4618 L
 899 4618 mt  899  389 L
 899 4618 mt  899 4564 L
 899  389 mt  899  442 L
%%IncludeResource: font Times-Roman
/Times-Roman /ISOLatin1Encoding 216 FMSR

 845 4845 mt 
(0) s
1971 4618 mt 1971 4564 L
1971  389 mt 1971  442 L
1917 4845 mt 
(2) s
3044 4618 mt 3044 4564 L
3044  389 mt 3044  442 L
2990 4845 mt 
(4) s
4116 4618 mt 4116 4564 L
4116  389 mt 4116  442 L
4062 4845 mt 
(6) s
5189 4618 mt 5189 4564 L
5189  389 mt 5189  442 L
5135 4845 mt 
(8) s
6262 4618 mt 6262 4564 L
6262  389 mt 6262  442 L
6154 4845 mt 
(10) s
 899 4618 mt  952 4618 L
6262 4618 mt 6208 4618 L
 756 4695 mt 
(0) s
 899 4013 mt  952 4013 L
6262 4013 mt 6208 4013 L
 594 4090 mt 
(0.1) s
 899 3409 mt  952 3409 L
6262 3409 mt 6208 3409 L
 594 3486 mt 
(0.2) s
 899 2805 mt  952 2805 L
6262 2805 mt 6208 2805 L
 594 2882 mt 
(0.3) s
 899 2201 mt  952 2201 L
6262 2201 mt 6208 2201 L
 594 2278 mt 
(0.4) s
 899 1597 mt  952 1597 L
6262 1597 mt 6208 1597 L
 594 1674 mt 
(0.5) s
 899  993 mt  952  993 L
6262  993 mt 6208  993 L
 594 1070 mt 
(0.6) s
 899  389 mt  952  389 L
6262  389 mt 6208  389 L
 594  466 mt 
(0.7) s
 899 4618 mt 6262 4618 L
 899  389 mt 6262  389 L
 899 4618 mt  899  389 L
6262 4618 mt 6262  389 L
gs 899 389 5364 4230 MR c np
54 0 54 0 53 0 54 0 54 0 53 0 54 0 54 0 
53 0 54 0 53 0 54 1 54 0 53 0 54 0 54 0 
53 0 54 0 53 0 54 0 54 0 53 0 54 0 54 0 
53 0 54 0 54 0 53 0 54 0 53 0 54 0 54 0 
53 0 54 0 54 0 53 0 54 0 53 0 54 0 54 0 
53 0 54 0 54 0 53 0 54 0 53 0 54 0 54 0 
53 0 54 0 54 0 53 0 54 0 54 0 53 1 54 0 
53 1 54 1 54 2 53 3 54 3 54 5 53 7 54 10 
53 13 54 17 54 23 53 29 54 38 54 48 53 60 54 74 
53 91 54 108 54 129 53 150 54 173 54 195 53 217 54 237 
54 252 53 265 54 269 53 266 54 255 54 232 53 199 54 155 
54 100 53 36 54 -38 53 -117 54 -199 54 -283 53 -362 54 -435 
54 -498 53 -548 54 -583 952 4016 100 MP stroke
53 -602 899 4618 2 MP stroke
gr

1623  875 mt 
(k = 0) s
gs 899 389 5364 4230 MR c np
54 0 54 0 53 0 54 1 54 0 53 0 54 0 54 0 
53 0 54 0 53 0 54 0 54 0 53 0 54 0 54 0 
53 0 54 0 53 0 54 0 54 0 53 0 54 0 54 0 
53 0 54 0 54 0 53 0 54 0 53 0 54 0 54 0 
53 0 54 0 54 0 53 0 54 0 53 0 54 0 54 0 
53 0 54 0 54 0 53 0 54 0 53 0 54 0 54 0 
53 1 54 0 54 1 53 1 54 2 54 3 53 3 54 5 
53 6 54 8 54 11 53 14 54 18 54 23 53 30 54 36 
53 44 54 55 54 64 53 77 54 90 54 104 53 117 54 133 
53 146 54 160 54 172 53 181 54 188 54 191 53 191 54 185 
54 176 53 160 54 141 53 115 54 86 54 52 53 16 54 -23 
54 -65 53 -105 54 -145 53 -185 54 -222 54 -256 53 -286 54 -312 
54 -333 53 -349 54 -360 952 4252 100 MP stroke
53 -366 899 4618 2 MP stroke
gr

1783 1533 mt 
(k = 1) s
gs 899 389 5364 4230 MR c np
54 0 54 0 53 0 54 0 54 0 53 0 54 0 54 0 
53 0 54 0 53 0 54 0 54 0 53 0 54 0 54 0 
53 0 54 0 53 0 54 0 54 0 53 0 54 0 54 0 
53 0 54 0 54 0 53 0 54 0 53 0 54 0 54 0 
53 0 54 0 54 0 53 0 54 0 53 0 54 0 54 1 
53 1 54 1 54 1 53 2 54 2 53 4 54 5 54 6 
53 8 54 11 54 15 53 18 54 22 54 29 53 35 54 42 
53 51 54 61 54 71 53 83 54 94 54 106 53 118 54 129 
53 139 54 148 54 154 53 159 54 159 54 157 53 150 54 140 
53 127 54 109 54 88 53 64 54 39 54 11 53 -16 54 -43 
54 -70 53 -93 54 -115 53 -133 54 -147 54 -158 53 -163 54 -166 
54 -165 53 -161 54 -154 53 -145 54 -136 54 -124 53 -115 54 -104 
54 -96 53 -90 54 -84 952 4535 100 MP stroke
53 -83 899 4618 2 MP stroke
gr

2266 1979 mt 
(k = 2) s
gs 899 389 5364 4230 MR c np
54 0 54 0 53 0 54 0 54 0 53 0 54 0 54 0 
53 0 54 0 53 0 54 0 54 0 53 0 54 0 54 0 
53 0 54 0 53 0 54 1 54 0 53 1 54 1 54 2 
53 2 54 3 54 4 53 5 54 7 53 9 54 12 54 15 
53 19 54 24 54 30 53 36 54 44 53 53 54 61 54 72 
53 83 54 93 54 105 53 115 54 125 53 135 54 141 54 147 
53 150 54 149 54 146 53 140 54 128 54 116 53 98 54 78 
53 56 54 33 54 8 53 -18 54 -42 54 -65 53 -87 54 -106 
53 -121 54 -135 54 -143 53 -149 54 -151 54 -151 53 -146 54 -140 
53 -132 54 -123 54 -112 53 -100 54 -89 54 -78 53 -68 54 -57 
54 -48 53 -40 54 -33 53 -26 54 -21 54 -17 53 -13 54 -10 
54 -7 53 -6 54 -4 53 -3 54 -2 54 -1 53 -1 54 -1 
54 -1 53 0 54 0 952 4617 100 MP stroke
53 -1 899 4618 2 MP stroke
gr

3285 2092 mt 
(k = 4) s
3531 5046 mt 
(a) s
 539 2677 mt  -90 rotate
(p\(a\)) s
90 rotate

end

eplot
%%EndObject

epage
end

showpage

%%Trailer
%%EOF
