%!PS-Adobe-2.0 EPSF-2.0
%%Title: ray_walk.eps
%%Creator: fig2dev Version 3.2 Patchlevel 0-beta3
%%CreationDate: Tue Feb 17 12:26:45 1998
%%For: mea1@abo.egr.duke.edu ()
%%Orientation: Portrait
%%BoundingBox: 0 0 523 204
%%Pages: 0
%%BeginSetup
%%EndSetup
%%Magnification: 1.0000
%%EndComments
/$F2psDict 200 dict def
$F2psDict begin
$F2psDict /mtrx matrix put
/col-1 {0 setgray} bind def
/col0 {0.000 0.000 0.000 srgb} bind def
/col1 {0.000 0.000 1.000 srgb} bind def
/col2 {0.000 1.000 0.000 srgb} bind def
/col3 {0.000 1.000 1.000 srgb} bind def
/col4 {1.000 0.000 0.000 srgb} bind def
/col5 {1.000 0.000 1.000 srgb} bind def
/col6 {1.000 1.000 0.000 srgb} bind def
/col7 {1.000 1.000 1.000 srgb} bind def
/col8 {0.000 0.000 0.560 srgb} bind def
/col9 {0.000 0.000 0.690 srgb} bind def
/col10 {0.000 0.000 0.820 srgb} bind def
/col11 {0.530 0.810 1.000 srgb} bind def
/col12 {0.000 0.560 0.000 srgb} bind def
/col13 {0.000 0.690 0.000 srgb} bind def
/col14 {0.000 0.820 0.000 srgb} bind def
/col15 {0.000 0.560 0.560 srgb} bind def
/col16 {0.000 0.690 0.690 srgb} bind def
/col17 {0.000 0.820 0.820 srgb} bind def
/col18 {0.560 0.000 0.000 srgb} bind def
/col19 {0.690 0.000 0.000 srgb} bind def
/col20 {0.820 0.000 0.000 srgb} bind def
/col21 {0.560 0.000 0.560 srgb} bind def
/col22 {0.690 0.000 0.690 srgb} bind def
/col23 {0.820 0.000 0.820 srgb} bind def
/col24 {0.500 0.190 0.000 srgb} bind def
/col25 {0.630 0.250 0.000 srgb} bind def
/col26 {0.750 0.380 0.000 srgb} bind def
/col27 {1.000 0.500 0.500 srgb} bind def
/col28 {1.000 0.630 0.630 srgb} bind def
/col29 {1.000 0.750 0.750 srgb} bind def
/col30 {1.000 0.880 0.880 srgb} bind def
/col31 {1.000 0.840 0.000 srgb} bind def

end
save
-107.0 275.0 translate
1 -1 scale

/cp {closepath} bind def
/ef {eofill} bind def
/gr {grestore} bind def
/gs {gsave} bind def
/sa {save} bind def
/rs {restore} bind def
/l {lineto} bind def
/m {moveto} bind def
/rm {rmoveto} bind def
/n {newpath} bind def
/s {stroke} bind def
/sh {show} bind def
/slc {setlinecap} bind def
/slj {setlinejoin} bind def
/slw {setlinewidth} bind def
/srgb {setrgbcolor} bind def
/rot {rotate} bind def
/sc {scale} bind def
/sd {setdash} bind def
/ff {findfont} bind def
/sf {setfont} bind def
/scf {scalefont} bind def
/sw {stringwidth} bind def
/tr {translate} bind def
/tnt {dup dup currentrgbcolor
  4 -2 roll dup 1 exch sub 3 -1 roll mul add
  4 -2 roll dup 1 exch sub 3 -1 roll mul add
  4 -2 roll dup 1 exch sub 3 -1 roll mul add srgb}
  bind def
/shd {dup dup currentrgbcolor 4 -2 roll mul 4 -2 roll mul
  4 -2 roll mul srgb} bind def
 /DrawEllipse {
	/endangle exch def
	/startangle exch def
	/yrad exch def
	/xrad exch def
	/y exch def
	/x exch def
	/savematrix mtrx currentmatrix def
	x y tr xrad yrad sc 0 0 1 startangle endangle arc
	closepath
	savematrix setmatrix
	} def

/$F2psBegin {$F2psDict begin /$F2psEnteredState save def} def
/$F2psEnd {$F2psEnteredState restore end} def
%%EndProlog

$F2psBegin
10 setmiterlimit
n -1000 5567 m -1000 -1000 l 11498 -1000 l 11498 5567 l cp clip
 0.06000 0.06000 sc
% Polyline
7.500 slw
gs  clippath
3630 4053 m 3600 4173 l 3570 4053 l 3570 4215 l 3630 4215 l cp
3570 1347 m 3600 1227 l 3630 1347 l 3630 1185 l 3570 1185 l cp
clip
n 3600 1200 m 3600 4200 l gs col-1 s gr gr

% arrowhead
n 3570 1347 m 3600 1227 l 3630 1347 l  col-1 s
% arrowhead
n 3630 4053 m 3600 4173 l 3570 4053 l  col-1 s
% Polyline
gs  clippath
5253 2670 m 5373 2700 l 5253 2730 l 5415 2730 l 5415 2670 l cp
1947 2730 m 1827 2700 l 1947 2670 l 1785 2670 l 1785 2730 l cp
clip
n 1800 2700 m 5400 2700 l gs col-1 s gr gr

% arrowhead
n 1947 2730 m 1827 2700 l 1947 2670 l  col-1 s
% arrowhead
n 5253 2670 m 5373 2700 l 5253 2730 l  col-1 s
% Polyline
15.000 slw
gs  clippath
3925 2024 m 4097 1846 l 4029 2084 l 4192 1804 l 4088 1744 l cp
clip
n 3600 2700 m 4125 1800 l gs col-1 s gr gr

% arrowhead
n 3925 2024 m 4097 1846 l 4029 2084 l 3977 2054 l 3925 2024 l  cp gs 0.00 setgray ef gr  col-1 s
% Polyline
gs  clippath
3420 2418 m 3192 2517 l 3346 2323 l 3090 2521 l 3163 2616 l cp
clip
n 4125 1800 m 3150 2550 l gs col-1 s gr gr

% arrowhead
n 3420 2418 m 3192 2517 l 3346 2323 l 3383 2371 l 3420 2418 l  cp gs 0.00 setgray ef gr  col-1 s
% Polyline
gs  clippath
3863 3066 m 4008 3265 l 3786 3158 l 4035 3365 l 4111 3273 l cp
clip
n 3150 2550 m 4050 3300 l gs col-1 s gr gr

% arrowhead
n 3863 3066 m 4008 3265 l 3786 3158 l 3824 3112 l 3863 3066 l  cp gs 0.00 setgray ef gr  col-1 s
% Polyline
gs  clippath
4341 2354 m 4481 2150 l 4453 2396 l 4567 2093 l 4454 2051 l cp
clip
n 4050 3300 m 4500 2100 l gs col-1 s gr gr

% arrowhead
n 4341 2354 m 4481 2150 l 4453 2396 l 4397 2375 l 4341 2354 l  cp gs 0.00 setgray ef gr  col-1 s
% Polyline
gs  clippath
5022 3010 m 5075 3251 l 4915 3064 l 5060 3354 l 5167 3300 l cp
clip
n 4500 2100 m 5100 3300 l gs col-1 s gr gr

% arrowhead
n 5022 3010 m 5075 3251 l 4915 3064 l 4969 3037 l 5022 3010 l  cp gs 0.00 setgray ef gr  col-1 s
% Polyline
30.000 slw
gs  clippath
4849 3135 m 5049 3279 l 4805 3247 l 5119 3372 l 5164 3261 l cp
clip
n 3600 2700 m 5100 3300 l gs col-1 s gr gr

% arrowhead
15.000 slw
n 4849 3135 m 5049 3279 l 4805 3247 l 4827 3191 l 4849 3135 l  cp gs 0.00 setgray ef gr  col-1 s
/Times-Roman ff 240.00 scf sf
5775 2775 m
gs 1 -1 sc (Real) dup sw pop 2 div neg 0 rm  col-1 sh gr
/Times-BoldItalic ff 300.00 scf sf
4575 3375 m
gs 1 -1 sc (r) dup sw pop 2 div neg 0 rm  col-1 sh gr
/Times-Roman ff 240.00 scf sf
3600 4500 m
gs 1 -1 sc (Imaginary) dup sw pop 2 div neg 0 rm  col-1 sh gr
7.500 slw
% Ellipse
n 8100 2700 1200 1200 0 360 DrawEllipse gs col0 s gr

30.000 slw
% Ellipse
n 8100 2700 600 600 0 360 DrawEllipse gs col0 s gr

15.000 slw
% Ellipse
n 8100 2700 825 825 0 360 DrawEllipse gs col0 s gr

45.000 slw
% Ellipse
n 8100 2700 375 375 0 360 DrawEllipse gs col0 s gr

% Polyline
7.500 slw
gs  clippath
8130 4053 m 8100 4173 l 8070 4053 l 8070 4215 l 8130 4215 l cp
8070 1347 m 8100 1227 l 8130 1347 l 8130 1185 l 8070 1185 l cp
clip
n 8100 1200 m 8100 4200 l gs col-1 s gr gr

% arrowhead
n 8070 1347 m 8100 1227 l 8130 1347 l  col-1 s
% arrowhead
n 8130 4053 m 8100 4173 l 8070 4053 l  col-1 s
% Polyline
gs  clippath
9753 2670 m 9873 2700 l 9753 2730 l 9915 2730 l 9915 2670 l cp
6447 2730 m 6327 2700 l 6447 2670 l 6285 2670 l 6285 2730 l cp
clip
n 6300 2700 m 9900 2700 l gs col-1 s gr gr

% arrowhead
n 6447 2730 m 6327 2700 l 6447 2670 l  col-1 s
% arrowhead
n 9753 2670 m 9873 2700 l 9753 2730 l  col-1 s
/Times-Roman ff 240.00 scf sf
10275 2775 m
gs 1 -1 sc (Real) dup sw pop 2 div neg 0 rm  col-1 sh gr
/Times-Roman ff 240.00 scf sf
8100 4500 m
gs 1 -1 sc (Imaginary) dup sw pop 2 div neg 0 rm  col-1 sh gr
$F2psEnd
rs
