%!PS-Adobe-2.0 EPSF-2.0
%%Title: ric_walk.eps
%%Creator: fig2dev Version 3.2 Patchlevel 0-beta3
%%CreationDate: Tue Feb 17 14:38:01 1998
%%For: mea1@abo.egr.duke.edu ()
%%Orientation: Portrait
%%BoundingBox: 0 0 730 204
%%Pages: 0
%%BeginSetup
%%EndSetup
%%Magnification: 1.0000
%%EndComments
/$F2psDict 200 dict def
$F2psDict begin
$F2psDict /mtrx matrix put
/col-1 {0 setgray} bind def
/col0 {0.000 0.000 0.000 srgb} bind def
/col1 {0.000 0.000 1.000 srgb} bind def
/col2 {0.000 1.000 0.000 srgb} bind def
/col3 {0.000 1.000 1.000 srgb} bind def
/col4 {1.000 0.000 0.000 srgb} bind def
/col5 {1.000 0.000 1.000 srgb} bind def
/col6 {1.000 1.000 0.000 srgb} bind def
/col7 {1.000 1.000 1.000 srgb} bind def
/col8 {0.000 0.000 0.560 srgb} bind def
/col9 {0.000 0.000 0.690 srgb} bind def
/col10 {0.000 0.000 0.820 srgb} bind def
/col11 {0.530 0.810 1.000 srgb} bind def
/col12 {0.000 0.560 0.000 srgb} bind def
/col13 {0.000 0.690 0.000 srgb} bind def
/col14 {0.000 0.820 0.000 srgb} bind def
/col15 {0.000 0.560 0.560 srgb} bind def
/col16 {0.000 0.690 0.690 srgb} bind def
/col17 {0.000 0.820 0.820 srgb} bind def
/col18 {0.560 0.000 0.000 srgb} bind def
/col19 {0.690 0.000 0.000 srgb} bind def
/col20 {0.820 0.000 0.000 srgb} bind def
/col21 {0.560 0.000 0.560 srgb} bind def
/col22 {0.690 0.000 0.690 srgb} bind def
/col23 {0.820 0.000 0.820 srgb} bind def
/col24 {0.500 0.190 0.000 srgb} bind def
/col25 {0.630 0.250 0.000 srgb} bind def
/col26 {0.750 0.380 0.000 srgb} bind def
/col27 {1.000 0.500 0.500 srgb} bind def
/col28 {1.000 0.630 0.630 srgb} bind def
/col29 {1.000 0.750 0.750 srgb} bind def
/col30 {1.000 0.880 0.880 srgb} bind def
/col31 {1.000 0.840 0.000 srgb} bind def

end
save
-107.0 257.0 translate
1 -1 scale

/cp {closepath} bind def
/ef {eofill} bind def
/gr {grestore} bind def
/gs {gsave} bind def
/sa {save} bind def
/rs {restore} bind def
/l {lineto} bind def
/m {moveto} bind def
/rm {rmoveto} bind def
/n {newpath} bind def
/s {stroke} bind def
/sh {show} bind def
/slc {setlinecap} bind def
/slj {setlinejoin} bind def
/slw {setlinewidth} bind def
/srgb {setrgbcolor} bind def
/rot {rotate} bind def
/sc {scale} bind def
/sd {setdash} bind def
/ff {findfont} bind def
/sf {setfont} bind def
/scf {scalefont} bind def
/sw {stringwidth} bind def
/tr {translate} bind def
/tnt {dup dup currentrgbcolor
  4 -2 roll dup 1 exch sub 3 -1 roll mul add
  4 -2 roll dup 1 exch sub 3 -1 roll mul add
  4 -2 roll dup 1 exch sub 3 -1 roll mul add srgb}
  bind def
/shd {dup dup currentrgbcolor 4 -2 roll mul 4 -2 roll mul
  4 -2 roll mul srgb} bind def
 /DrawEllipse {
	/endangle exch def
	/startangle exch def
	/yrad exch def
	/xrad exch def
	/y exch def
	/x exch def
	/savematrix mtrx currentmatrix def
	x y tr xrad yrad sc 0 0 1 startangle endangle arc
	closepath
	savematrix setmatrix
	} def

/$F2psBegin {$F2psDict begin /$F2psEnteredState save def} def
/$F2psEnd {$F2psEnteredState restore end} def
%%EndProlog

$F2psBegin
10 setmiterlimit
n -1000 5267 m -1000 -1000 l 14948 -1000 l 14948 5267 l cp clip
 0.06000 0.06000 sc
30.000 slw
% Ellipse
n 11400 2400 600 600 0 360 DrawEllipse gs col0 s gr

7.500 slw
% Ellipse
n 11400 2400 1200 1200 0 360 DrawEllipse gs col0 s gr

15.000 slw
% Ellipse
n 11400 2400 825 825 0 360 DrawEllipse gs col0 s gr

45.000 slw
% Ellipse
n 11400 2400 375 375 0 360 DrawEllipse gs col0 s gr

% Polyline
7.500 slw
gs  clippath
9930 3753 m 9900 3873 l 9870 3753 l 9870 3915 l 9930 3915 l cp
9870 1047 m 9900 927 l 9930 1047 l 9930 885 l 9870 885 l cp
clip
n 9900 900 m 9900 3900 l gs col-1 s gr gr

% arrowhead
n 9870 1047 m 9900 927 l 9930 1047 l  col-1 s
% arrowhead
n 9930 3753 m 9900 3873 l 9870 3753 l  col-1 s
% Polyline
gs  clippath
13203 2370 m 13323 2400 l 13203 2430 l 13365 2430 l 13365 2370 l cp
8247 2430 m 8127 2400 l 8247 2370 l 8085 2370 l 8085 2430 l cp
clip
n 8100 2400 m 13350 2400 l gs col-1 s gr gr

% arrowhead
n 8247 2430 m 8127 2400 l 8247 2370 l  col-1 s
% arrowhead
n 13203 2370 m 13323 2400 l 13203 2430 l  col-1 s
% Polyline
30.000 slw
gs  clippath
4806 2340 m 5046 2400 l 4806 2460 l 5145 2460 l 5145 2340 l cp
clip
n 3600 2400 m 5100 2400 l gs col-1 s gr gr

% arrowhead
15.000 slw
n 4806 2340 m 5046 2400 l 4806 2460 l 4806 2400 l 4806 2340 l  cp gs 0.00 setgray ef gr  col-1 s
% Polyline
7.500 slw
gs  clippath
6903 2370 m 7023 2400 l 6903 2430 l 7065 2430 l 7065 2370 l cp
1947 2430 m 1827 2400 l 1947 2370 l 1785 2370 l 1785 2430 l cp
clip
n 1800 2400 m 7050 2400 l gs col-1 s gr gr

% arrowhead
n 1947 2430 m 1827 2400 l 1947 2370 l  col-1 s
% arrowhead
n 6903 2370 m 7023 2400 l 6903 2430 l  col-1 s
% Polyline
15.000 slw
gs  clippath
5425 1724 m 5597 1546 l 5529 1784 l 5692 1504 l 5588 1444 l cp
clip
n 5100 2400 m 5625 1500 l gs col-1 s gr gr

% arrowhead
n 5425 1724 m 5597 1546 l 5529 1784 l 5477 1754 l 5425 1724 l  cp gs 0.00 setgray ef gr  col-1 s
% Polyline
gs  clippath
4920 2118 m 4692 2217 l 4846 2023 l 4590 2221 l 4663 2316 l cp
clip
n 5625 1500 m 4650 2250 l gs col-1 s gr gr

% arrowhead
n 4920 2118 m 4692 2217 l 4846 2023 l 4883 2071 l 4920 2118 l  cp gs 0.00 setgray ef gr  col-1 s
% Polyline
gs  clippath
5363 2766 m 5508 2965 l 5286 2858 l 5535 3065 l 5611 2973 l cp
clip
n 4650 2250 m 5550 3000 l gs col-1 s gr gr

% arrowhead
n 5363 2766 m 5508 2965 l 5286 2858 l 5324 2812 l 5363 2766 l  cp gs 0.00 setgray ef gr  col-1 s
% Polyline
gs  clippath
5841 2054 m 5981 1850 l 5953 2096 l 6067 1793 l 5954 1751 l cp
clip
n 5550 3000 m 6000 1800 l gs col-1 s gr gr

% arrowhead
n 5841 2054 m 5981 1850 l 5953 2096 l 5897 2075 l 5841 2054 l  cp gs 0.00 setgray ef gr  col-1 s
% Polyline
gs  clippath
6522 2710 m 6575 2951 l 6415 2764 l 6560 3054 l 6667 3000 l cp
clip
n 6000 1800 m 6600 3000 l gs col-1 s gr gr

% arrowhead
n 6522 2710 m 6575 2951 l 6415 2764 l 6469 2737 l 6522 2710 l  cp gs 0.00 setgray ef gr  col-1 s
% Polyline
7.500 slw
gs  clippath
3630 3753 m 3600 3873 l 3570 3753 l 3570 3915 l 3630 3915 l cp
3570 1047 m 3600 927 l 3630 1047 l 3630 885 l 3570 885 l cp
clip
n 3600 900 m 3600 3900 l gs col-1 s gr gr

% arrowhead
n 3570 1047 m 3600 927 l 3630 1047 l  col-1 s
% arrowhead
n 3630 3753 m 3600 3873 l 3570 3753 l  col-1 s
% Polyline
30.000 slw
gs  clippath
6323 2884 m 6547 2989 l 6300 3001 l 6632 3068 l 6656 2950 l cp
clip
n 3600 2400 m 6600 3000 l gs col-1 s gr gr

% arrowhead
15.000 slw
n 6323 2884 m 6547 2989 l 6300 3001 l 6312 2942 l 6323 2884 l  cp gs 0.00 setgray ef gr  col-1 s
/Times-Roman ff 240.00 scf sf
13725 2475 m
gs 1 -1 sc (Real) dup sw pop 2 div neg 0 rm  col-1 sh gr
/Times-Roman ff 240.00 scf sf
9900 4200 m
gs 1 -1 sc (Imaginary) dup sw pop 2 div neg 0 rm  col-1 sh gr
/Times-Roman ff 240.00 scf sf
7425 2475 m
gs 1 -1 sc (Real) dup sw pop 2 div neg 0 rm  col-1 sh gr
/Times-BoldItalic ff 300.00 scf sf
6150 3150 m
gs 1 -1 sc (r) dup sw pop 2 div neg 0 rm  col-1 sh gr
/Times-Roman ff 240.00 scf sf
3600 4200 m
gs 1 -1 sc (Imaginary) dup sw pop 2 div neg 0 rm  col-1 sh gr
/Times-BoldItalic ff 300.00 scf sf
4275 2345 m
gs 1 -1 sc (s) dup sw pop 2 div neg 0 rm  col-1 sh gr
$F2psEnd
rs
