%!PS-Adobe-2.0 EPSF-2.0
%%Title: beamform.fig
%%Creator: fig2dev Version 3.1 Patchlevel 1
%%CreationDate: Mon Aug 18 17:28:34 1997
%%For: mea1@moomin (RHS Linux User)
%%Orientation: Portrait
%%BoundingBox: 0 0 492 464
%%Pages: 0
%%BeginSetup
%%IncludeFeature: *PageSize Letter
%%EndSetup
%%EndComments
/$F2psDict 200 dict def
$F2psDict begin
$F2psDict /mtrx matrix put
/col-1 {} def
/col0 {0.000 0.000 0.000 srgb} bind def
/col1 {0.000 0.000 1.000 srgb} bind def
/col2 {0.000 1.000 0.000 srgb} bind def
/col3 {0.000 1.000 1.000 srgb} bind def
/col4 {1.000 0.000 0.000 srgb} bind def
/col5 {1.000 0.000 1.000 srgb} bind def
/col6 {1.000 1.000 0.000 srgb} bind def
/col7 {1.000 1.000 1.000 srgb} bind def
/col8 {0.000 0.000 0.560 srgb} bind def
/col9 {0.000 0.000 0.690 srgb} bind def
/col10 {0.000 0.000 0.820 srgb} bind def
/col11 {0.530 0.810 1.000 srgb} bind def
/col12 {0.000 0.560 0.000 srgb} bind def
/col13 {0.000 0.690 0.000 srgb} bind def
/col14 {0.000 0.820 0.000 srgb} bind def
/col15 {0.000 0.560 0.560 srgb} bind def
/col16 {0.000 0.690 0.690 srgb} bind def
/col17 {0.000 0.820 0.820 srgb} bind def
/col18 {0.560 0.000 0.000 srgb} bind def
/col19 {0.690 0.000 0.000 srgb} bind def
/col20 {0.820 0.000 0.000 srgb} bind def
/col21 {0.560 0.000 0.560 srgb} bind def
/col22 {0.690 0.000 0.690 srgb} bind def
/col23 {0.820 0.000 0.820 srgb} bind def
/col24 {0.500 0.190 0.000 srgb} bind def
/col25 {0.630 0.250 0.000 srgb} bind def
/col26 {0.750 0.380 0.000 srgb} bind def
/col27 {1.000 0.500 0.500 srgb} bind def
/col28 {1.000 0.630 0.630 srgb} bind def
/col29 {1.000 0.750 0.750 srgb} bind def
/col30 {1.000 0.880 0.880 srgb} bind def
/col31 {1.000 0.840 0.000 srgb} bind def

end
save
-42.0 541.0 translate
1 -1 scale

/clp {closepath} bind def
/ef {eofill} bind def
/gr {grestore} bind def
/gs {gsave} bind def
/l {lineto} bind def
/m {moveto} bind def
/n {newpath} bind def
/s {stroke} bind def
/slc {setlinecap} bind def
/slj {setlinejoin} bind def
/slw {setlinewidth} bind def
/srgb {setrgbcolor} bind def
/rot {rotate} bind def
/sc {scale} bind def
/tr {translate} bind def
/tnt {dup dup currentrgbcolor
  4 -2 roll dup 1 exch sub 3 -1 roll mul add
  4 -2 roll dup 1 exch sub 3 -1 roll mul add
  4 -2 roll dup 1 exch sub 3 -1 roll mul add srgb}
  bind def
/shd {dup dup currentrgbcolor 4 -2 roll mul 4 -2 roll mul
  4 -2 roll mul srgb} bind def
 /DrawEllipse {
	/endangle exch def
	/startangle exch def
	/yrad exch def
	/xrad exch def
	/y exch def
	/x exch def
	/savematrix mtrx currentmatrix def
	x y tr xrad yrad sc 0 0 1 startangle endangle arc
	closepath
	savematrix setmatrix
	} def

/$F2psBegin {$F2psDict begin /$F2psEnteredState save def} def
/$F2psEnd {$F2psEnteredState restore end} def
%%EndProlog

$F2psBegin
10 setmiterlimit
 0.06000 0.06000 sc
7.500 slw
% Polyline
n 3900 6300 m 5925 6300 l gs col7 1.00 shd ef gr  gs col-1 s gr 
% Polyline
n 3900 6900 m 5925 6900 l gs col7 1.00 shd ef gr  gs col-1 s gr 
% Polyline
n 3900 7500 m 5925 7500 l gs col7 1.00 shd ef gr  gs col-1 s gr 
% Polyline
n 3900 8100 m 5925 8100 l gs col7 1.00 shd ef gr  gs col-1 s gr 
% Polyline
n 3900 8700 m 5925 8700 l gs col7 1.00 shd ef gr  gs col-1 s gr 
% Polyline
n 3300 1800 m 5925 1800 l gs col7 1.00 shd ef gr  gs col-1 s gr 
% Polyline
n 3300 2400 m 5925 2400 l gs col7 1.00 shd ef gr  gs col-1 s gr 
% Polyline
n 3300 3000 m 5925 3000 l gs col7 1.00 shd ef gr  gs col-1 s gr 
% Polyline
n 3300 3600 m 5925 3600 l gs col7 1.00 shd ef gr  gs col-1 s gr 
% Polyline
n 3300 4200 m 5925 4200 l gs col7 1.00 shd ef gr  gs col-1 s gr 
0.000 slw
% Polyline
n 4800 6000 m 5700 6000 l  5700 6600 l  4800 6600 l  clp gs col7 1.00 shd ef gr 
% Polyline
n 4200 7200 m 5100 7200 l  5100 7800 l  4200 7800 l  clp gs col7 1.00 shd ef gr 
% Polyline
n 4350 6600 m 5250 6600 l  5250 7200 l  4350 7200 l  clp gs col7 1.00 shd ef gr 
% Polyline
n 4350 7800 m 5250 7800 l  5250 8400 l  4350 8400 l  clp gs col7 1.00 shd ef gr 
% Polyline
n 4800 8400 m 5700 8400 l  5700 9000 l  4800 9000 l  clp gs col7 1.00 shd ef gr 
% Polyline
n 2400 6600 m 3300 6600 l  3300 7200 l  2400 7200 l  clp gs col7 1.00 shd ef gr 
% Polyline
n 2400 7200 m 3300 7200 l  3300 7800 l  2400 7800 l  clp gs col7 1.00 shd ef gr 
% Polyline
n 2400 7800 m 3300 7800 l  3300 8400 l  2400 8400 l  clp gs col7 1.00 shd ef gr 
% Polyline
n 2400 6000 m 3300 6000 l  3300 6600 l  2400 6600 l  clp gs col7 1.00 shd ef gr 
% Polyline
n 2400 8400 m 3300 8400 l  3300 9000 l  2400 9000 l  clp gs col7 1.00 shd ef gr 
% Polyline
n 4800 1500 m 5700 1500 l  5700 2100 l  4800 2100 l  clp gs col7 1.00 shd ef gr 
% Polyline
n 4200 2700 m 5100 2700 l  5100 3300 l  4200 3300 l  clp gs col7 1.00 shd ef gr 
% Polyline
n 4350 2100 m 5250 2100 l  5250 2700 l  4350 2700 l  clp gs col7 1.00 shd ef gr 
% Polyline
n 4350 3300 m 5250 3300 l  5250 3900 l  4350 3900 l  clp gs col7 1.00 shd ef gr 
% Polyline
n 4800 3900 m 5700 3900 l  5700 4500 l  4800 4500 l  clp gs col7 1.00 shd ef gr 
% Polyline
n 1800 2100 m 2700 2100 l  2700 2700 l  1800 2700 l  clp gs col7 1.00 shd ef gr 
% Polyline
n 1800 2700 m 2700 2700 l  2700 3300 l  1800 3300 l  clp gs col7 1.00 shd ef gr 
% Polyline
n 1800 3300 m 2700 3300 l  2700 3900 l  1800 3900 l  clp gs col7 1.00 shd ef gr 
% Polyline
n 1800 3900 m 2700 3900 l  2700 4500 l  1800 4500 l  clp gs col7 1.00 shd ef gr 
% Polyline
n 1800 1500 m 2700 1500 l  2700 2100 l  1800 2100 l  clp gs col7 1.00 shd ef gr 
7.500 slw
% Polyline
n 4800 6300 m 5100 6300 l gs col7 1.00 shd ef gr  gs col-1 s gr 
% Polyline
n 5400 6300 m 5700 6300 l gs col7 1.00 shd ef gr  gs col-1 s gr 
% Interp Spline
n 5085 6300 m
	5098.97 6371.91 5107.72 6395.66 5120 6395 curveto
	5133.34 6394.28 5135.56 6333.25 5140 6315 curveto
	5150.52 6271.78 5157.47 6125.74 5185 6125 curveto
	5209.98 6124.33 5224.29 6256.06 5235 6295 curveto
	5247.17 6339.23 5256.86 6489.83 5285 6490 curveto
	5322.64 6490.23 5296.94 6238.44 5355 6230 curveto
	5367.34 6228.21 5377.34 6244.46 5395 6295 curveto
gs col7 1.00 shd ef gr  gs col-1 s gr

% Polyline
n 4200 7500 m 4500 7500 l gs col7 1.00 shd ef gr  gs col-1 s gr 
% Polyline
n 4800 7500 m 5100 7500 l gs col7 1.00 shd ef gr  gs col-1 s gr 
% Interp Spline
n 4485 7500 m
	4498.97 7571.91 4507.72 7595.66 4520 7595 curveto
	4533.34 7594.28 4535.56 7533.25 4540 7515 curveto
	4550.52 7471.78 4557.47 7325.74 4585 7325 curveto
	4609.98 7324.33 4624.29 7456.06 4635 7495 curveto
	4647.17 7539.23 4656.86 7689.83 4685 7690 curveto
	4722.64 7690.23 4696.94 7438.44 4755 7430 curveto
	4767.34 7428.21 4777.34 7444.46 4795 7495 curveto
gs col7 1.00 shd ef gr  gs col-1 s gr

% Polyline
n 4350 6900 m 4650 6900 l gs col7 1.00 shd ef gr  gs col-1 s gr 
% Polyline
n 4950 6900 m 5250 6900 l gs col7 1.00 shd ef gr  gs col-1 s gr 
% Interp Spline
n 4635 6900 m
	4648.97 6971.91 4657.72 6995.66 4670 6995 curveto
	4683.34 6994.28 4685.56 6933.25 4690 6915 curveto
	4700.52 6871.78 4707.47 6725.74 4735 6725 curveto
	4759.98 6724.33 4774.29 6856.06 4785 6895 curveto
	4797.17 6939.23 4806.86 7089.83 4835 7090 curveto
	4872.64 7090.23 4846.94 6838.44 4905 6830 curveto
	4917.34 6828.21 4927.34 6844.46 4945 6895 curveto
gs col7 1.00 shd ef gr  gs col-1 s gr

% Polyline
n 4350 8100 m 4650 8100 l gs col7 1.00 shd ef gr  gs col-1 s gr 
% Polyline
n 4950 8100 m 5250 8100 l gs col7 1.00 shd ef gr  gs col-1 s gr 
% Interp Spline
n 4635 8100 m
	4648.97 8171.91 4657.72 8195.66 4670 8195 curveto
	4683.34 8194.28 4685.56 8133.25 4690 8115 curveto
	4700.52 8071.78 4707.47 7925.74 4735 7925 curveto
	4759.98 7924.33 4774.29 8056.06 4785 8095 curveto
	4797.17 8139.23 4806.86 8289.83 4835 8290 curveto
	4872.64 8290.23 4846.94 8038.44 4905 8030 curveto
	4917.34 8028.21 4927.34 8044.46 4945 8095 curveto
gs col7 1.00 shd ef gr  gs col-1 s gr

% Polyline
n 4800 8700 m 5100 8700 l gs col7 1.00 shd ef gr  gs col-1 s gr 
% Polyline
n 5400 8700 m 5700 8700 l gs col7 1.00 shd ef gr  gs col-1 s gr 
% Interp Spline
n 5085 8700 m
	5098.97 8771.91 5107.72 8795.66 5120 8795 curveto
	5133.34 8794.28 5135.56 8733.25 5140 8715 curveto
	5150.52 8671.78 5157.47 8525.74 5185 8525 curveto
	5209.98 8524.33 5224.29 8656.06 5235 8695 curveto
	5247.17 8739.23 5256.86 8889.83 5285 8890 curveto
	5322.64 8890.23 5296.94 8638.44 5355 8630 curveto
	5367.34 8628.21 5377.34 8644.46 5395 8695 curveto
gs col7 1.00 shd ef gr  gs col-1 s gr

% Polyline
n 3900 6750 m 3300 6750 l  3300 7050 l  3900 7050 l  clp  gs col-1 s gr 
/Symbol findfont 330.00 scalefont setfont
3600 6975 m
gs 1 -1 sc (t) dup stringwidth pop 2 div neg 0 rmoveto  col-1 show gr
% Polyline
n 2400 6900 m 2700 6900 l gs col7 1.00 shd ef gr  gs col-1 s gr 
% Polyline
n 3000 6900 m 3300 6900 l gs col7 1.00 shd ef gr  gs col-1 s gr 
% Interp Spline
n 2685 6900 m
	2698.97 6971.91 2707.72 6995.66 2720 6995 curveto
	2733.34 6994.28 2735.56 6933.25 2740 6915 curveto
	2750.52 6871.78 2757.47 6725.74 2785 6725 curveto
	2809.98 6724.33 2824.29 6856.06 2835 6895 curveto
	2847.17 6939.23 2856.86 7089.83 2885 7090 curveto
	2922.64 7090.23 2896.94 6838.44 2955 6830 curveto
	2967.34 6828.21 2977.34 6844.46 2995 6895 curveto
gs col7 1.00 shd ef gr  gs col-1 s gr

% Polyline
n 3900 7350 m 3300 7350 l  3300 7650 l  3900 7650 l  clp  gs col-1 s gr 
/Symbol findfont 330.00 scalefont setfont
3600 7575 m
gs 1 -1 sc (t) dup stringwidth pop 2 div neg 0 rmoveto  col-1 show gr
% Polyline
n 2400 7500 m 2700 7500 l gs col7 1.00 shd ef gr  gs col-1 s gr 
% Polyline
n 3000 7500 m 3300 7500 l gs col7 1.00 shd ef gr  gs col-1 s gr 
% Interp Spline
n 2685 7500 m
	2698.97 7571.91 2707.72 7595.66 2720 7595 curveto
	2733.34 7594.28 2735.56 7533.25 2740 7515 curveto
	2750.52 7471.78 2757.47 7325.74 2785 7325 curveto
	2809.98 7324.33 2824.29 7456.06 2835 7495 curveto
	2847.17 7539.23 2856.86 7689.83 2885 7690 curveto
	2922.64 7690.23 2896.94 7438.44 2955 7430 curveto
	2967.34 7428.21 2977.34 7444.46 2995 7495 curveto
gs col7 1.00 shd ef gr  gs col-1 s gr

% Polyline
n 3900 7950 m 3300 7950 l  3300 8250 l  3900 8250 l  clp  gs col-1 s gr 
/Symbol findfont 330.00 scalefont setfont
3600 8175 m
gs 1 -1 sc (t) dup stringwidth pop 2 div neg 0 rmoveto  col-1 show gr
% Polyline
n 2400 8100 m 2700 8100 l gs col7 1.00 shd ef gr  gs col-1 s gr 
% Polyline
n 3000 8100 m 3300 8100 l gs col7 1.00 shd ef gr  gs col-1 s gr 
% Interp Spline
n 2685 8100 m
	2698.97 8171.91 2707.72 8195.66 2720 8195 curveto
	2733.34 8194.28 2735.56 8133.25 2740 8115 curveto
	2750.52 8071.78 2757.47 7925.74 2785 7925 curveto
	2809.98 7924.33 2824.29 8056.06 2835 8095 curveto
	2847.17 8139.23 2856.86 8289.83 2885 8290 curveto
	2922.64 8290.23 2896.94 8038.44 2955 8030 curveto
	2967.34 8028.21 2977.34 8044.46 2995 8095 curveto
gs col7 1.00 shd ef gr  gs col-1 s gr

15.000 slw
% Ellipse
n 1950 7500 309 309 0 360 DrawEllipse gs col-1 s gr

/Symbol findfont 360.00 scalefont setfont
1950 7650 m
gs 1 -1 sc (S) dup stringwidth pop 2 div neg 0 rmoveto  col-1 show gr
7.500 slw
% Polyline
n 3900 6150 m 3300 6150 l  3300 6450 l  3900 6450 l  clp  gs col-1 s gr 
/Symbol findfont 330.00 scalefont setfont
3600 6375 m
gs 1 -1 sc (t) dup stringwidth pop 2 div neg 0 rmoveto  col-1 show gr
% Polyline
n 2400 6300 m 2700 6300 l gs col7 1.00 shd ef gr  gs col-1 s gr 
% Polyline
n 3000 6300 m 3300 6300 l gs col7 1.00 shd ef gr  gs col-1 s gr 
% Interp Spline
n 2685 6300 m
	2698.97 6371.91 2707.72 6395.66 2720 6395 curveto
	2733.34 6394.28 2735.56 6333.25 2740 6315 curveto
	2750.52 6271.78 2757.47 6125.74 2785 6125 curveto
	2809.98 6124.33 2824.29 6256.06 2835 6295 curveto
	2847.17 6339.23 2856.86 6489.83 2885 6490 curveto
	2922.64 6490.23 2896.94 6238.44 2955 6230 curveto
	2967.34 6228.21 2977.34 6244.46 2995 6295 curveto
gs col7 1.00 shd ef gr  gs col-1 s gr

% Polyline
n 3900 8550 m 3300 8550 l  3300 8850 l  3900 8850 l  clp  gs col-1 s gr 
/Symbol findfont 330.00 scalefont setfont
3600 8775 m
gs 1 -1 sc (t) dup stringwidth pop 2 div neg 0 rmoveto  col-1 show gr
% Polyline
n 2400 8700 m 2700 8700 l gs col7 1.00 shd ef gr  gs col-1 s gr 
% Polyline
n 3000 8700 m 3300 8700 l gs col7 1.00 shd ef gr  gs col-1 s gr 
% Interp Spline
n 2685 8700 m
	2698.97 8771.91 2707.72 8795.66 2720 8795 curveto
	2733.34 8794.28 2735.56 8733.25 2740 8715 curveto
	2750.52 8671.78 2757.47 8525.74 2785 8525 curveto
	2809.98 8524.33 2824.29 8656.06 2835 8695 curveto
	2847.17 8739.23 2856.86 8889.83 2885 8890 curveto
	2922.64 8890.23 2896.94 8638.44 2955 8630 curveto
	2967.34 8628.21 2977.34 8644.46 2995 8695 curveto
gs col7 1.00 shd ef gr  gs col-1 s gr

% Polyline
n 4800 1800 m 5100 1800 l gs col7 1.00 shd ef gr  gs col-1 s gr 
% Polyline
n 5400 1800 m 5700 1800 l gs col7 1.00 shd ef gr  gs col-1 s gr 
% Interp Spline
n 5085 1800 m
	5098.97 1871.91 5107.72 1895.66 5120 1895 curveto
	5133.34 1894.28 5135.56 1833.25 5140 1815 curveto
	5150.52 1771.78 5157.47 1625.74 5185 1625 curveto
	5209.98 1624.33 5224.29 1756.06 5235 1795 curveto
	5247.17 1839.23 5256.86 1989.83 5285 1990 curveto
	5322.64 1990.23 5296.94 1738.44 5355 1730 curveto
	5367.34 1728.21 5377.34 1744.46 5395 1795 curveto
gs col7 1.00 shd ef gr  gs col-1 s gr

% Polyline
n 4200 3000 m 4500 3000 l gs col7 1.00 shd ef gr  gs col-1 s gr 
% Polyline
n 4800 3000 m 5100 3000 l gs col7 1.00 shd ef gr  gs col-1 s gr 
% Interp Spline
n 4485 3000 m
	4498.97 3071.91 4507.72 3095.66 4520 3095 curveto
	4533.34 3094.28 4535.56 3033.25 4540 3015 curveto
	4550.52 2971.78 4557.47 2825.74 4585 2825 curveto
	4609.98 2824.33 4624.29 2956.06 4635 2995 curveto
	4647.17 3039.23 4656.86 3189.83 4685 3190 curveto
	4722.64 3190.23 4696.94 2938.44 4755 2930 curveto
	4767.34 2928.21 4777.34 2944.46 4795 2995 curveto
gs col7 1.00 shd ef gr  gs col-1 s gr

% Polyline
n 4350 2400 m 4650 2400 l gs col7 1.00 shd ef gr  gs col-1 s gr 
% Polyline
n 4950 2400 m 5250 2400 l gs col7 1.00 shd ef gr  gs col-1 s gr 
% Interp Spline
n 4635 2400 m
	4648.97 2471.91 4657.72 2495.66 4670 2495 curveto
	4683.34 2494.28 4685.56 2433.25 4690 2415 curveto
	4700.52 2371.78 4707.47 2225.74 4735 2225 curveto
	4759.98 2224.33 4774.29 2356.06 4785 2395 curveto
	4797.17 2439.23 4806.86 2589.83 4835 2590 curveto
	4872.64 2590.23 4846.94 2338.44 4905 2330 curveto
	4917.34 2328.21 4927.34 2344.46 4945 2395 curveto
gs col7 1.00 shd ef gr  gs col-1 s gr

% Polyline
n 4350 3600 m 4650 3600 l gs col7 1.00 shd ef gr  gs col-1 s gr 
% Polyline
n 4950 3600 m 5250 3600 l gs col7 1.00 shd ef gr  gs col-1 s gr 
% Interp Spline
n 4635 3600 m
	4648.97 3671.91 4657.72 3695.66 4670 3695 curveto
	4683.34 3694.28 4685.56 3633.25 4690 3615 curveto
	4700.52 3571.78 4707.47 3425.74 4735 3425 curveto
	4759.98 3424.33 4774.29 3556.06 4785 3595 curveto
	4797.17 3639.23 4806.86 3789.83 4835 3790 curveto
	4872.64 3790.23 4846.94 3538.44 4905 3530 curveto
	4917.34 3528.21 4927.34 3544.46 4945 3595 curveto
gs col7 1.00 shd ef gr  gs col-1 s gr

% Polyline
n 4800 4200 m 5100 4200 l gs col7 1.00 shd ef gr  gs col-1 s gr 
% Polyline
n 5400 4200 m 5700 4200 l gs col7 1.00 shd ef gr  gs col-1 s gr 
% Interp Spline
n 5085 4200 m
	5098.97 4271.91 5107.72 4295.66 5120 4295 curveto
	5133.34 4294.28 5135.56 4233.25 5140 4215 curveto
	5150.52 4171.78 5157.47 4025.74 5185 4025 curveto
	5209.98 4024.33 5224.29 4156.06 5235 4195 curveto
	5247.17 4239.23 5256.86 4389.83 5285 4390 curveto
	5322.64 4390.23 5296.94 4138.44 5355 4130 curveto
	5367.34 4128.21 5377.34 4144.46 5395 4195 curveto
gs col7 1.00 shd ef gr  gs col-1 s gr

% Polyline
n 3300 2250 m 2700 2250 l  2700 2550 l  3300 2550 l  clp  gs col-1 s gr 
/Symbol findfont 330.00 scalefont setfont
3000 2475 m
gs 1 -1 sc (t) dup stringwidth pop 2 div neg 0 rmoveto  col-1 show gr
% Polyline
n 1800 2400 m 2100 2400 l gs col7 1.00 shd ef gr  gs col-1 s gr 
% Polyline
n 2400 2400 m 2700 2400 l gs col7 1.00 shd ef gr  gs col-1 s gr 
% Interp Spline
n 2085 2400 m
	2098.97 2471.91 2107.72 2495.66 2120 2495 curveto
	2133.34 2494.28 2135.56 2433.25 2140 2415 curveto
	2150.52 2371.78 2157.47 2225.74 2185 2225 curveto
	2209.98 2224.33 2224.29 2356.06 2235 2395 curveto
	2247.17 2439.23 2256.86 2589.83 2285 2590 curveto
	2322.64 2590.23 2296.94 2338.44 2355 2330 curveto
	2367.34 2328.21 2377.34 2344.46 2395 2395 curveto
gs col7 1.00 shd ef gr  gs col-1 s gr

% Polyline
n 3300 2850 m 2700 2850 l  2700 3150 l  3300 3150 l  clp  gs col-1 s gr 
/Symbol findfont 330.00 scalefont setfont
3000 3075 m
gs 1 -1 sc (t) dup stringwidth pop 2 div neg 0 rmoveto  col-1 show gr
% Polyline
n 1800 3000 m 2100 3000 l gs col7 1.00 shd ef gr  gs col-1 s gr 
% Polyline
n 2400 3000 m 2700 3000 l gs col7 1.00 shd ef gr  gs col-1 s gr 
% Interp Spline
n 2085 3000 m
	2098.97 3071.91 2107.72 3095.66 2120 3095 curveto
	2133.34 3094.28 2135.56 3033.25 2140 3015 curveto
	2150.52 2971.78 2157.47 2825.74 2185 2825 curveto
	2209.98 2824.33 2224.29 2956.06 2235 2995 curveto
	2247.17 3039.23 2256.86 3189.83 2285 3190 curveto
	2322.64 3190.23 2296.94 2938.44 2355 2930 curveto
	2367.34 2928.21 2377.34 2944.46 2395 2995 curveto
gs col7 1.00 shd ef gr  gs col-1 s gr

% Polyline
n 3300 3450 m 2700 3450 l  2700 3750 l  3300 3750 l  clp  gs col-1 s gr 
/Symbol findfont 330.00 scalefont setfont
3000 3675 m
gs 1 -1 sc (t) dup stringwidth pop 2 div neg 0 rmoveto  col-1 show gr
% Polyline
n 1800 3600 m 2100 3600 l gs col7 1.00 shd ef gr  gs col-1 s gr 
% Polyline
n 2400 3600 m 2700 3600 l gs col7 1.00 shd ef gr  gs col-1 s gr 
% Interp Spline
n 2085 3600 m
	2098.97 3671.91 2107.72 3695.66 2120 3695 curveto
	2133.34 3694.28 2135.56 3633.25 2140 3615 curveto
	2150.52 3571.78 2157.47 3425.74 2185 3425 curveto
	2209.98 3424.33 2224.29 3556.06 2235 3595 curveto
	2247.17 3639.23 2256.86 3789.83 2285 3790 curveto
	2322.64 3790.23 2296.94 3538.44 2355 3530 curveto
	2367.34 3528.21 2377.34 3544.46 2395 3595 curveto
gs col7 1.00 shd ef gr  gs col-1 s gr

% Polyline
n 3300 4050 m 2700 4050 l  2700 4350 l  3300 4350 l  clp  gs col-1 s gr 
/Symbol findfont 330.00 scalefont setfont
3000 4275 m
gs 1 -1 sc (t) dup stringwidth pop 2 div neg 0 rmoveto  col-1 show gr
% Polyline
n 1800 4200 m 2100 4200 l gs col7 1.00 shd ef gr  gs col-1 s gr 
% Polyline
n 2400 4200 m 2700 4200 l gs col7 1.00 shd ef gr  gs col-1 s gr 
% Interp Spline
n 2085 4200 m
	2098.97 4271.91 2107.72 4295.66 2120 4295 curveto
	2133.34 4294.28 2135.56 4233.25 2140 4215 curveto
	2150.52 4171.78 2157.47 4025.74 2185 4025 curveto
	2209.98 4024.33 2224.29 4156.06 2235 4195 curveto
	2247.17 4239.23 2256.86 4389.83 2285 4390 curveto
	2322.64 4390.23 2296.94 4138.44 2355 4130 curveto
	2367.34 4128.21 2377.34 4144.46 2395 4195 curveto
gs col7 1.00 shd ef gr  gs col-1 s gr

/Times-Roman findfont 270.00 scalefont setfont
7725 2925 m
gs 1 -1 sc (Focal) col-1 show gr
/Times-Roman findfont 270.00 scalefont setfont
7725 3240 m
gs 1 -1 sc (point) col-1 show gr
% Polyline
n 3300 1650 m 2700 1650 l  2700 1950 l  3300 1950 l  clp  gs col-1 s gr 
/Symbol findfont 330.00 scalefont setfont
3000 1875 m
gs 1 -1 sc (t) dup stringwidth pop 2 div neg 0 rmoveto  col-1 show gr
% Polyline
n 1800 1800 m 2100 1800 l gs col7 1.00 shd ef gr  gs col-1 s gr 
% Polyline
n 2400 1800 m 2700 1800 l gs col7 1.00 shd ef gr  gs col-1 s gr 
% Interp Spline
n 2085 1800 m
	2098.97 1871.91 2107.72 1895.66 2120 1895 curveto
	2133.34 1894.28 2135.56 1833.25 2140 1815 curveto
	2150.52 1771.78 2157.47 1625.74 2185 1625 curveto
	2209.98 1624.33 2224.29 1756.06 2235 1795 curveto
	2247.17 1839.23 2256.86 1989.83 2285 1990 curveto
	2322.64 1990.23 2296.94 1738.44 2355 1730 curveto
	2367.34 1728.21 2377.34 1744.46 2395 1795 curveto
gs col7 1.00 shd ef gr  gs col-1 s gr

% Polyline
n 5925 2100 m 6075 2100 l  6075 1500 l  5925 1500 l  clp  gs col-1 s gr 
% Polyline
n 5925 2700 m 6075 2700 l  6075 2100 l  5925 2100 l  clp  gs col-1 s gr 
% Polyline
n 5925 3300 m 6075 3300 l  6075 2700 l  5925 2700 l  clp  gs col-1 s gr 
% Polyline
n 5925 3900 m 6075 3900 l  6075 3300 l  5925 3300 l  clp  gs col-1 s gr 
% Polyline
n 5925 4500 m 6075 4500 l  6075 3900 l  5925 3900 l  clp  gs col-1 s gr 
% Polyline
n 5925 6600 m 6075 6600 l  6075 6000 l  5925 6000 l  clp  gs col-1 s gr 
% Polyline
n 5925 7200 m 6075 7200 l  6075 6600 l  5925 6600 l  clp  gs col-1 s gr 
% Polyline
n 5925 7800 m 6075 7800 l  6075 7200 l  5925 7200 l  clp  gs col-1 s gr 
% Polyline
n 5925 8400 m 6075 8400 l  6075 7800 l  5925 7800 l  clp  gs col-1 s gr 
% Polyline
n 5925 9000 m 6075 9000 l  6075 8400 l  5925 8400 l  clp  gs col-1 s gr 
15.000 slw
% Arc
n 7518.75 7500.00 1218.75 -120.51 120.51 arcn
gs col-1 s gr

% Arc
n 7518.75 3000.00 1218.75 -120.51 120.51 arcn
gs col-1 s gr

% Ellipse
n 7500 7500 106 106 0 360 DrawEllipse gs 1.00 setgray ef gr gs col-1 s gr

7.500 slw
% Polyline
n 2400 7500 m 2250 7500 l gs 1.00 setgray ef gr  gs col-1 s gr 
% Polyline
n 2400 6900 m 2100 7275 l gs 1.00 setgray ef gr  gs col-1 s gr 
% Polyline
n 2400 6300 m 2025 7200 l gs 1.00 setgray ef gr  gs col-1 s gr 
% Polyline
n 2400 8700 m 2025 7800 l gs 1.00 setgray ef gr  gs col-1 s gr 
% Polyline
n 2400 8100 m 2100 7725 l gs 1.00 setgray ef gr  gs col-1 s gr 
15.000 slw
% Polyline
n 750 7500 m 1050 7500 l gs 1.00 setgray ef gr  gs col-1 s gr 
% Polyline
n 1350 7500 m 1650 7500 l gs 1.00 setgray ef gr  gs col-1 s gr 
7.500 slw
% Polyline
	[66.7] 0 setdash
n 900 1800 m 1800 1800 l gs col7 1.00 shd ef gr  gs col-1 s gr 	[] 0 setdash
% Polyline
	[66.7] 0 setdash
n 900 2400 m 1800 2400 l gs col7 1.00 shd ef gr  gs col-1 s gr 	[] 0 setdash
% Polyline
	[66.7] 0 setdash
n 900 3000 m 1800 3000 l gs col7 1.00 shd ef gr  gs col-1 s gr 	[] 0 setdash
% Polyline
	[66.7] 0 setdash
n 900 3600 m 1800 3600 l gs col7 1.00 shd ef gr  gs col-1 s gr 	[] 0 setdash
% Polyline
	[66.7] 0 setdash
n 900 4200 m 1800 4200 l gs col7 1.00 shd ef gr  gs col-1 s gr 	[] 0 setdash
% Polyline
n 7500 2850 m 7500 3150 l gs 1.00 setgray ef gr  gs col-1 s gr 
% Polyline
n 7350 3000 m 7650 3000 l gs 1.00 setgray ef gr  gs col-1 s gr 
15.000 slw
% Interp Spline
n 1035 7500 m
	1048.56 7668.91 1057.81 7725.16 1072 7725 curveto
	1094.62 7724.74 1102.79 7516.74 1110 7455 curveto
	1120.57 7364.49 1127.32 7056.94 1147 7057 curveto
	1168.64 7057.07 1175.07 7395.32 1185 7495 curveto
	1195.50 7600.41 1207.58 7956.91 1237 7957 curveto
	1277.14 7957.13 1257.74 7329.05 1312 7327 curveto
	1322.98 7326.59 1331.23 7368.59 1345 7495 curveto
gs 1.00 setgray ef gr  gs col-1 s gr

/Times-Roman findfont 270.00 scalefont setfont
7050 6450 m
gs 1 -1 sc (Expanding ) col-1 show gr
/Times-Roman findfont 270.00 scalefont setfont
7125 6765 m
gs 1 -1 sc (wavefront) col-1 show gr
/Times-Roman findfont 270.00 scalefont setfont
7725 7425 m
gs 1 -1 sc (Scattering) col-1 show gr
/Times-Roman findfont 270.00 scalefont setfont
7725 7740 m
gs 1 -1 sc (volume) col-1 show gr
/Times-Roman findfont 270.00 scalefont setfont
1200 6007 m
gs 1 -1 sc (Delayed) dup stringwidth pop 2 div neg 0 rmoveto  col-1 show gr
/Times-Roman findfont 270.00 scalefont setfont
1200 6322 m
gs 1 -1 sc (and) dup stringwidth pop 2 div neg 0 rmoveto  col-1 show gr
/Times-Roman findfont 270.00 scalefont setfont
1200 6637 m
gs 1 -1 sc (summed) dup stringwidth pop 2 div neg 0 rmoveto  col-1 show gr
/Times-Roman findfont 270.00 scalefont setfont
1200 6952 m
gs 1 -1 sc (echo) dup stringwidth pop 2 div neg 0 rmoveto  col-1 show gr
/Times-Roman findfont 270.00 scalefont setfont
4950 6000 m
gs 1 -1 sc (Received echoes) dup stringwidth pop 2 div neg 0 rmoveto  col-1 show gr
/Times-Roman findfont 270.00 scalefont setfont
7050 1950 m
gs 1 -1 sc (Converging ) col-1 show gr
/Times-Roman findfont 270.00 scalefont setfont
7125 2265 m
gs 1 -1 sc (wavefront) col-1 show gr
/Times-Roman findfont 270.00 scalefont setfont
4575 1500 m
gs 1 -1 sc (Delayed transmit pulses) dup stringwidth pop 2 div neg 0 rmoveto  col-1 show gr
$F2psEnd
restore
