%!PS-Adobe-2.0 EPSF-2.0
%%Title: cartes.fig
%%Creator: fig2dev Version 3.1 Patchlevel 1
%%CreationDate: Fri Jul 25 15:03:06 1997
%%For: mea1@moomin (RHS Linux User)
%%Orientation: Portrait
%%BoundingBox: 0 0 431 216
%%Pages: 0
%%BeginSetup
%%IncludeFeature: *PageSize Letter
%%EndSetup
%%EndComments
/$F2psDict 200 dict def
$F2psDict begin
$F2psDict /mtrx matrix put
/col-1 {} def
/col0 {0.000 0.000 0.000 srgb} bind def
/col1 {0.000 0.000 1.000 srgb} bind def
/col2 {0.000 1.000 0.000 srgb} bind def
/col3 {0.000 1.000 1.000 srgb} bind def
/col4 {1.000 0.000 0.000 srgb} bind def
/col5 {1.000 0.000 1.000 srgb} bind def
/col6 {1.000 1.000 0.000 srgb} bind def
/col7 {1.000 1.000 1.000 srgb} bind def
/col8 {0.000 0.000 0.560 srgb} bind def
/col9 {0.000 0.000 0.690 srgb} bind def
/col10 {0.000 0.000 0.820 srgb} bind def
/col11 {0.530 0.810 1.000 srgb} bind def
/col12 {0.000 0.560 0.000 srgb} bind def
/col13 {0.000 0.690 0.000 srgb} bind def
/col14 {0.000 0.820 0.000 srgb} bind def
/col15 {0.000 0.560 0.560 srgb} bind def
/col16 {0.000 0.690 0.690 srgb} bind def
/col17 {0.000 0.820 0.820 srgb} bind def
/col18 {0.560 0.000 0.000 srgb} bind def
/col19 {0.690 0.000 0.000 srgb} bind def
/col20 {0.820 0.000 0.000 srgb} bind def
/col21 {0.560 0.000 0.560 srgb} bind def
/col22 {0.690 0.000 0.690 srgb} bind def
/col23 {0.820 0.000 0.820 srgb} bind def
/col24 {0.500 0.190 0.000 srgb} bind def
/col25 {0.630 0.250 0.000 srgb} bind def
/col26 {0.750 0.380 0.000 srgb} bind def
/col27 {1.000 0.500 0.500 srgb} bind def
/col28 {1.000 0.630 0.630 srgb} bind def
/col29 {1.000 0.750 0.750 srgb} bind def
/col30 {1.000 0.880 0.880 srgb} bind def
/col31 {1.000 0.840 0.000 srgb} bind def

end
save
-47.0 236.0 translate
1 -1 scale

/clp {closepath} bind def
/ef {eofill} bind def
/gr {grestore} bind def
/gs {gsave} bind def
/l {lineto} bind def
/m {moveto} bind def
/n {newpath} bind def
/s {stroke} bind def
/slc {setlinecap} bind def
/slj {setlinejoin} bind def
/slw {setlinewidth} bind def
/srgb {setrgbcolor} bind def
/rot {rotate} bind def
/sc {scale} bind def
/tr {translate} bind def
/tnt {dup dup currentrgbcolor
  4 -2 roll dup 1 exch sub 3 -1 roll mul add
  4 -2 roll dup 1 exch sub 3 -1 roll mul add
  4 -2 roll dup 1 exch sub 3 -1 roll mul add srgb}
  bind def
/shd {dup dup currentrgbcolor 4 -2 roll mul 4 -2 roll mul
  4 -2 roll mul srgb} bind def
/$F2psBegin {$F2psDict begin /$F2psEnteredState save def} def
/$F2psEnd {$F2psEnteredState restore end} def
%%EndProlog

$F2psBegin
10 setmiterlimit
 0.06000 0.06000 sc
7.500 slw
% Polyline
	[66.7] 0 setdash
n 2400 2100 m 2100 2400 l  gs col-1 s gr 	[] 0 setdash
% Polyline
	[66.7] 0 setdash
n 2400 3600 m 2100 3900 l  gs col-1 s gr 	[] 0 setdash
% Polyline
	[66.7] 0 setdash
n 3900 600 m 3600 900 l  gs col-1 s gr 	[] 0 setdash
% Polyline
	[66.7] 0 setdash
n 3900 2100 m 3600 2400 l  gs col-1 s gr 	[] 0 setdash
% Polyline
n 2400 2100 m 3600 900 l  3600 2400 l  2400 3600 l  2400 2100 l  gs col-1 s gr 
% Polyline
n 2700 1800 m 2700 3300 l  gs col-1 s gr 
% Polyline
n 2550 1950 m 2550 3450 l  gs col-1 s gr 
% Polyline
n 2850 1650 m 2850 3150 l  gs col-1 s gr 
% Polyline
n 3000 1500 m 3000 3000 l  gs col-1 s gr 
% Polyline
n 3150 1350 m 3150 2850 l  gs col-1 s gr 
% Polyline
n 3300 1200 m 3300 2700 l  gs col-1 s gr 
% Polyline
n 3450 1050 m 3450 2550 l  gs col-1 s gr 
15.000 slw
% Polyline
n 3000 2250 m 6000 2250 l  gs col-1 s gr 
n 5760.00 2190.00 m 6000.00 2250.00 l 5760.00 2310.00 l gs col-1 s gr
% Polyline
n 3000 600 m 3000 3900 l  gs col-1 s gr 
n 2940.00 840.00 m 3000.00 600.00 l 3060.00 840.00 l gs col-1 s gr
n 3060.00 3660.00 m 3000.00 3900.00 l 2940.00 3660.00 l gs col-1 s gr
% Polyline
n 2100 3150 m 3900 1350 l  gs col-1 s gr 
n 2312.13 3022.72 m 2100.00 3150.00 l 2227.28 2937.87 l gs col-1 s gr
n 3687.87 1477.28 m 3900.00 1350.00 l 3772.72 1562.13 l gs col-1 s gr
/Times-Roman findfont 240.00 scalefont setfont
3975 1350 m
gs 1 -1 sc (Lateral or Azimuth \(x\)) col-1 show gr
/Times-Roman findfont 240.00 scalefont setfont
3000 525 m
gs 1 -1 sc (Elevation \(y\)) dup stringwidth pop 2 div neg 0 rmoveto  col-1 show gr
/Times-Roman findfont 240.00 scalefont setfont
6150 2325 m
gs 1 -1 sc (Axial or Range \(z\)) col-1 show gr
/Times-Roman findfont 270.00 scalefont setfont
2100 1800 m
gs 1 -1 sc (Transducer) dup stringwidth pop neg 0 rmoveto  col-1 show gr
/Times-Roman findfont 270.00 scalefont setfont
2100 2085 m
gs 1 -1 sc (array) dup stringwidth pop neg 0 rmoveto  col-1 show gr
$F2psEnd
restore
