%!PS-Adobe-2.0 EPSF-1.2
%%Creator: MATLAB, The Mathworks, Inc.
%%Title: ka01_1.eps
%%CreationDate: 06/17/99  21:09:16
%%DocumentNeededFonts: Times-Roman
%%+ Helvetica
%%DocumentProcessColors: Cyan Magenta Yellow Black
%%Pages: 1
%%BoundingBox:    52   275   556   544
%%EndComments

%%BeginProlog

% MathWorks dictionary
/MathWorks 160 dict begin

% definition operators
/bdef {bind def} bind def
/ldef {load def} bind def
/xdef {exch def} bdef
/xstore {exch store} bdef

% operator abbreviations
/c  /clip ldef
/cc /concat ldef
/cp /closepath ldef
/gr /grestore ldef
/gs /gsave ldef
/mt /moveto ldef
/np /newpath ldef
/cm /currentmatrix ldef
/sm /setmatrix ldef
/rc {rectclip} bdef
/rf {rectfill} bdef
/rm /rmoveto ldef
/rl /rlineto ldef
/s /show ldef
/sc {setcmykcolor} bdef
/sr /setrgbcolor ldef
/sg /setgray ldef
/w /setlinewidth ldef
/j /setlinejoin ldef
/cap /setlinecap ldef

% page state control
/pgsv () def
/bpage {/pgsv save def} bdef
/epage {pgsv restore} bdef
/bplot /gsave ldef
/eplot {stroke grestore} bdef

% orientation switch
/portraitMode 	0 def
/landscapeMode 	1 def

% coordinate system mappings
/dpi2point 0 def

% font control
/FontSize 0 def
/FMS {
	/FontSize xstore		%save size off stack
	findfont
	[FontSize 0 0 FontSize neg 0 0]
	makefont
	setfont
	}bdef

/reencode {
exch dup where
{pop load} {pop StandardEncoding} ifelse
exch
dup 3 1 roll
findfont dup length dict begin
  { 1 index /FID ne {def}{pop pop} ifelse } forall
  /Encoding exch def
  currentdict
end
definefont pop
} bdef

/isroman {
findfont /CharStrings get
/Agrave known
} bdef

/FMSR {
3 1 roll 1 index
dup isroman
{reencode} {pop pop} ifelse
exch FMS
} bdef

/csm {
	1 dpi2point div -1 dpi2point div scale
	neg translate
	landscapeMode eq {90 rotate} if
	} bdef

% line types: solid, dotted, dashed, dotdash
/SO { [] 0 setdash } bdef
/DO { [.5 dpi2point mul 4 dpi2point mul] 0 setdash } bdef
/DA { [6 dpi2point mul] 0 setdash } bdef
/DD { [.5 dpi2point mul 4 dpi2point mul 6 dpi2point mul 4 dpi2point mul] 0 setdash } bdef

% macros for lines and objects
/L {
	lineto
	stroke
	} bdef
/MP {
	3 1 roll moveto
	1 sub {rlineto} repeat
	} bdef
/AP {
	{rlineto} repeat
	} bdef
/PP {
	closepath eofill
	} bdef
/DP {
	closepath stroke
	} bdef
/MR {
	4 -2 roll moveto
	dup  0 exch rlineto
	exch 0 rlineto
	neg  0 exch rlineto
	closepath
	} bdef
/FR {
	MR stroke
	} bdef
/PR {
	MR fill
	} bdef
/L1i {
	{ currentfile picstr readhexstring pop } image
	} bdef

/tMatrix matrix def
/MakeOval {
	newpath
	tMatrix currentmatrix pop
	translate scale
	0 0 1 0 360 arc
	tMatrix setmatrix
	} bdef
/FO {
	MakeOval
	stroke
	} bdef
/PO {
	MakeOval
	fill
	} bdef

/PD {
	currentlinecap 1 setlinecap 3 1 roll 2 copy moveto lineto stroke setlinecap
	} bdef

/FA {
	newpath
	tMatrix currentmatrix pop
	translate scale
	0 0 1 5 -2 roll arc
	tMatrix setmatrix
	stroke
	} bdef
/PA {
	newpath
	tMatrix currentmatrix pop
	translate 0 0 moveto scale
	0 0 1 5 -2 roll arc
	closepath
	tMatrix setmatrix
	fill
	} bdef

/FAn {
	newpath
	tMatrix currentmatrix pop
	translate scale
	0 0 1 5 -2 roll arcn
	tMatrix setmatrix
	stroke
	} bdef
/PAn {
	newpath
	tMatrix currentmatrix pop
	translate 0 0 moveto scale
	0 0 1 5 -2 roll arcn
	closepath
	tMatrix setmatrix
	fill
	} bdef

/vradius 0 def
/hradius 0 def
/lry 0 def
/lrx 0 def
/uly 0 def
/ulx 0 def
/rad 0 def

/MRR {
	/vradius xdef
	/hradius xdef
	/lry xdef
	/lrx xdef
	/uly xdef
	/ulx xdef
	newpath
	tMatrix currentmatrix pop
	ulx hradius add uly vradius add translate
	hradius vradius scale
	0 0 1 180 270 arc 
	tMatrix setmatrix
	lrx hradius sub uly vradius add translate
	hradius vradius scale
	0 0 1 270 360 arc
	tMatrix setmatrix
	lrx hradius sub lry vradius sub translate
	hradius vradius scale
	0 0 1 0 90 arc
	tMatrix setmatrix
	ulx hradius add lry vradius sub translate
	hradius vradius scale
	0 0 1 90 180 arc
	tMatrix setmatrix
	closepath
	} bdef
/FRR {
	MRR stroke } bdef
/PRR {
	MRR fill } bdef

/MlrRR {
	/lry xdef
	/lrx xdef
	/uly xdef
	/ulx xdef
	/rad lry uly sub 2 div def
	newpath
	tMatrix currentmatrix pop
	ulx rad add uly rad add translate
	rad rad scale
	0 0 1 90 270 arc
	tMatrix setmatrix
	lrx rad sub lry rad sub translate
	rad rad scale
	0 0 1 270 90 arc
	tMatrix setmatrix
	closepath
	} bdef
/FlrRR {
	MlrRR stroke } bdef
/PlrRR {
	MlrRR fill } bdef

/MtbRR {
	/lry xdef
	/lrx xdef
	/uly xdef
	/ulx xdef
	/rad lrx ulx sub 2 div def
	newpath
	tMatrix currentmatrix pop
	ulx rad add uly rad add translate
	rad rad scale
	0 0 1 180 360 arc
	tMatrix setmatrix
	lrx rad sub lry rad sub translate
	rad rad scale
	0 0 1 0 180 arc
	tMatrix setmatrix
	closepath
	} bdef
/FtbRR {
	MtbRR stroke } bdef
/PtbRR {
	MtbRR fill } bdef

currentdict end def
%%EndProlog

%%BeginSetup
MathWorks begin

0 cap

end
%%EndSetup

%%Page: 1 1
%%BeginPageSetup
%%PageBoundingBox:    52   275   556   544
MathWorks begin
bpage
%%EndPageSetup

%%BeginObject: obj1
bplot

/dpi2point 12 def
portraitMode 0216 7344 csm

  419   812  6038  3229 MR c np
93 dict begin %Colortable dictionary
/c0 { 0 0 0 sr} bdef
/c1 { 1 1 1 sr} bdef
/c2 { 1 0 0 sr} bdef
/c3 { 0 1 0 sr} bdef
/c4 { 0 0 1 sr} bdef
/c5 { 1 1 0 sr} bdef
/c6 { 1 0 1 sr} bdef
/c7 { 0 1 1 sr} bdef
c0
1 j
1 sg
   0    0 6918 5185 PR
6 w
gs 899 1201 2262 2601 MR c np
7 -71 11 -70 16 -69 19 -68 24 -67 29 -65 32 -64 36 -61 
40 -58 43 -57 47 -53 51 -50 53 -47 56 -44 59 -40 61 -36 
63 -32 65 -28 67 -24 68 -20 70 -15 70 -12 71 -6 70 -3 
71 3 71 6 70 12 70 15 68 20 67 24 65 28 63 32 
61 36 59 40 56 44 53 47 51 50 47 53 43 57 40 58 
36 61 32 64 29 65 24 67 19 68 16 69 11 70 7 71 
2 71 -2 71 -7 71 -11 70 -16 69 -19 68 -24 67 -29 65 
-32 64 -36 61 -40 58 -43 57 -47 53 -51 50 -53 47 -56 44 
-59 40 -61 36 -63 32 -65 28 -67 24 -68 20 -70 15 -70 12 
-71 6 -71 2 -70 -2 -71 -6 -70 -12 -70 -15 -68 -20 -67 -24 
-65 -28 -63 -32 -61 -36 -59 -40 -56 -44 -53 -47 -51 -50 -47 -53 
-43 -57 -40 -58 -36 -61 -32 -64 -29 -65 -24 -67 -19 -68 -16 -69 
-11 -70 -7 -71 -2 -71 3160 2501 100 MP
2 -71 1 AP
PP
0 sg
0 0 2 -71 7 -71 11 -70 16 -69 19 -68 24 -67 29 -65 
32 -64 36 -61 40 -58 43 -57 47 -53 51 -50 53 -47 56 -44 
59 -40 61 -36 63 -32 65 -28 67 -24 68 -20 70 -15 70 -12 
71 -6 70 -3 71 3 71 6 70 12 70 15 68 20 67 24 
65 28 63 32 61 36 59 40 56 44 53 47 51 50 47 53 
43 57 40 58 36 61 32 64 29 65 24 67 19 68 16 69 
11 70 7 71 2 71 -2 71 -7 71 -11 70 -16 69 -19 68 
-24 67 -29 65 -32 64 -36 61 -40 58 -43 57 -47 53 -51 50 
-53 47 -56 44 -59 40 -61 36 -63 32 -65 28 -67 24 -68 20 
-70 15 -70 12 -71 6 -71 2 -70 -2 -71 -6 -70 -12 -70 -15 
-68 -20 -67 -24 -65 -28 -63 -32 -61 -36 -59 -40 -56 -44 -53 -47 
-51 -50 -47 -53 -43 -57 -40 -58 -36 -61 -32 -64 -29 -65 -24 -67 
-19 -68 -16 -69 -11 -70 3151 2359 100 MP stroke
-7 -71 -2 -71 3160 2501 3 MP stroke
DO
12 w
1 -35 4 -36 5 -35 8 -35 10 -34 12 -33 14 -33 16 -31 
18 -31 20 -29 22 -28 23 -27 26 -25 26 -24 28 -21 30 -20 
30 -18 32 -16 32 -15 34 -12 34 -9 35 -8 35 -6 35 -3 
35 -1 36 1 35 3 35 6 35 8 34 9 34 12 32 15 
32 16 30 18 30 20 28 21 26 24 26 25 23 27 22 28 
20 29 18 31 16 31 14 33 12 33 10 34 8 35 5 35 
4 36 1 35 -1 35 -4 36 -5 35 -8 35 -10 34 -12 33 
-14 33 -16 31 -18 31 -20 29 -22 28 -23 27 -26 25 -26 24 
-28 21 -30 20 -30 18 -32 16 -32 15 -34 12 -34 9 -35 8 
-35 6 -35 3 -36 1 -35 -1 -35 -3 -35 -6 -35 -8 -34 -9 
-34 -12 -32 -15 -32 -16 -30 -18 -30 -20 -28 -21 -26 -24 -26 -25 
-23 -27 -22 -28 -20 -29 -18 -31 -16 -31 -14 -33 -12 -33 -10 -34 
-8 -35 -5 -35 -4 -36 2594 2466 100 MP stroke
-1 -35 2595 2501 2 MP stroke
gr

12 w
0 sg
DO
%%IncludeResource: font Helvetica
/Helvetica /ISOLatin1Encoding 120 FMSR

2112 1886 mt 
(  0.01) s
gs 899 1201 2262 2601 MR c np
SO
2 -71 7 -71 11 -70 16 -69 19 -68 24 -67 29 -65 32 -64 
36 -61 40 -58 43 -57 47 -53 51 -50 53 -47 56 -44 59 -40 
61 -36 63 -32 65 -28 67 -24 68 -20 70 -15 70 -12 71 -6 
70 -3 71 3 71 6 70 12 70 15 68 20 67 24 65 28 
63 32 61 36 59 40 56 44 53 47 51 50 47 53 43 57 
40 58 36 61 32 64 29 65 24 67 19 68 16 69 11 70 
7 71 2 71 -2 71 -7 71 -11 70 -16 69 -19 68 -24 67 
-29 65 -32 64 -36 61 -40 58 -43 57 -47 53 -51 50 -53 47 
-56 44 -59 40 -61 36 -63 32 -65 28 -67 24 -68 20 -70 15 
-70 12 -71 6 -71 2 -70 -2 -71 -6 -70 -12 -70 -15 -68 -20 
-67 -24 -65 -28 -63 -32 -61 -36 -59 -40 -56 -44 -53 -47 -51 -50 
-47 -53 -43 -57 -40 -58 -36 -61 -32 -64 -29 -65 -24 -67 -19 -68 
-16 -69 -11 -70 -7 -71 3158 2430 100 MP stroke
-2 -71 3160 2501 2 MP stroke
gr

SO
2191 1327 mt 
(  0.02) s
gs 899 1201 2262 2601 MR c np
DO
1959 -1130 1050 3066 2 MP stroke
1131 -1958 1464 3480 2 MP stroke
0 -2261 2030 3632 2 MP stroke
-1131 -1958 2595 3480 2 MP stroke
-1959 -1130 3009 3066 2 MP stroke
-2261 0 3160 2501 2 MP stroke
gr

DO
3040 1921 mt 
(30) s
 854 3165 mt 
(210) s
2585 1466 mt 
(60) s
1309 3620 mt 
(240) s
1964 1299 mt 
(90) s
1931 3787 mt 
(270) s
1309 1466 mt 
(120) s
2552 3620 mt 
(300) s
 854 1921 mt 
(150) s
3007 3165 mt 
(330) s
 687 2543 mt 
(180) s
3240 2543 mt 
(0) s
gs 899 1201 2262 2601 MR c np
SO
36 w
-5 75 -15 74 -23 71 -33 68 -41 62 -47 56 -55 49 -59 40 
-64 33 -66 24 -67 14 -68 6 -66 -3 -64 -12 -61 -20 -56 -26 
-50 -33 -44 -38 -37 -43 -31 -45 -23 -47 -15 -48 -8 -47 -2 -46 
5 -44 11 -40 16 -35 19 -31 0 -2 -24 20 -26 14 -25 9 
-24 3 -22 -1 -20 -6 -16 -10 -12 -12 -7 -14 -2 -15 0 0 
2 -15 7 -14 12 -12 16 -10 20 -6 22 -1 24 3 25 9 
26 14 24 20 0 -2 -19 -31 -16 -35 -11 -40 -5 -44 2 -46 
8 -47 15 -48 23 -47 31 -45 37 -43 44 -38 50 -33 56 -26 
61 -20 64 -12 66 -3 68 6 67 14 66 24 64 33 59 40 
55 49 47 56 41 62 33 68 23 71 15 74 5 75 1092 2501 80 MP stroke
gr

36 w
SO
%%IncludeResource: font Symbol
/Symbol /ISOLatin1Encoding 192 FMSR

1635 1053 mt 
(l) s
%%IncludeResource: font Times-Roman
/Times-Roman /ISOLatin1Encoding 192 FMSR

1740 1053 mt 
( = 20 ) s
%%IncludeResource: font Symbol
/Symbol /ISOLatin1Encoding 192 FMSR

2184 1053 mt 
(p) s
%%IncludeResource: font Times-Roman
/Times-Roman /ISOLatin1Encoding 192 FMSR

2289 1053 mt 
( a) s
gs 899 1201 2262 2601 MR c np
DA
24 w
-3 49 -8 47 -14 47 -18 44 -24 42 -28 39 -32 34 -35 31 
-37 26 -40 21 -42 16 -42 12 -42 6 -42 2 -41 -3 -39 -8 
-37 -11 -34 -15 -32 -18 -28 -20 -25 -23 -22 -24 -18 -25 -14 -25 
-11 -25 -8 -25 -6 -24 -3 -23 0 -21 1 -20 2 -18 3 -16 
4 -14 4 -12 3 -12 3 -9 3 -9 1 -8 1 -8 0 0 
-1 -8 -1 -8 -3 -9 -3 -9 -3 -12 -4 -12 -4 -14 -3 -16 
-2 -18 -1 -20 0 -21 3 -23 6 -24 8 -25 11 -25 14 -25 
18 -25 22 -24 25 -23 28 -20 32 -18 34 -15 37 -11 39 -8 
41 -3 42 2 42 6 42 12 42 16 40 21 37 26 35 31 
32 34 28 39 24 42 18 44 14 47 8 47 3 49 1425 2501 80 MP stroke
SO
6 w
gr

6 w
gs 3998 1201 2262 2601 MR c np
1 sg
7 -71 11 -70 16 -69 19 -68 24 -67 29 -65 32 -64 36 -61 
40 -58 43 -57 47 -53 51 -50 53 -47 56 -44 59 -40 61 -36 
63 -32 65 -28 67 -24 68 -20 70 -15 70 -12 71 -6 70 -3 
71 3 71 6 70 12 70 15 68 20 67 24 65 28 63 32 
61 36 59 40 56 44 53 47 51 50 47 53 43 57 40 58 
36 61 32 64 29 65 24 67 19 68 16 69 11 70 7 71 
2 71 -2 71 -7 71 -11 70 -16 69 -19 68 -24 67 -29 65 
-32 64 -36 61 -40 58 -43 57 -47 53 -51 50 -53 47 -56 44 
-59 40 -61 36 -63 32 -65 28 -67 24 -68 20 -70 15 -70 12 
-71 6 -71 2 -70 -2 -71 -6 -70 -12 -70 -15 -68 -20 -67 -24 
-65 -28 -63 -32 -61 -36 -59 -40 -56 -44 -53 -47 -51 -50 -47 -53 
-43 -57 -40 -58 -36 -61 -32 -64 -29 -65 -24 -67 -19 -68 -16 -69 
-11 -70 -7 -71 -2 -71 6259 2501 100 MP
2 -71 1 AP
PP
0 sg
0 0 2 -71 7 -71 11 -70 16 -69 19 -68 24 -67 29 -65 
32 -64 36 -61 40 -58 43 -57 47 -53 51 -50 53 -47 56 -44 
59 -40 61 -36 63 -32 65 -28 67 -24 68 -20 70 -15 70 -12 
71 -6 70 -3 71 3 71 6 70 12 70 15 68 20 67 24 
65 28 63 32 61 36 59 40 56 44 53 47 51 50 47 53 
43 57 40 58 36 61 32 64 29 65 24 67 19 68 16 69 
11 70 7 71 2 71 -2 71 -7 71 -11 70 -16 69 -19 68 
-24 67 -29 65 -32 64 -36 61 -40 58 -43 57 -47 53 -51 50 
-53 47 -56 44 -59 40 -61 36 -63 32 -65 28 -67 24 -68 20 
-70 15 -70 12 -71 6 -71 2 -70 -2 -71 -6 -70 -12 -70 -15 
-68 -20 -67 -24 -65 -28 -63 -32 -61 -36 -59 -40 -56 -44 -53 -47 
-51 -50 -47 -53 -43 -57 -40 -58 -36 -61 -32 -64 -29 -65 -24 -67 
-19 -68 -16 -69 -11 -70 6250 2359 100 MP stroke
-7 -71 -2 -71 6259 2501 3 MP stroke
DO
12 w
1 -35 4 -36 5 -35 8 -35 10 -34 12 -33 14 -33 16 -31 
18 -31 20 -29 22 -28 23 -27 26 -25 26 -24 28 -21 30 -20 
30 -18 32 -16 32 -15 34 -12 34 -9 35 -8 35 -6 35 -3 
35 -1 36 1 35 3 35 6 35 8 34 9 34 12 32 15 
32 16 30 18 30 20 28 21 26 24 26 25 23 27 22 28 
20 29 18 31 16 31 14 33 12 33 10 34 8 35 5 35 
4 36 1 35 -1 35 -4 36 -5 35 -8 35 -10 34 -12 33 
-14 33 -16 31 -18 31 -20 29 -22 28 -23 27 -26 25 -26 24 
-28 21 -30 20 -30 18 -32 16 -32 15 -34 12 -34 9 -35 8 
-35 6 -35 3 -36 1 -35 -1 -35 -3 -35 -6 -35 -8 -34 -9 
-34 -12 -32 -15 -32 -16 -30 -18 -30 -20 -28 -21 -26 -24 -26 -25 
-23 -27 -22 -28 -20 -29 -18 -31 -16 -31 -14 -33 -12 -33 -10 -34 
-8 -35 -5 -35 -4 -36 5693 2466 100 MP stroke
-1 -35 5694 2501 2 MP stroke
gr

12 w
DO
%%IncludeResource: font Helvetica
/Helvetica /ISOLatin1Encoding 120 FMSR

5211 1886 mt 
(  0.5) s
gs 3998 1201 2262 2601 MR c np
SO
2 -71 7 -71 11 -70 16 -69 19 -68 24 -67 29 -65 32 -64 
36 -61 40 -58 43 -57 47 -53 51 -50 53 -47 56 -44 59 -40 
61 -36 63 -32 65 -28 67 -24 68 -20 70 -15 70 -12 71 -6 
70 -3 71 3 71 6 70 12 70 15 68 20 67 24 65 28 
63 32 61 36 59 40 56 44 53 47 51 50 47 53 43 57 
40 58 36 61 32 64 29 65 24 67 19 68 16 69 11 70 
7 71 2 71 -2 71 -7 71 -11 70 -16 69 -19 68 -24 67 
-29 65 -32 64 -36 61 -40 58 -43 57 -47 53 -51 50 -53 47 
-56 44 -59 40 -61 36 -63 32 -65 28 -67 24 -68 20 -70 15 
-70 12 -71 6 -71 2 -70 -2 -71 -6 -70 -12 -70 -15 -68 -20 
-67 -24 -65 -28 -63 -32 -61 -36 -59 -40 -56 -44 -53 -47 -51 -50 
-47 -53 -43 -57 -40 -58 -36 -61 -32 -64 -29 -65 -24 -67 -19 -68 
-16 -69 -11 -70 -7 -71 6257 2430 100 MP stroke
-2 -71 6259 2501 2 MP stroke
gr

SO
5290 1327 mt 
(  1) s
gs 3998 1201 2262 2601 MR c np
DO
1959 -1130 4149 3066 2 MP stroke
1131 -1958 4563 3480 2 MP stroke
0 -2261 5129 3632 2 MP stroke
-1131 -1958 5694 3480 2 MP stroke
-1959 -1130 6108 3066 2 MP stroke
-2261 0 6259 2501 2 MP stroke
gr

DO
6139 1921 mt 
(30) s
3953 3165 mt 
(210) s
5684 1466 mt 
(60) s
4408 3620 mt 
(240) s
5063 1299 mt 
(90) s
5030 3787 mt 
(270) s
4408 1466 mt 
(120) s
5651 3620 mt 
(300) s
3953 1921 mt 
(150) s
6106 3165 mt 
(330) s
3786 2543 mt 
(180) s
6339 2543 mt 
(0) s
gs 3998 1201 2262 2601 MR c np
SO
36 w
-5 85 -13 84 -23 82 -31 79 -39 75 -47 69 -54 62 -61 56 
-66 47 -71 39 -73 29 -77 19 -77 8 -76 -2 -74 -12 -71 -23 
-67 -32 -60 -41 -52 -48 -44 -55 -35 -60 -26 -63 -15 -64 -7 -62 
2 -57 6 -49 4 -34 -5 -14 -19 2 -33 12 -41 10 -45 6 
-45 -1 -42 -10 -39 -17 -31 -23 -24 -29 -15 -33 -5 -35 0 0 
5 -35 15 -33 24 -29 31 -23 39 -17 42 -10 45 -1 45 6 
41 10 33 12 19 2 5 -14 -4 -34 -6 -49 -2 -57 7 -62 
15 -64 26 -63 35 -60 44 -55 52 -48 60 -41 67 -32 71 -23 
74 -12 76 -2 77 8 77 19 73 29 71 39 66 47 61 56 
54 62 47 69 39 75 31 79 23 82 13 84 5 85 4068 2501 80 MP stroke
gr

36 w
SO
%%IncludeResource: font Symbol
/Symbol /ISOLatin1Encoding 192 FMSR

4782 1053 mt 
(l) s
%%IncludeResource: font Times-Roman
/Times-Roman /ISOLatin1Encoding 192 FMSR

4887 1053 mt 
( = 2 ) s
%%IncludeResource: font Symbol
/Symbol /ISOLatin1Encoding 192 FMSR

5235 1053 mt 
(p) s
%%IncludeResource: font Times-Roman
/Times-Roman /ISOLatin1Encoding 192 FMSR

5340 1053 mt 
( a) s
gs 3998 1201 2262 2601 MR c np
DA
24 w
-1 47 -5 46 -7 46 -11 46 -13 45 -18 44 -20 43 -25 42 
-28 39 -33 36 -35 33 -39 29 -43 24 -44 18 -47 13 -47 6 
-48 0 -47 -7 -45 -13 -42 -20 -39 -25 -35 -31 -29 -35 -23 -38 
-18 -41 -12 -42 -6 -41 0 -40 4 -38 8 -35 10 -30 11 -26 
11 -22 10 -18 8 -15 5 -11 3 -11 1 -9 1 -9 0 0 
-1 -9 -1 -9 -3 -11 -5 -11 -8 -15 -10 -18 -11 -22 -11 -26 
-10 -30 -8 -35 -4 -38 0 -40 6 -41 12 -42 18 -41 23 -38 
29 -35 35 -31 39 -25 42 -20 45 -13 47 -7 48 0 47 6 
47 13 44 18 43 24 39 29 35 33 33 36 28 39 25 42 
20 43 18 44 13 45 11 46 7 46 5 46 1 47 4551 2501 80 MP stroke
SO
6 w
gr

6 w

end

eplot
%%EndObject

epage
end

showpage

%%Trailer
%%EOF
