%!PS-Adobe-2.0 EPSF-1.2
%%Creator: MATLAB, The Mathworks, Inc.
%%Title: ka3_5.eps
%%CreationDate: 06/17/99  21:09:17
%%DocumentNeededFonts: Times-Roman
%%+ Helvetica
%%DocumentProcessColors: Cyan Magenta Yellow Black
%%Pages: 1
%%BoundingBox:    70   275   556   544
%%EndComments

%%BeginProlog

% MathWorks dictionary
/MathWorks 160 dict begin

% definition operators
/bdef {bind def} bind def
/ldef {load def} bind def
/xdef {exch def} bdef
/xstore {exch store} bdef

% operator abbreviations
/c  /clip ldef
/cc /concat ldef
/cp /closepath ldef
/gr /grestore ldef
/gs /gsave ldef
/mt /moveto ldef
/np /newpath ldef
/cm /currentmatrix ldef
/sm /setmatrix ldef
/rc {rectclip} bdef
/rf {rectfill} bdef
/rm /rmoveto ldef
/rl /rlineto ldef
/s /show ldef
/sc {setcmykcolor} bdef
/sr /setrgbcolor ldef
/sg /setgray ldef
/w /setlinewidth ldef
/j /setlinejoin ldef
/cap /setlinecap ldef

% page state control
/pgsv () def
/bpage {/pgsv save def} bdef
/epage {pgsv restore} bdef
/bplot /gsave ldef
/eplot {stroke grestore} bdef

% orientation switch
/portraitMode 	0 def
/landscapeMode 	1 def

% coordinate system mappings
/dpi2point 0 def

% font control
/FontSize 0 def
/FMS {
	/FontSize xstore		%save size off stack
	findfont
	[FontSize 0 0 FontSize neg 0 0]
	makefont
	setfont
	}bdef

/reencode {
exch dup where
{pop load} {pop StandardEncoding} ifelse
exch
dup 3 1 roll
findfont dup length dict begin
  { 1 index /FID ne {def}{pop pop} ifelse } forall
  /Encoding exch def
  currentdict
end
definefont pop
} bdef

/isroman {
findfont /CharStrings get
/Agrave known
} bdef

/FMSR {
3 1 roll 1 index
dup isroman
{reencode} {pop pop} ifelse
exch FMS
} bdef

/csm {
	1 dpi2point div -1 dpi2point div scale
	neg translate
	landscapeMode eq {90 rotate} if
	} bdef

% line types: solid, dotted, dashed, dotdash
/SO { [] 0 setdash } bdef
/DO { [.5 dpi2point mul 4 dpi2point mul] 0 setdash } bdef
/DA { [6 dpi2point mul] 0 setdash } bdef
/DD { [.5 dpi2point mul 4 dpi2point mul 6 dpi2point mul 4 dpi2point mul] 0 setdash } bdef

% macros for lines and objects
/L {
	lineto
	stroke
	} bdef
/MP {
	3 1 roll moveto
	1 sub {rlineto} repeat
	} bdef
/AP {
	{rlineto} repeat
	} bdef
/PP {
	closepath eofill
	} bdef
/DP {
	closepath stroke
	} bdef
/MR {
	4 -2 roll moveto
	dup  0 exch rlineto
	exch 0 rlineto
	neg  0 exch rlineto
	closepath
	} bdef
/FR {
	MR stroke
	} bdef
/PR {
	MR fill
	} bdef
/L1i {
	{ currentfile picstr readhexstring pop } image
	} bdef

/tMatrix matrix def
/MakeOval {
	newpath
	tMatrix currentmatrix pop
	translate scale
	0 0 1 0 360 arc
	tMatrix setmatrix
	} bdef
/FO {
	MakeOval
	stroke
	} bdef
/PO {
	MakeOval
	fill
	} bdef

/PD {
	currentlinecap 1 setlinecap 3 1 roll 2 copy moveto lineto stroke setlinecap
	} bdef

/FA {
	newpath
	tMatrix currentmatrix pop
	translate scale
	0 0 1 5 -2 roll arc
	tMatrix setmatrix
	stroke
	} bdef
/PA {
	newpath
	tMatrix currentmatrix pop
	translate 0 0 moveto scale
	0 0 1 5 -2 roll arc
	closepath
	tMatrix setmatrix
	fill
	} bdef

/FAn {
	newpath
	tMatrix currentmatrix pop
	translate scale
	0 0 1 5 -2 roll arcn
	tMatrix setmatrix
	stroke
	} bdef
/PAn {
	newpath
	tMatrix currentmatrix pop
	translate 0 0 moveto scale
	0 0 1 5 -2 roll arcn
	closepath
	tMatrix setmatrix
	fill
	} bdef

/vradius 0 def
/hradius 0 def
/lry 0 def
/lrx 0 def
/uly 0 def
/ulx 0 def
/rad 0 def

/MRR {
	/vradius xdef
	/hradius xdef
	/lry xdef
	/lrx xdef
	/uly xdef
	/ulx xdef
	newpath
	tMatrix currentmatrix pop
	ulx hradius add uly vradius add translate
	hradius vradius scale
	0 0 1 180 270 arc 
	tMatrix setmatrix
	lrx hradius sub uly vradius add translate
	hradius vradius scale
	0 0 1 270 360 arc
	tMatrix setmatrix
	lrx hradius sub lry vradius sub translate
	hradius vradius scale
	0 0 1 0 90 arc
	tMatrix setmatrix
	ulx hradius add lry vradius sub translate
	hradius vradius scale
	0 0 1 90 180 arc
	tMatrix setmatrix
	closepath
	} bdef
/FRR {
	MRR stroke } bdef
/PRR {
	MRR fill } bdef

/MlrRR {
	/lry xdef
	/lrx xdef
	/uly xdef
	/ulx xdef
	/rad lry uly sub 2 div def
	newpath
	tMatrix currentmatrix pop
	ulx rad add uly rad add translate
	rad rad scale
	0 0 1 90 270 arc
	tMatrix setmatrix
	lrx rad sub lry rad sub translate
	rad rad scale
	0 0 1 270 90 arc
	tMatrix setmatrix
	closepath
	} bdef
/FlrRR {
	MlrRR stroke } bdef
/PlrRR {
	MlrRR fill } bdef

/MtbRR {
	/lry xdef
	/lrx xdef
	/uly xdef
	/ulx xdef
	/rad lrx ulx sub 2 div def
	newpath
	tMatrix currentmatrix pop
	ulx rad add uly rad add translate
	rad rad scale
	0 0 1 180 360 arc
	tMatrix setmatrix
	lrx rad sub lry rad sub translate
	rad rad scale
	0 0 1 0 180 arc
	tMatrix setmatrix
	closepath
	} bdef
/FtbRR {
	MtbRR stroke } bdef
/PtbRR {
	MtbRR fill } bdef

currentdict end def
%%EndProlog

%%BeginSetup
MathWorks begin

0 cap

end
%%EndSetup

%%Page: 1 1
%%BeginPageSetup
%%PageBoundingBox:    70   275   556   544
MathWorks begin
bpage
%%EndPageSetup

%%BeginObject: obj1
bplot

/dpi2point 12 def
portraitMode 0216 7344 csm

  629   812  5828  3229 MR c np
93 dict begin %Colortable dictionary
/c0 { 0 0 0 sr} bdef
/c1 { 1 1 1 sr} bdef
/c2 { 1 0 0 sr} bdef
/c3 { 0 1 0 sr} bdef
/c4 { 0 0 1 sr} bdef
/c5 { 1 1 0 sr} bdef
/c6 { 1 0 1 sr} bdef
/c7 { 0 1 1 sr} bdef
c0
1 j
1 sg
   0    0 6918 5185 PR
6 w
gs 899 1201 2262 2601 MR c np
7 -71 11 -70 16 -69 19 -68 24 -67 29 -65 32 -64 36 -61 
40 -58 43 -57 47 -53 51 -50 53 -47 56 -44 59 -40 61 -36 
63 -32 65 -28 67 -24 68 -20 70 -15 70 -12 71 -6 70 -3 
71 3 71 6 70 12 70 15 68 20 67 24 65 28 63 32 
61 36 59 40 56 44 53 47 51 50 47 53 43 57 40 58 
36 61 32 64 29 65 24 67 19 68 16 69 11 70 7 71 
2 71 -2 71 -7 71 -11 70 -16 69 -19 68 -24 67 -29 65 
-32 64 -36 61 -40 58 -43 57 -47 53 -51 50 -53 47 -56 44 
-59 40 -61 36 -63 32 -65 28 -67 24 -68 20 -70 15 -70 12 
-71 6 -71 2 -70 -2 -71 -6 -70 -12 -70 -15 -68 -20 -67 -24 
-65 -28 -63 -32 -61 -36 -59 -40 -56 -44 -53 -47 -51 -50 -47 -53 
-43 -57 -40 -58 -36 -61 -32 -64 -29 -65 -24 -67 -19 -68 -16 -69 
-11 -70 -7 -71 -2 -71 3160 2501 100 MP
2 -71 1 AP
PP
0 sg
0 0 2 -71 7 -71 11 -70 16 -69 19 -68 24 -67 29 -65 
32 -64 36 -61 40 -58 43 -57 47 -53 51 -50 53 -47 56 -44 
59 -40 61 -36 63 -32 65 -28 67 -24 68 -20 70 -15 70 -12 
71 -6 70 -3 71 3 71 6 70 12 70 15 68 20 67 24 
65 28 63 32 61 36 59 40 56 44 53 47 51 50 47 53 
43 57 40 58 36 61 32 64 29 65 24 67 19 68 16 69 
11 70 7 71 2 71 -2 71 -7 71 -11 70 -16 69 -19 68 
-24 67 -29 65 -32 64 -36 61 -40 58 -43 57 -47 53 -51 50 
-53 47 -56 44 -59 40 -61 36 -63 32 -65 28 -67 24 -68 20 
-70 15 -70 12 -71 6 -71 2 -70 -2 -71 -6 -70 -12 -70 -15 
-68 -20 -67 -24 -65 -28 -63 -32 -61 -36 -59 -40 -56 -44 -53 -47 
-51 -50 -47 -53 -43 -57 -40 -58 -36 -61 -32 -64 -29 -65 -24 -67 
-19 -68 -16 -69 -11 -70 3151 2359 100 MP stroke
-7 -71 -2 -71 3160 2501 3 MP stroke
DO
12 w
1 -35 4 -36 5 -35 8 -35 10 -34 12 -33 14 -33 16 -31 
18 -31 20 -29 22 -28 23 -27 26 -25 26 -24 28 -21 30 -20 
30 -18 32 -16 32 -15 34 -12 34 -9 35 -8 35 -6 35 -3 
35 -1 36 1 35 3 35 6 35 8 34 9 34 12 32 15 
32 16 30 18 30 20 28 21 26 24 26 25 23 27 22 28 
20 29 18 31 16 31 14 33 12 33 10 34 8 35 5 35 
4 36 1 35 -1 35 -4 36 -5 35 -8 35 -10 34 -12 33 
-14 33 -16 31 -18 31 -20 29 -22 28 -23 27 -26 25 -26 24 
-28 21 -30 20 -30 18 -32 16 -32 15 -34 12 -34 9 -35 8 
-35 6 -35 3 -36 1 -35 -1 -35 -3 -35 -6 -35 -8 -34 -9 
-34 -12 -32 -15 -32 -16 -30 -18 -30 -20 -28 -21 -26 -24 -26 -25 
-23 -27 -22 -28 -20 -29 -18 -31 -16 -31 -14 -33 -12 -33 -10 -34 
-8 -35 -5 -35 -4 -36 2594 2466 100 MP stroke
-1 -35 2595 2501 2 MP stroke
gr

12 w
0 sg
DO
%%IncludeResource: font Helvetica
/Helvetica /ISOLatin1Encoding 120 FMSR

2112 1886 mt 
(  2) s
gs 899 1201 2262 2601 MR c np
SO
2 -71 7 -71 11 -70 16 -69 19 -68 24 -67 29 -65 32 -64 
36 -61 40 -58 43 -57 47 -53 51 -50 53 -47 56 -44 59 -40 
61 -36 63 -32 65 -28 67 -24 68 -20 70 -15 70 -12 71 -6 
70 -3 71 3 71 6 70 12 70 15 68 20 67 24 65 28 
63 32 61 36 59 40 56 44 53 47 51 50 47 53 43 57 
40 58 36 61 32 64 29 65 24 67 19 68 16 69 11 70 
7 71 2 71 -2 71 -7 71 -11 70 -16 69 -19 68 -24 67 
-29 65 -32 64 -36 61 -40 58 -43 57 -47 53 -51 50 -53 47 
-56 44 -59 40 -61 36 -63 32 -65 28 -67 24 -68 20 -70 15 
-70 12 -71 6 -71 2 -70 -2 -71 -6 -70 -12 -70 -15 -68 -20 
-67 -24 -65 -28 -63 -32 -61 -36 -59 -40 -56 -44 -53 -47 -51 -50 
-47 -53 -43 -57 -40 -58 -36 -61 -32 -64 -29 -65 -24 -67 -19 -68 
-16 -69 -11 -70 -7 -71 3158 2430 100 MP stroke
-2 -71 3160 2501 2 MP stroke
gr

SO
2191 1327 mt 
(  4) s
gs 899 1201 2262 2601 MR c np
DO
1959 -1130 1050 3066 2 MP stroke
1131 -1958 1464 3480 2 MP stroke
1 -2261 2029 3632 2 MP stroke
-1131 -1958 2595 3480 2 MP stroke
-1959 -1130 3009 3066 2 MP stroke
-2261 0 3160 2501 2 MP stroke
gr

DO
3040 1921 mt 
(30) s
 854 3165 mt 
(210) s
2585 1466 mt 
(60) s
1309 3620 mt 
(240) s
1964 1299 mt 
(90) s
1930 3787 mt 
(270) s
1309 1466 mt 
(120) s
2552 3620 mt 
(300) s
 854 1921 mt 
(150) s
3007 3165 mt 
(330) s
 687 2543 mt 
(180) s
3240 2543 mt 
(0) s
gs 899 1201 2262 2601 MR c np
DA
24 w
-1 27 -2 26 -4 27 -6 26 -8 26 -11 25 -13 24 -17 22 
-20 18 -24 14 -27 8 -30 1 -32 -8 -32 -16 -30 -24 -26 -29 
-20 -28 -13 -12 -10 16 -13 39 -20 48 -29 48 -36 40 -39 28 
-39 14 -36 -2 -30 -15 -24 -24 -20 -27 -22 -24 -35 -15 -52 -6 
-72 -5 -85 -9 -88 -21 -81 -36 -65 -49 -43 -61 -14 -66 0 0 
14 -66 43 -61 65 -49 81 -36 88 -21 85 -9 72 -5 52 -6 
35 -15 22 -24 20 -27 24 -24 30 -15 36 -2 39 14 39 28 
36 40 29 48 20 48 13 39 10 16 13 -12 20 -28 26 -29 
30 -24 32 -16 32 -8 30 1 27 8 24 14 20 18 17 22 
13 24 11 25 8 26 6 26 4 27 2 26 1 27 1698 2501 80 MP stroke
gr

24 w
DA
%%IncludeResource: font Symbol
/Symbol /ISOLatin1Encoding 192 FMSR

1561 1053 mt 
(l) s
%%IncludeResource: font Times-Roman
/Times-Roman /ISOLatin1Encoding 192 FMSR

1666 1053 mt 
( = 2 ) s
%%IncludeResource: font Symbol
/Symbol /ISOLatin1Encoding 192 FMSR

2014 1053 mt 
(p) s
%%IncludeResource: font Times-Roman
/Times-Roman /ISOLatin1Encoding 192 FMSR

2119 1053 mt 
( a / 3) s
gs 899 1201 2262 2601 MR c np
SO
36 w
0 17 0 18 1 18 1 19 0 20 0 22 -2 22 -4 22 
-7 22 -11 21 -15 17 -18 13 -22 7 -24 0 -26 -6 -24 -13 
-22 -18 -19 -16 -15 -10 -15 4 -16 18 -23 28 -27 30 -33 26 
-35 17 -34 6 -31 -5 -24 -17 -18 -23 -14 -26 -14 -25 -20 -21 
-30 -16 -41 -14 -48 -18 -47 -25 -40 -32 -26 -39 -10 -43 0 0 
10 -43 26 -39 40 -32 47 -25 48 -18 41 -14 30 -16 20 -21 
14 -25 14 -26 18 -23 24 -17 31 -5 34 6 35 17 33 26 
27 30 23 28 16 18 15 4 15 -10 19 -16 22 -18 24 -13 
26 -6 24 0 22 7 18 13 15 17 11 21 7 22 4 22 
2 22 0 22 0 20 -1 19 -1 18 0 18 0 17 1815 2501 80 MP stroke
6 w
gr

6 w
SO
gs 3998 1201 2262 2601 MR c np
1 sg
7 -71 11 -70 16 -69 19 -68 24 -67 29 -65 32 -64 36 -61 
40 -58 43 -57 47 -53 51 -50 53 -47 56 -44 59 -40 61 -36 
63 -32 65 -28 67 -24 68 -20 70 -15 70 -12 71 -6 70 -3 
71 3 71 6 70 12 70 15 68 20 67 24 65 28 63 32 
61 36 59 40 56 44 53 47 51 50 47 53 43 57 40 58 
36 61 32 64 29 65 24 67 19 68 16 69 11 70 7 71 
2 71 -2 71 -7 71 -11 70 -16 69 -19 68 -24 67 -29 65 
-32 64 -36 61 -40 58 -43 57 -47 53 -51 50 -53 47 -56 44 
-59 40 -61 36 -63 32 -65 28 -67 24 -68 20 -70 15 -70 12 
-71 6 -71 2 -70 -2 -71 -6 -70 -12 -70 -15 -68 -20 -67 -24 
-65 -28 -63 -32 -61 -36 -59 -40 -56 -44 -53 -47 -51 -50 -47 -53 
-43 -57 -40 -58 -36 -61 -32 -64 -29 -65 -24 -67 -19 -68 -16 -69 
-11 -70 -7 -71 -2 -71 6259 2501 100 MP
2 -71 1 AP
PP
0 sg
0 0 2 -71 7 -71 11 -70 16 -69 19 -68 24 -67 29 -65 
32 -64 36 -61 40 -58 43 -57 47 -53 51 -50 53 -47 56 -44 
59 -40 61 -36 63 -32 65 -28 67 -24 68 -20 70 -15 70 -12 
71 -6 70 -3 71 3 71 6 70 12 70 15 68 20 67 24 
65 28 63 32 61 36 59 40 56 44 53 47 51 50 47 53 
43 57 40 58 36 61 32 64 29 65 24 67 19 68 16 69 
11 70 7 71 2 71 -2 71 -7 71 -11 70 -16 69 -19 68 
-24 67 -29 65 -32 64 -36 61 -40 58 -43 57 -47 53 -51 50 
-53 47 -56 44 -59 40 -61 36 -63 32 -65 28 -67 24 -68 20 
-70 15 -70 12 -71 6 -71 2 -70 -2 -71 -6 -70 -12 -70 -15 
-68 -20 -67 -24 -65 -28 -63 -32 -61 -36 -59 -40 -56 -44 -53 -47 
-51 -50 -47 -53 -43 -57 -40 -58 -36 -61 -32 -64 -29 -65 -24 -67 
-19 -68 -16 -69 -11 -70 6250 2359 100 MP stroke
-7 -71 -2 -71 6259 2501 3 MP stroke
DO
12 w
1 -35 4 -36 5 -35 8 -35 10 -34 12 -33 14 -33 16 -31 
18 -31 20 -29 22 -28 23 -27 26 -25 26 -24 28 -21 30 -20 
30 -18 32 -16 32 -15 34 -12 34 -9 35 -8 35 -6 35 -3 
35 -1 36 1 35 3 35 6 35 8 34 9 34 12 32 15 
32 16 30 18 30 20 28 21 26 24 26 25 23 27 22 28 
20 29 18 31 16 31 14 33 12 33 10 34 8 35 5 35 
4 36 1 35 -1 35 -4 36 -5 35 -8 35 -10 34 -12 33 
-14 33 -16 31 -18 31 -20 29 -22 28 -23 27 -26 25 -26 24 
-28 21 -30 20 -30 18 -32 16 -32 15 -34 12 -34 9 -35 8 
-35 6 -35 3 -36 1 -35 -1 -35 -3 -35 -6 -35 -8 -34 -9 
-34 -12 -32 -15 -32 -16 -30 -18 -30 -20 -28 -21 -26 -24 -26 -25 
-23 -27 -22 -28 -20 -29 -18 -31 -16 -31 -14 -33 -12 -33 -10 -34 
-8 -35 -5 -35 -4 -36 5693 2466 100 MP stroke
-1 -35 5694 2501 2 MP stroke
gr

12 w
DO
%%IncludeResource: font Helvetica
/Helvetica /ISOLatin1Encoding 120 FMSR

5211 1886 mt 
(  2) s
gs 3998 1201 2262 2601 MR c np
SO
2 -71 7 -71 11 -70 16 -69 19 -68 24 -67 29 -65 32 -64 
36 -61 40 -58 43 -57 47 -53 51 -50 53 -47 56 -44 59 -40 
61 -36 63 -32 65 -28 67 -24 68 -20 70 -15 70 -12 71 -6 
70 -3 71 3 71 6 70 12 70 15 68 20 67 24 65 28 
63 32 61 36 59 40 56 44 53 47 51 50 47 53 43 57 
40 58 36 61 32 64 29 65 24 67 19 68 16 69 11 70 
7 71 2 71 -2 71 -7 71 -11 70 -16 69 -19 68 -24 67 
-29 65 -32 64 -36 61 -40 58 -43 57 -47 53 -51 50 -53 47 
-56 44 -59 40 -61 36 -63 32 -65 28 -67 24 -68 20 -70 15 
-70 12 -71 6 -71 2 -70 -2 -71 -6 -70 -12 -70 -15 -68 -20 
-67 -24 -65 -28 -63 -32 -61 -36 -59 -40 -56 -44 -53 -47 -51 -50 
-47 -53 -43 -57 -40 -58 -36 -61 -32 -64 -29 -65 -24 -67 -19 -68 
-16 -69 -11 -70 -7 -71 6257 2430 100 MP stroke
-2 -71 6259 2501 2 MP stroke
gr

SO
5290 1327 mt 
(  4) s
gs 3998 1201 2262 2601 MR c np
DO
1959 -1130 4149 3066 2 MP stroke
1131 -1958 4563 3480 2 MP stroke
0 -2261 5129 3632 2 MP stroke
-1131 -1958 5694 3480 2 MP stroke
-1959 -1130 6108 3066 2 MP stroke
-2261 0 6259 2501 2 MP stroke
gr

DO
6139 1921 mt 
(30) s
3953 3165 mt 
(210) s
5684 1466 mt 
(60) s
4408 3620 mt 
(240) s
5063 1299 mt 
(90) s
5030 3787 mt 
(270) s
4408 1466 mt 
(120) s
5651 3620 mt 
(300) s
3953 1921 mt 
(150) s
6106 3165 mt 
(330) s
3786 2543 mt 
(180) s
6339 2543 mt 
(0) s
gs 3998 1201 2262 2601 MR c np
SO
36 w
-1 24 -4 23 -8 22 -11 21 -15 19 -17 16 -19 13 -18 13 
-15 13 -12 17 -9 20 -10 23 -12 22 -18 16 -24 4 -26 -9 
-26 -20 -22 -21 -18 -5 -18 20 -23 34 -28 29 -27 8 -18 -24 
-1 -54 21 -76 28 -65 -33 28 -84 71 -93 55 -87 29 -75 6 
-71 -10 -81 -14 -104 -19 -119 -31 -113 -49 -81 -68 -29 -81 0 0 
29 -81 81 -68 113 -49 119 -31 104 -19 81 -14 71 -10 75 6 
87 29 93 55 84 71 33 28 -28 -65 -21 -76 1 -54 18 -24 
27 8 28 29 23 34 18 20 18 -5 22 -21 26 -20 26 -9 
24 4 18 16 12 22 10 23 9 20 12 17 15 13 18 13 
19 13 17 16 15 19 11 21 8 22 4 23 1 24 4835 2501 80 MP stroke
gr

36 w
SO
%%IncludeResource: font Symbol
/Symbol /ISOLatin1Encoding 192 FMSR

4660 1053 mt 
(l) s
%%IncludeResource: font Times-Roman
/Times-Roman /ISOLatin1Encoding 192 FMSR

4765 1053 mt 
( = 2 ) s
%%IncludeResource: font Symbol
/Symbol /ISOLatin1Encoding 192 FMSR

5113 1053 mt 
(p) s
%%IncludeResource: font Times-Roman
/Times-Roman /ISOLatin1Encoding 192 FMSR

5218 1053 mt 
( a / 5) s
gs 3998 1201 2262 2601 MR c np
DA
24 w
-2 11 -8 10 -12 8 -19 4 -24 -1 -29 -7 -28 -13 16 14 
36 37 35 47 27 52 17 54 2 47 -11 33 -23 13 -31 -12 
-34 -38 -29 -62 -19 -77 -6 -80 -4 7 -15 54 -16 26 -9 -6 
4 -34 12 -35 -22 23 -46 45 -41 24 -15 -8 9 -27 -34 4 
-157 63 -247 72 -292 44 -295 -4 -252 -57 -169 -103 -60 -128 0 0 
60 -128 169 -103 252 -57 295 -4 292 44 247 72 157 63 34 4 
-9 -27 15 -8 41 24 46 45 22 23 -12 -35 -4 -34 9 -6 
16 26 15 54 4 7 6 -80 19 -77 29 -62 34 -38 31 -12 
23 13 11 33 -2 47 -17 54 -27 52 -35 47 -36 37 -16 14 
28 -13 29 -7 24 -1 19 4 12 8 8 10 2 11 4988 2501 80 MP stroke
SO
6 w
gr

6 w

end

eplot
%%EndObject

epage
end

showpage

%%Trailer
%%EOF
