%!PS-Adobe-2.0 EPSF-1.2
%%Creator: MATLAB, The Mathworks, Inc.
%%Title: ka_ray.eps
%%CreationDate: 06/17/99  21:09:17
%%DocumentNeededFonts: Times-Roman
%%+ Helvetica
%%DocumentProcessColors: Cyan Magenta Yellow Black
%%Pages: 1
%%BoundingBox:    53   275   550   509
%%EndComments

%%BeginProlog

% MathWorks dictionary
/MathWorks 160 dict begin

% definition operators
/bdef {bind def} bind def
/ldef {load def} bind def
/xdef {exch def} bdef
/xstore {exch store} bdef

% operator abbreviations
/c  /clip ldef
/cc /concat ldef
/cp /closepath ldef
/gr /grestore ldef
/gs /gsave ldef
/mt /moveto ldef
/np /newpath ldef
/cm /currentmatrix ldef
/sm /setmatrix ldef
/rc {rectclip} bdef
/rf {rectfill} bdef
/rm /rmoveto ldef
/rl /rlineto ldef
/s /show ldef
/sc {setcmykcolor} bdef
/sr /setrgbcolor ldef
/sg /setgray ldef
/w /setlinewidth ldef
/j /setlinejoin ldef
/cap /setlinecap ldef

% page state control
/pgsv () def
/bpage {/pgsv save def} bdef
/epage {pgsv restore} bdef
/bplot /gsave ldef
/eplot {stroke grestore} bdef

% orientation switch
/portraitMode 	0 def
/landscapeMode 	1 def

% coordinate system mappings
/dpi2point 0 def

% font control
/FontSize 0 def
/FMS {
	/FontSize xstore		%save size off stack
	findfont
	[FontSize 0 0 FontSize neg 0 0]
	makefont
	setfont
	}bdef

/reencode {
exch dup where
{pop load} {pop StandardEncoding} ifelse
exch
dup 3 1 roll
findfont dup length dict begin
  { 1 index /FID ne {def}{pop pop} ifelse } forall
  /Encoding exch def
  currentdict
end
definefont pop
} bdef

/isroman {
findfont /CharStrings get
/Agrave known
} bdef

/FMSR {
3 1 roll 1 index
dup isroman
{reencode} {pop pop} ifelse
exch FMS
} bdef

/csm {
	1 dpi2point div -1 dpi2point div scale
	neg translate
	landscapeMode eq {90 rotate} if
	} bdef

% line types: solid, dotted, dashed, dotdash
/SO { [] 0 setdash } bdef
/DO { [.5 dpi2point mul 4 dpi2point mul] 0 setdash } bdef
/DA { [6 dpi2point mul] 0 setdash } bdef
/DD { [.5 dpi2point mul 4 dpi2point mul 6 dpi2point mul 4 dpi2point mul] 0 setdash } bdef

% macros for lines and objects
/L {
	lineto
	stroke
	} bdef
/MP {
	3 1 roll moveto
	1 sub {rlineto} repeat
	} bdef
/AP {
	{rlineto} repeat
	} bdef
/PP {
	closepath eofill
	} bdef
/DP {
	closepath stroke
	} bdef
/MR {
	4 -2 roll moveto
	dup  0 exch rlineto
	exch 0 rlineto
	neg  0 exch rlineto
	closepath
	} bdef
/FR {
	MR stroke
	} bdef
/PR {
	MR fill
	} bdef
/L1i {
	{ currentfile picstr readhexstring pop } image
	} bdef

/tMatrix matrix def
/MakeOval {
	newpath
	tMatrix currentmatrix pop
	translate scale
	0 0 1 0 360 arc
	tMatrix setmatrix
	} bdef
/FO {
	MakeOval
	stroke
	} bdef
/PO {
	MakeOval
	fill
	} bdef

/PD {
	currentlinecap 1 setlinecap 3 1 roll 2 copy moveto lineto stroke setlinecap
	} bdef

/FA {
	newpath
	tMatrix currentmatrix pop
	translate scale
	0 0 1 5 -2 roll arc
	tMatrix setmatrix
	stroke
	} bdef
/PA {
	newpath
	tMatrix currentmatrix pop
	translate 0 0 moveto scale
	0 0 1 5 -2 roll arc
	closepath
	tMatrix setmatrix
	fill
	} bdef

/FAn {
	newpath
	tMatrix currentmatrix pop
	translate scale
	0 0 1 5 -2 roll arcn
	tMatrix setmatrix
	stroke
	} bdef
/PAn {
	newpath
	tMatrix currentmatrix pop
	translate 0 0 moveto scale
	0 0 1 5 -2 roll arcn
	closepath
	tMatrix setmatrix
	fill
	} bdef

/vradius 0 def
/hradius 0 def
/lry 0 def
/lrx 0 def
/uly 0 def
/ulx 0 def
/rad 0 def

/MRR {
	/vradius xdef
	/hradius xdef
	/lry xdef
	/lrx xdef
	/uly xdef
	/ulx xdef
	newpath
	tMatrix currentmatrix pop
	ulx hradius add uly vradius add translate
	hradius vradius scale
	0 0 1 180 270 arc 
	tMatrix setmatrix
	lrx hradius sub uly vradius add translate
	hradius vradius scale
	0 0 1 270 360 arc
	tMatrix setmatrix
	lrx hradius sub lry vradius sub translate
	hradius vradius scale
	0 0 1 0 90 arc
	tMatrix setmatrix
	ulx hradius add lry vradius sub translate
	hradius vradius scale
	0 0 1 90 180 arc
	tMatrix setmatrix
	closepath
	} bdef
/FRR {
	MRR stroke } bdef
/PRR {
	MRR fill } bdef

/MlrRR {
	/lry xdef
	/lrx xdef
	/uly xdef
	/ulx xdef
	/rad lry uly sub 2 div def
	newpath
	tMatrix currentmatrix pop
	ulx rad add uly rad add translate
	rad rad scale
	0 0 1 90 270 arc
	tMatrix setmatrix
	lrx rad sub lry rad sub translate
	rad rad scale
	0 0 1 270 90 arc
	tMatrix setmatrix
	closepath
	} bdef
/FlrRR {
	MlrRR stroke } bdef
/PlrRR {
	MlrRR fill } bdef

/MtbRR {
	/lry xdef
	/lrx xdef
	/uly xdef
	/ulx xdef
	/rad lrx ulx sub 2 div def
	newpath
	tMatrix currentmatrix pop
	ulx rad add uly rad add translate
	rad rad scale
	0 0 1 180 360 arc
	tMatrix setmatrix
	lrx rad sub lry rad sub translate
	rad rad scale
	0 0 1 0 180 arc
	tMatrix setmatrix
	closepath
	} bdef
/FtbRR {
	MtbRR stroke } bdef
/PtbRR {
	MtbRR fill } bdef

currentdict end def
%%EndProlog

%%BeginSetup
MathWorks begin

0 cap

end
%%EndSetup

%%Page: 1 1
%%BeginPageSetup
%%PageBoundingBox:    53   275   550   509
MathWorks begin
bpage
%%EndPageSetup

%%BeginObject: obj1
bplot

/dpi2point 12 def
portraitMode 0216 7344 csm

  422  1231  5970  2812 MR c np
93 dict begin %Colortable dictionary
/c0 { 0 0 0 sr} bdef
/c1 { 1 1 1 sr} bdef
/c2 { 1 0 0 sr} bdef
/c3 { 0 1 0 sr} bdef
/c4 { 0 0 1 sr} bdef
/c5 { 1 1 0 sr} bdef
/c6 { 1 0 1 sr} bdef
/c7 { 0 1 1 sr} bdef
c0
1 j
1 sg
   0    0 6918 5185 PR
6 w
0 2261 2261 0 0 -2261 899 3632 4 MP
PP
-2261 0 0 2261 2261 0 0 -2261 899 3632 5 MP stroke
4 w
DO
SO
6 w
0 sg
 899 3632 mt 3160 3632 L
 899 1371 mt 3160 1371 L
 899 3632 mt  899 1371 L
3160 3632 mt 3160 1371 L
 899 3632 mt 3160 3632 L
 899 3632 mt  899 1371 L
 899 3632 mt  899 3609 L
 899 1371 mt  899 1393 L
%%IncludeResource: font Times-Roman
/Times-Roman /ISOLatin1Encoding 168 FMSR

 857 3816 mt 
(0) s
1966 3632 mt 1966 3609 L
1966 1371 mt 1966 1393 L
1861 3816 mt 
(0.5) s
3032 3632 mt 3032 3609 L
3032 1371 mt 3032 1393 L
2990 3816 mt 
(1) s
 899 3632 mt  922 3632 L
3160 3632 mt 3137 3632 L
 780 3692 mt 
(0) s
 899 3255 mt  922 3255 L
3160 3255 mt 3137 3255 L
 654 3315 mt 
(0.2) s
 899 2878 mt  922 2878 L
3160 2878 mt 3137 2878 L
 654 2938 mt 
(0.4) s
 899 2501 mt  922 2501 L
3160 2501 mt 3137 2501 L
 654 2561 mt 
(0.6) s
 899 2124 mt  922 2124 L
3160 2124 mt 3137 2124 L
 654 2184 mt 
(0.8) s
 899 1747 mt  922 1747 L
3160 1747 mt 3137 1747 L
 780 1807 mt 
(1) s
 899 3632 mt 3160 3632 L
 899 1371 mt 3160 1371 L
 899 3632 mt  899 1371 L
3160 3632 mt 3160 1371 L
gs 899 1371 2262 2262 MR c np
36 w
107 -90 106 -118 107 -139 107 -156 106 -163 107 -165 107 -161 106 -150 
107 -136 107 -120 106 -101 107 -82 106 -64 107 -47 107 -34 106 -21 
107 -13 107 -6 106 -3 107 0 1027 3631 21 MP stroke
DA
24 w
107 -418 106 -360 107 -308 107 -262 106 -219 107 -183 107 -150 106 -121 
107 -97 107 -75 106 -58 107 -43 106 -31 107 -22 107 -14 106 -9 
107 -5 107 -2 106 -1 107 0 107 0 920 3631 22 MP stroke
gr

24 w
DA
%%IncludeResource: font Times-Roman
/Times-Roman /ISOLatin1Encoding 192 FMSR

1914 4000 mt 
(k a) s
 599 2623 mt  -90 rotate
(|f) s
90 rotate
%%IncludeResource: font Symbol
/Symbol /ISOLatin1Encoding 144 FMSR

 695 2521 mt  -90 rotate
(\245) s
90 rotate
%%IncludeResource: font Times-Roman
/Times-Roman /ISOLatin1Encoding 192 FMSR

 599 2419 mt  -90 rotate
(|) s
90 rotate
SO
6 w
1 sg
0 2261 2261 0 0 -2261 3998 3632 4 MP
PP
-2261 0 0 2261 2261 0 0 -2261 3998 3632 5 MP stroke
4 w
DO
SO
6 w
0 sg
3998 3632 mt 6259 3632 L
3998 1371 mt 6259 1371 L
3998 3632 mt 3998 1371 L
6259 3632 mt 6259 1371 L
3998 3632 mt 6259 3632 L
3998 3632 mt 3998 1371 L
3998 3632 mt 3998 3609 L
3998 1371 mt 3998 1393 L
%%IncludeResource: font Times-Roman
/Times-Roman /ISOLatin1Encoding 168 FMSR

3956 3816 mt 
(0) s
5129 3632 mt 5129 3609 L
5129 1371 mt 5129 1393 L
5087 3816 mt 
(5) s
6259 3632 mt 6259 3609 L
6259 1371 mt 6259 1393 L
6175 3816 mt 
(10) s
3998 3632 mt 4021 3632 L
6259 3632 mt 6236 3632 L
3879 3692 mt 
(0) s
3998 2878 mt 4021 2878 L
6259 2878 mt 6236 2878 L
3753 2938 mt 
(0.5) s
3998 2124 mt 4021 2124 L
6259 2124 mt 6236 2124 L
3879 2184 mt 
(1) s
3998 1371 mt 4021 1371 L
6259 1371 mt 6236 1371 L
3753 1431 mt 
(1.5) s
3998 3632 mt 6259 3632 L
3998 1371 mt 6259 1371 L
3998 3632 mt 3998 1371 L
6259 3632 mt 6259 1371 L
gs 3998 1371 2262 2262 MR c np
36 w
11 23 12 21 11 18 11 14 12 8 11 3 11 -3 11 -10 
12 -14 11 -19 11 -23 12 -24 11 -26 11 -24 12 -21 11 -17 
11 -10 12 -4 11 3 11 10 11 16 12 22 11 25 11 26 
12 26 11 25 11 20 12 16 11 10 11 4 11 -3 12 -10 
11 -16 11 -22 12 -25 11 -28 11 -30 12 -28 11 -25 11 -20 
12 -13 11 -5 11 3 11 11 12 19 11 24 11 29 12 30 
11 30 11 28 12 24 11 19 11 12 12 4 11 -3 11 -11 
11 -18 12 -24 11 -29 11 -33 12 -34 11 -33 11 -29 12 -24 
11 -16 11 -8 11 3 12 13 11 21 11 28 12 33 11 35 
11 35 12 33 11 28 11 22 12 14 11 6 11 -3 11 -12 
12 -21 11 -28 11 -34 12 -38 11 -40 11 -39 12 -36 11 -29 
11 -20 11 -10 12 3 11 13 11 25 12 33 11 38 11 42 
12 41 11 38 11 33 5131 2070 100 MP stroke
12 26 11 17 11 7 11 -3 12 -13 11 -24 11 -32 12 -40 
11 -45 11 -48 12 -47 11 -44 11 -37 12 -26 11 -14 11 1 
11 15 12 28 11 38 11 45 12 49 11 49 11 46 12 39 
11 31 11 21 11 10 12 -3 11 -14 11 -27 12 -37 11 -46 
11 -54 12 -58 11 -60 11 -56 12 -49 11 -38 11 -22 11 -5 
12 14 11 30 11 44 12 53 11 58 11 58 12 55 11 49 
11 39 11 28 12 15 11 1 11 -13 12 -28 11 -40 11 -53 
12 -64 11 -71 11 -76 12 -77 11 -73 11 -63 11 -47 12 -27 
11 -3 11 20 12 40 11 56 11 65 12 69 11 69 11 64 
12 56 11 45 11 34 11 19 12 6 11 -9 11 -24 12 -37 
11 -51 11 -63 12 -73 11 -83 11 -90 11 -95 12 -99 11 -100 
11 -100 12 -98 11 -95 11 -89 12 -83 11 -75 11 -65 12 -56 
11 -45 11 -33 11 -21 4012 3622 100 MP stroke
DA
24 w
11 -61 12 -46 11 -28 11 -11 12 5 11 21 11 34 11 47 
12 63 11 112 11 -209 12 179 11 83 11 72 12 70 11 71 
11 73 12 74 11 77 11 78 11 80 12 80 11 79 11 75 
12 70 11 63 11 54 12 44 11 30 11 18 11 3 12 -12 
11 -28 11 -42 12 -58 11 -72 11 -86 12 -99 11 -110 11 -121 
12 -130 11 -139 11 -146 11 -152 12 -158 11 -161 11 -164 12 -163 
11 -151 11 22 12 151 11 154 11 148 12 139 11 128 11 116 
11 106 12 94 11 86 11 79 12 76 11 74 11 75 12 65 
11 1 11 -349 11 -765 12 518 11 373 11 222 12 158 11 125 
11 104 12 87 11 71 11 57 12 42 11 26 11 12 11 -4 
12 -17 11 -32 11 -43 12 -55 11 -65 11 -72 12 -78 11 -83 
11 -85 11 -88 12 -88 11 -91 11 -92 12 -95 11 -100 11 -105 
12 -109 11 -111 11 -105 5131 2860 100 MP stroke
12 -89 11 -56 11 -9 11 37 12 71 11 89 11 96 12 95 
11 92 11 89 12 88 11 88 11 90 12 92 11 95 11 97 
11 97 12 96 11 92 11 86 12 79 11 68 11 55 12 42 
11 28 11 11 11 -4 12 -20 11 -35 11 -48 12 -59 11 -68 
11 -74 12 -75 11 -72 11 -65 12 -53 11 -37 11 -17 11 3 
12 23 11 40 11 53 12 62 11 66 11 64 12 59 11 51 
11 38 11 25 12 8 11 -8 11 -26 12 -43 11 -61 11 -78 
12 -93 11 -106 11 -118 12 -126 11 -134 11 -137 11 -137 12 -133 
11 -126 11 -113 12 -96 11 -73 11 -46 12 -18 11 6 11 23 
12 32 11 35 11 34 11 28 12 21 11 12 11 4 12 -6 
11 -15 11 -23 12 -31 11 -37 11 -44 11 -49 12 -53 11 -55 
11 -56 12 -57 11 -56 11 -54 12 -50 11 -47 11 -41 12 -35 
11 -29 11 -21 11 -14 4012 3626 100 MP stroke
gr

24 w
DA
%%IncludeResource: font Times-Roman
/Times-Roman /ISOLatin1Encoding 192 FMSR

5013 4000 mt 
(k a) s
3698 2623 mt  -90 rotate
(|f) s
90 rotate
%%IncludeResource: font Symbol
/Symbol /ISOLatin1Encoding 144 FMSR

3794 2521 mt  -90 rotate
(\245) s
90 rotate
%%IncludeResource: font Times-Roman
/Times-Roman /ISOLatin1Encoding 192 FMSR

3698 2419 mt  -90 rotate
(|) s
90 rotate
SO
6 w

end

eplot
%%EndObject

epage
end

showpage

%%Trailer
%%EOF
