%!PS-Adobe-2.0 EPSF-2.0
%%Title: monopole.eps
%%Creator: fig2dev Version 3.2 Patchlevel 1
%%CreationDate: Tue Jun 15 10:41:21 1999
%%For: mea1@abo.egr.duke.edu ()
%%Orientation: Portrait
%%BoundingBox: 0 0 438 211
%%Pages: 0
%%BeginSetup
%%EndSetup
%%Magnification: 1.0000
%%EndComments
/$F2psDict 200 dict def
$F2psDict begin
$F2psDict /mtrx matrix put
/col-1 {0 setgray} bind def
/col0 {0.000 0.000 0.000 srgb} bind def
/col1 {0.000 0.000 1.000 srgb} bind def
/col2 {0.000 1.000 0.000 srgb} bind def
/col3 {0.000 1.000 1.000 srgb} bind def
/col4 {1.000 0.000 0.000 srgb} bind def
/col5 {1.000 0.000 1.000 srgb} bind def
/col6 {1.000 1.000 0.000 srgb} bind def
/col7 {1.000 1.000 1.000 srgb} bind def
/col8 {0.000 0.000 0.560 srgb} bind def
/col9 {0.000 0.000 0.690 srgb} bind def
/col10 {0.000 0.000 0.820 srgb} bind def
/col11 {0.530 0.810 1.000 srgb} bind def
/col12 {0.000 0.560 0.000 srgb} bind def
/col13 {0.000 0.690 0.000 srgb} bind def
/col14 {0.000 0.820 0.000 srgb} bind def
/col15 {0.000 0.560 0.560 srgb} bind def
/col16 {0.000 0.690 0.690 srgb} bind def
/col17 {0.000 0.820 0.820 srgb} bind def
/col18 {0.560 0.000 0.000 srgb} bind def
/col19 {0.690 0.000 0.000 srgb} bind def
/col20 {0.820 0.000 0.000 srgb} bind def
/col21 {0.560 0.000 0.560 srgb} bind def
/col22 {0.690 0.000 0.690 srgb} bind def
/col23 {0.820 0.000 0.820 srgb} bind def
/col24 {0.500 0.190 0.000 srgb} bind def
/col25 {0.630 0.250 0.000 srgb} bind def
/col26 {0.750 0.380 0.000 srgb} bind def
/col27 {1.000 0.500 0.500 srgb} bind def
/col28 {1.000 0.630 0.630 srgb} bind def
/col29 {1.000 0.750 0.750 srgb} bind def
/col30 {1.000 0.880 0.880 srgb} bind def
/col31 {1.000 0.840 0.000 srgb} bind def

end
save
-35.0 263.0 translate
1 -1 scale

/cp {closepath} bind def
/ef {eofill} bind def
/gr {grestore} bind def
/gs {gsave} bind def
/sa {save} bind def
/rs {restore} bind def
/l {lineto} bind def
/m {moveto} bind def
/rm {rmoveto} bind def
/n {newpath} bind def
/s {stroke} bind def
/sh {show} bind def
/slc {setlinecap} bind def
/slj {setlinejoin} bind def
/slw {setlinewidth} bind def
/srgb {setrgbcolor} bind def
/rot {rotate} bind def
/sc {scale} bind def
/sd {setdash} bind def
/ff {findfont} bind def
/sf {setfont} bind def
/scf {scalefont} bind def
/sw {stringwidth} bind def
/tr {translate} bind def
/tnt {dup dup currentrgbcolor
  4 -2 roll dup 1 exch sub 3 -1 roll mul add
  4 -2 roll dup 1 exch sub 3 -1 roll mul add
  4 -2 roll dup 1 exch sub 3 -1 roll mul add srgb}
  bind def
/shd {dup dup currentrgbcolor 4 -2 roll mul 4 -2 roll mul
  4 -2 roll mul srgb} bind def
 /DrawEllipse {
	/endangle exch def
	/startangle exch def
	/yrad exch def
	/xrad exch def
	/y exch def
	/x exch def
	/savematrix mtrx currentmatrix def
	x y tr xrad yrad sc 0 0 1 startangle endangle arc
	closepath
	savematrix setmatrix
	} def

/$F2psBegin {$F2psDict begin /$F2psEnteredState save def} def
/$F2psEnd {$F2psEnteredState restore end} def
%%EndProlog

$F2psBegin
10 setmiterlimit
n -1000 5372 m -1000 -1000 l 8869 -1000 l 8869 5372 l cp clip
 0.06000 0.06000 sc
7.500 slw
% Ellipse
n 2250 2700 75 75 0 360 DrawEllipse gs 0.00 setgray ef gr gs col0 s gr

30.000 slw
% Ellipse
n 2250 2700 900 900 0 360 DrawEllipse gs col0 s gr

% Polyline
7.500 slw
gs  clippath
744 2730 m 600 2700 l 744 2670 l 585 2670 l 585 2730 l cp
3906 2670 m 4050 2700 l 3906 2730 l 4065 2730 l 4065 2670 l cp
clip
n 4050 2700 m 600 2700 l gs col0 s gr gr

% arrowhead
n 3906 2670 m 4050 2700 l 3906 2730 l 3930 2700 l 3906 2670 l  cp gs 0.00 setgray ef gr  col0 s
% arrowhead
n 744 2730 m 600 2700 l 744 2670 l 720 2700 l 744 2730 l  cp gs 0.00 setgray ef gr  col0 s
% Polyline
15.000 slw
gs  clippath
2190 1225 m 2250 936 l 2310 1225 l 2310 870 l 2190 870 l cp
clip
n 2250 900 m 2250 4350 l gs col0 s gr gr

% arrowhead
n 2190 1225 m 2250 936 l 2310 1225 l 2250 1177 l 2190 1225 l  cp gs 0.00 setgray ef gr  col0 s
/Times-Roman ff 270.00 scf sf
2550 1200 m
gs 1 -1 sc (Direction of ) col0 sh gr
/Times-Roman ff 270.00 scf sf
2550 1515 m
gs 1 -1 sc (incident wave) col0 sh gr
/Times-Roman ff 270.00 scf sf
6300 1200 m
gs 1 -1 sc (Direction of ) col0 sh gr
/Times-Roman ff 270.00 scf sf
6300 1515 m
gs 1 -1 sc (incident wave) col0 sh gr
7.500 slw
% Ellipse
n 6000 2700 75 75 0 360 DrawEllipse gs 0.00 setgray ef gr gs col0 s gr

30.000 slw
% Ellipse
n 5997 3156 444 444 0 360 DrawEllipse gs col0 s gr

 [120] 0 sd
% Ellipse
n 5990 2279 444 444 0 360 DrawEllipse gs col0 s gr
 [] 0 sd
% Polyline
7.500 slw
gs  clippath
4494 2730 m 4350 2700 l 4494 2670 l 4335 2670 l 4335 2730 l cp
7656 2670 m 7800 2700 l 7656 2730 l 7815 2730 l 7815 2670 l cp
clip
n 7800 2700 m 4350 2700 l gs col0 s gr gr

% arrowhead
n 7656 2670 m 7800 2700 l 7656 2730 l 7680 2700 l 7656 2670 l  cp gs 0.00 setgray ef gr  col0 s
% arrowhead
n 4494 2730 m 4350 2700 l 4494 2670 l 4470 2700 l 4494 2730 l  cp gs 0.00 setgray ef gr  col0 s
% Polyline
15.000 slw
gs  clippath
5940 1225 m 6000 936 l 6060 1225 l 6060 870 l 5940 870 l cp
clip
n 6000 900 m 6000 4350 l gs col0 s gr gr

% arrowhead
n 5940 1225 m 6000 936 l 6060 1225 l 6000 1177 l 5940 1225 l  cp gs 0.00 setgray ef gr  col0 s
$F2psEnd
rs
