%!PS-Adobe-2.0 EPSF-1.2
%%Creator: MATLAB, The Mathworks, Inc.
%%Title: psf_patch.eps
%%CreationDate: 08/17/97  08:31:39
%%DocumentNeededFonts: Helvetica
%%+ Times-Roman
%%DocumentProcessColors: Cyan Magenta Yellow Black
%%Pages: 1
%%BoundingBox:    46   194   557   583
%%EndComments

%%BeginProlog

% MathWorks dictionary
/MathWorks 160 dict begin

% definition operators
/bdef {bind def} bind def
/ldef {load def} bind def
/xdef {exch def} bdef
/xstore {exch store} bdef

% operator abbreviations
/c  /clip ldef
/cc /concat ldef
/cp /closepath ldef
/gr /grestore ldef
/gs /gsave ldef
/mt /moveto ldef
/np /newpath ldef
/cm /currentmatrix ldef
/sm /setmatrix ldef
/rc {rectclip} bdef
/rf {rectfill} bdef
/rm /rmoveto ldef
/rl /rlineto ldef
/s /show ldef
/sc {setcmykcolor} bdef
/sr /setrgbcolor ldef
/sg /setgray ldef
/w /setlinewidth ldef
/j /setlinejoin ldef
/cap /setlinecap ldef

% page state control
/pgsv () def
/bpage {/pgsv save def} bdef
/epage {pgsv restore} bdef
/bplot /gsave ldef
/eplot {stroke grestore} bdef

% orientation switch
/portraitMode 	0 def
/landscapeMode 	1 def

% coordinate system mappings
/dpi2point 0 def

% font control
/FontSize 0 def
/FMS {
	/FontSize xstore		%save size off stack
	findfont
	[FontSize 0 0 FontSize neg 0 0]
	makefont
	setfont
	}bdef

/reencode {
exch dup where
{pop load} {pop StandardEncoding} ifelse
exch
dup 3 1 roll
findfont dup length dict begin
  { 1 index /FID ne {def}{pop pop} ifelse } forall
  /Encoding exch def
  currentdict
end
definefont pop
} bdef

/isroman {
findfont /CharStrings get
/Agrave known
} bdef

/FMSR {
3 1 roll 1 index
dup isroman
{reencode} {pop pop} ifelse
exch FMS
} bdef

/csm {
	1 dpi2point div -1 dpi2point div scale
	neg translate
	landscapeMode eq {90 rotate} if
	} bdef

% line types: solid, dotted, dashed, dotdash
/SO { [] 0 setdash } bdef
/DO { [.5 dpi2point mul 4 dpi2point mul] 0 setdash } bdef
/DA { [6 dpi2point mul] 0 setdash } bdef
/DD { [.5 dpi2point mul 4 dpi2point mul 6 dpi2point mul 4 dpi2point mul] 0 setdash } bdef

% macros for lines and objects
/L {
	lineto
	stroke
	} bdef
/MP {
	3 1 roll moveto
	1 sub {rlineto} repeat
	} bdef
/AP {
	{rlineto} repeat
	} bdef
/PP {
	closepath eofill
	} bdef
/DP {
	closepath stroke
	} bdef
/MR {
	4 -2 roll moveto
	dup  0 exch rlineto
	exch 0 rlineto
	neg  0 exch rlineto
	closepath
	} bdef
/FR {
	MR stroke
	} bdef
/PR {
	MR fill
	} bdef
/L1i {
	{ currentfile picstr readhexstring pop } image
	} bdef

/tMatrix matrix def
/MakeOval {
	newpath
	tMatrix currentmatrix pop
	translate scale
	0 0 1 0 360 arc
	tMatrix setmatrix
	} bdef
/FO {
	MakeOval
	stroke
	} bdef
/PO {
	MakeOval
	fill
	} bdef

/PD {
	currentlinecap 1 setlinecap 3 1 roll 2 copy moveto lineto stroke setlinecap
	} bdef

/FA {
	newpath
	tMatrix currentmatrix pop
	translate scale
	0 0 1 5 -2 roll arc
	tMatrix setmatrix
	stroke
	} bdef
/PA {
	newpath
	tMatrix currentmatrix pop
	translate 0 0 moveto scale
	0 0 1 5 -2 roll arc
	closepath
	tMatrix setmatrix
	fill
	} bdef

/FAn {
	newpath
	tMatrix currentmatrix pop
	translate scale
	0 0 1 5 -2 roll arcn
	tMatrix setmatrix
	stroke
	} bdef
/PAn {
	newpath
	tMatrix currentmatrix pop
	translate 0 0 moveto scale
	0 0 1 5 -2 roll arcn
	closepath
	tMatrix setmatrix
	fill
	} bdef

/MRR {
	/vradius xdef
	/hradius xdef
	/lry xdef
	/lrx xdef
	/uly xdef
	/ulx xdef
	newpath
	tMatrix currentmatrix pop
	ulx hradius add uly vradius add translate
	hradius vradius scale
	0 0 1 180 270 arc 
	tMatrix setmatrix
	lrx hradius sub uly vradius add translate
	hradius vradius scale
	0 0 1 270 360 arc
	tMatrix setmatrix
	lrx hradius sub lry vradius sub translate
	hradius vradius scale
	0 0 1 0 90 arc
	tMatrix setmatrix
	ulx hradius add lry vradius sub translate
	hradius vradius scale
	0 0 1 90 180 arc
	tMatrix setmatrix
	closepath
	} bdef
/FRR {
	MRR stroke } bdef
/PRR {
	MRR fill } bdef

/MlrRR {
	/lry xdef
	/lrx xdef
	/uly xdef
	/ulx xdef
	/rad lry uly sub 2 div def
	newpath
	tMatrix currentmatrix pop
	ulx rad add uly rad add translate
	rad rad scale
	0 0 1 90 270 arc
	tMatrix setmatrix
	lrx rad sub lry rad sub translate
	rad rad scale
	0 0 1 270 90 arc
	tMatrix setmatrix
	closepath
	} bdef
/FlrRR {
	MlrRR stroke } bdef
/PlrRR {
	MlrRR fill } bdef

/MtbRR {
	/lry xdef
	/lrx xdef
	/uly xdef
	/ulx xdef
	/rad lrx ulx sub 2 div def
	newpath
	tMatrix currentmatrix pop
	ulx rad add uly rad add translate
	rad rad scale
	0 0 1 180 360 arc
	tMatrix setmatrix
	lrx rad sub lry rad sub translate
	rad rad scale
	0 0 1 0 180 arc
	tMatrix setmatrix
	closepath
	} bdef
/FtbRR {
	MtbRR stroke } bdef
/PtbRR {
	MtbRR fill } bdef

currentdict end def
%%EndProlog

%%BeginSetup
MathWorks begin

0 cap

end
%%EndSetup

%%Page: 1 1
%%BeginPageSetup
%%PageBoundingBox:    46   194   557   583
MathWorks begin
bpage
%%EndPageSetup

%%BeginObject: graph1 1
bplot

/dpi2point 12 def
portraitMode 0216 7344 csm

  336   340  6132  4668 MR c np
88 dict begin %Colortable dictionary
/c0 { 0 0 0 sr} bdef
/c1 { 1 1 1 sr} bdef
/c2 { 1 0 0 sr} bdef
/c3 { 0 1 0 sr} bdef
/c4 { 0 0 1 sr} bdef
/c5 { 1 1 0 sr} bdef
/c6 { 1 0 1 sr} bdef
/c7 { 0 1 1 sr} bdef
1 j
1 sg
   0    0 6918 5185 PR
6 w
0 1997 -1704 -1519 0 -1997 6258 3904 4 MP
PP
1704 1519 0 1997 -1704 -1519 0 -1997 6258 3904 5 MP stroke
1704 1519 3655 -708 -1704 -1519 2603 4612 4 MP
PP
-3655 708 1704 1519 3655 -708 -1704 -1519 2603 4612 5 MP stroke
0 1997 3655 -708 0 -1997 899 3093 4 MP
PP
-3655 708 0 1997 3655 -708 0 -1997 899 3093 5 MP stroke
4 w
DO
0 sg
2603 4612 mt  899 3093 L
 899 3093 mt  899 1096 L
3060 4523 mt 1356 3005 L
1356 3005 mt 1356 1008 L
3517 4435 mt 1813 2916 L
1813 2916 mt 1813  919 L
3974 4346 mt 2270 2828 L
2270 2828 mt 2270  831 L
4431 4258 mt 2726 2739 L
2726 2739 mt 2726  742 L
4887 4169 mt 3183 2651 L
3183 2651 mt 3183  654 L
5344 4081 mt 3640 2562 L
3640 2562 mt 3640  565 L
5801 3992 mt 4097 2474 L
4097 2474 mt 4097  477 L
6258 3904 mt 4554 2385 L
4554 2385 mt 4554  388 L
2603 4612 mt 6258 3904 L
6258 3904 mt 6258 1907 L
2390 4422 mt 6045 3714 L
6045 3714 mt 6045 1717 L
2177 4232 mt 5832 3524 L
5832 3524 mt 5832 1527 L
1964 4042 mt 5619 3334 L
5619 3334 mt 5619 1337 L
1751 3853 mt 5406 3144 L
5406 3144 mt 5406 1147 L
1538 3663 mt 5193 2955 L
5193 2955 mt 5193  958 L
1325 3473 mt 4980 2765 L
4980 2765 mt 4980  768 L
1112 3283 mt 4767 2575 L
4767 2575 mt 4767  578 L
 899 3093 mt 4554 2385 L
4554 2385 mt 4554  388 L
 899 3093 mt 4554 2385 L
4554 2385 mt 6258 3904 L
 899 2844 mt 4554 2135 L
4554 2135 mt 6258 3654 L
 899 2594 mt 4554 1886 L
4554 1886 mt 6258 3405 L
 899 2344 mt 4554 1636 L
4554 1636 mt 6258 3155 L
 899 2095 mt 4554 1387 L
4554 1387 mt 6258 2905 L
 899 1845 mt 4554 1137 L
4554 1137 mt 6258 2656 L
 899 1595 mt 4554  887 L
4554  887 mt 6258 2406 L
 899 1346 mt 4554  638 L
4554  638 mt 6258 2156 L
 899 1096 mt 4554  388 L
4554  388 mt 6258 1907 L
SO
6 w
2603 4612 mt 6258 3904 L
2603 4612 mt  899 3093 L
 899 3093 mt  899 1096 L
2603 4612 mt 2673 4674 L
%%IncludeResource: font Helvetica
/Helvetica /ISOLatin1Encoding 120 FMSR

2699 4808 mt 
(-2) s
3060 4523 mt 3130 4585 L
3155 4719 mt 
(-1.5) s
3517 4435 mt 3586 4497 L
3612 4631 mt 
(-1) s
3974 4346 mt 4043 4408 L
4069 4542 mt 
(-0.5) s
4431 4258 mt 4500 4320 L
4526 4454 mt 
(0) s
4887 4169 mt 4957 4231 L
4983 4365 mt 
(0.5) s
5344 4081 mt 5414 4143 L
5440 4277 mt 
(1) s
5801 3992 mt 5871 4054 L
5896 4188 mt 
(1.5) s
6258 3904 mt 6327 3966 L
6353 4100 mt 
(2) s
2603 4612 mt 2512 4630 L
2242 4747 mt 
(-0.8) s
2390 4422 mt 2299 4440 L
2029 4557 mt 
(-0.6) s
2177 4232 mt 2086 4250 L
1816 4368 mt 
(-0.4) s
1964 4042 mt 1873 4060 L
1603 4178 mt 
(-0.2) s
1751 3853 mt 1660 3870 L
1560 3988 mt 
(0) s
1538 3663 mt 1447 3680 L
1247 3798 mt 
(0.2) s
1325 3473 mt 1234 3491 L
1034 3608 mt 
(0.4) s
1112 3283 mt 1021 3301 L
 821 3418 mt 
(0.6) s
 899 3093 mt  808 3111 L
 608 3229 mt 
(0.8) s
 899 3093 mt  830 3031 L
 568 3052 mt 
(-0.8) s
 899 2844 mt  830 2782 L
 568 2803 mt 
(-0.6) s
 899 2594 mt  830 2532 L
 568 2553 mt 
(-0.4) s
 899 2344 mt  830 2282 L
 568 2303 mt 
(-0.2) s
 899 2095 mt  830 2033 L
 738 2054 mt 
(0) s
 899 1845 mt  830 1783 L
 638 1804 mt 
(0.2) s
 899 1595 mt  830 1534 L
 638 1555 mt 
(0.4) s
 899 1346 mt  830 1284 L
 638 1305 mt 
(0.6) s
 899 1096 mt  830 1034 L
 638 1055 mt 
(0.8) s
gs 899 388 5360 4225 MR c np
1 sg
-8 -14 -106 -145 -60 4 -47 5 -87 125 -19 56 -107 -63 -106 -127 
-20 -90 -87 -281 -46 -88 -60 -111 -107 -45 -8 1 -98 8 -86 77 
-21 40 -55 142 -21 231 21 268 55 240 21 78 86 229 98 184 
8 15 107 145 60 -4 46 -5 87 -126 20 -56 106 63 107 127 
19 90 87 281 47 88 60 111 106 45 8 0 99 -9 85 -77 
21 -40 55 -142 21 -231 -21 -268 -55 -240 -21 -77 -85 -229 -99 -185 
4972 2508 49 MP
PP
0 sg
0 0 -8 -14 -106 -145 -60 4 -47 5 -87 125 -19 56 -107 -63 
-106 -127 -20 -90 -87 -281 -46 -88 -60 -111 -107 -45 -8 1 -98 8 
-86 77 -21 40 -55 142 -21 231 21 268 55 240 21 78 86 229 
98 184 8 15 107 145 60 -4 46 -5 87 -126 20 -56 106 63 
107 127 19 90 87 281 47 88 60 111 106 45 8 0 99 -9 
85 -77 21 -40 55 -142 21 -231 -21 -268 -55 -240 -21 -77 -85 -229 
-99 -185 4972 2508 50 MP stroke
1 sg
-1 -3 -106 -313 -107 -103 -107 18 -106 -148 -107 -42 -106 -208 -107 -86 
-106 122 -1 2 -61 196 -18 233 18 266 61 303 1 4 106 312 
107 103 106 -18 107 148 106 42 107 208 107 86 106 -122 1 -2 
60 -195 19 -234 -19 -266 -60 -303 4522 2353 29 MP
PP
0 sg
0 0 -1 -3 -106 -313 -107 -103 -107 18 -106 -148 -107 -42 -106 -208 
-107 -86 -106 122 -1 2 -61 196 -18 233 18 266 61 303 1 4 
106 312 107 103 106 -18 107 148 106 42 107 208 107 86 106 -122 
1 -2 60 -195 19 -234 -19 -266 -60 -303 4522 2353 30 MP stroke
1 sg
-32 -88 -33 30 -74 108 -25 54 -57 198 -19 233 19 267 57 300 
25 99 74 239 33 88 32 -30 74 -107 25 -55 57 -198 19 -233 
-19 -267 -57 -300 -25 -99 -74 -239 4460 3043 21 MP
PP
0 sg
0 0 -32 -88 -33 30 -74 108 -25 54 -57 198 -19 233 19 267 
57 300 25 99 74 239 33 88 32 -30 74 -107 25 -55 57 -198 
19 -233 -19 -267 -57 -300 -25 -99 -74 -239 4460 3043 22 MP stroke
1 sg
-85 -318 -86 165 -21 108 -13 111 -9 242 9 257 13 136 21 145 
86 317 85 -165 21 -108 14 -111 9 -242 -9 -257 -14 -136 -21 -144 
3950 2834 17 MP
PP
0 sg
0 0 -85 -318 -86 165 -21 108 -13 111 -9 242 9 257 13 136 
21 145 86 317 85 -165 21 -108 14 -111 9 -242 -9 -257 -14 -136 
-21 -144 3950 2834 18 MP stroke

gr 
%%IncludeResource: font Times-Roman
/Times-Roman /ISOLatin1Encoding 192 FMSR

4134 4965 mt 
(Axial [mm]) s
gs 899 388 5360 4225 MR c np
1 sg
-74 -275 -73 144 -33 202 -2 17 -9 241 9 258 2 20 33 261 
73 275 74 -144 33 -202 2 -17 9 -241 -9 -258 -2 -20 -33 -261 
3505 2934 17 MP
PP
0 sg
0 0 -74 -275 -73 144 -33 202 -2 17 -9 241 9 258 2 20 
33 261 73 275 74 -144 33 -202 2 -17 9 -241 -9 -258 -2 -20 
-33 -261 3505 2934 18 MP stroke

gr 
gs 899 388 5360 4225 MR c np
1 sg
-84 -276 -83 128 -23 92 -20 120 -11 239 11 260 20 154 23 134 
83 276 84 -128 23 -92 19 -120 11 -239 -11 -260 -19 -154 -23 -134 
3038 3014 17 MP
PP
0 sg
0 0 -84 -276 -83 128 -23 92 -20 120 -11 239 11 260 20 154 
23 134 83 276 84 -128 23 -92 19 -120 11 -239 -11 -260 -19 -154 
-23 -134 3038 3014 18 MP stroke
1 sg
-60 -176 -107 -222 -106 32 -61 69 -46 101 -32 79 -23 229 23 270 
32 137 46 183 61 176 106 221 107 -31 60 -69 46 -101 32 -79 
24 -229 -24 -270 -32 -137 -46 -183 2498 3028 21 MP
PP
0 sg
0 0 -60 -176 -107 -222 -106 32 -61 69 -46 101 -32 79 -23 229 
23 270 32 137 46 183 61 176 106 221 107 -31 60 -69 46 -101 
32 -79 24 -229 -24 -270 -32 -137 -46 -183 2498 3028 22 MP stroke
1 sg
-98 -237 -107 -153 -106 -46 -107 -49 -106 -141 -107 -143 -107 -38 -98 61 
-8 13 -73 165 -22 230 22 270 73 295 8 26 98 237 107 153 
107 46 106 49 107 140 106 144 107 38 98 -62 8 -12 73 -166 
22 -230 -22 -269 -73 -295 -8 -26 1790 2892 29 MP
PP
0 sg
0 0 -98 -237 -107 -153 -106 -46 -107 -49 -106 -141 -107 -143 -107 -38 
-98 61 -8 13 -73 165 -22 230 22 270 73 295 8 26 98 237 
107 153 107 46 106 49 107 140 106 144 107 38 98 -62 8 -12 
73 -166 22 -230 -22 -269 -73 -295 -8 -26 1790 2892 30 MP stroke
1 sg
-84 -195 -106 -167 -107 -105 -106 -44 -107 10 -103 -45 -3 -1 -4 -6 
-103 -138 -106 -200 -107 -145 -106 -86 -107 -22 -84 45 -22 28 -77 134 
-26 226 26 273 77 269 22 69 84 195 107 167 106 104 107 45 
106 -10 103 45 4 1 3 5 103 139 107 200 106 145 107 85 
106 23 84 -45 23 -29 76 -133 27 -226 -27 -273 -76 -270 -23 -68 
1135 2804 41 MP
PP
0 sg
0 0 -84 -195 -106 -167 -107 -105 -106 -44 -107 10 -103 -45 -3 -1 
-4 -6 -103 -138 -106 -200 -107 -145 -106 -86 -107 -22 -84 45 -22 28 
-77 134 -26 226 26 273 77 269 22 69 84 195 107 167 106 104 
107 45 106 -10 103 45 4 1 3 5 103 139 107 200 106 145 
107 85 106 23 84 -45 23 -29 76 -133 27 -226 -27 -273 -76 -270 
-23 -68 1135 2804 42 MP stroke

gr 
 544 4762 mt 
(Lateral [mm]) s
 513 2699 mt  -90 rotate
(Elevation [mm]) s
90 rotate

end

eplot
%%EndObject graph 1

epage
end

showpage

%%Trailer
%%EOF
