%!PS-Adobe-2.0 EPSF-2.0
%%Title: snell.eps
%%Creator: fig2dev Version 3.2 Patchlevel 1
%%CreationDate: Tue Jun 15 15:49:23 1999
%%For: mea1@abo.egr.duke.edu ()
%%Orientation: Portrait
%%BoundingBox: 0 0 202 223
%%Pages: 0
%%BeginSetup
%%EndSetup
%%Magnification: 1.0000
%%EndComments
/$F2psDict 200 dict def
$F2psDict begin
$F2psDict /mtrx matrix put
/col-1 {0 setgray} bind def
/col0 {0.000 0.000 0.000 srgb} bind def
/col1 {0.000 0.000 1.000 srgb} bind def
/col2 {0.000 1.000 0.000 srgb} bind def
/col3 {0.000 1.000 1.000 srgb} bind def
/col4 {1.000 0.000 0.000 srgb} bind def
/col5 {1.000 0.000 1.000 srgb} bind def
/col6 {1.000 1.000 0.000 srgb} bind def
/col7 {1.000 1.000 1.000 srgb} bind def
/col8 {0.000 0.000 0.560 srgb} bind def
/col9 {0.000 0.000 0.690 srgb} bind def
/col10 {0.000 0.000 0.820 srgb} bind def
/col11 {0.530 0.810 1.000 srgb} bind def
/col12 {0.000 0.560 0.000 srgb} bind def
/col13 {0.000 0.690 0.000 srgb} bind def
/col14 {0.000 0.820 0.000 srgb} bind def
/col15 {0.000 0.560 0.560 srgb} bind def
/col16 {0.000 0.690 0.690 srgb} bind def
/col17 {0.000 0.820 0.820 srgb} bind def
/col18 {0.560 0.000 0.000 srgb} bind def
/col19 {0.690 0.000 0.000 srgb} bind def
/col20 {0.820 0.000 0.000 srgb} bind def
/col21 {0.560 0.000 0.560 srgb} bind def
/col22 {0.690 0.000 0.690 srgb} bind def
/col23 {0.820 0.000 0.820 srgb} bind def
/col24 {0.500 0.190 0.000 srgb} bind def
/col25 {0.630 0.250 0.000 srgb} bind def
/col26 {0.750 0.380 0.000 srgb} bind def
/col27 {1.000 0.500 0.500 srgb} bind def
/col28 {1.000 0.630 0.630 srgb} bind def
/col29 {1.000 0.750 0.750 srgb} bind def
/col30 {1.000 0.880 0.880 srgb} bind def
/col31 {1.000 0.840 0.000 srgb} bind def

end
save
-79.0 275.0 translate
1 -1 scale

/cp {closepath} bind def
/ef {eofill} bind def
/gr {grestore} bind def
/gs {gsave} bind def
/sa {save} bind def
/rs {restore} bind def
/l {lineto} bind def
/m {moveto} bind def
/rm {rmoveto} bind def
/n {newpath} bind def
/s {stroke} bind def
/sh {show} bind def
/slc {setlinecap} bind def
/slj {setlinejoin} bind def
/slw {setlinewidth} bind def
/srgb {setrgbcolor} bind def
/rot {rotate} bind def
/sc {scale} bind def
/sd {setdash} bind def
/ff {findfont} bind def
/sf {setfont} bind def
/scf {scalefont} bind def
/sw {stringwidth} bind def
/tr {translate} bind def
/tnt {dup dup currentrgbcolor
  4 -2 roll dup 1 exch sub 3 -1 roll mul add
  4 -2 roll dup 1 exch sub 3 -1 roll mul add
  4 -2 roll dup 1 exch sub 3 -1 roll mul add srgb}
  bind def
/shd {dup dup currentrgbcolor 4 -2 roll mul 4 -2 roll mul
  4 -2 roll mul srgb} bind def
/$F2psBegin {$F2psDict begin /$F2psEnteredState save def} def
/$F2psEnd {$F2psEnteredState restore end} def
%%EndProlog

$F2psBegin
10 setmiterlimit
n -1000 5576 m -1000 -1000 l 5672 -1000 l 5672 5576 l cp clip
 0.06000 0.06000 sc
/Symbol ff 360.00 scf sf
2400 1200 m
gs 1 -1 sc (q) col0 sh gr
/Times-Roman ff 270.00 scf sf
2625 1275 m
gs 1 -1 sc (i) col0 sh gr
% Arc
15.000 slw
gs n 3112.5 3337.5 427.6 105.3 52.1 arcn
gs col0 s gr
 gr

% Arc
gs n 2850.0 2418.8 930.9 -124.3 -80.7 arc
gs col0 s gr
 gr

% Arc
gs n 3187.5 2362.5 1029.7 -56.9 -100.5 arcn
gs col0 s gr
 gr

% Polyline
7.500 slw
n 3000 900 m 3000 4200 l gs col0 s gr 
% Polyline
15.000 slw
n 4650 2550 m 1350 2550 l gs col0 s gr 
% Polyline
gs  clippath
2858 2252 m 2978 2520 l 2760 2323 l 2969 2610 l 3066 2539 l cp
clip
n 1800 900 m 3000 2550 l gs col0 s gr gr

% arrowhead
n 2858 2252 m 2978 2520 l 2760 2323 l 2837 2326 l 2858 2252 l  cp gs 0.00 setgray ef gr  col0 s
% Polyline
gs  clippath
3545 3874 m 3587 4165 l 3433 3915 l 3554 4249 l 3667 4208 l cp
clip
n 3000 2550 m 3600 4200 l gs col0 s gr gr

% arrowhead
n 3545 3874 m 3587 4165 l 3433 3915 l 3505 3940 l 3545 3874 l  cp gs 0.00 setgray ef gr  col0 s
% Polyline
 [90] 0 sd
gs  clippath
3964 1121 m 4182 923 l 4062 1192 l 4270 905 l 4173 834 l cp
clip
n 4204 894 m 3004 2544 l gs col0 s gr gr
 [] 0 sd
% arrowhead
n 3964 1121 m 4182 923 l 4062 1192 l 4041 1118 l 3964 1121 l  cp gs 0.00 setgray ef gr  col0 s
/Symbol ff 360.00 scf sf
3150 4500 m
gs 1 -1 sc (q) col0 sh gr
/Times-Roman ff 270.00 scf sf
3375 4575 m
gs 1 -1 sc (t) col0 sh gr
/Symbol ff 360.00 scf sf
3300 1200 m
gs 1 -1 sc (q) col0 sh gr
/Times-Roman ff 270.00 scf sf
3525 1275 m
gs 1 -1 sc (r) col0 sh gr
/Times-Roman ff 420.00 scf sf
1500 3000 m
gs 1 -1 sc (c) col0 sh gr
/Times-Roman ff 270.00 scf sf
1575 2400 m
gs 1 -1 sc (1) col0 sh gr
/Times-Roman ff 270.00 scf sf
1650 3150 m
gs 1 -1 sc (2) col0 sh gr
/Times-Roman ff 420.00 scf sf
1425 2250 m
gs 1 -1 sc (c) col0 sh gr
$F2psEnd
rs
