%!PS-Adobe-2.0 EPSF-1.2
%%Creator: MATLAB, The Mathworks, Inc.
%%Title: comb_2dft.eps
%%CreationDate: 08/03/99  16:06:00
%%DocumentNeededFonts: Helvetica
%%+ Times-Roman
%%DocumentProcessColors: Cyan Magenta Yellow Black
%%Pages: 1
%%BoundingBox:    80   317   552   535
%%EndComments

%%BeginProlog

% MathWorks dictionary
/MathWorks 160 dict begin

% definition operators
/bdef {bind def} bind def
/ldef {load def} bind def
/xdef {exch def} bdef
/xstore {exch store} bdef

% operator abbreviations
/c  /clip ldef
/cc /concat ldef
/cp /closepath ldef
/gr /grestore ldef
/gs /gsave ldef
/mt /moveto ldef
/np /newpath ldef
/cm /currentmatrix ldef
/sm /setmatrix ldef
/rc {rectclip} bdef
/rf {rectfill} bdef
/rm /rmoveto ldef
/rl /rlineto ldef
/s /show ldef
/sc {setcmykcolor} bdef
/sr /setrgbcolor ldef
/sg /setgray ldef
/w /setlinewidth ldef
/j /setlinejoin ldef
/cap /setlinecap ldef

% page state control
/pgsv () def
/bpage {/pgsv save def} bdef
/epage {pgsv restore} bdef
/bplot /gsave ldef
/eplot {stroke grestore} bdef

% orientation switch
/portraitMode 	0 def
/landscapeMode 	1 def

% coordinate system mappings
/dpi2point 0 def

% font control
/FontSize 0 def
/FMS {
	/FontSize xstore		%save size off stack
	findfont
	[FontSize 0 0 FontSize neg 0 0]
	makefont
	setfont
	}bdef

/reencode {
exch dup where
{pop load} {pop StandardEncoding} ifelse
exch
dup 3 1 roll
findfont dup length dict begin
  { 1 index /FID ne {def}{pop pop} ifelse } forall
  /Encoding exch def
  currentdict
end
definefont pop
} bdef

/isroman {
findfont /CharStrings get
/Agrave known
} bdef

/FMSR {
3 1 roll 1 index
dup isroman
{reencode} {pop pop} ifelse
exch FMS
} bdef

/csm {
	1 dpi2point div -1 dpi2point div scale
	neg translate
	landscapeMode eq {90 rotate} if
	} bdef

% line types: solid, dotted, dashed, dotdash
/SO { [] 0 setdash } bdef
/DO { [.5 dpi2point mul 4 dpi2point mul] 0 setdash } bdef
/DA { [6 dpi2point mul] 0 setdash } bdef
/DD { [.5 dpi2point mul 4 dpi2point mul 6 dpi2point mul 4 dpi2point mul] 0 setdash } bdef

% macros for lines and objects
/L {
	lineto
	stroke
	} bdef
/MP {
	3 1 roll moveto
	1 sub {rlineto} repeat
	} bdef
/AP {
	{rlineto} repeat
	} bdef
/PP {
	closepath eofill
	} bdef
/DP {
	closepath stroke
	} bdef
/MR {
	4 -2 roll moveto
	dup  0 exch rlineto
	exch 0 rlineto
	neg  0 exch rlineto
	closepath
	} bdef
/FR {
	MR stroke
	} bdef
/PR {
	MR fill
	} bdef
/L1i {
	{ currentfile picstr readhexstring pop } image
	} bdef

/tMatrix matrix def
/MakeOval {
	newpath
	tMatrix currentmatrix pop
	translate scale
	0 0 1 0 360 arc
	tMatrix setmatrix
	} bdef
/FO {
	MakeOval
	stroke
	} bdef
/PO {
	MakeOval
	fill
	} bdef

/PD {
	currentlinecap 1 setlinecap 3 1 roll 2 copy moveto lineto stroke setlinecap
	} bdef

/FA {
	newpath
	tMatrix currentmatrix pop
	translate scale
	0 0 1 5 -2 roll arc
	tMatrix setmatrix
	stroke
	} bdef
/PA {
	newpath
	tMatrix currentmatrix pop
	translate 0 0 moveto scale
	0 0 1 5 -2 roll arc
	closepath
	tMatrix setmatrix
	fill
	} bdef

/FAn {
	newpath
	tMatrix currentmatrix pop
	translate scale
	0 0 1 5 -2 roll arcn
	tMatrix setmatrix
	stroke
	} bdef
/PAn {
	newpath
	tMatrix currentmatrix pop
	translate 0 0 moveto scale
	0 0 1 5 -2 roll arcn
	closepath
	tMatrix setmatrix
	fill
	} bdef

/vradius 0 def
/hradius 0 def
/lry 0 def
/lrx 0 def
/uly 0 def
/ulx 0 def
/rad 0 def

/MRR {
	/vradius xdef
	/hradius xdef
	/lry xdef
	/lrx xdef
	/uly xdef
	/ulx xdef
	newpath
	tMatrix currentmatrix pop
	ulx hradius add uly vradius add translate
	hradius vradius scale
	0 0 1 180 270 arc 
	tMatrix setmatrix
	lrx hradius sub uly vradius add translate
	hradius vradius scale
	0 0 1 270 360 arc
	tMatrix setmatrix
	lrx hradius sub lry vradius sub translate
	hradius vradius scale
	0 0 1 0 90 arc
	tMatrix setmatrix
	ulx hradius add lry vradius sub translate
	hradius vradius scale
	0 0 1 90 180 arc
	tMatrix setmatrix
	closepath
	} bdef
/FRR {
	MRR stroke } bdef
/PRR {
	MRR fill } bdef

/MlrRR {
	/lry xdef
	/lrx xdef
	/uly xdef
	/ulx xdef
	/rad lry uly sub 2 div def
	newpath
	tMatrix currentmatrix pop
	ulx rad add uly rad add translate
	rad rad scale
	0 0 1 90 270 arc
	tMatrix setmatrix
	lrx rad sub lry rad sub translate
	rad rad scale
	0 0 1 270 90 arc
	tMatrix setmatrix
	closepath
	} bdef
/FlrRR {
	MlrRR stroke } bdef
/PlrRR {
	MlrRR fill } bdef

/MtbRR {
	/lry xdef
	/lrx xdef
	/uly xdef
	/ulx xdef
	/rad lrx ulx sub 2 div def
	newpath
	tMatrix currentmatrix pop
	ulx rad add uly rad add translate
	rad rad scale
	0 0 1 180 360 arc
	tMatrix setmatrix
	lrx rad sub lry rad sub translate
	rad rad scale
	0 0 1 0 180 arc
	tMatrix setmatrix
	closepath
	} bdef
/FtbRR {
	MtbRR stroke } bdef
/PtbRR {
	MtbRR fill } bdef

currentdict end def
%%EndProlog

%%BeginSetup
MathWorks begin

0 cap

end
%%EndSetup

%%Page: 1 1
%%BeginPageSetup
%%PageBoundingBox:    80   317   552   535
MathWorks begin
bpage
%%EndPageSetup

%%BeginObject: obj1
bplot

/dpi2point 12 def
portraitMode 0216 7344 csm

  751   921  5660  2610 MR c np
93 dict begin %Colortable dictionary
/c0 { 0 0 0 sr} bdef
/c1 { 1 1 1 sr} bdef
/c2 { 1 0 0 sr} bdef
/c3 { 0 1 0 sr} bdef
/c4 { 0 0 1 sr} bdef
/c5 { 1 1 0 sr} bdef
/c6 { 1 0 1 sr} bdef
/c7 { 0 1 1 sr} bdef
c0
1 j
1 sg
   0    0 6918 5185 PR
6 w
0 sg
%%IncludeResource: font Times-Roman
/Times-Roman /ISOLatin1Encoding 192 FMSR

2805 2581 mt 
(x) s
gs 0 1037 3459 3110 MR c np
24 w
1279 2164 mt 1279 2649 L
1579 2384 mt 1579 2869 L
6 w
2480 3530 mt  978 2429 L
 751 3402 mt 2707 2557 L
2480 3530 mt 2480 3530 L
gr

gs 0 1037 3459 3110 MR c np
24 w
gs 1030 1956 1399 1078 MR c np
  36   36 2330 2935 FO
gr

gs 1030 1956 1399 1078 MR c np
  36   36 2179 2825 FO
gr

2330 2935 mt 2330 2935 L
2330 2935 mt 2330 3420 L
2330 3420 mt 2330 3420 L
gs 1030 1956 1399 1078 MR c np
  36   36 2029 2715 FO
gr

2179 2825 mt 2179 2825 L
2179 2825 mt 2179 3310 L
2179 3310 mt 2179 3310 L
gs 1030 1956 1399 1078 MR c np
  36   36 1879 2605 FO
gr

2029 2715 mt 2029 2715 L
2029 2715 mt 2029 3200 L
2029 3200 mt 2029 3200 L
gs 1030 1956 1399 1078 MR c np
  36   36 1729 2495 FO
gr

1879 2605 mt 1879 2605 L
1879 2605 mt 1879 3090 L
1879 3090 mt 1879 3090 L
gr

24 w
1341 1691 mt 
(III\(y\)) s
%%IncludeResource: font Symbol
/Symbol /ISOLatin1Encoding 192 FMSR

1756 1691 mt 
(d) s
%%IncludeResource: font Times-Roman
/Times-Roman /ISOLatin1Encoding 192 FMSR

1850 1691 mt 
( \(x\)) s
gs 0 1037 3459 3110 MR c np
gs 1030 1956 1399 1078 MR c np
  36   36 1579 2384 FO
gr

6 w
1729 2979 mt 1729 2010 L
24 w
1729 2495 mt 1729 2495 L
1729 2495 mt 1729 2979 L
1729 2979 mt 1729 2979 L
6 w
1729 2979 mt 1729 2979 L
gr

6 w
gs 0 1037 3459 3110 MR c np
24 w
gs 1030 1956 1399 1078 MR c np
  36   36 1429 2274 FO
gr

1579 2384 mt 1579 2384 L
1579 2869 mt 1579 2869 L
gs 1030 1956 1399 1078 MR c np
  36   36 1279 2164 FO
gr

1429 2274 mt 1429 2274 L
1429 2274 mt 1429 2759 L
1429 2759 mt 1429 2759 L
gs 1030 1956 1399 1078 MR c np
  36   36 1128 2054 FO
gr

1279 2164 mt 1279 2164 L
1279 2649 mt 1279 2649 L
1128 2054 mt 1128 2054 L
1128 2054 mt 1128 2539 L
1128 2539 mt 1128 2539 L
gr

24 w
 903 2440 mt 
(y) s
gs 0 1037 3459 3110 MR c np
6 w
 751 3402 mt  751 3402 L
gr

6 w
6263 2581 mt 
(u) s
gs 3459 1037 3458 3110 MR c np
978 -422 -7 -5 4338 2926 3 MP
PP
-7 -5 978 -422 4338 2926 3 MP
PP
978 -422 -8 -6 4346 2932 3 MP
PP
-8 -6 978 -422 4346 2932 3 MP
PP
978 -422 -8 -6 4361 2943 3 MP
PP
-8 -6 978 -422 4361 2943 3 MP
PP
978 -422 -7 -5 4368 2948 3 MP
PP
-7 -5 978 -422 4368 2948 3 MP
PP
978 -422 -8 -6 4376 2954 3 MP
PP
-8 -6 978 -422 4376 2954 3 MP
PP
978 -422 -7 -6 4383 2960 3 MP
PP
-7 -5 978 -423 4383 2960 3 MP
PP
978 -422 -7 -6 4413 2982 3 MP
PP
-7 -5 978 -423 4413 2982 3 MP
PP
978 -423 -8 -5 4421 2987 3 MP
PP
-8 -6 978 -422 4421 2987 3 MP
PP
978 -422 -7 -6 4428 2993 3 MP
PP
-7 -5 978 -423 4428 2993 3 MP
PP
978 -423 -8 -5 4436 2998 3 MP
PP
-8 -6 978 -422 4436 2998 3 MP
PP
978 -423 -8 -5 4451 3009 3 MP
PP
-8 -6 978 -422 4451 3009 3 MP
PP
978 -422 -7 -6 4458 3015 3 MP
PP
-7 -5 978 -423 4458 3015 3 MP
PP
978 -423 -8 -5 4466 3020 3 MP
PP
-8 -6 978 -422 4466 3020 3 MP
PP
978 -423 -8 -5 4481 3031 3 MP
PP
-8 -6 978 -422 4481 3031 3 MP
PP
978 -423 -8 -5 4496 3042 3 MP
PP
-8 -6 978 -422 4496 3042 3 MP
PP
978 -422 -7 -6 4503 3048 3 MP
PP
-7 -5 978 -423 4503 3048 3 MP
PP
978 -423 -8 -5 4511 3053 3 MP
PP
-8 -6 978 -422 4511 3053 3 MP
PP
978 -422 -7 -6 4518 3059 3 MP
PP
-7 -5 978 -423 4518 3059 3 MP
PP
978 -423 -8 -5 4541 3075 3 MP
PP
-8 -6 978 -422 4541 3075 3 MP
PP
978 -423 -8 -5 4571 3097 3 MP
PP
-8 -6 978 -422 4571 3097 3 MP
PP
978 -423 -8 -5 4601 3119 3 MP
PP
-8 -6 978 -422 4601 3119 3 MP
PP
978 -422 -7 -6 4608 3125 3 MP
PP
-7 -5 978 -423 4608 3125 3 MP
PP
978 -422 -7 -6 4623 3136 3 MP
PP
-7 -5 978 -423 4623 3136 3 MP
PP
978 -423 -8 -5 4631 3141 3 MP
PP
-8 -6 978 -422 4631 3141 3 MP
PP
978 -422 -7 -6 4638 3147 3 MP
PP
-7 -5 978 -423 4638 3147 3 MP
PP
978 -423 -8 -5 4646 3152 3 MP
PP
-8 -6 978 -422 4646 3152 3 MP
PP
978 -423 -8 -5 4661 3163 3 MP
PP
-8 -6 978 -422 4661 3163 3 MP
PP
979 -423 -8 -5 4691 3185 3 MP
PP
-7 -6 978 -422 4691 3185 3 MP
PP
978 -422 -7 -6 4713 3202 3 MP
PP
-8 -5 979 -423 4713 3202 3 MP
PP
979 -423 -8 -5 4721 3207 3 MP
PP
-7 -6 978 -422 4721 3207 3 MP
PP
978 -422 -8 -6 4744 3224 3 MP
PP
-8 -5 978 -423 4744 3224 3 MP
PP
978 -423 -7 -5 4751 3229 3 MP
PP
-7 -6 978 -422 4751 3229 3 MP
PP
978 -422 -8 -6 4774 3246 3 MP
PP
-8 -5 978 -423 4774 3246 3 MP
PP
978 -423 -7 -5 4781 3251 3 MP
PP
-7 -6 978 -422 4781 3251 3 MP
PP
978 -422 -8 -6 4789 3257 3 MP
PP
-8 -5 978 -423 4789 3257 3 MP
PP
978 -422 -8 -6 4804 3268 3 MP
PP
-8 -5 978 -423 4804 3268 3 MP
PP
978 -422 -8 -6 4834 3290 3 MP
PP
-8 -5 978 -423 4834 3290 3 MP
PP
978 -423 -7 -5 4841 3295 3 MP
PP
-7 -6 978 -422 4841 3295 3 MP
PP
978 -422 -8 -6 4864 3312 3 MP
PP
-8 -5 978 -423 4864 3312 3 MP
PP
978 -422 -8 -6 4894 3334 3 MP
PP
-8 -5 978 -423 4894 3334 3 MP
PP
978 -422 -8 -6 4924 3356 3 MP
PP
-8 -5 978 -423 4924 3356 3 MP
PP
978 -423 -7 -5 4931 3361 3 MP
PP
-7 -6 978 -422 4931 3361 3 MP
PP
978 -423 -7 -5 4946 3372 3 MP
PP
-7 -6 978 -422 4946 3372 3 MP
PP
978 -422 -8 -6 4954 3378 3 MP
PP
-8 -5 978 -423 4954 3378 3 MP
PP
-7 -6 978 -422 4961 3383 3 MP
PP
978 -423 -7 -5 4976 3394 3 MP
PP
-7 -6 978 -422 4976 3394 3 MP
PP
978 -423 -7 -5 4991 3405 3 MP
PP
-7 -6 978 -422 4991 3405 3 MP
PP
978 -422 -8 -6 5014 3422 3 MP
PP
-8 -5 978 -423 5014 3422 3 MP
PP
978 -422 -8 -6 5029 3433 3 MP
PP
-8 -5 978 -423 5029 3433 3 MP
PP
978 -422 -8 -6 5044 3444 3 MP
PP
-8 -6 978 -422 5044 3444 3 MP
PP
978 -422 -7 -5 5066 3460 3 MP
PP
-7 -5 978 -422 5066 3460 3 MP
PP
5938 3530 mt 4437 2429 L
4209 3402 mt 6166 2557 L
-8 -6 978 -422 5074 3466 3 MP
PP
978 -422 -8 -6 5074 3466 3 MP
PP
-8 -6 978 -422 5059 3455 3 MP
PP
978 -422 -8 -6 5059 3455 3 MP
PP
-7 -5 978 -422 5051 3449 3 MP
PP
978 -422 -7 -5 5051 3449 3 MP
PP
-7 -6 978 -422 5036 3438 3 MP
PP
978 -423 -7 -5 5036 3438 3 MP
PP
-7 -6 978 -422 5021 3427 3 MP
PP
978 -423 -7 -5 5021 3427 3 MP
PP
978 -422 -8 -6 4729 3213 3 MP
PP
-8 -5 978 -423 4729 3213 3 MP
PP
978 -423 -7 -5 4736 3218 3 MP
PP
-7 -6 978 -422 4736 3218 3 MP
PP
978 -422 -8 -6 4759 3235 3 MP
PP
-8 -5 978 -423 4759 3235 3 MP
PP
978 -423 -7 -5 4766 3240 3 MP
PP
-7 -6 978 -422 4766 3240 3 MP
PP
978 -423 -7 -5 4796 3262 3 MP
PP
-7 -6 978 -422 4796 3262 3 MP
PP
978 -423 -7 -5 4811 3273 3 MP
PP
-7 -6 978 -422 4811 3273 3 MP
PP
978 -422 -8 -6 4819 3279 3 MP
PP
-8 -5 978 -423 4819 3279 3 MP
PP
978 -423 -7 -5 4826 3284 3 MP
PP
-7 -6 978 -422 4826 3284 3 MP
PP
978 -422 -8 -6 4331 2921 3 MP
PP
-8 -6 978 -422 4331 2921 3 MP
PP
978 -422 -7 -5 4353 2937 3 MP
PP
-7 -5 978 -422 4353 2937 3 MP
PP
978 -423 -8 -5 4391 2965 3 MP
PP
-8 -6 978 -422 4391 2965 3 MP
PP

% Quadrilateral Solid Rendering Routines
MathWorks begin
/X0 0 def /Y0 0 def /X1 0 def /Y1 0 def /X2 0 def /Y2 0 def
/AX 0 def /AY 0 def /CX 0 def /CY 0 def /DX 0 def /DY 0 def
/C30 0 def /C0 0 def /C10 0 def /C20 0 def /C4 0 def
/M 0 def /N 0 def
/min { 2 copy gt { exch } if pop } bdef
/max { 2 copy lt { exch } if pop } bdef
/triangle_xfd { /Y2 xdef /X2 xdef
          /Y1 xdef /X1 xdef /Y0 xdef /X0 xdef} bdef
/xfd {/AX X1 X0 sub def /AY Y1 Y0 sub def
/CX X2 X0 sub def /CY Y2 Y0 sub def
/DX X0 def /DY Y0 def} bdef
0 0 0 0 0 0 triangle_xfd xfd 
/triangle_cl {np DX DY mt AX AY rl CX AX sub CY AY sub rl cp c np} bdef
/triangle_tf {[ AX AY CX CY DX DY ] cc} bdef
/triangle_det { AX CY mul AY CX mul ne } bdef
/NI 16 def	% NI can be 4 (draft), 8 (medium) , or 16 (high-res)
/log2N NI log 2 log div neg cvi def
/N1 NI 1 sub def  /N2 NI NI mul def  /N21 N2 1 sub def
/CS 0.255 N1 div def  /C4S CS N1 div def
/quad_interp_cd {3 index 2 copy sub CS mul /C30 xdef 0.255 mul /C0 xdef
            4 2 roll 2 copy sub neg CS mul /C10 xdef
            sub sub sub C4S mul /C4 xdef} bdef
            0 0 0 0 quad_interp_cd
/quad_interp_fcn {cvi dup N1 and exch log2N bitshift 2 copy
  mul C4 mul exch C10 mul add exch C30 mul add C0 add cvi} bdef
/quad_interp_image{ 0 1 N21 { 1 index exch dup quad_interp_fcn put } for pop} bdef
/triangle_interp_cd {2 index sub CS mul /C20 xdef        1 index sub CS mul /C10 xdef        0.255 mul /C0 xdef} bdef
0 0 0 triangle_interp_cd
/triangle_interp_fcn {cvi dup N1 and exch log2N bitshift
     C20 mul exch C10 mul add C0 add cvi 
     dup 0 lt {pop 0} if dup 255 gt {pop 255} if} bdef
/triangle_interp_image{ 0 1 N21 { 1 index exch dup triangle_interp_fcn put } for pop} bdef
/read_image {currentfile exch readhexstring pop pop} bdef
/quad_im_str N2 string def  /intr_str N2 string def
/quad_img {N M 8 [ N 0 0 M 0 0 ] quad_im_str image} bdef
/triangle_render_g {gs xfd triangle_cl triangle_tf triangle_det { quad_img } if gr} bdef
/itg {/N NI def /M NI def /quad_im_str intr_str def
      triangle_interp_cd quad_im_str triangle_interp_image triangle_xfd triangle_render_g} bdef
/txg {/N xdef /M xdef triangle_xfd /quad_im_str N M mul string def 
      quad_im_str read_image triangle_render_g} bdef
end	% MathWorks dictionary
4398 2486 4391 2965 5369 2543 999 0 0 itg
4398 2486 5376 2063 5369 2543 999 999 0 itg
4406 2976 4398 2486 5376 2063 0 999 999 itg
4406 2976 5384 2554 5376 2063 0 0 999 itg
978 -422 -7 -6 4443 3004 3 MP
PP
-7 -5 978 -423 4443 3004 3 MP
PP
978 -422 -7 -6 4473 3026 3 MP
PP
-7 -5 978 -423 4473 3026 3 MP
PP
978 -422 -7 -6 4488 3037 3 MP
PP
-7 -5 978 -423 4488 3037 3 MP
PP
978 -423 -8 -5 4526 3064 3 MP
PP
-8 -6 978 -422 4526 3064 3 MP
PP
978 -422 -7 -6 4533 3070 3 MP
PP
-7 -5 978 -423 4533 3070 3 MP
PP
4548 2596 4541 3075 5519 2653 999 0 0 itg
4548 2596 5526 2173 5519 2653 999 999 0 itg
4556 3086 4548 2596 5526 2173 0 999 999 itg
4556 3086 5534 2664 5526 2173 0 0 999 itg
978 -422 -7 -6 4563 3092 3 MP
PP
-7 -5 978 -423 4563 3092 3 MP
PP
978 -422 -7 -6 4578 3103 3 MP
PP
-7 -5 978 -423 4578 3103 3 MP
PP
978 -423 -8 -5 4586 3108 3 MP
PP
-8 -6 978 -422 4586 3108 3 MP
PP
978 -422 -7 -6 4593 3114 3 MP
PP
-7 -5 978 -423 4593 3114 3 MP
PP
978 -423 -8 -5 4616 3130 3 MP
PP
-8 -6 978 -422 4616 3130 3 MP
PP
978 -422 -7 -6 4653 3158 3 MP
PP
-7 -5 978 -423 4653 3158 3 MP
PP
978 -422 -7 -6 4668 3169 3 MP
PP
-7 -5 978 -423 4668 3169 3 MP
PP
978 -423 -8 -5 4676 3174 3 MP
PP
-8 -6 978 -422 4676 3174 3 MP
PP
978 -422 -7 -6 4683 3180 3 MP
PP
-8 -5 979 -423 4683 3180 3 MP
PP
4698 2706 4691 3185 5669 2763 999 0 0 itg
4698 2706 5677 2283 5669 2763 999 999 0 itg
5188 2979 mt 5188 2010 L
5188 2979 mt 5188 2979 L
4706 3196 4698 2706 5677 2283 0 999 999 itg
4706 3196 5684 2774 5677 2283 0 0 999 itg
4849 2816 4841 3295 5819 2873 999 0 0 itg
4849 2816 5827 2393 5819 2873 999 999 0 itg
4856 3306 5834 2884 5827 2393 0 0 999 itg
978 -423 -7 -5 4871 3317 3 MP
PP
-7 -6 978 -422 4871 3317 3 MP
PP
978 -422 -8 -6 4879 3323 3 MP
PP
-8 -5 978 -423 4879 3323 3 MP
PP
978 -423 -7 -5 4886 3328 3 MP
PP
-7 -6 978 -422 4886 3328 3 MP
PP
978 -423 -7 -5 4901 3339 3 MP
PP
-7 -6 978 -422 4901 3339 3 MP
PP
978 -422 -8 -6 4909 3345 3 MP
PP
-8 -5 978 -423 4909 3345 3 MP
PP
978 -423 -7 -5 4916 3350 3 MP
PP
-7 -6 978 -422 4916 3350 3 MP
PP
978 -422 -8 -6 4939 3367 3 MP
PP
-8 -5 978 -423 4939 3367 3 MP
PP
978 -423 -7 -5 4961 3383 3 MP
PP
978 -422 -8 -6 4969 3389 3 MP
PP
-8 -5 978 -423 4969 3389 3 MP
PP
978 -422 -8 -6 4984 3400 3 MP
PP
-8 -5 978 -423 4984 3400 3 MP
PP
4856 3306 4849 2816 5827 2393 0 999 999 itg
4999 2926 4991 3405 5969 2983 999 0 0 itg
4999 2926 5977 2503 5969 2983 999 999 0 itg
5006 3416 5984 2994 5977 2503 0 0 999 itg
5006 3416 4999 2926 5977 2503 0 999 999 itg
5938 3530 mt 5938 3530 L
gr

4982 1688 mt 
(III\(v\)) s
4362 2440 mt 
(v) s
gs 3459 1037 3458 3110 MR c np
4209 3402 mt 4209 3402 L
gr


end

eplot
%%EndObject

epage
end

showpage

%%Trailer
%%EOF
