%!PS-Adobe-2.0 EPSF-1.2
%%Creator: MATLAB, The Mathworks, Inc.
%%Title: cos_2d.eps
%%CreationDate: 08/03/99  16:06:01
%%DocumentNeededFonts: Helvetica
%%+ Times-Roman
%%DocumentProcessColors: Cyan Magenta Yellow Black
%%Pages: 1
%%BoundingBox:    80   317   552   535
%%EndComments

%%BeginProlog

% MathWorks dictionary
/MathWorks 160 dict begin

% definition operators
/bdef {bind def} bind def
/ldef {load def} bind def
/xdef {exch def} bdef
/xstore {exch store} bdef

% operator abbreviations
/c  /clip ldef
/cc /concat ldef
/cp /closepath ldef
/gr /grestore ldef
/gs /gsave ldef
/mt /moveto ldef
/np /newpath ldef
/cm /currentmatrix ldef
/sm /setmatrix ldef
/rc {rectclip} bdef
/rf {rectfill} bdef
/rm /rmoveto ldef
/rl /rlineto ldef
/s /show ldef
/sc {setcmykcolor} bdef
/sr /setrgbcolor ldef
/sg /setgray ldef
/w /setlinewidth ldef
/j /setlinejoin ldef
/cap /setlinecap ldef

% page state control
/pgsv () def
/bpage {/pgsv save def} bdef
/epage {pgsv restore} bdef
/bplot /gsave ldef
/eplot {stroke grestore} bdef

% orientation switch
/portraitMode 	0 def
/landscapeMode 	1 def

% coordinate system mappings
/dpi2point 0 def

% font control
/FontSize 0 def
/FMS {
	/FontSize xstore		%save size off stack
	findfont
	[FontSize 0 0 FontSize neg 0 0]
	makefont
	setfont
	}bdef

/reencode {
exch dup where
{pop load} {pop StandardEncoding} ifelse
exch
dup 3 1 roll
findfont dup length dict begin
  { 1 index /FID ne {def}{pop pop} ifelse } forall
  /Encoding exch def
  currentdict
end
definefont pop
} bdef

/isroman {
findfont /CharStrings get
/Agrave known
} bdef

/FMSR {
3 1 roll 1 index
dup isroman
{reencode} {pop pop} ifelse
exch FMS
} bdef

/csm {
	1 dpi2point div -1 dpi2point div scale
	neg translate
	landscapeMode eq {90 rotate} if
	} bdef

% line types: solid, dotted, dashed, dotdash
/SO { [] 0 setdash } bdef
/DO { [.5 dpi2point mul 4 dpi2point mul] 0 setdash } bdef
/DA { [6 dpi2point mul] 0 setdash } bdef
/DD { [.5 dpi2point mul 4 dpi2point mul 6 dpi2point mul 4 dpi2point mul] 0 setdash } bdef

% macros for lines and objects
/L {
	lineto
	stroke
	} bdef
/MP {
	3 1 roll moveto
	1 sub {rlineto} repeat
	} bdef
/AP {
	{rlineto} repeat
	} bdef
/PP {
	closepath eofill
	} bdef
/DP {
	closepath stroke
	} bdef
/MR {
	4 -2 roll moveto
	dup  0 exch rlineto
	exch 0 rlineto
	neg  0 exch rlineto
	closepath
	} bdef
/FR {
	MR stroke
	} bdef
/PR {
	MR fill
	} bdef
/L1i {
	{ currentfile picstr readhexstring pop } image
	} bdef

/tMatrix matrix def
/MakeOval {
	newpath
	tMatrix currentmatrix pop
	translate scale
	0 0 1 0 360 arc
	tMatrix setmatrix
	} bdef
/FO {
	MakeOval
	stroke
	} bdef
/PO {
	MakeOval
	fill
	} bdef

/PD {
	currentlinecap 1 setlinecap 3 1 roll 2 copy moveto lineto stroke setlinecap
	} bdef

/FA {
	newpath
	tMatrix currentmatrix pop
	translate scale
	0 0 1 5 -2 roll arc
	tMatrix setmatrix
	stroke
	} bdef
/PA {
	newpath
	tMatrix currentmatrix pop
	translate 0 0 moveto scale
	0 0 1 5 -2 roll arc
	closepath
	tMatrix setmatrix
	fill
	} bdef

/FAn {
	newpath
	tMatrix currentmatrix pop
	translate scale
	0 0 1 5 -2 roll arcn
	tMatrix setmatrix
	stroke
	} bdef
/PAn {
	newpath
	tMatrix currentmatrix pop
	translate 0 0 moveto scale
	0 0 1 5 -2 roll arcn
	closepath
	tMatrix setmatrix
	fill
	} bdef

/vradius 0 def
/hradius 0 def
/lry 0 def
/lrx 0 def
/uly 0 def
/ulx 0 def
/rad 0 def

/MRR {
	/vradius xdef
	/hradius xdef
	/lry xdef
	/lrx xdef
	/uly xdef
	/ulx xdef
	newpath
	tMatrix currentmatrix pop
	ulx hradius add uly vradius add translate
	hradius vradius scale
	0 0 1 180 270 arc 
	tMatrix setmatrix
	lrx hradius sub uly vradius add translate
	hradius vradius scale
	0 0 1 270 360 arc
	tMatrix setmatrix
	lrx hradius sub lry vradius sub translate
	hradius vradius scale
	0 0 1 0 90 arc
	tMatrix setmatrix
	ulx hradius add lry vradius sub translate
	hradius vradius scale
	0 0 1 90 180 arc
	tMatrix setmatrix
	closepath
	} bdef
/FRR {
	MRR stroke } bdef
/PRR {
	MRR fill } bdef

/MlrRR {
	/lry xdef
	/lrx xdef
	/uly xdef
	/ulx xdef
	/rad lry uly sub 2 div def
	newpath
	tMatrix currentmatrix pop
	ulx rad add uly rad add translate
	rad rad scale
	0 0 1 90 270 arc
	tMatrix setmatrix
	lrx rad sub lry rad sub translate
	rad rad scale
	0 0 1 270 90 arc
	tMatrix setmatrix
	closepath
	} bdef
/FlrRR {
	MlrRR stroke } bdef
/PlrRR {
	MlrRR fill } bdef

/MtbRR {
	/lry xdef
	/lrx xdef
	/uly xdef
	/ulx xdef
	/rad lrx ulx sub 2 div def
	newpath
	tMatrix currentmatrix pop
	ulx rad add uly rad add translate
	rad rad scale
	0 0 1 180 360 arc
	tMatrix setmatrix
	lrx rad sub lry rad sub translate
	rad rad scale
	0 0 1 0 180 arc
	tMatrix setmatrix
	closepath
	} bdef
/FtbRR {
	MtbRR stroke } bdef
/PtbRR {
	MtbRR fill } bdef

currentdict end def
%%EndProlog

%%BeginSetup
MathWorks begin

0 cap

end
%%EndSetup

%%Page: 1 1
%%BeginPageSetup
%%PageBoundingBox:    80   317   552   535
MathWorks begin
bpage
%%EndPageSetup

%%BeginObject: obj1
bplot

/dpi2point 12 def
portraitMode 0216 7344 csm

  751   921  5668  2612 MR c np
93 dict begin %Colortable dictionary
/c0 { 0 0 0 sr} bdef
/c1 { 1 1 1 sr} bdef
/c2 { 1 0 0 sr} bdef
/c3 { 0 1 0 sr} bdef
/c4 { 0 0 1 sr} bdef
/c5 { 1 1 0 sr} bdef
/c6 { 1 0 1 sr} bdef
/c7 { 0 1 1 sr} bdef
c0
1 j
1 sg
   0    0 6918 5185 PR
6 w
0 sg
%%IncludeResource: font Times-Roman
/Times-Roman /ISOLatin1Encoding 192 FMSR

2903 2539 mt 
(x) s
gs 0 1037 3459 3110 MR c np
40 -17 -751 -550 1889 3532 3 MP
PP

% Quadrilateral Solid Rendering Routines
MathWorks begin
/X0 0 def /Y0 0 def /X1 0 def /Y1 0 def /X2 0 def /Y2 0 def
/AX 0 def /AY 0 def /CX 0 def /CY 0 def /DX 0 def /DY 0 def
/C30 0 def /C0 0 def /C10 0 def /C20 0 def /C4 0 def
/M 0 def /N 0 def
/min { 2 copy gt { exch } if pop } bdef
/max { 2 copy lt { exch } if pop } bdef
/triangle_xfd { /Y2 xdef /X2 xdef
          /Y1 xdef /X1 xdef /Y0 xdef /X0 xdef} bdef
/xfd {/AX X1 X0 sub def /AY Y1 Y0 sub def
/CX X2 X0 sub def /CY Y2 Y0 sub def
/DX X0 def /DY Y0 def} bdef
0 0 0 0 0 0 triangle_xfd xfd 
/triangle_cl {np DX DY mt AX AY rl CX AX sub CY AY sub rl cp c np} bdef
/triangle_tf {[ AX AY CX CY DX DY ] cc} bdef
/triangle_det { AX CY mul AY CX mul ne } bdef
/NI 16 def	% NI can be 4 (draft), 8 (medium) , or 16 (high-res)
/log2N NI log 2 log div neg cvi def
/N1 NI 1 sub def  /N2 NI NI mul def  /N21 N2 1 sub def
/CS 0.255 N1 div def  /C4S CS N1 div def
/quad_interp_cd {3 index 2 copy sub CS mul /C30 xdef 0.255 mul /C0 xdef
            4 2 roll 2 copy sub neg CS mul /C10 xdef
            sub sub sub C4S mul /C4 xdef} bdef
            0 0 0 0 quad_interp_cd
/quad_interp_fcn {cvi dup N1 and exch log2N bitshift 2 copy
  mul C4 mul exch C10 mul add exch C30 mul add C0 add cvi} bdef
/quad_interp_image{ 0 1 N21 { 1 index exch dup quad_interp_fcn put } for pop} bdef
/triangle_interp_cd {2 index sub CS mul /C20 xdef        1 index sub CS mul /C10 xdef        0.255 mul /C0 xdef} bdef
0 0 0 triangle_interp_cd
/triangle_interp_fcn {cvi dup N1 and exch log2N bitshift
     C20 mul exch C10 mul add C0 add cvi 
     dup 0 lt {pop 0} if dup 255 gt {pop 255} if} bdef
/triangle_interp_image{ 0 1 N21 { 1 index exch dup triangle_interp_fcn put } for pop} bdef
/read_image {currentfile exch readhexstring pop pop} bdef
/quad_im_str N2 string def  /intr_str N2 string def
/quad_img {N M 8 [ N 0 0 M 0 0 ] quad_im_str image} bdef
/triangle_render_g {gs xfd triangle_cl triangle_tf triangle_det { quad_img } if gr} bdef
/itg {/N NI def /M NI def /quad_im_str intr_str def
      triangle_interp_cd quad_im_str triangle_interp_image triangle_xfd triangle_render_g} bdef
/txg {/N xdef /M xdef triangle_xfd /quad_im_str N M mul string def 
      quad_im_str read_image triangle_render_g} bdef
end	% MathWorks dictionary
1928 3515 1178 2965 1217 2878 0 0 189 itg
-750 -550 39 -17 1889 3532 3 MP
PP
1928 3515 1967 3428 1217 2878 0 189 189 itg
1811 3381 1060 2831 1099 2928 491 491 189 itg
1850 3478 1099 2928 1138 2982 189 189 0 itg
1811 3381 1850 3478 1099 2928 491 189 189 itg
1850 3478 1889 3532 1138 2982 189 0 0 itg
1967 3428 1217 2878 1256 2747 189 189 506 itg
1967 3428 2007 3297 1256 2747 189 506 506 itg
39 -17 -750 -550 2280 3363 3 MP
PP
2320 3346 1569 2796 1608 2709 0 0 189 itg
-751 -550 40 -17 2280 3363 3 MP
PP
2320 3346 2359 3259 1608 2709 0 189 189 itg
2202 3212 1451 2662 1491 2759 506 506 189 itg
2241 3310 1491 2759 1530 2813 189 189 0 itg
2202 3212 2241 3310 1491 2759 506 189 189 itg
2241 3310 2280 3363 1530 2813 189 0 0 itg
2359 3259 1608 2709 1647 2578 189 189 491 itg
2359 3259 2398 3128 1647 2578 189 491 491 itg
2480 3530 mt  978 2429 L
 751 3402 mt 2707 2557 L
2554 2946 2594 3044 1843 2493 808 506 506 itg
2515 2893 2554 2946 1804 2396 999 808 808 itg
2554 2946 1804 2396 1843 2493 808 808 506 itg
2515 2893 1765 2343 1804 2396 999 999 808 itg
1 sg
-750 -550 39 -17 2476 2910 3 MP
PP
0 sg
2480 3530 mt 2480 3530 L
2437 2997 2476 2910 1725 2359 808 999 999 itg
1 sg
40 -16 -751 -551 2476 2910 3 MP
PP
2398 3128 2437 2997 1686 2447 491 808 808 itg
2437 2997 1686 2447 1725 2359 808 808 999 itg
gr

1 sg
gs 0 1037 3459 3110 MR c np
2398 3128 1647 2578 1686 2447 491 491 808 itg
2163 3115 2202 3212 1451 2662 808 506 506 itg
2124 3062 2163 3115 1412 2565 999 808 808 itg
2163 3115 1412 2565 1451 2662 808 808 506 itg
2124 3062 1373 2511 1412 2565 999 999 808 itg
-751 -551 39 -17 2085 3079 3 MP
PP
39 -17 -751 -551 2085 3079 3 MP
PP
0 sg
1729 2979 mt 1729 2010 L
2046 3166 2085 3079 1334 2528 808 999 999 itg
1729 2979 mt 1729 2979 L
2007 3297 2046 3166 1295 2616 506 808 808 itg
2046 3166 1295 2616 1334 2528 808 808 999 itg
2007 3297 1256 2747 1295 2616 506 506 808 itg
1772 3284 1811 3381 1060 2831 808 491 491 itg
1733 3231 1772 3284 1021 2734 999 808 808 itg
1772 3284 1021 2734 1060 2831 808 808 491 itg
1733 3231 982 2680 1021 2734 999 999 808 itg
1 sg
-751 -551 40 -16 1693 3247 3 MP
PP
gr

0 sg
1405 1885 mt 
(cos 2) s
%%IncludeResource: font Symbol
/Symbol /ISOLatin1Encoding 192 FMSR

1804 1885 mt 
(p) s
%%IncludeResource: font Times-Roman
/Times-Roman /ISOLatin1Encoding 192 FMSR

1909 1885 mt 
( x) s
gs 0 1037 3459 3110 MR c np
1654 3335 1693 3247 943 2697 808 999 999 itg
1 sg
39 -17 -750 -550 1693 3247 3 MP
PP
1615 3466 1654 3335 904 2785 506 808 808 itg
1654 3335 904 2785 943 2697 808 808 999 itg
1615 3466 865 2915 904 2785 506 506 808 itg
gr

1 sg
0 sg
 828 2385 mt 
(y) s
gs 0 1037 3459 3110 MR c np
 751 3402 mt  751 3402 L
gr

6263 2581 mt 
(u) s
gs 3459 1037 3458 3110 MR c np
24 w
4698 2706 mt 4698 3191 L
6 w
5938 3530 mt 4437 2429 L
4209 3402 mt 6166 2557 L
5938 3530 mt 5938 3530 L
gr

gs 3459 1037 3458 3110 MR c np
24 w
gs 4600 2185 1176 620 MR c np
  36   36 5677 2283 FO
gr

5677 2283 mt 5677 2283 L
5677 2283 mt 5677 2768 L
5677 2768 mt 5677 2768 L
gr

24 w
4009 1876 mt 
(1/2 ) s
%%IncludeResource: font Times-Roman
/Times-Roman /ISOLatin1Encoding 144 FMSR

4302 1780 mt 
(2) s
%%IncludeResource: font Symbol
/Symbol /ISOLatin1Encoding 192 FMSR

4374 1876 mt 
(d) s
%%IncludeResource: font Times-Roman
/Times-Roman /ISOLatin1Encoding 192 FMSR

4468 1876 mt 
( \(u-1,v\) + 1/2 ) s
%%IncludeResource: font Times-Roman
/Times-Roman /ISOLatin1Encoding 144 FMSR

5585 1780 mt 
(2) s
%%IncludeResource: font Symbol
/Symbol /ISOLatin1Encoding 192 FMSR

5657 1876 mt 
(d) s
%%IncludeResource: font Times-Roman
/Times-Roman /ISOLatin1Encoding 192 FMSR

5751 1876 mt 
( \(u+1,v\)) s
gs 3459 1037 3458 3110 MR c np
6 w
5188 2979 mt 5188 2979 L
5188 2979 mt 5188 2010 L
gr

6 w
gs 3459 1037 3458 3110 MR c np
24 w
4698 2706 mt 4698 2706 L
gs 4600 2185 1176 620 MR c np
  36   36 4698 2706 FO
gr

4698 3191 mt 4698 3191 L
gr

24 w
4362 2440 mt 
(v) s
gs 3459 1037 3458 3110 MR c np
6 w
4209 3402 mt 4209 3402 L
gr

6 w

end

eplot
%%EndObject

epage
end

showpage

%%Trailer
%%EOF
