%!PS-Adobe-2.0 EPSF-1.2
%%Creator: MATLAB, The Mathworks, Inc.
%%Title: cosrot_2d.eps
%%CreationDate: 08/03/99  16:06:02
%%DocumentNeededFonts: Helvetica
%%+ Times-Roman
%%DocumentProcessColors: Cyan Magenta Yellow Black
%%Pages: 1
%%BoundingBox:    77   301   560   535
%%EndComments

%%BeginProlog

% MathWorks dictionary
/MathWorks 160 dict begin

% definition operators
/bdef {bind def} bind def
/ldef {load def} bind def
/xdef {exch def} bdef
/xstore {exch store} bdef

% operator abbreviations
/c  /clip ldef
/cc /concat ldef
/cp /closepath ldef
/gr /grestore ldef
/gs /gsave ldef
/mt /moveto ldef
/np /newpath ldef
/cm /currentmatrix ldef
/sm /setmatrix ldef
/rc {rectclip} bdef
/rf {rectfill} bdef
/rm /rmoveto ldef
/rl /rlineto ldef
/s /show ldef
/sc {setcmykcolor} bdef
/sr /setrgbcolor ldef
/sg /setgray ldef
/w /setlinewidth ldef
/j /setlinejoin ldef
/cap /setlinecap ldef

% page state control
/pgsv () def
/bpage {/pgsv save def} bdef
/epage {pgsv restore} bdef
/bplot /gsave ldef
/eplot {stroke grestore} bdef

% orientation switch
/portraitMode 	0 def
/landscapeMode 	1 def

% coordinate system mappings
/dpi2point 0 def

% font control
/FontSize 0 def
/FMS {
	/FontSize xstore		%save size off stack
	findfont
	[FontSize 0 0 FontSize neg 0 0]
	makefont
	setfont
	}bdef

/reencode {
exch dup where
{pop load} {pop StandardEncoding} ifelse
exch
dup 3 1 roll
findfont dup length dict begin
  { 1 index /FID ne {def}{pop pop} ifelse } forall
  /Encoding exch def
  currentdict
end
definefont pop
} bdef

/isroman {
findfont /CharStrings get
/Agrave known
} bdef

/FMSR {
3 1 roll 1 index
dup isroman
{reencode} {pop pop} ifelse
exch FMS
} bdef

/csm {
	1 dpi2point div -1 dpi2point div scale
	neg translate
	landscapeMode eq {90 rotate} if
	} bdef

% line types: solid, dotted, dashed, dotdash
/SO { [] 0 setdash } bdef
/DO { [.5 dpi2point mul 4 dpi2point mul] 0 setdash } bdef
/DA { [6 dpi2point mul] 0 setdash } bdef
/DD { [.5 dpi2point mul 4 dpi2point mul 6 dpi2point mul 4 dpi2point mul] 0 setdash } bdef

% macros for lines and objects
/L {
	lineto
	stroke
	} bdef
/MP {
	3 1 roll moveto
	1 sub {rlineto} repeat
	} bdef
/AP {
	{rlineto} repeat
	} bdef
/PP {
	closepath eofill
	} bdef
/DP {
	closepath stroke
	} bdef
/MR {
	4 -2 roll moveto
	dup  0 exch rlineto
	exch 0 rlineto
	neg  0 exch rlineto
	closepath
	} bdef
/FR {
	MR stroke
	} bdef
/PR {
	MR fill
	} bdef
/L1i {
	{ currentfile picstr readhexstring pop } image
	} bdef

/tMatrix matrix def
/MakeOval {
	newpath
	tMatrix currentmatrix pop
	translate scale
	0 0 1 0 360 arc
	tMatrix setmatrix
	} bdef
/FO {
	MakeOval
	stroke
	} bdef
/PO {
	MakeOval
	fill
	} bdef

/PD {
	currentlinecap 1 setlinecap 3 1 roll 2 copy moveto lineto stroke setlinecap
	} bdef

/FA {
	newpath
	tMatrix currentmatrix pop
	translate scale
	0 0 1 5 -2 roll arc
	tMatrix setmatrix
	stroke
	} bdef
/PA {
	newpath
	tMatrix currentmatrix pop
	translate 0 0 moveto scale
	0 0 1 5 -2 roll arc
	closepath
	tMatrix setmatrix
	fill
	} bdef

/FAn {
	newpath
	tMatrix currentmatrix pop
	translate scale
	0 0 1 5 -2 roll arcn
	tMatrix setmatrix
	stroke
	} bdef
/PAn {
	newpath
	tMatrix currentmatrix pop
	translate 0 0 moveto scale
	0 0 1 5 -2 roll arcn
	closepath
	tMatrix setmatrix
	fill
	} bdef

/vradius 0 def
/hradius 0 def
/lry 0 def
/lrx 0 def
/uly 0 def
/ulx 0 def
/rad 0 def

/MRR {
	/vradius xdef
	/hradius xdef
	/lry xdef
	/lrx xdef
	/uly xdef
	/ulx xdef
	newpath
	tMatrix currentmatrix pop
	ulx hradius add uly vradius add translate
	hradius vradius scale
	0 0 1 180 270 arc 
	tMatrix setmatrix
	lrx hradius sub uly vradius add translate
	hradius vradius scale
	0 0 1 270 360 arc
	tMatrix setmatrix
	lrx hradius sub lry vradius sub translate
	hradius vradius scale
	0 0 1 0 90 arc
	tMatrix setmatrix
	ulx hradius add lry vradius sub translate
	hradius vradius scale
	0 0 1 90 180 arc
	tMatrix setmatrix
	closepath
	} bdef
/FRR {
	MRR stroke } bdef
/PRR {
	MRR fill } bdef

/MlrRR {
	/lry xdef
	/lrx xdef
	/uly xdef
	/ulx xdef
	/rad lry uly sub 2 div def
	newpath
	tMatrix currentmatrix pop
	ulx rad add uly rad add translate
	rad rad scale
	0 0 1 90 270 arc
	tMatrix setmatrix
	lrx rad sub lry rad sub translate
	rad rad scale
	0 0 1 270 90 arc
	tMatrix setmatrix
	closepath
	} bdef
/FlrRR {
	MlrRR stroke } bdef
/PlrRR {
	MlrRR fill } bdef

/MtbRR {
	/lry xdef
	/lrx xdef
	/uly xdef
	/ulx xdef
	/rad lrx ulx sub 2 div def
	newpath
	tMatrix currentmatrix pop
	ulx rad add uly rad add translate
	rad rad scale
	0 0 1 180 360 arc
	tMatrix setmatrix
	lrx rad sub lry rad sub translate
	rad rad scale
	0 0 1 0 180 arc
	tMatrix setmatrix
	closepath
	} bdef
/FtbRR {
	MtbRR stroke } bdef
/PtbRR {
	MtbRR fill } bdef

currentdict end def
%%EndProlog

%%BeginSetup
MathWorks begin

0 cap

end
%%EndSetup

%%Page: 1 1
%%BeginPageSetup
%%PageBoundingBox:    77   301   560   535
MathWorks begin
bpage
%%EndPageSetup

%%BeginObject: obj1
bplot

/dpi2point 12 def
portraitMode 0216 7344 csm

  716   921  5793  2809 MR c np
93 dict begin %Colortable dictionary
/c0 { 0 0 0 sr} bdef
/c1 { 1 1 1 sr} bdef
/c2 { 1 0 0 sr} bdef
/c3 { 0 1 0 sr} bdef
/c4 { 0 0 1 sr} bdef
/c5 { 1 1 0 sr} bdef
/c6 { 1 0 1 sr} bdef
/c7 { 0 1 1 sr} bdef
c0
1 j
1 sg
   0    0 6918 5185 PR
6 w
0 sg
%%IncludeResource: font Times-Roman
/Times-Roman /ISOLatin1Encoding 192 FMSR

2903 2539 mt 
(x) s
gs 0 1037 3459 3110 MR c np

% Quadrilateral Solid Rendering Routines
MathWorks begin
/X0 0 def /Y0 0 def /X1 0 def /Y1 0 def /X2 0 def /Y2 0 def
/AX 0 def /AY 0 def /CX 0 def /CY 0 def /DX 0 def /DY 0 def
/C30 0 def /C0 0 def /C10 0 def /C20 0 def /C4 0 def
/M 0 def /N 0 def
/min { 2 copy gt { exch } if pop } bdef
/max { 2 copy lt { exch } if pop } bdef
/triangle_xfd { /Y2 xdef /X2 xdef
          /Y1 xdef /X1 xdef /Y0 xdef /X0 xdef} bdef
/xfd {/AX X1 X0 sub def /AY Y1 Y0 sub def
/CX X2 X0 sub def /CY Y2 Y0 sub def
/DX X0 def /DY Y0 def} bdef
0 0 0 0 0 0 triangle_xfd xfd 
/triangle_cl {np DX DY mt AX AY rl CX AX sub CY AY sub rl cp c np} bdef
/triangle_tf {[ AX AY CX CY DX DY ] cc} bdef
/triangle_det { AX CY mul AY CX mul ne } bdef
/NI 16 def	% NI can be 4 (draft), 8 (medium) , or 16 (high-res)
/log2N NI log 2 log div neg cvi def
/N1 NI 1 sub def  /N2 NI NI mul def  /N21 N2 1 sub def
/CS 0.255 N1 div def  /C4S CS N1 div def
/quad_interp_cd {3 index 2 copy sub CS mul /C30 xdef 0.255 mul /C0 xdef
            4 2 roll 2 copy sub neg CS mul /C10 xdef
            sub sub sub C4S mul /C4 xdef} bdef
            0 0 0 0 quad_interp_cd
/quad_interp_fcn {cvi dup N1 and exch log2N bitshift 2 copy
  mul C4 mul exch C10 mul add exch C30 mul add C0 add cvi} bdef
/quad_interp_image{ 0 1 N21 { 1 index exch dup quad_interp_fcn put } for pop} bdef
/triangle_interp_cd {2 index sub CS mul /C20 xdef        1 index sub CS mul /C10 xdef        0.255 mul /C0 xdef} bdef
0 0 0 triangle_interp_cd
/triangle_interp_fcn {cvi dup N1 and exch log2N bitshift
     C20 mul exch C10 mul add C0 add cvi 
     dup 0 lt {pop 0} if dup 255 gt {pop 255} if} bdef
/triangle_interp_image{ 0 1 N21 { 1 index exch dup triangle_interp_fcn put } for pop} bdef
/read_image {currentfile exch readhexstring pop pop} bdef
/quad_im_str N2 string def  /intr_str N2 string def
/quad_img {N M 8 [ N 0 0 M 0 0 ] quad_im_str image} bdef
/triangle_render_g {gs xfd triangle_cl triangle_tf triangle_det { quad_img } if gr} bdef
/itg {/N NI def /M NI def /quad_im_str intr_str def
      triangle_interp_cd quad_im_str triangle_interp_image triangle_xfd triangle_render_g} bdef
/txg {/N xdef /M xdef triangle_xfd /quad_im_str N M mul string def 
      quad_im_str read_image triangle_render_g} bdef
end	% MathWorks dictionary
1492 3575 1331 2887 1355 2971 205 205 94 itg
1492 3575 1516 3659 1355 2971 205 94 94 itg
1443 3350 1282 2663 1306 2781 506 491 348 itg
1467 3469 1306 2781 1331 2887 348 348 205 itg
1443 3350 1467 3469 1306 2781 506 348 348 itg
1467 3469 1492 3575 1331 2887 348 205 205 itg
1516 3659 1355 2971 1380 3025 94 94 14 itg
1541 3712 1380 3025 1404 3042 14 14 0 itg
1516 3659 1541 3712 1380 3025 94 14 14 itg
1565 3729 1404 3042 1428 3021 0 0 14 itg
1541 3712 1565 3729 1404 3042 14 0 0 itg
1589 3709 1428 3021 1453 2964 14 14 94 itg
1565 3729 1589 3709 1428 3021 0 14 14 itg
1614 3652 1453 2964 1477 2876 94 94 205 itg
1589 3709 1614 3652 1453 2964 14 94 94 itg
1638 3564 1477 2876 1502 2766 205 205 348 itg
1614 3652 1638 3564 1477 2876 94 205 205 itg
1663 3454 1502 2766 1526 2645 348 348 506 itg
1638 3564 1663 3454 1502 2766 205 348 348 itg
1663 3454 1687 3332 1526 2645 348 506 506 itg
1981 3539 1820 2851 1844 2935 205 205 94 itg
1981 3539 2005 3623 1844 2935 205 94 94 itg
1932 3314 1771 2627 1795 2745 506 506 348 itg
1956 3432 1795 2745 1820 2851 348 348 205 itg
1932 3314 1956 3432 1795 2745 506 348 348 itg
1956 3432 1981 3539 1820 2851 348 205 205 itg
2103 3615 1942 2928 1966 2840 94 94 205 itg
2127 3528 1966 2840 1991 2730 205 205 348 itg
2103 3615 2127 3528 1966 2840 94 205 205 itg
2152 3418 1991 2730 2015 2609 348 348 506 itg
2127 3528 2152 3418 1991 2730 205 348 348 itg
2152 3418 2176 3296 2015 2609 348 491 506 itg
2005 3623 1844 2935 1869 2988 94 94 14 itg
2030 3676 1869 2988 1893 3006 14 14 0 itg
2005 3623 2030 3676 1869 2988 94 14 14 itg
2054 3693 1893 3006 1917 2985 0 0 14 itg
2030 3676 2054 3693 1893 3006 14 0 0 itg
2078 3672 1917 2985 1942 2928 14 14 94 itg
2054 3693 2078 3672 1917 2985 0 14 14 itg
2078 3672 2103 3615 1942 2928 14 94 94 itg
2480 3530 mt  978 2429 L
 751 3402 mt 2707 2557 L
2480 3530 mt 2480 3530 L
2396 3160 2421 3278 2260 2590 649 506 506 itg
gr

gs 0 1037 3459 3110 MR c np
2372 3054 2396 3160 2235 2472 792 649 649 itg
2396 3160 2235 2472 2260 2590 649 649 506 itg
2372 3054 2211 2366 2235 2472 792 792 649 itg
2347 2970 2372 3054 2211 2366 903 792 792 itg
2323 2916 2347 2970 2186 2282 983 903 903 itg
2347 2970 2186 2282 2211 2366 903 903 792 itg
2299 2899 2323 2916 2162 2229 999 983 983 itg
2323 2916 2162 2229 2186 2282 983 983 903 itg
2274 2920 2299 2899 2138 2211 983 999 999 itg
2299 2899 2138 2211 2162 2229 999 999 983 itg
2250 2977 2274 2920 2113 2232 903 983 983 itg
2274 2920 2113 2232 2138 2211 983 983 999 itg
2225 3064 2250 2977 2089 2289 792 903 903 itg
2250 2977 2089 2289 2113 2232 903 903 983 itg
2201 3174 2225 3064 2064 2377 649 792 792 itg
2225 3064 2064 2377 2089 2289 792 792 903 itg
2176 3296 2201 3174 2040 2487 491 649 649 itg
2201 3174 2040 2487 2064 2377 649 649 792 itg
2176 3296 2015 2609 2040 2487 491 506 649 itg
1907 3196 1932 3314 1771 2627 649 506 506 itg
1883 3090 1907 3196 1746 2509 792 649 649 itg
1907 3196 1746 2509 1771 2627 649 649 506 itg
1883 3090 1722 2402 1746 2509 792 792 649 itg
1858 3006 1883 3090 1722 2402 903 792 792 itg
1834 2953 1858 3006 1697 2318 983 903 903 itg
1858 3006 1697 2318 1722 2402 903 903 792 itg
1809 2935 1834 2953 1673 2265 999 983 983 itg
1834 2953 1673 2265 1697 2318 983 983 903 itg
1809 2935 1649 2248 1673 2265 999 999 983 itg
1729 2979 mt 1729 2010 L
1785 2956 1809 2935 1649 2248 983 999 999 itg
1761 3013 1785 2956 1624 2268 903 983 983 itg
1785 2956 1624 2268 1649 2248 983 983 999 itg
1729 2979 mt 1729 2979 L
1736 3101 1761 3013 1600 2325 792 903 903 itg
1761 3013 1600 2325 1624 2268 903 903 983 itg
1712 3211 1736 3101 1575 2413 649 792 792 itg
1736 3101 1575 2413 1600 2325 792 792 903 itg
gr

 718 1691 mt 
(cos [2) s
%%IncludeResource: font Symbol
/Symbol /ISOLatin1Encoding 192 FMSR

1181 1691 mt 
(p) s
%%IncludeResource: font Times-Roman
/Times-Roman /ISOLatin1Encoding 192 FMSR

1286 1691 mt 
(\(x cos ) s
%%IncludeResource: font Symbol
/Symbol /ISOLatin1Encoding 192 FMSR

1797 1691 mt 
(q) s
%%IncludeResource: font Times-Roman
/Times-Roman /ISOLatin1Encoding 192 FMSR

1897 1691 mt 
( + y sin ) s
%%IncludeResource: font Symbol
/Symbol /ISOLatin1Encoding 192 FMSR

2517 1691 mt 
(q) s
%%IncludeResource: font Times-Roman
/Times-Roman /ISOLatin1Encoding 192 FMSR

2617 1691 mt 
(\)]) s
gs 0 1037 3459 3110 MR c np
1687 3332 1712 3211 1551 2523 506 649 649 itg
1712 3211 1551 2523 1575 2413 649 649 792 itg
1687 3332 1526 2645 1551 2523 506 506 649 itg
1418 3232 1443 3350 1282 2663 649 506 491 itg
1394 3126 1418 3232 1257 2545 792 649 649 itg
1418 3232 1257 2545 1282 2663 649 649 491 itg
1394 3126 1233 2438 1257 2545 792 792 649 itg
1369 3042 1394 3126 1233 2438 903 792 792 itg
1345 2989 1369 3042 1208 2354 983 903 903 itg
1369 3042 1208 2354 1233 2438 903 903 792 itg
1320 2972 1345 2989 1184 2301 999 983 983 itg
1345 2989 1184 2301 1208 2354 983 983 903 itg
1296 2992 1320 2972 1159 2284 983 999 999 itg
1320 2972 1159 2284 1184 2301 999 999 983 itg
1272 3049 1296 2992 1135 2305 903 983 983 itg
1296 2992 1135 2305 1159 2284 983 983 999 itg
1247 3137 1272 3049 1111 2362 792 903 903 itg
1272 3049 1111 2362 1135 2305 903 903 983 itg
1223 3247 1247 3137 1086 2449 649 792 792 itg
1247 3137 1086 2449 1111 2362 792 792 903 itg
1198 3369 1223 3247 1062 2559 506 649 649 itg
1223 3247 1062 2559 1086 2449 649 649 792 itg
1198 3369 1037 2681 1062 2559 506 506 649 itg
gr

 828 2385 mt 
(y) s
gs 0 1037 3459 3110 MR c np
 751 3402 mt  751 3402 L
gr

6361 2539 mt 
(u) s
gs 3459 1037 3458 3110 MR c np
DA
4454 3034 mt 5921 2925 L
SO
5938 3530 mt 4437 2429 L
4209 3402 mt 6166 2557 L
5938 3530 mt 5938 3530 L
24 w
gs 4356 2342 1664 306 MR c np
  36   36 5921 2440 FO
gr

5921 2440 mt 5921 2440 L
5921 2440 mt 5921 2925 L
5921 2925 mt 5921 2925 L
gr

24 w
%%IncludeResource: font Symbol
/Symbol /ISOLatin1Encoding 168 FMSR

5643 2933 mt 
(q) s
%%IncludeResource: font Times-Roman
/Times-Roman /ISOLatin1Encoding 192 FMSR

4082 1876 mt 
(1/2 ) s
%%IncludeResource: font Times-Roman
/Times-Roman /ISOLatin1Encoding 144 FMSR

4375 1780 mt 
(2) s
%%IncludeResource: font Symbol
/Symbol /ISOLatin1Encoding 192 FMSR

4447 1876 mt 
(d) s
%%IncludeResource: font Times-Roman
/Times-Roman /ISOLatin1Encoding 192 FMSR

4541 1876 mt 
( [\(u+1\)cos) s
%%IncludeResource: font Symbol
/Symbol /ISOLatin1Encoding 192 FMSR

5337 1876 mt 
(q) s
%%IncludeResource: font Times-Roman
/Times-Roman /ISOLatin1Encoding 192 FMSR

5437 1876 mt 
(,\(v+1\)sin) s
%%IncludeResource: font Symbol
/Symbol /ISOLatin1Encoding 192 FMSR

6137 1876 mt 
(q) s
%%IncludeResource: font Times-Roman
/Times-Roman /ISOLatin1Encoding 192 FMSR

6237 1876 mt 
(]) s
4004 1585 mt 
(1/2 ) s
%%IncludeResource: font Times-Roman
/Times-Roman /ISOLatin1Encoding 144 FMSR

4297 1489 mt 
(2) s
%%IncludeResource: font Symbol
/Symbol /ISOLatin1Encoding 192 FMSR

4369 1585 mt 
(d) s
%%IncludeResource: font Times-Roman
/Times-Roman /ISOLatin1Encoding 192 FMSR

4463 1585 mt 
( [\(u-1\)cos) s
%%IncludeResource: font Symbol
/Symbol /ISOLatin1Encoding 192 FMSR

5259 1585 mt 
(q) s
%%IncludeResource: font Times-Roman
/Times-Roman /ISOLatin1Encoding 192 FMSR

5359 1585 mt 
(,\(v-1\)sin) s
%%IncludeResource: font Symbol
/Symbol /ISOLatin1Encoding 192 FMSR

6059 1585 mt 
(q) s
%%IncludeResource: font Times-Roman
/Times-Roman /ISOLatin1Encoding 192 FMSR

6159 1585 mt 
(] +) s
gs 3459 1037 3458 3110 MR c np
6 w
5188 2979 mt 5188 2979 L
5188 2979 mt 5188 2010 L
gr

6 w
gs 3459 1037 3458 3110 MR c np
DA
4454 3034 mt 4454 3034 L
SO
24 w
4454 2549 mt 4454 2549 L
gs 4356 2342 1664 306 MR c np
  36   36 4454 2549 FO
gr

4454 2549 mt 4454 3034 L
4454 3034 mt 4454 3034 L
gr

24 w
4287 2385 mt 
(v) s
gs 3459 1037 3458 3110 MR c np
6 w
4209 3402 mt 4209 3402 L
gr

6 w

end

eplot
%%EndObject

epage
end

showpage

%%Trailer
%%EOF
