%!PS-Adobe-2.0 EPSF-2.0
%%Title: fraun_geom.eps
%%Creator: fig2dev Version 3.2 Patchlevel 3c
%%CreationDate: Fri Sep 14 10:49:44 2001
%%For: mea1@moomin (Martin Anderson)
%%BoundingBox: 0 0 339 253
%%Magnification: 1.0000
%%EndComments
/$F2psDict 200 dict def
$F2psDict begin
$F2psDict /mtrx matrix put
/col-1 {0 setgray} bind def
/col0 {0.000 0.000 0.000 srgb} bind def
/col1 {0.000 0.000 1.000 srgb} bind def
/col2 {0.000 1.000 0.000 srgb} bind def
/col3 {0.000 1.000 1.000 srgb} bind def
/col4 {1.000 0.000 0.000 srgb} bind def
/col5 {1.000 0.000 1.000 srgb} bind def
/col6 {1.000 1.000 0.000 srgb} bind def
/col7 {1.000 1.000 1.000 srgb} bind def
/col8 {0.000 0.000 0.560 srgb} bind def
/col9 {0.000 0.000 0.690 srgb} bind def
/col10 {0.000 0.000 0.820 srgb} bind def
/col11 {0.530 0.810 1.000 srgb} bind def
/col12 {0.000 0.560 0.000 srgb} bind def
/col13 {0.000 0.690 0.000 srgb} bind def
/col14 {0.000 0.820 0.000 srgb} bind def
/col15 {0.000 0.560 0.560 srgb} bind def
/col16 {0.000 0.690 0.690 srgb} bind def
/col17 {0.000 0.820 0.820 srgb} bind def
/col18 {0.560 0.000 0.000 srgb} bind def
/col19 {0.690 0.000 0.000 srgb} bind def
/col20 {0.820 0.000 0.000 srgb} bind def
/col21 {0.560 0.000 0.560 srgb} bind def
/col22 {0.690 0.000 0.690 srgb} bind def
/col23 {0.820 0.000 0.820 srgb} bind def
/col24 {0.500 0.190 0.000 srgb} bind def
/col25 {0.630 0.250 0.000 srgb} bind def
/col26 {0.750 0.380 0.000 srgb} bind def
/col27 {1.000 0.500 0.500 srgb} bind def
/col28 {1.000 0.630 0.630 srgb} bind def
/col29 {1.000 0.750 0.750 srgb} bind def
/col30 {1.000 0.880 0.880 srgb} bind def
/col31 {1.000 0.840 0.000 srgb} bind def

end
save
newpath 0 253 moveto 0 0 lineto 339 0 lineto 339 253 lineto closepath clip newpath
-4.0 270.0 translate
1 -1 scale

/cp {closepath} bind def
/ef {eofill} bind def
/gr {grestore} bind def
/gs {gsave} bind def
/sa {save} bind def
/rs {restore} bind def
/l {lineto} bind def
/m {moveto} bind def
/rm {rmoveto} bind def
/n {newpath} bind def
/s {stroke} bind def
/sh {show} bind def
/slc {setlinecap} bind def
/slj {setlinejoin} bind def
/slw {setlinewidth} bind def
/srgb {setrgbcolor} bind def
/rot {rotate} bind def
/sc {scale} bind def
/sd {setdash} bind def
/ff {findfont} bind def
/sf {setfont} bind def
/scf {scalefont} bind def
/sw {stringwidth} bind def
/tr {translate} bind def
/tnt {dup dup currentrgbcolor
  4 -2 roll dup 1 exch sub 3 -1 roll mul add
  4 -2 roll dup 1 exch sub 3 -1 roll mul add
  4 -2 roll dup 1 exch sub 3 -1 roll mul add srgb}
  bind def
/shd {dup dup currentrgbcolor 4 -2 roll mul 4 -2 roll mul
  4 -2 roll mul srgb} bind def
/$F2psBegin {$F2psDict begin /$F2psEnteredState save def} def
/$F2psEnd {$F2psEnteredState restore end} def

$F2psBegin
%%Page: 1 1
10 setmiterlimit
 0.06000 0.06000 sc
%
% Fig objects follow
%
/Times-Roman ff 300.00 scf sf
1200 4425 m
gs 1 -1 sc (, y) col0 sh gr
/Times-Roman ff 300.00 scf sf
1650 4425 m
gs 1 -1 sc (\)) col0 sh gr
/Times-Roman ff 300.00 scf sf
525 4425 m
gs 1 -1 sc (U\( x) col0 sh gr
/Times-Roman ff 300.00 scf sf
4800 4425 m
gs 1 -1 sc (, y) col0 sh gr
/Times-Roman ff 300.00 scf sf
5250 4425 m
gs 1 -1 sc (\)) col0 sh gr
/Times-Roman ff 300.00 scf sf
4125 4425 m
gs 1 -1 sc (U\( x) col0 sh gr
/Times-Roman ff 270.00 scf sf
5025 2025 m
gs 1 -1 sc (P) col0 sh gr
/Times-Roman ff 210.00 scf sf
5175 2100 m
gs 1 -1 sc (0) col0 sh gr
/Times-Roman ff 270.00 scf sf
900 2400 m
gs 1 -1 sc (P) col0 sh gr
/Times-Roman ff 210.00 scf sf
1050 2475 m
gs 1 -1 sc (1) col0 sh gr
/Times-Roman ff 240.00 scf sf
1125 4500 m
gs 1 -1 sc (1) dup sw pop 2 div neg 0 rm  col0 sh gr
/Times-Roman ff 240.00 scf sf
1575 4500 m
gs 1 -1 sc (1) dup sw pop 2 div neg 0 rm  col0 sh gr
/Times-Roman ff 240.00 scf sf
4725 4500 m
gs 1 -1 sc (0) dup sw pop 2 div neg 0 rm  col0 sh gr
/Times-Roman ff 240.00 scf sf
5175 4500 m
gs 1 -1 sc (0) dup sw pop 2 div neg 0 rm  col0 sh gr
/Times-Roman ff 210.00 scf sf
2700 2775 m
gs 1 -1 sc (01) col0 sh gr
/Times-Roman ff 300.00 scf sf
2550 2700 m
gs 1 -1 sc (r) col0 sh gr
% Polyline
7.500 slw
n 1200 1800 m
 4800 1800 l gs col0 s gr 
% Polyline
gs  clippath
4770 3315 m 4830 3315 l 4830 3130 l 4800 3280 l 4770 3130 l cp
4830 285 m 4770 285 l 4770 470 l 4800 320 l 4830 470 l cp
eoclip
n 4800 300 m
 4800 3300 l gs col0 s gr gr

% arrowhead
n 4830 470 m 4800 320 l 4770 470 l 4800 440 l 4830 470 l 
 cp gs 0.00 setgray ef gr  col0 s
% arrowhead
n 4770 3130 m 4800 3280 l 4830 3130 l 4800 3160 l 4770 3130 l 
 cp gs 0.00 setgray ef gr  col0 s
% Polyline
gs  clippath
5724 1056 m 5686 1010 l 5544 1128 l 5679 1056 l 5582 1175 l cp
3863 2529 m 3901 2575 l 4043 2457 l 3909 2530 l 4005 2410 l cp
eoclip
n 3894 2543 m
 5694 1043 l gs col0 s gr gr

% arrowhead
n 4005 2410 m 3909 2530 l 4043 2457 l 4001 2453 l 4005 2410 l 
 cp gs 0.00 setgray ef gr  col0 s
% arrowhead
n 5582 1175 m 5679 1056 l 5544 1128 l 5586 1132 l 5582 1175 l 
 cp gs 0.00 setgray ef gr  col0 s
% Polyline
15.000 slw
n 1125 2625 m
 5025 2100 l gs col0 s gr 
% Polyline
7.500 slw
gs  clippath
1170 3315 m 1230 3315 l 1230 3130 l 1200 3280 l 1170 3130 l cp
1230 285 m 1170 285 l 1170 470 l 1200 320 l 1230 470 l cp
eoclip
n 1200 300 m
 1200 3300 l gs col0 s gr gr

% arrowhead
n 1230 470 m 1200 320 l 1170 470 l 1200 440 l 1230 470 l 
 cp gs 0.00 setgray ef gr  col0 s
% arrowhead
n 1170 3130 m 1200 3280 l 1230 3130 l 1200 3160 l 1170 3130 l 
 cp gs 0.00 setgray ef gr  col0 s
% Polyline
gs  clippath
2124 1056 m 2086 1010 l 1944 1128 l 2079 1056 l 1982 1175 l cp
263 2529 m 301 2575 l 443 2457 l 309 2530 l 405 2410 l cp
eoclip
n 294 2543 m
 2094 1043 l gs col0 s gr gr

% arrowhead
n 405 2410 m 309 2530 l 443 2457 l 401 2453 l 405 2410 l 
 cp gs 0.00 setgray ef gr  col0 s
% arrowhead
n 1982 1175 m 2079 1056 l 1944 1128 l 1986 1132 l 1982 1175 l 
 cp gs 0.00 setgray ef gr  col0 s
% Polyline
15.000 slw
gs  clippath
2190 1860 m 2190 1740 l 1835 1740 l 2135 1800 l 1835 1860 l cp
eoclip
n 1200 1800 m
 2175 1800 l gs col0 s gr gr

% arrowhead
n 1835 1860 m 2135 1800 l 1835 1740 l 1895 1800 l 1835 1860 l 
 cp gs 0.00 setgray ef gr  col0 s
% Polyline
7.500 slw
n 1800 1500 m
 2025 1500 l gs col0 s gr 
% Polyline
n 2025 1500 m
 1950 1425 l gs col0 s gr 
% Polyline
2 slj
n 4613 938 m 4599 956 l 4585 977 l 4571 999 l 4558 1022 l 4545 1047 l
 4532 1073 l 4519 1101 l 4506 1130 l 4493 1161 l 4481 1193 l
 4469 1226 l 4458 1260 l 4447 1296 l 4436 1332 l 4426 1369 l
 4417 1407 l 4408 1445 l 4400 1483 l 4393 1521 l 4387 1560 l
 4381 1598 l 4376 1635 l 4372 1673 l 4369 1709 l 4367 1745 l
 4365 1781 l 4365 1815 l 4365 1849 l 4366 1881 l 4368 1913 l
 4371 1945 l 4375 1975 l 4380 2007 l 4386 2038 l 4393 2068 l
 4402 2098 l 4411 2128 l 4422 2157 l 4433 2186 l 4446 2213 l
 4460 2241 l 4475 2267 l 4491 2293 l 4508 2318 l 4526 2342 l
 4544 2364 l 4563 2386 l 4584 2406 l 4604 2424 l 4625 2441 l
 4647 2457 l 4668 2471 l 4690 2484 l 4712 2495 l 4734 2504 l
 4756 2512 l 4778 2518 l 4800 2522 l 4822 2525 l 4844 2527 l
 4866 2527 l 4888 2525 l 4911 2522 l 4934 2517 l 4958 2510 l
 4982 2502 l 5006 2491 l 5031 2480 l 5055 2466 l 5080 2451 l
 5104 2434 l 5129 2416 l 5153 2396 l 5177 2375 l 5200 2353 l
 5222 2330 l 5244 2305 l 5265 2280 l 5285 2254 l 5303 2228 l
 5320 2201 l 5336 2174 l 5351 2147 l 5364 2120 l 5376 2094 l
 5386 2067 l 5395 2041 l 5402 2014 l 5408 1988 l 5413 1963 l
 5416 1935 l 5417 1907 l 5417 1879 l 5416 1851 l 5413 1822 l
 5409 1793 l 5403 1764 l 5396 1734 l 5388 1705 l 5379 1675 l
 5369 1645 l 5358 1615 l 5347 1585 l 5335 1556 l 5323 1527 l
 5310 1499 l 5297 1472 l 5285 1445 l 5272 1419 l 5260 1394 l
 5249 1370 l 5238 1347 l 5227 1325 l 5217 1303 l 5208 1283 l
 5200 1263 l 5190 1237 l 5182 1212 l 5174 1188 l 5167 1164 l
 5161 1140 l 5156 1116 l 5150 1093 l 5145 1070 l 5141 1048 l
 5136 1026 l 5131 1006 l 5126 986 l 5120 967 l 5114 949 l
 5108 932 l 5101 916 l 5093 902 l 5084 888 l 5074 875 l
 5063 863 l 5053 853 l 5042 845 l 5031 836 l 5018 828 l
 5004 821 l 4990 814 l 4974 808 l 4958 802 l 4941 798 l
 4923 795 l 4904 792 l 4884 791 l 4865 792 l 4844 793 l
 4824 796 l 4803 801 l 4783 807 l 4763 815 l 4743 825 l
 4723 836 l 4703 848 l 4684 863 l 4666 879 l 4648 896 l
 4630 916 l
 cp gs col0 s gr 
% Polyline
n 925 988 m 908 1002 l 891 1019 l 874 1037 l 857 1057 l 840 1078 l
 824 1102 l 807 1127 l 791 1154 l 775 1182 l 759 1212 l
 744 1244 l 729 1277 l 715 1312 l 701 1348 l 688 1384 l
 676 1422 l 664 1461 l 654 1500 l 644 1539 l 636 1579 l
 628 1619 l 622 1659 l 617 1699 l 613 1739 l 610 1778 l
 609 1816 l 608 1855 l 609 1892 l 611 1929 l 615 1966 l
 619 2002 l 625 2038 l 632 2073 l 640 2108 l 650 2143 l
 661 2178 l 674 2212 l 687 2247 l 702 2281 l 718 2315 l
 735 2348 l 754 2382 l 774 2414 l 794 2446 l 816 2477 l
 838 2507 l 861 2537 l 885 2564 l 909 2591 l 934 2616 l
 959 2639 l 984 2661 l 1009 2681 l 1034 2699 l 1059 2716 l
 1083 2730 l 1107 2742 l 1131 2753 l 1154 2761 l 1177 2768 l
 1199 2773 l 1221 2775 l 1242 2776 l 1263 2775 l 1284 2772 l
 1305 2766 l 1326 2758 l 1346 2748 l 1366 2736 l 1386 2722 l
 1406 2706 l 1425 2687 l 1444 2667 l 1462 2645 l 1480 2620 l
 1498 2595 l 1515 2567 l 1531 2538 l 1547 2508 l 1562 2477 l
 1577 2445 l 1590 2413 l 1603 2380 l 1615 2346 l 1626 2313 l
 1636 2279 l 1645 2246 l 1654 2213 l 1661 2180 l 1668 2148 l
 1674 2117 l 1679 2086 l 1684 2055 l 1688 2025 l 1691 1991 l
 1694 1957 l 1696 1924 l 1697 1890 l 1697 1857 l 1697 1824 l
 1696 1791 l 1694 1758 l 1692 1726 l 1689 1694 l 1685 1662 l
 1681 1631 l 1677 1601 l 1672 1572 l 1667 1543 l 1662 1516 l
 1657 1490 l 1652 1465 l 1646 1442 l 1641 1419 l 1636 1398 l
 1631 1379 l 1626 1361 l 1621 1344 l 1617 1328 l 1613 1313 l
 1606 1290 l 1601 1269 l 1595 1250 l 1590 1232 l 1585 1215 l
 1579 1199 l 1572 1184 l 1565 1169 l 1556 1156 l 1547 1142 l
 1537 1129 l 1525 1116 l 1512 1104 l 1497 1091 l 1481 1077 l
 1463 1063 l 1450 1053 l 1437 1043 l 1423 1033 l 1407 1022 l
 1391 1011 l 1373 1001 l 1355 990 l 1335 979 l 1315 969 l
 1294 959 l 1271 950 l 1249 942 l 1225 935 l 1202 929 l
 1178 924 l 1154 921 l 1129 919 l 1105 919 l 1082 921 l
 1058 924 l 1035 930 l 1012 937 l 990 946 l 968 958 l
 946 972 l
 cp gs col0 s gr 
/Times-Roman ff 270.00 scf sf
3675 2025 m
gs 1 -1 sc (z) col0 sh gr
/Times-Roman ff 240.00 scf sf
1875 1650 m
gs 1 -1 sc (n) col0 sh gr
/Times-Roman ff 270.00 scf sf
75 2775 m
gs 1 -1 sc (x) col0 sh gr
/Times-Roman ff 210.00 scf sf
225 2850 m
gs 1 -1 sc (1) col0 sh gr
/Times-Roman ff 270.00 scf sf
1050 3600 m
gs 1 -1 sc (y) col0 sh gr
/Times-Roman ff 210.00 scf sf
1200 3675 m
gs 1 -1 sc (1) col0 sh gr
/Times-Roman ff 270.00 scf sf
3675 2775 m
gs 1 -1 sc (x) col0 sh gr
/Times-Roman ff 210.00 scf sf
3825 2850 m
gs 1 -1 sc (0) col0 sh gr
/Times-Roman ff 270.00 scf sf
4650 3600 m
gs 1 -1 sc (y) col0 sh gr
/Times-Roman ff 210.00 scf sf
4800 3675 m
gs 1 -1 sc (0) col0 sh gr
/Symbol ff 300.00 scf sf
525 1200 m
gs 1 -1 sc (S) col0 sh gr
/Times-Roman ff 240.00 scf sf
1200 4050 m
gs 1 -1 sc (Aperture function) dup sw pop 2 div neg 0 rm  col0 sh gr
/Times-Roman ff 240.00 scf sf
4800 4050 m
gs 1 -1 sc (Field amplitude) dup sw pop 2 div neg 0 rm  col0 sh gr
$F2psEnd
rs
