%!PS-Adobe-2.0 EPSF-2.0
%%Title: grating.eps
%%Creator: fig2dev Version 3.2 Patchlevel 1
%%CreationDate: Mon Jun 14 16:18:48 1999
%%For: mea1@abo.egr.duke.edu ()
%%Orientation: Portrait
%%BoundingBox: 0 0 985 249
%%Pages: 0
%%BeginSetup
%%EndSetup
%%Magnification: 1.0000
%%EndComments
/$F2psDict 200 dict def
$F2psDict begin
$F2psDict /mtrx matrix put
/col-1 {0 setgray} bind def
/col0 {0.000 0.000 0.000 srgb} bind def
/col1 {0.000 0.000 1.000 srgb} bind def
/col2 {0.000 1.000 0.000 srgb} bind def
/col3 {0.000 1.000 1.000 srgb} bind def
/col4 {1.000 0.000 0.000 srgb} bind def
/col5 {1.000 0.000 1.000 srgb} bind def
/col6 {1.000 1.000 0.000 srgb} bind def
/col7 {1.000 1.000 1.000 srgb} bind def
/col8 {0.000 0.000 0.560 srgb} bind def
/col9 {0.000 0.000 0.690 srgb} bind def
/col10 {0.000 0.000 0.820 srgb} bind def
/col11 {0.530 0.810 1.000 srgb} bind def
/col12 {0.000 0.560 0.000 srgb} bind def
/col13 {0.000 0.690 0.000 srgb} bind def
/col14 {0.000 0.820 0.000 srgb} bind def
/col15 {0.000 0.560 0.560 srgb} bind def
/col16 {0.000 0.690 0.690 srgb} bind def
/col17 {0.000 0.820 0.820 srgb} bind def
/col18 {0.560 0.000 0.000 srgb} bind def
/col19 {0.690 0.000 0.000 srgb} bind def
/col20 {0.820 0.000 0.000 srgb} bind def
/col21 {0.560 0.000 0.560 srgb} bind def
/col22 {0.690 0.000 0.690 srgb} bind def
/col23 {0.820 0.000 0.820 srgb} bind def
/col24 {0.500 0.190 0.000 srgb} bind def
/col25 {0.630 0.250 0.000 srgb} bind def
/col26 {0.750 0.380 0.000 srgb} bind def
/col27 {1.000 0.500 0.500 srgb} bind def
/col28 {1.000 0.630 0.630 srgb} bind def
/col29 {1.000 0.750 0.750 srgb} bind def
/col30 {1.000 0.880 0.880 srgb} bind def
/col31 {1.000 0.840 0.000 srgb} bind def

end
save
-286.0 325.0 translate
1 -1 scale

/cp {closepath} bind def
/ef {eofill} bind def
/gr {grestore} bind def
/gs {gsave} bind def
/sa {save} bind def
/rs {restore} bind def
/l {lineto} bind def
/m {moveto} bind def
/rm {rmoveto} bind def
/n {newpath} bind def
/s {stroke} bind def
/sh {show} bind def
/slc {setlinecap} bind def
/slj {setlinejoin} bind def
/slw {setlinewidth} bind def
/srgb {setrgbcolor} bind def
/rot {rotate} bind def
/sc {scale} bind def
/sd {setdash} bind def
/ff {findfont} bind def
/sf {setfont} bind def
/scf {scalefont} bind def
/sw {stringwidth} bind def
/tr {translate} bind def
/tnt {dup dup currentrgbcolor
  4 -2 roll dup 1 exch sub 3 -1 roll mul add
  4 -2 roll dup 1 exch sub 3 -1 roll mul add
  4 -2 roll dup 1 exch sub 3 -1 roll mul add srgb}
  bind def
/shd {dup dup currentrgbcolor 4 -2 roll mul 4 -2 roll mul
  4 -2 roll mul srgb} bind def
/$F2psBegin {$F2psDict begin /$F2psEnteredState save def} def
/$F2psEnd {$F2psEnteredState restore end} def
%%EndProlog

$F2psBegin
10 setmiterlimit
n -1000 6412 m -1000 -1000 l 22183 -1000 l 22183 6412 l cp clip
 0.06000 0.06000 sc
/Times-Roman ff 240.00 scf sf
21000 4754 m
gs 1 -1 sc (0) col0 sh gr
% Arc
7.500 slw
gs  [60] 0 sd
n 15600.0 7883.6 5979.6 -145.9 -34.1 arc
gs col0 s gr
 gr
 [] 0 sd
% Polyline
30.000 slw
 [90] 0 sd
n 7200 2729 m 7200 4229 l gs col0 s gr  [] 0 sd
% Polyline
7.500 slw
n 5775 4350 m 5775 5400 l gs col0 s gr 
% Polyline
n 8625 4350 m 8625 5400 l gs col0 s gr 
% Polyline
n 5925 4350 m 5925 5025 l gs col0 s gr 
% Polyline
gs  clippath
5631 4695 m 5775 4725 l 5631 4755 l 5790 4755 l 5790 4695 l cp
clip
n 5100 4725 m 5775 4725 l gs col0 s gr gr

% arrowhead
n 5631 4695 m 5775 4725 l 5631 4755 l 5655 4725 l 5631 4695 l  cp gs 0.00 setgray ef gr  col0 s
% Polyline
gs  clippath
6069 4755 m 5925 4725 l 6069 4695 l 5910 4695 l 5910 4755 l cp
clip
n 5925 4725 m 6600 4725 l gs col0 s gr gr

% arrowhead
n 6069 4755 m 5925 4725 l 6069 4695 l 6045 4725 l 6069 4755 l  cp gs 0.00 setgray ef gr  col0 s
% Polyline
gs  clippath
5631 5220 m 5775 5250 l 5631 5280 l 5790 5280 l 5790 5220 l cp
clip
n 5100 5250 m 5775 5250 l gs col0 s gr gr

% arrowhead
n 5631 5220 m 5775 5250 l 5631 5280 l 5655 5250 l 5631 5220 l  cp gs 0.00 setgray ef gr  col0 s
% Polyline
gs  clippath
8769 5280 m 8625 5250 l 8769 5220 l 8610 5220 l 8610 5280 l cp
clip
n 8625 5250 m 9300 5250 l gs col0 s gr gr

% arrowhead
n 8769 5280 m 8625 5250 l 8769 5220 l 8745 5250 l 8769 5280 l  cp gs 0.00 setgray ef gr  col0 s
% Polyline
15.000 slw
n 12000 3139 m 12001 3140 l 12005 3144 l 12010 3149 l 12018 3158 l 12028 3169 l
 12040 3183 l 12054 3199 l 12067 3216 l 12081 3235 l 12094 3254 l
 12106 3275 l 12117 3298 l 12127 3323 l 12137 3351 l 12146 3382 l
 12151 3402 l 12156 3424 l 12162 3447 l 12167 3472 l 12172 3499 l
 12177 3528 l 12183 3558 l 12188 3590 l 12194 3623 l 12199 3657 l
 12205 3692 l 12210 3728 l 12216 3764 l 12221 3801 l 12227 3837 l
 12232 3873 l 12238 3909 l 12243 3944 l 12248 3978 l 12254 4011 l
 12259 4043 l 12264 4073 l 12268 4101 l 12273 4128 l 12278 4152 l
 12282 4175 l 12286 4197 l 12290 4216 l 12297 4250 l 12304 4278 l
 12310 4301 l 12316 4320 l 12321 4334 l 12325 4346 l 12330 4356 l
 12334 4366 l 12339 4374 l 12343 4384 l 12348 4393 l 12353 4404 l
 12358 4415 l 12363 4425 l 12370 4438 l 12378 4448 l 12385 4457 l
 12393 4465 l 12400 4473 l 12407 4479 l 12415 4485 l 12422 4489 l
 12430 4493 l 12437 4494 l 12444 4493 l 12452 4489 l 12459 4485 l
 12466 4479 l 12474 4473 l 12481 4465 l 12488 4457 l 12496 4448 l
 12503 4438 l 12510 4425 l 12515 4414 l 12521 4401 l 12527 4386 l
 12533 4367 l 12540 4346 l 12547 4323 l 12555 4300 l 12562 4276 l
 12569 4256 l 12574 4239 l 12578 4227 l 12580 4219 l 12581 4216 l gs col0 s gr 
% Polyline
n 12581 4216 m 12581 4215 l 12584 4212 l 12589 4203 l 12597 4190 l 12608 4174 l
 12619 4158 l 12629 4143 l 12638 4130 l 12647 4120 l 12654 4112 l
 12663 4104 l 12672 4098 l 12682 4093 l 12691 4088 l 12700 4084 l
 12710 4080 l 12719 4078 l 12728 4077 l 12737 4078 l 12746 4080 l
 12755 4084 l 12764 4088 l 12773 4093 l 12782 4098 l 12791 4104 l
 12800 4112 l 12807 4120 l 12815 4130 l 12825 4143 l 12835 4158 l
 12846 4174 l 12856 4190 l 12864 4203 l 12869 4212 l 12872 4215 l
 12872 4216 l gs col0 s gr 
% Polyline
n 12872 4216 m 12875 4219 l 12880 4224 l 12889 4233 l 12899 4243 l 12910 4254 l
 12921 4265 l 12930 4273 l 12939 4280 l 12946 4286 l 12955 4292 l
 12964 4298 l 12973 4303 l 12983 4308 l 12992 4313 l 13001 4317 l
 13010 4320 l 13019 4321 l 13028 4320 l 13037 4317 l 13046 4313 l
 13055 4308 l 13063 4303 l 13072 4298 l 13081 4292 l 13090 4286 l
 13097 4280 l 13105 4273 l 13115 4265 l 13125 4254 l 13136 4243 l
 13146 4233 l 13155 4224 l 13160 4219 l 13163 4216 l gs col0 s gr 
% Polyline
n 11419 4216 m 11419 4215 l 11416 4212 l 11411 4203 l 11403 4190 l 11392 4174 l
 11381 4158 l 11371 4143 l 11362 4130 l 11353 4120 l 11346 4112 l
 11337 4104 l 11328 4098 l 11318 4093 l 11309 4088 l 11300 4084 l
 11290 4080 l 11281 4078 l 11272 4077 l 11263 4078 l 11254 4080 l
 11245 4084 l 11236 4088 l 11227 4093 l 11218 4098 l 11209 4104 l
 11200 4112 l 11193 4120 l 11185 4130 l 11175 4143 l 11165 4158 l
 11154 4174 l 11144 4190 l 11136 4203 l 11131 4212 l 11128 4215 l
 11128 4216 l gs col0 s gr 
% Polyline
n 11128 4216 m 11125 4219 l 11120 4224 l 11111 4233 l 11101 4243 l 11090 4254 l
 11079 4265 l 11070 4273 l 11061 4280 l 11054 4286 l 11045 4292 l
 11036 4298 l 11027 4303 l 11017 4308 l 11008 4313 l 10999 4317 l
 10990 4320 l 10981 4321 l 10972 4320 l 10963 4317 l 10954 4313 l
 10946 4308 l 10937 4303 l 10928 4298 l 10919 4292 l 10910 4286 l
 10903 4280 l 10895 4273 l 10885 4265 l 10875 4254 l 10864 4243 l
 10854 4233 l 10845 4224 l 10840 4219 l 10837 4216 l gs col0 s gr 
% Polyline
n 15019 4229 m 15018 4225 l 15016 4218 l 15012 4205 l 15006 4186 l 15000 4164 l
 14992 4139 l 14984 4113 l 14977 4089 l 14970 4066 l 14963 4046 l
 14957 4030 l 14951 4016 l 14946 4004 l 14939 3990 l 14931 3979 l
 14924 3969 l 14916 3960 l 14909 3952 l 14902 3945 l 14894 3939 l
 14887 3934 l 14879 3930 l 14872 3929 l 14865 3930 l 14857 3934 l
 14850 3939 l 14843 3945 l 14836 3952 l 14829 3960 l 14822 3969 l
 14814 3979 l 14807 3990 l 14800 4004 l 14795 4016 l 14789 4030 l
 14783 4046 l 14777 4066 l 14770 4089 l 14762 4113 l 14754 4139 l
 14747 4164 l 14740 4186 l 14735 4205 l 14731 4218 l 14729 4225 l
 14728 4229 l gs col0 s gr 
% Polyline
n 14728 4229 m 14728 4230 l 14726 4233 l 14723 4240 l 14717 4252 l 14710 4269 l
 14701 4288 l 14692 4307 l 14683 4326 l 14674 4343 l 14667 4357 l
 14660 4369 l 14654 4379 l 14647 4390 l 14639 4399 l 14632 4409 l
 14625 4418 l 14617 4427 l 14610 4435 l 14603 4443 l 14595 4449 l
 14588 4453 l 14581 4454 l 14574 4453 l 14567 4449 l 14560 4443 l
 14553 4435 l 14546 4427 l 14538 4418 l 14531 4409 l 14524 4399 l
 14517 4390 l 14510 4379 l 14504 4369 l 14497 4357 l 14490 4343 l
 14482 4326 l 14473 4307 l 14464 4288 l 14455 4269 l 14448 4252 l
 14442 4240 l 14439 4233 l 14437 4230 l 14437 4229 l gs col0 s gr 
% Polyline
n 15600 1904 m 15599 1905 l 15598 1908 l 15596 1913 l 15592 1921 l 15587 1932 l
 15581 1947 l 15574 1964 l 15565 1985 l 15556 2008 l 15546 2033 l
 15536 2060 l 15526 2088 l 15517 2118 l 15507 2149 l 15498 2182 l
 15490 2216 l 15482 2252 l 15474 2291 l 15467 2333 l 15461 2379 l
 15454 2429 l 15451 2457 l 15447 2487 l 15444 2519 l 15440 2552 l
 15437 2587 l 15433 2624 l 15430 2662 l 15426 2702 l 15423 2744 l
 15419 2787 l 15415 2831 l 15412 2877 l 15408 2924 l 15404 2973 l
 15401 3022 l 15397 3073 l 15393 3124 l 15390 3175 l 15386 3227 l
 15382 3280 l 15379 3333 l 15375 3385 l 15371 3438 l 15368 3490 l
 15364 3541 l 15360 3592 l 15357 3642 l 15353 3692 l 15350 3740 l
 15346 3787 l 15343 3833 l 15340 3877 l 15336 3920 l 15333 3961 l
 15330 4000 l 15327 4038 l 15324 4074 l 15321 4109 l 15318 4141 l
 15315 4172 l 15313 4201 l 15310 4229 l 15305 4282 l 15300 4328 l
 15295 4369 l 15291 4404 l 15287 4434 l 15283 4459 l 15280 4481 l
 15277 4500 l 15273 4516 l 15270 4531 l 15267 4545 l 15264 4559 l
 15261 4572 l 15258 4586 l 15255 4600 l 15251 4615 l 15248 4631 l
 15244 4647 l 15241 4663 l 15237 4679 l 15231 4702 l 15225 4722 l
 15219 4739 l 15212 4755 l 15206 4769 l 15200 4782 l 15194 4794 l
 15188 4805 l 15181 4814 l 15175 4822 l 15169 4827 l 15163 4829 l
 15157 4827 l 15151 4822 l 15145 4814 l 15139 4805 l 15132 4794 l
 15126 4782 l 15120 4769 l 15114 4755 l 15108 4739 l 15102 4722 l
 15096 4702 l 15090 4679 l 15086 4663 l 15083 4645 l 15079 4625 l
 15075 4601 l 15070 4575 l 15066 4546 l 15061 4514 l 15056 4480 l
 15050 4445 l 15045 4409 l 15040 4374 l 15035 4340 l 15031 4310 l
 15027 4284 l 15024 4263 l 15022 4248 l 15020 4237 l 15019 4232 l
 15019 4229 l gs col0 s gr 
% Polyline
n 15600 1904 m 15601 1905 l 15602 1908 l 15604 1913 l 15608 1921 l 15613 1932 l
 15619 1947 l 15626 1964 l 15635 1985 l 15644 2008 l 15654 2033 l
 15664 2060 l 15674 2088 l 15683 2118 l 15693 2149 l 15702 2182 l
 15710 2216 l 15718 2252 l 15726 2291 l 15733 2333 l 15739 2379 l
 15746 2429 l 15749 2457 l 15753 2487 l 15756 2519 l 15760 2552 l
 15763 2587 l 15767 2624 l 15770 2662 l 15774 2702 l 15777 2744 l
 15781 2787 l 15785 2831 l 15788 2877 l 15792 2924 l 15796 2973 l
 15799 3022 l 15803 3073 l 15807 3124 l 15810 3175 l 15814 3227 l
 15818 3280 l 15821 3333 l 15825 3385 l 15829 3438 l 15832 3490 l
 15836 3541 l 15840 3592 l 15843 3642 l 15847 3692 l 15850 3740 l
 15854 3787 l 15857 3833 l 15860 3877 l 15864 3920 l 15867 3961 l
 15870 4000 l 15873 4038 l 15876 4074 l 15879 4109 l 15882 4141 l
 15885 4172 l 15887 4201 l 15890 4229 l 15895 4282 l 15900 4328 l
 15905 4369 l 15909 4404 l 15913 4434 l 15917 4459 l 15920 4481 l
 15923 4500 l 15927 4516 l 15930 4531 l 15933 4545 l 15936 4559 l
 15939 4572 l 15942 4586 l 15945 4600 l 15949 4615 l 15952 4631 l
 15956 4647 l 15959 4663 l 15963 4679 l 15969 4702 l 15975 4722 l
 15981 4739 l 15988 4755 l 15994 4769 l 16000 4782 l 16006 4794 l
 16012 4805 l 16019 4814 l 16025 4822 l 16031 4827 l 16037 4829 l
 16043 4827 l 16049 4822 l 16055 4814 l 16061 4805 l 16068 4794 l
 16074 4782 l 16080 4769 l 16086 4755 l 16092 4739 l 16098 4722 l
 16104 4702 l 16110 4679 l 16114 4663 l 16117 4645 l 16121 4625 l
 16125 4601 l 16130 4575 l 16134 4546 l 16139 4514 l 16144 4480 l
 16150 4445 l 16155 4409 l 16160 4374 l 16165 4340 l 16169 4310 l
 16173 4284 l 16176 4263 l 16178 4248 l 16180 4237 l 16181 4232 l
 16181 4229 l gs col0 s gr 
% Polyline
n 16181 4229 m 16182 4225 l 16184 4218 l 16188 4205 l 16194 4186 l 16200 4164 l
 16208 4139 l 16216 4113 l 16223 4089 l 16230 4066 l 16237 4046 l
 16243 4030 l 16249 4016 l 16254 4004 l 16261 3990 l 16269 3979 l
 16276 3969 l 16284 3960 l 16291 3952 l 16298 3945 l 16306 3939 l
 16313 3934 l 16321 3930 l 16328 3929 l 16335 3930 l 16343 3934 l
 16350 3939 l 16357 3945 l 16364 3952 l 16371 3960 l 16378 3969 l
 16386 3979 l 16393 3990 l 16400 4004 l 16405 4016 l 16411 4030 l
 16417 4046 l 16423 4066 l 16430 4089 l 16438 4113 l 16446 4139 l
 16453 4164 l 16460 4186 l 16465 4205 l 16469 4218 l 16471 4225 l
 16472 4229 l gs col0 s gr 
% Polyline
n 16472 4229 m 16472 4230 l 16474 4233 l 16477 4240 l 16483 4252 l 16490 4269 l
 16499 4288 l 16508 4307 l 16517 4326 l 16526 4343 l 16533 4357 l
 16540 4369 l 16546 4379 l 16553 4390 l 16561 4399 l 16568 4409 l
 16575 4418 l 16583 4427 l 16590 4435 l 16597 4443 l 16605 4449 l
 16612 4453 l 16619 4454 l 16626 4453 l 16633 4449 l 16640 4443 l
 16647 4435 l 16655 4427 l 16662 4418 l 16669 4409 l 16676 4399 l
 16683 4390 l 16690 4379 l 16696 4369 l 16703 4357 l 16710 4343 l
 16718 4326 l 16727 4307 l 16736 4288 l 16745 4269 l 16752 4252 l
 16758 4240 l 16761 4233 l 16763 4230 l 16763 4229 l gs col0 s gr 
% Polyline
n 18328 4216 m 18325 4219 l 18320 4224 l 18311 4233 l 18301 4243 l 18290 4254 l
 18279 4265 l 18270 4273 l 18261 4280 l 18254 4286 l 18245 4292 l
 18236 4298 l 18227 4303 l 18217 4308 l 18208 4313 l 18199 4317 l
 18190 4320 l 18181 4321 l 18172 4320 l 18163 4317 l 18154 4313 l
 18146 4308 l 18137 4303 l 18128 4298 l 18119 4292 l 18110 4286 l
 18103 4280 l 18095 4273 l 18085 4265 l 18075 4254 l 18064 4243 l
 18054 4233 l 18045 4224 l 18040 4219 l 18037 4216 l gs col0 s gr 
% Polyline
n 18619 4216 m 18619 4215 l 18616 4212 l 18611 4203 l 18603 4190 l 18592 4174 l
 18581 4158 l 18571 4143 l 18562 4130 l 18553 4120 l 18546 4112 l
 18537 4104 l 18528 4098 l 18518 4093 l 18509 4088 l 18500 4084 l
 18490 4080 l 18481 4078 l 18472 4077 l 18463 4078 l 18454 4080 l
 18445 4084 l 18436 4088 l 18427 4093 l 18418 4098 l 18409 4104 l
 18400 4112 l 18393 4120 l 18385 4130 l 18375 4143 l 18365 4158 l
 18354 4174 l 18344 4190 l 18336 4203 l 18331 4212 l 18328 4215 l
 18328 4216 l gs col0 s gr 
% Polyline
n 19200 3139 m 19199 3140 l 19195 3144 l 19190 3149 l 19182 3158 l 19172 3169 l
 19160 3183 l 19146 3199 l 19133 3216 l 19119 3235 l 19106 3254 l
 19094 3275 l 19083 3298 l 19073 3323 l 19063 3351 l 19054 3382 l
 19049 3402 l 19044 3424 l 19038 3447 l 19033 3472 l 19028 3499 l
 19023 3528 l 19017 3558 l 19012 3590 l 19006 3623 l 19001 3657 l
 18995 3692 l 18990 3728 l 18984 3764 l 18979 3801 l 18973 3837 l
 18968 3873 l 18962 3909 l 18957 3944 l 18952 3978 l 18946 4011 l
 18941 4043 l 18936 4073 l 18932 4101 l 18927 4128 l 18922 4152 l
 18918 4175 l 18914 4197 l 18910 4216 l 18903 4250 l 18896 4278 l
 18890 4301 l 18884 4320 l 18879 4334 l 18875 4346 l 18870 4356 l
 18866 4366 l 18861 4374 l 18857 4384 l 18852 4393 l 18847 4404 l
 18842 4415 l 18837 4425 l 18830 4438 l 18822 4448 l 18815 4457 l
 18807 4465 l 18800 4473 l 18793 4479 l 18785 4485 l 18778 4489 l
 18770 4493 l 18763 4494 l 18756 4493 l 18748 4489 l 18741 4485 l
 18734 4479 l 18726 4473 l 18719 4465 l 18712 4457 l 18704 4448 l
 18697 4438 l 18690 4425 l 18685 4414 l 18679 4401 l 18673 4386 l
 18667 4367 l 18660 4346 l 18653 4323 l 18645 4300 l 18638 4276 l
 18631 4256 l 18626 4239 l 18622 4227 l 18620 4219 l 18619 4216 l gs col0 s gr 
% Polyline
n 19200 3139 m 19201 3140 l 19205 3144 l 19210 3149 l 19218 3158 l 19228 3169 l
 19240 3183 l 19254 3199 l 19267 3216 l 19281 3235 l 19294 3254 l
 19306 3275 l 19317 3298 l 19327 3323 l 19337 3351 l 19346 3382 l
 19351 3402 l 19356 3424 l 19362 3447 l 19367 3472 l 19372 3499 l
 19377 3528 l 19383 3558 l 19388 3590 l 19394 3623 l 19399 3657 l
 19405 3692 l 19410 3728 l 19416 3764 l 19421 3801 l 19427 3837 l
 19432 3873 l 19438 3909 l 19443 3944 l 19448 3978 l 19454 4011 l
 19459 4043 l 19464 4073 l 19468 4101 l 19473 4128 l 19478 4152 l
 19482 4175 l 19486 4197 l 19490 4216 l 19497 4250 l 19504 4278 l
 19510 4301 l 19516 4320 l 19521 4334 l 19525 4346 l 19530 4356 l
 19534 4366 l 19539 4374 l 19543 4384 l 19548 4393 l 19553 4404 l
 19558 4415 l 19563 4425 l 19570 4438 l 19578 4448 l 19585 4457 l
 19593 4465 l 19600 4473 l 19607 4479 l 19615 4485 l 19622 4489 l
 19630 4493 l 19637 4494 l 19644 4493 l 19652 4489 l 19659 4485 l
 19666 4479 l 19674 4473 l 19681 4465 l 19688 4457 l 19696 4448 l
 19703 4438 l 19710 4425 l 19715 4414 l 19721 4401 l 19727 4386 l
 19733 4367 l 19740 4346 l 19747 4323 l 19755 4300 l 19762 4276 l
 19769 4256 l 19774 4239 l 19778 4227 l 19780 4219 l 19781 4216 l gs col0 s gr 
% Polyline
n 19781 4216 m 19781 4215 l 19784 4212 l 19789 4203 l 19797 4190 l 19808 4174 l
 19819 4158 l 19829 4143 l 19838 4130 l 19847 4120 l 19854 4112 l
 19863 4104 l 19872 4098 l 19882 4093 l 19891 4088 l 19900 4084 l
 19910 4080 l 19919 4078 l 19928 4077 l 19937 4078 l 19946 4080 l
 19955 4084 l 19964 4088 l 19973 4093 l 19982 4098 l 19991 4104 l
 20000 4112 l 20007 4120 l 20015 4130 l 20025 4143 l 20035 4158 l
 20046 4174 l 20056 4190 l 20064 4203 l 20069 4212 l 20072 4215 l
 20072 4216 l gs col0 s gr 
% Polyline
n 20072 4216 m 20075 4219 l 20080 4224 l 20089 4233 l 20099 4243 l 20110 4254 l
 20121 4265 l 20130 4273 l 20139 4280 l 20146 4286 l 20155 4292 l
 20164 4298 l 20173 4303 l 20183 4308 l 20192 4313 l 20201 4317 l
 20210 4320 l 20219 4321 l 20228 4320 l 20237 4317 l 20246 4313 l
 20255 4308 l 20263 4303 l 20272 4298 l 20281 4292 l 20290 4286 l
 20297 4280 l 20305 4273 l 20315 4265 l 20325 4254 l 20336 4243 l
 20346 4233 l 20355 4224 l 20360 4219 l 20363 4216 l gs col0 s gr 
/Times-Roman ff 240.00 scf sf
9375 4679 m
gs 1 -1 sc (1) col0 sh gr
/Times-Roman ff 270.00 scf sf
15750 1679 m
gs 1 -1 sc (A) col0 sh gr
/Times-Roman ff 270.00 scf sf
7350 1829 m
gs 1 -1 sc (A) col0 sh gr
/Times-Italic ff 360.00 scf sf
4800 5400 m
gs 1 -1 sc (D) col0 sh gr
/Times-Italic ff 360.00 scf sf
4800 4875 m
gs 1 -1 sc (d) col0 sh gr
/Times-Roman ff 360.00 scf sf
19200 5250 m
gs 1 -1 sc (Grating lobe) dup sw pop 2 div neg 0 rm  col0 sh gr
/Times-Roman ff 360.00 scf sf
15600 5250 m
gs 1 -1 sc (Main lobe) dup sw pop 2 div neg 0 rm  col0 sh gr
/Times-Roman ff 480.00 scf sf
20850 4679 m
gs 1 -1 sc (x) dup sw pop 2 div neg 0 rm  col0 sh gr
% Polyline
7.500 slw
n 7125 4208 m 7125 2676 l 7275 2676 l 7275 4208 l gs col0 s gr 
% Polyline
n 6900 4208 m 6900 2676 l 7050 2676 l 7050 4208 l gs col0 s gr 
% Polyline
n 6675 4208 m 6675 2676 l 6825 2676 l 6825 4208 l gs col0 s gr 
% Polyline
n 6450 4208 m 6450 2676 l 6600 2676 l 6600 4208 l gs col0 s gr 
% Polyline
n 6225 4208 m 6225 2676 l 6375 2676 l 6375 4208 l gs col0 s gr 
% Polyline
n 6000 4208 m 6000 2676 l 6150 2676 l 6150 4208 l gs col0 s gr 
% Polyline
n 5775 4208 m 5775 2676 l 5925 2676 l 5925 4208 l gs col0 s gr 
% Polyline
n 7350 4208 m 7350 2676 l 7500 2676 l 7500 4208 l gs col0 s gr 
% Polyline
n 7575 4208 m 7575 2676 l 7725 2676 l 7725 4208 l gs col0 s gr 
% Polyline
n 7800 4208 m 7800 2676 l 7950 2676 l 7950 4208 l gs col0 s gr 
% Polyline
n 8025 4208 m 8025 2676 l 8175 2676 l 8175 4208 l gs col0 s gr 
% Polyline
n 8250 4208 m 8250 2676 l 8400 2676 l 8400 4208 l gs col0 s gr 
% Polyline
n 8475 4208 m 8475 2676 l 8625 2676 l 8625 4208 l gs col0 s gr 
% Polyline
30.000 slw
gs  clippath
9309 4199 m 9452 4229 l 9309 4259 l 9645 4259 l 9645 4199 l cp
5091 4259 m 4947 4229 l 5091 4199 l 4755 4199 l 4755 4259 l cp
clip
n 4800 4229 m 9600 4229 l gs col0 s gr gr

% arrowhead
60.000 slw
n 5091 4259 m 4947 4229 l 5091 4199 l 5067 4229 l 5091 4259 l  cp gs 0.00 setgray ef gr  col0 s
% arrowhead
n 9309 4199 m 9452 4229 l 9309 4259 l 9333 4229 l 9309 4199 l  cp gs 0.00 setgray ef gr  col0 s
% Polyline
30.000 slw
gs  clippath
20859 4199 m 21002 4229 l 20859 4259 l 21195 4259 l 21195 4199 l cp
10341 4259 m 10197 4229 l 10341 4199 l 10005 4199 l 10005 4259 l cp
clip
n 10050 4229 m 21150 4229 l gs col0 s gr gr

% arrowhead
60.000 slw
n 10341 4259 m 10197 4229 l 10341 4199 l 10317 4229 l 10341 4259 l  cp gs 0.00 setgray ef gr  col0 s
% arrowhead
n 20859 4199 m 21002 4229 l 20859 4259 l 20883 4229 l 20859 4199 l  cp gs 0.00 setgray ef gr  col0 s
% Polyline
30.000 slw
gs  clippath
15570 1595 m 15600 1451 l 15630 1595 l 15630 1259 l 15570 1259 l cp
clip
n 15600 1304 m 15600 4229 l gs col0 s gr gr

% arrowhead
60.000 slw
n 15570 1595 m 15600 1451 l 15630 1595 l 15600 1571 l 15570 1595 l  cp gs 0.00 setgray ef gr  col0 s
% Polyline
30.000 slw
gs  clippath
7170 1745 m 7200 1601 l 7230 1745 l 7230 1409 l 7170 1409 l cp
clip
n 7200 1454 m 7200 2729 l gs col0 s gr gr

% arrowhead
60.000 slw
n 7170 1745 m 7200 1601 l 7230 1745 l 7200 1721 l 7170 1745 l  cp gs 0.00 setgray ef gr  col0 s
% Polyline
15.000 slw
n 12000 3139 m 11999 3140 l 11995 3144 l 11990 3149 l 11982 3158 l 11972 3169 l
 11960 3183 l 11946 3199 l 11933 3216 l 11919 3235 l 11906 3254 l
 11894 3275 l 11883 3298 l 11873 3323 l 11863 3351 l 11854 3382 l
 11849 3402 l 11844 3424 l 11838 3447 l 11833 3472 l 11828 3499 l
 11823 3528 l 11817 3558 l 11812 3590 l 11806 3623 l 11801 3657 l
 11795 3692 l 11790 3728 l 11784 3764 l 11779 3801 l 11773 3837 l
 11768 3873 l 11762 3909 l 11757 3944 l 11752 3978 l 11746 4011 l
 11741 4043 l 11736 4073 l 11732 4101 l 11727 4128 l 11722 4152 l
 11718 4175 l 11714 4197 l 11710 4216 l 11703 4250 l 11696 4278 l
 11690 4301 l 11684 4320 l 11679 4334 l 11675 4346 l 11670 4356 l
 11666 4366 l 11661 4374 l 11657 4384 l 11652 4393 l 11647 4404 l
 11642 4415 l 11637 4425 l 11630 4438 l 11622 4448 l 11615 4457 l
 11607 4465 l 11600 4473 l 11593 4479 l 11585 4485 l 11578 4489 l
 11570 4493 l 11563 4494 l 11556 4493 l 11548 4489 l 11541 4485 l
 11534 4479 l 11526 4473 l 11519 4465 l 11512 4457 l 11504 4448 l
 11497 4438 l 11490 4425 l 11485 4414 l 11479 4401 l 11473 4386 l
 11467 4367 l 11460 4346 l 11453 4323 l 11445 4300 l 11438 4276 l
 11431 4256 l 11426 4239 l 11422 4227 l 11420 4219 l 11419 4216 l gs col0 s gr 
/Times-Roman ff 480.00 scf sf
9225 4604 m
gs 1 -1 sc (x) dup sw pop 2 div neg 0 rm  col0 sh gr
$F2psEnd
rs
