%!PS-Adobe-2.0 EPSF-1.2
%%Creator: MATLAB, The Mathworks, Inc.
%%Title: line_2d.eps
%%CreationDate: 08/03/99  16:05:58
%%DocumentNeededFonts: Helvetica
%%+ Times-Roman
%%DocumentProcessColors: Cyan Magenta Yellow Black
%%Pages: 1
%%BoundingBox:    80   317   552   535
%%EndComments

%%BeginProlog

% MathWorks dictionary
/MathWorks 160 dict begin

% definition operators
/bdef {bind def} bind def
/ldef {load def} bind def
/xdef {exch def} bdef
/xstore {exch store} bdef

% operator abbreviations
/c  /clip ldef
/cc /concat ldef
/cp /closepath ldef
/gr /grestore ldef
/gs /gsave ldef
/mt /moveto ldef
/np /newpath ldef
/cm /currentmatrix ldef
/sm /setmatrix ldef
/rc {rectclip} bdef
/rf {rectfill} bdef
/rm /rmoveto ldef
/rl /rlineto ldef
/s /show ldef
/sc {setcmykcolor} bdef
/sr /setrgbcolor ldef
/sg /setgray ldef
/w /setlinewidth ldef
/j /setlinejoin ldef
/cap /setlinecap ldef

% page state control
/pgsv () def
/bpage {/pgsv save def} bdef
/epage {pgsv restore} bdef
/bplot /gsave ldef
/eplot {stroke grestore} bdef

% orientation switch
/portraitMode 	0 def
/landscapeMode 	1 def

% coordinate system mappings
/dpi2point 0 def

% font control
/FontSize 0 def
/FMS {
	/FontSize xstore		%save size off stack
	findfont
	[FontSize 0 0 FontSize neg 0 0]
	makefont
	setfont
	}bdef

/reencode {
exch dup where
{pop load} {pop StandardEncoding} ifelse
exch
dup 3 1 roll
findfont dup length dict begin
  { 1 index /FID ne {def}{pop pop} ifelse } forall
  /Encoding exch def
  currentdict
end
definefont pop
} bdef

/isroman {
findfont /CharStrings get
/Agrave known
} bdef

/FMSR {
3 1 roll 1 index
dup isroman
{reencode} {pop pop} ifelse
exch FMS
} bdef

/csm {
	1 dpi2point div -1 dpi2point div scale
	neg translate
	landscapeMode eq {90 rotate} if
	} bdef

% line types: solid, dotted, dashed, dotdash
/SO { [] 0 setdash } bdef
/DO { [.5 dpi2point mul 4 dpi2point mul] 0 setdash } bdef
/DA { [6 dpi2point mul] 0 setdash } bdef
/DD { [.5 dpi2point mul 4 dpi2point mul 6 dpi2point mul 4 dpi2point mul] 0 setdash } bdef

% macros for lines and objects
/L {
	lineto
	stroke
	} bdef
/MP {
	3 1 roll moveto
	1 sub {rlineto} repeat
	} bdef
/AP {
	{rlineto} repeat
	} bdef
/PP {
	closepath eofill
	} bdef
/DP {
	closepath stroke
	} bdef
/MR {
	4 -2 roll moveto
	dup  0 exch rlineto
	exch 0 rlineto
	neg  0 exch rlineto
	closepath
	} bdef
/FR {
	MR stroke
	} bdef
/PR {
	MR fill
	} bdef
/L1i {
	{ currentfile picstr readhexstring pop } image
	} bdef

/tMatrix matrix def
/MakeOval {
	newpath
	tMatrix currentmatrix pop
	translate scale
	0 0 1 0 360 arc
	tMatrix setmatrix
	} bdef
/FO {
	MakeOval
	stroke
	} bdef
/PO {
	MakeOval
	fill
	} bdef

/PD {
	currentlinecap 1 setlinecap 3 1 roll 2 copy moveto lineto stroke setlinecap
	} bdef

/FA {
	newpath
	tMatrix currentmatrix pop
	translate scale
	0 0 1 5 -2 roll arc
	tMatrix setmatrix
	stroke
	} bdef
/PA {
	newpath
	tMatrix currentmatrix pop
	translate 0 0 moveto scale
	0 0 1 5 -2 roll arc
	closepath
	tMatrix setmatrix
	fill
	} bdef

/FAn {
	newpath
	tMatrix currentmatrix pop
	translate scale
	0 0 1 5 -2 roll arcn
	tMatrix setmatrix
	stroke
	} bdef
/PAn {
	newpath
	tMatrix currentmatrix pop
	translate 0 0 moveto scale
	0 0 1 5 -2 roll arcn
	closepath
	tMatrix setmatrix
	fill
	} bdef

/vradius 0 def
/hradius 0 def
/lry 0 def
/lrx 0 def
/uly 0 def
/ulx 0 def
/rad 0 def

/MRR {
	/vradius xdef
	/hradius xdef
	/lry xdef
	/lrx xdef
	/uly xdef
	/ulx xdef
	newpath
	tMatrix currentmatrix pop
	ulx hradius add uly vradius add translate
	hradius vradius scale
	0 0 1 180 270 arc 
	tMatrix setmatrix
	lrx hradius sub uly vradius add translate
	hradius vradius scale
	0 0 1 270 360 arc
	tMatrix setmatrix
	lrx hradius sub lry vradius sub translate
	hradius vradius scale
	0 0 1 0 90 arc
	tMatrix setmatrix
	ulx hradius add lry vradius sub translate
	hradius vradius scale
	0 0 1 90 180 arc
	tMatrix setmatrix
	closepath
	} bdef
/FRR {
	MRR stroke } bdef
/PRR {
	MRR fill } bdef

/MlrRR {
	/lry xdef
	/lrx xdef
	/uly xdef
	/ulx xdef
	/rad lry uly sub 2 div def
	newpath
	tMatrix currentmatrix pop
	ulx rad add uly rad add translate
	rad rad scale
	0 0 1 90 270 arc
	tMatrix setmatrix
	lrx rad sub lry rad sub translate
	rad rad scale
	0 0 1 270 90 arc
	tMatrix setmatrix
	closepath
	} bdef
/FlrRR {
	MlrRR stroke } bdef
/PlrRR {
	MlrRR fill } bdef

/MtbRR {
	/lry xdef
	/lrx xdef
	/uly xdef
	/ulx xdef
	/rad lrx ulx sub 2 div def
	newpath
	tMatrix currentmatrix pop
	ulx rad add uly rad add translate
	rad rad scale
	0 0 1 180 360 arc
	tMatrix setmatrix
	lrx rad sub lry rad sub translate
	rad rad scale
	0 0 1 0 180 arc
	tMatrix setmatrix
	closepath
	} bdef
/FtbRR {
	MtbRR stroke } bdef
/PtbRR {
	MtbRR fill } bdef

currentdict end def
%%EndProlog

%%BeginSetup
MathWorks begin

0 cap

end
%%EndSetup

%%Page: 1 1
%%BeginPageSetup
%%PageBoundingBox:    80   317   552   535
MathWorks begin
bpage
%%EndPageSetup

%%BeginObject: obj1
bplot

/dpi2point 12 def
portraitMode 0216 7344 csm

  751   921  5660  2610 MR c np
93 dict begin %Colortable dictionary
/c0 { 0 0 0 sr} bdef
/c1 { 1 1 1 sr} bdef
/c2 { 1 0 0 sr} bdef
/c3 { 0 1 0 sr} bdef
/c4 { 0 0 1 sr} bdef
/c5 { 1 1 0 sr} bdef
/c6 { 1 0 1 sr} bdef
/c7 { 0 1 1 sr} bdef
c0
1 j
1 sg
   0    0 6918 5185 PR
6 w
0 sg
%%IncludeResource: font Times-Roman
/Times-Roman /ISOLatin1Encoding 192 FMSR

2805 2581 mt 
(x) s
gs 0 1037 3459 3110 MR c np
9 -4 -750 -551 1615 3466 3 MP
PP
10 -4 -751 -551 1625 3462 3 MP
PP
-751 -551 10 -4 1615 3466 3 MP
PP
-751 -550 10 -5 1625 3462 3 MP
PP
10 -4 -751 -550 1645 3453 3 MP
PP
9 -5 -750 -550 1654 3449 3 MP
PP
-750 -550 9 -4 1645 3453 3 MP
PP
10 -4 -751 -551 1664 3445 3 MP
PP
-751 -551 10 -4 1654 3449 3 MP
PP
10 -4 -751 -550 1674 3440 3 MP
PP
-751 -550 10 -5 1664 3445 3 MP
PP
10 -4 -751 -550 1684 3436 3 MP
PP
-751 -550 10 -4 1674 3440 3 MP
PP
10 -5 -750 -550 1693 3432 3 MP
PP
-750 -550 9 -4 1684 3436 3 MP
PP
9 -4 -750 -551 1703 3428 3 MP
PP
-750 -551 10 -4 1693 3432 3 MP
PP
-751 -551 10 -4 1703 3428 3 MP
PP
10 -4 -751 -550 1723 3419 3 MP
PP
10 -4 -751 -550 1733 3415 3 MP
PP
-751 -550 10 -4 1723 3419 3 MP
PP
9 -5 -750 -550 1742 3411 3 MP
PP
-750 -550 9 -4 1733 3415 3 MP
PP
10 -4 -751 -551 1752 3407 3 MP
PP
-751 -551 10 -4 1742 3411 3 MP
PP
10 -4 -751 -550 1762 3402 3 MP
PP
-751 -550 10 -5 1752 3407 3 MP
PP
10 -4 -751 -550 1772 3398 3 MP
PP
-751 -550 10 -4 1762 3402 3 MP
PP
-750 -550 9 -4 1772 3398 3 MP
PP
9 -4 -750 -551 1791 3390 3 MP
PP
10 -4 -751 -551 1801 3386 3 MP
PP
-751 -551 10 -4 1791 3390 3 MP
PP
10 -4 -751 -550 1811 3381 3 MP
PP
-751 -550 10 -5 1801 3386 3 MP
PP
10 -4 -751 -550 1821 3377 3 MP
PP
-751 -550 10 -4 1811 3381 3 MP
PP
10 -5 -750 -550 1830 3373 3 MP
PP
-750 -550 9 -4 1821 3377 3 MP
PP
9 -4 -750 -551 1840 3369 3 MP
PP
-750 -551 10 -4 1830 3373 3 MP
PP
10 -4 -751 -550 1850 3364 3 MP
PP
-751 -550 10 -5 1840 3369 3 MP
PP
10 -4 -751 -550 1860 3360 3 MP
PP
-751 -550 10 -4 1850 3364 3 MP
PP
10 -5 -751 -550 1870 3356 3 MP
PP
-751 -550 10 -4 1860 3360 3 MP
PP
9 -4 -750 -551 1879 3352 3 MP
PP
-750 -551 9 -4 1870 3356 3 MP
PP
10 -4 -751 -551 1889 3348 3 MP
PP
-751 -551 10 -4 1879 3352 3 MP
PP
10 -4 -751 -550 1899 3343 3 MP
PP
-751 -550 10 -5 1889 3348 3 MP
PP
10 -4 -751 -550 1909 3339 3 MP
PP
-751 -550 10 -4 1899 3343 3 MP
PP
10 -5 -750 -550 1918 3335 3 MP
PP
-750 -550 9 -4 1909 3339 3 MP
PP
9 -4 -750 -551 1928 3331 3 MP
PP
-750 -551 10 -4 1918 3335 3 MP
PP
10 -4 -751 -550 1938 3326 3 MP
PP
-751 -550 10 -5 1928 3331 3 MP
PP
10 -4 -751 -550 1948 3322 3 MP
PP
-751 -550 10 -4 1938 3326 3 MP
PP
10 -5 -751 -550 1958 3318 3 MP
PP
-751 -550 10 -4 1948 3322 3 MP
PP
9 -4 -750 -551 1967 3314 3 MP
PP
-750 -551 9 -4 1958 3318 3 MP
PP
10 -4 -751 -551 1977 3310 3 MP
PP
-751 -551 10 -4 1967 3314 3 MP
PP
10 -4 -751 -550 1987 3305 3 MP
PP
-751 -550 10 -5 1977 3310 3 MP
PP
10 -4 -751 -550 1997 3301 3 MP
PP
-751 -550 10 -4 1987 3305 3 MP
PP
10 -5 -751 -550 2007 3297 3 MP
PP
-751 -550 10 -4 1997 3301 3 MP
PP
9 -4 -750 -551 2016 3293 3 MP
PP
-750 -551 9 -4 2007 3297 3 MP
PP
10 -4 -751 -550 2026 3288 3 MP
PP
-751 -550 10 -5 2016 3293 3 MP
PP
10 -4 -751 -550 2036 3284 3 MP
PP
-751 -550 10 -4 2026 3288 3 MP
PP
10 -5 -751 -550 2046 3280 3 MP
PP
-751 -550 10 -4 2036 3284 3 MP
PP
10 -4 -750 -551 2055 3276 3 MP
PP
-750 -551 9 -4 2046 3280 3 MP
PP
9 -4 -750 -551 2065 3272 3 MP
PP
-750 -551 10 -4 2055 3276 3 MP
PP
10 -4 -751 -550 2075 3267 3 MP
PP
-751 -550 10 -5 2065 3272 3 MP
PP
10 -4 -751 -550 2085 3263 3 MP
PP
-751 -550 10 -4 2075 3267 3 MP
PP
-751 -550 10 -4 2085 3263 3 MP
PP
10 -4 -751 -550 2114 3250 3 MP
PP
10 -4 -751 -550 2124 3246 3 MP
PP
-751 -550 10 -4 2114 3250 3 MP
PP
10 -5 -751 -550 2134 3242 3 MP
PP
-751 -550 10 -4 2124 3246 3 MP
PP
10 -4 -750 -551 2143 3238 3 MP
PP
-750 -551 9 -4 2134 3242 3 MP
PP
9 -4 -750 -551 2153 3234 3 MP
PP
-750 -551 10 -4 2143 3238 3 MP
PP
10 -4 -751 -550 2163 3229 3 MP
PP
-751 -550 10 -5 2153 3234 3 MP
PP
10 -4 -751 -550 2173 3225 3 MP
PP
-751 -550 10 -4 2163 3229 3 MP
PP
10 -5 -751 -550 2183 3221 3 MP
PP
-751 -550 10 -4 2173 3225 3 MP
PP
9 -4 -750 -551 2192 3217 3 MP
PP
-750 -551 9 -4 2183 3221 3 MP
PP
10 -4 -751 -550 2202 3212 3 MP
PP
-751 -550 10 -5 2192 3217 3 MP
PP
10 -4 -751 -550 2212 3208 3 MP
PP
-751 -550 10 -4 2202 3212 3 MP
PP
10 -5 -751 -550 2222 3204 3 MP
PP
-751 -550 10 -4 2212 3208 3 MP
PP
10 -4 -751 -551 2232 3200 3 MP
PP
-751 -551 10 -4 2222 3204 3 MP
PP
9 -4 -750 -551 2241 3196 3 MP
PP
-750 -551 9 -4 2232 3200 3 MP
PP
10 -4 -751 -550 2251 3191 3 MP
PP
-751 -550 10 -5 2241 3196 3 MP
PP
10 -4 -751 -550 2261 3187 3 MP
PP
-751 -550 10 -4 2251 3191 3 MP
PP
10 -5 -751 -550 2271 3183 3 MP
PP
-751 -550 10 -4 2261 3187 3 MP
PP
-750 -551 9 -4 2271 3183 3 MP
PP
9 -4 -750 -550 2290 3174 3 MP
PP
10 -4 -751 -550 2300 3170 3 MP
PP
-751 -550 10 -4 2290 3174 3 MP
PP
10 -5 -751 -550 2310 3166 3 MP
PP
-751 -550 10 -4 2300 3170 3 MP
PP
-751 -551 10 -4 2310 3166 3 MP
PP
9 -4 -750 -551 2329 3158 3 MP
PP
10 -4 -751 -550 2339 3153 3 MP
PP
-751 -550 10 -5 2329 3158 3 MP
PP
10 -4 -751 -550 2349 3149 3 MP
PP
-751 -550 10 -4 2339 3153 3 MP
PP
10 -5 -751 -550 2359 3145 3 MP
PP
-751 -550 10 -4 2349 3149 3 MP
PP
10 -4 -750 -551 2368 3141 3 MP
PP
-750 -551 9 -4 2359 3145 3 MP
PP
9 -4 -750 -550 2378 3136 3 MP
PP
-750 -550 10 -5 2368 3141 3 MP
PP
10 -4 -751 -550 2388 3132 3 MP
PP
-751 -550 10 -4 2378 3136 3 MP
PP
10 -5 -751 -550 2398 3128 3 MP
PP
-751 -550 10 -4 2388 3132 3 MP
PP
10 -4 -751 -551 2408 3124 3 MP
PP
-751 -551 10 -4 2398 3128 3 MP
PP
10 -4 -750 -551 2417 3120 3 MP
PP
-750 -551 9 -4 2408 3124 3 MP
PP
9 -4 -750 -550 2427 3115 3 MP
PP
-750 -550 10 -5 2417 3120 3 MP
PP
10 -4 -751 -550 2437 3111 3 MP
PP
-751 -550 10 -4 2427 3115 3 MP
PP
10 -5 -751 -550 2447 3107 3 MP
PP
-751 -550 10 -4 2437 3111 3 MP
PP
10 -4 -751 -551 2457 3103 3 MP
PP
-751 -551 10 -4 2447 3107 3 MP
PP
9 -4 -750 -550 2466 3098 3 MP
PP
-750 -550 9 -5 2457 3103 3 MP
PP
10 -4 -751 -550 2476 3094 3 MP
PP
-751 -550 10 -4 2466 3098 3 MP
PP
2480 3530 mt  978 2429 L
10 -5 -751 -550 2486 3090 3 MP
PP
-751 -550 10 -4 2476 3094 3 MP
PP
10 -4 -751 -551 2496 3086 3 MP
PP
-751 -551 10 -4 2486 3090 3 MP
PP
-750 -551 9 -4 2496 3086 3 MP
PP
9 -4 -750 -550 2515 3077 3 MP
PP
10 -4 -751 -550 2525 3073 3 MP
PP
-751 -550 10 -4 2515 3077 3 MP
PP
10 -5 -751 -550 2535 3069 3 MP
PP
-751 -550 10 -4 2525 3073 3 MP
PP
10 -4 -751 -551 2545 3065 3 MP
PP
-751 -551 10 -4 2535 3069 3 MP
PP
9 -4 -750 -550 2554 3060 3 MP
PP
-750 -550 9 -5 2545 3065 3 MP
PP
10 -4 -751 -550 2564 3056 3 MP
PP
-751 -550 10 -4 2554 3060 3 MP
PP
10 -5 -751 -550 2574 3052 3 MP
PP
-751 -550 10 -4 2564 3056 3 MP
PP
10 -4 -751 -551 2584 3048 3 MP
PP
-751 -551 10 -4 2574 3052 3 MP
PP
-751 -551 10 -4 2584 3048 3 MP
PP
 751 3402 mt 2707 2557 L
-750 -550 10 -5 2505 3082 3 MP
PP
10 -4 -750 -551 2505 3082 3 MP
PP
2480 3530 mt 2480 3530 L
gr

gs 0 1037 3459 3110 MR c np
-750 -551 9 -4 2320 3162 3 MP
PP
10 -4 -751 -551 2320 3162 3 MP
PP
-750 -550 10 -5 2280 3179 3 MP
PP
10 -4 -750 -551 2280 3179 3 MP
PP

% Quadrilateral Solid Rendering Routines
MathWorks begin
/X0 0 def /Y0 0 def /X1 0 def /Y1 0 def /X2 0 def /Y2 0 def
/AX 0 def /AY 0 def /CX 0 def /CY 0 def /DX 0 def /DY 0 def
/C30 0 def /C0 0 def /C10 0 def /C20 0 def /C4 0 def
/M 0 def /N 0 def
/min { 2 copy gt { exch } if pop } bdef
/max { 2 copy lt { exch } if pop } bdef
/triangle_xfd { /Y2 xdef /X2 xdef
          /Y1 xdef /X1 xdef /Y0 xdef /X0 xdef} bdef
/xfd {/AX X1 X0 sub def /AY Y1 Y0 sub def
/CX X2 X0 sub def /CY Y2 Y0 sub def
/DX X0 def /DY Y0 def} bdef
0 0 0 0 0 0 triangle_xfd xfd 
/triangle_cl {np DX DY mt AX AY rl CX AX sub CY AY sub rl cp c np} bdef
/triangle_tf {[ AX AY CX CY DX DY ] cc} bdef
/triangle_det { AX CY mul AY CX mul ne } bdef
/NI 16 def	% NI can be 4 (draft), 8 (medium) , or 16 (high-res)
/log2N NI log 2 log div neg cvi def
/N1 NI 1 sub def  /N2 NI NI mul def  /N21 N2 1 sub def
/CS 0.255 N1 div def  /C4S CS N1 div def
/quad_interp_cd {3 index 2 copy sub CS mul /C30 xdef 0.255 mul /C0 xdef
            4 2 roll 2 copy sub neg CS mul /C10 xdef
            sub sub sub C4S mul /C4 xdef} bdef
            0 0 0 0 quad_interp_cd
/quad_interp_fcn {cvi dup N1 and exch log2N bitshift 2 copy
  mul C4 mul exch C10 mul add exch C30 mul add C0 add cvi} bdef
/quad_interp_image{ 0 1 N21 { 1 index exch dup quad_interp_fcn put } for pop} bdef
/triangle_interp_cd {2 index sub CS mul /C20 xdef        1 index sub CS mul /C10 xdef        0.255 mul /C0 xdef} bdef
0 0 0 triangle_interp_cd
/triangle_interp_fcn {cvi dup N1 and exch log2N bitshift
     C20 mul exch C10 mul add C0 add cvi 
     dup 0 lt {pop 0} if dup 255 gt {pop 255} if} bdef
/triangle_interp_image{ 0 1 N21 { 1 index exch dup triangle_interp_fcn put } for pop} bdef
/read_image {currentfile exch readhexstring pop pop} bdef
/quad_im_str N2 string def  /intr_str N2 string def
/quad_img {N M 8 [ N 0 0 M 0 0 ] quad_im_str image} bdef
/triangle_render_g {gs xfd triangle_cl triangle_tf triangle_det { quad_img } if gr} bdef
/itg {/N NI def /M NI def /quad_im_str intr_str def
      triangle_interp_cd quad_im_str triangle_interp_image triangle_xfd triangle_render_g} bdef
/txg {/N xdef /M xdef triangle_xfd /quad_im_str N M mul string def 
      quad_im_str read_image triangle_render_g} bdef
end	% MathWorks dictionary
2104 2770 2114 3250 1363 2700 999 0 0 itg
2104 2770 1354 2219 1363 2700 999 999 0 itg
1729 2979 mt 1729 2010 L
2095 3259 2104 2770 1354 2219 0 999 999 itg
1729 2979 mt 1729 2979 L
2095 3259 1344 2709 1354 2219 0 0 999 itg
-750 -551 10 -4 1781 3394 3 MP
PP
10 -5 -750 -550 1781 3394 3 MP
PP
gr

%%IncludeResource: font Symbol
/Symbol /ISOLatin1Encoding 192 FMSR

1547 1691 mt 
(d) s
%%IncludeResource: font Times-Roman
/Times-Roman /ISOLatin1Encoding 192 FMSR

1641 1691 mt 
( \(x\)) s
gs 0 1037 3459 3110 MR c np
-751 -550 10 -5 1713 3424 3 MP
PP
10 -4 -751 -551 1713 3424 3 MP
PP
-751 -550 10 -4 1635 3457 3 MP
PP
10 -4 -751 -550 1635 3457 3 MP
PP
gr

 903 2440 mt 
(y) s
gs 0 1037 3459 3110 MR c np
 751 3402 mt  751 3402 L
gr

6263 2581 mt 
(u) s
gs 3459 1037 3458 3110 MR c np
978 -422 -7 -5 4338 2926 3 MP
PP
-7 -5 978 -422 4338 2926 3 MP
PP
978 -422 -8 -6 4346 2932 3 MP
PP
-8 -6 978 -422 4346 2932 3 MP
PP
978 -422 -8 -6 4361 2943 3 MP
PP
-8 -6 978 -422 4361 2943 3 MP
PP
978 -422 -7 -5 4368 2948 3 MP
PP
-7 -5 978 -422 4368 2948 3 MP
PP
978 -422 -8 -6 4376 2954 3 MP
PP
-8 -6 978 -422 4376 2954 3 MP
PP
978 -422 -7 -6 4383 2960 3 MP
PP
-7 -5 978 -423 4383 2960 3 MP
PP
978 -422 -7 -6 4398 2971 3 MP
PP
-7 -5 978 -423 4398 2971 3 MP
PP
978 -423 -8 -5 4406 2976 3 MP
PP
-8 -6 978 -422 4406 2976 3 MP
PP
978 -422 -7 -6 4413 2982 3 MP
PP
-7 -5 978 -423 4413 2982 3 MP
PP
978 -423 -8 -5 4421 2987 3 MP
PP
-8 -6 978 -422 4421 2987 3 MP
PP
978 -422 -7 -6 4428 2993 3 MP
PP
-7 -5 978 -423 4428 2993 3 MP
PP
978 -423 -8 -5 4436 2998 3 MP
PP
-8 -6 978 -422 4436 2998 3 MP
PP
978 -423 -8 -5 4451 3009 3 MP
PP
-8 -6 978 -422 4451 3009 3 MP
PP
978 -422 -7 -6 4458 3015 3 MP
PP
-7 -5 978 -423 4458 3015 3 MP
PP
978 -423 -8 -5 4466 3020 3 MP
PP
-8 -6 978 -422 4466 3020 3 MP
PP
978 -423 -8 -5 4481 3031 3 MP
PP
-8 -6 978 -422 4481 3031 3 MP
PP
978 -423 -8 -5 4496 3042 3 MP
PP
-8 -6 978 -422 4496 3042 3 MP
PP
978 -422 -7 -6 4503 3048 3 MP
PP
-7 -5 978 -423 4503 3048 3 MP
PP
978 -423 -8 -5 4511 3053 3 MP
PP
-8 -6 978 -422 4511 3053 3 MP
PP
978 -422 -7 -6 4518 3059 3 MP
PP
-7 -5 978 -423 4518 3059 3 MP
PP
978 -423 -8 -5 4541 3075 3 MP
PP
-8 -6 978 -422 4541 3075 3 MP
PP
978 -422 -7 -6 4548 3081 3 MP
PP
-7 -5 978 -423 4548 3081 3 MP
PP
978 -423 -8 -5 4556 3086 3 MP
PP
-8 -6 978 -422 4556 3086 3 MP
PP
978 -423 -8 -5 4571 3097 3 MP
PP
-8 -6 978 -422 4571 3097 3 MP
PP
978 -423 -8 -5 4601 3119 3 MP
PP
-8 -6 978 -422 4601 3119 3 MP
PP
978 -422 -7 -6 4608 3125 3 MP
PP
-7 -5 978 -423 4608 3125 3 MP
PP
978 -422 -7 -6 4623 3136 3 MP
PP
-7 -5 978 -423 4623 3136 3 MP
PP
978 -423 -8 -5 4631 3141 3 MP
PP
-8 -6 978 -422 4631 3141 3 MP
PP
978 -422 -7 -6 4638 3147 3 MP
PP
-7 -5 978 -423 4638 3147 3 MP
PP
978 -423 -8 -5 4646 3152 3 MP
PP
-8 -6 978 -422 4646 3152 3 MP
PP
978 -423 -8 -5 4661 3163 3 MP
PP
-8 -6 978 -422 4661 3163 3 MP
PP
979 -423 -8 -5 4691 3185 3 MP
PP
-7 -6 978 -422 4691 3185 3 MP
PP
978 -422 -7 -6 4713 3202 3 MP
PP
-8 -5 979 -423 4713 3202 3 MP
PP
979 -423 -8 -5 4721 3207 3 MP
PP
-7 -6 978 -422 4721 3207 3 MP
PP
978 -422 -8 -6 4744 3224 3 MP
PP
-8 -5 978 -423 4744 3224 3 MP
PP
978 -423 -7 -5 4751 3229 3 MP
PP
-7 -6 978 -422 4751 3229 3 MP
PP
978 -422 -8 -6 4774 3246 3 MP
PP
-8 -5 978 -423 4774 3246 3 MP
PP
978 -423 -7 -5 4781 3251 3 MP
PP
-7 -6 978 -422 4781 3251 3 MP
PP
978 -422 -8 -6 4789 3257 3 MP
PP
-8 -5 978 -423 4789 3257 3 MP
PP
978 -422 -8 -6 4804 3268 3 MP
PP
-8 -5 978 -423 4804 3268 3 MP
PP
978 -422 -8 -6 4834 3290 3 MP
PP
-8 -5 978 -423 4834 3290 3 MP
PP
978 -423 -7 -5 4841 3295 3 MP
PP
-7 -6 978 -422 4841 3295 3 MP
PP
978 -423 -7 -5 4856 3306 3 MP
PP
-7 -6 978 -422 4856 3306 3 MP
PP
978 -422 -8 -6 4864 3312 3 MP
PP
-8 -5 978 -423 4864 3312 3 MP
PP
978 -422 -8 -6 4894 3334 3 MP
PP
-8 -5 978 -423 4894 3334 3 MP
PP
978 -422 -8 -6 4924 3356 3 MP
PP
-8 -5 978 -423 4924 3356 3 MP
PP
978 -423 -7 -5 4931 3361 3 MP
PP
-7 -6 978 -422 4931 3361 3 MP
PP
978 -423 -7 -5 4946 3372 3 MP
PP
-7 -6 978 -422 4946 3372 3 MP
PP
978 -422 -8 -6 4954 3378 3 MP
PP
-8 -5 978 -423 4954 3378 3 MP
PP
-7 -6 978 -422 4961 3383 3 MP
PP
978 -423 -7 -5 4976 3394 3 MP
PP
-7 -6 978 -422 4976 3394 3 MP
PP
978 -423 -7 -5 4991 3405 3 MP
PP
-7 -6 978 -422 4991 3405 3 MP
PP
978 -423 -7 -5 5006 3416 3 MP
PP
-7 -6 978 -422 5006 3416 3 MP
PP
978 -422 -8 -6 5014 3422 3 MP
PP
-8 -5 978 -423 5014 3422 3 MP
PP
978 -422 -8 -6 5029 3433 3 MP
PP
-8 -5 978 -423 5029 3433 3 MP
PP
978 -422 -8 -6 5044 3444 3 MP
PP
-8 -6 978 -422 5044 3444 3 MP
PP
978 -422 -7 -5 5066 3460 3 MP
PP
-7 -5 978 -422 5066 3460 3 MP
PP
5938 3530 mt 4437 2429 L
4209 3402 mt 6166 2557 L
-8 -6 978 -422 5074 3466 3 MP
PP
978 -422 -8 -6 5074 3466 3 MP
PP
-8 -6 978 -422 5059 3455 3 MP
PP
978 -422 -8 -6 5059 3455 3 MP
PP
-7 -5 978 -422 5051 3449 3 MP
PP
978 -422 -7 -5 5051 3449 3 MP
PP
-7 -6 978 -422 5036 3438 3 MP
PP
978 -423 -7 -5 5036 3438 3 MP
PP
-7 -6 978 -422 5021 3427 3 MP
PP
978 -423 -7 -5 5021 3427 3 MP
PP
-8 -5 978 -423 4999 3411 3 MP
PP
978 -422 -8 -6 4999 3411 3 MP
PP
-8 -5 978 -423 4984 3400 3 MP
PP
978 -422 -8 -6 4984 3400 3 MP
PP
-8 -5 978 -423 4969 3389 3 MP
PP
978 -422 -8 -6 4969 3389 3 MP
PP
5938 3530 mt 5938 3530 L
978 -423 -7 -5 4961 3383 3 MP
PP
-8 -5 978 -423 4939 3367 3 MP
PP
978 -422 -8 -6 4939 3367 3 MP
PP
-7 -6 978 -422 4916 3350 3 MP
PP
978 -423 -7 -5 4916 3350 3 MP
PP
-8 -5 978 -423 4909 3345 3 MP
PP
978 -422 -8 -6 4909 3345 3 MP
PP
-7 -6 978 -422 4901 3339 3 MP
PP
978 -423 -7 -5 4901 3339 3 MP
PP
gr

gs 3459 1037 3458 3110 MR c np
-7 -6 978 -422 4886 3328 3 MP
PP
978 -423 -7 -5 4886 3328 3 MP
PP
-8 -5 978 -423 4879 3323 3 MP
PP
978 -422 -8 -6 4879 3323 3 MP
PP
-7 -6 978 -422 4871 3317 3 MP
PP
978 -423 -7 -5 4871 3317 3 MP
PP
-8 -5 978 -423 4849 3301 3 MP
PP
978 -422 -8 -6 4849 3301 3 MP
PP
-7 -6 978 -422 4826 3284 3 MP
PP
978 -423 -7 -5 4826 3284 3 MP
PP
-8 -5 978 -423 4819 3279 3 MP
PP
978 -422 -8 -6 4819 3279 3 MP
PP
-7 -6 978 -422 4811 3273 3 MP
PP
978 -423 -7 -5 4811 3273 3 MP
PP
-7 -6 978 -422 4796 3262 3 MP
PP
978 -423 -7 -5 4796 3262 3 MP
PP
-7 -6 978 -422 4766 3240 3 MP
PP
978 -423 -7 -5 4766 3240 3 MP
PP
-8 -5 978 -423 4759 3235 3 MP
PP
978 -422 -8 -6 4759 3235 3 MP
PP
-7 -6 978 -422 4736 3218 3 MP
PP
978 -423 -7 -5 4736 3218 3 MP
PP
-8 -5 978 -423 4729 3213 3 MP
PP
978 -422 -8 -6 4729 3213 3 MP
PP
978 -422 -8 -6 4331 2921 3 MP
PP
-8 -6 978 -422 4331 2921 3 MP
PP
978 -422 -7 -5 4353 2937 3 MP
PP
-7 -5 978 -422 4353 2937 3 MP
PP
978 -423 -8 -5 4391 2965 3 MP
PP
-8 -6 978 -422 4391 2965 3 MP
PP
978 -422 -7 -6 4443 3004 3 MP
PP
-7 -5 978 -423 4443 3004 3 MP
PP
978 -422 -7 -6 4473 3026 3 MP
PP
-7 -5 978 -423 4473 3026 3 MP
PP
978 -422 -7 -6 4488 3037 3 MP
PP
-7 -5 978 -423 4488 3037 3 MP
PP
978 -423 -8 -5 4526 3064 3 MP
PP
-8 -6 978 -422 4526 3064 3 MP
PP
978 -422 -7 -6 4533 3070 3 MP
PP
-7 -5 978 -423 4533 3070 3 MP
PP
978 -422 -7 -6 4563 3092 3 MP
PP
-7 -5 978 -423 4563 3092 3 MP
PP
978 -422 -7 -6 4578 3103 3 MP
PP
-7 -5 978 -423 4578 3103 3 MP
PP
978 -423 -8 -5 4586 3108 3 MP
PP
-8 -6 978 -422 4586 3108 3 MP
PP
978 -422 -7 -6 4593 3114 3 MP
PP
-7 -5 978 -423 4593 3114 3 MP
PP
978 -423 -8 -5 4616 3130 3 MP
PP
-8 -6 978 -422 4616 3130 3 MP
PP
978 -422 -7 -6 4653 3158 3 MP
PP
-7 -5 978 -423 4653 3158 3 MP
PP
978 -422 -7 -6 4668 3169 3 MP
PP
-7 -5 978 -423 4668 3169 3 MP
PP
978 -423 -8 -5 4676 3174 3 MP
PP
-8 -6 978 -422 4676 3174 3 MP
PP
978 -422 -7 -6 4683 3180 3 MP
PP
-8 -5 979 -423 4683 3180 3 MP
PP
4698 2706 4691 3185 5669 2763 999 0 0 itg
4698 2706 5677 2283 5669 2763 999 999 0 itg
5188 2979 mt 5188 2010 L
5188 2979 mt 5188 2979 L
4706 3196 5684 2774 5677 2283 0 0 999 itg
4706 3196 4698 2706 5677 2283 0 999 999 itg
gr

%%IncludeResource: font Symbol
/Symbol /ISOLatin1Encoding 192 FMSR

5006 1691 mt 
(d) s
%%IncludeResource: font Times-Roman
/Times-Roman /ISOLatin1Encoding 192 FMSR

5100 1691 mt 
( \(u\)) s
4362 2440 mt 
(v) s
gs 3459 1037 3458 3110 MR c np
4209 3402 mt 4209 3402 L
gr


end

eplot
%%EndObject

epage
end

showpage

%%Trailer
%%EOF
